[
  {
    "id": 1,
    "galleryId": 80401,
    "LEFBFOLADLM": [
      101,
      102,
      103
    ],
    "IEIOCFINIHE": 253011,
    "groupLinkId": 52380101,
    "FIJDJLOJBIF": 133101058,
    "LEJAPJBIOGI": 253014,
    "openDay": 1,
    "watcherId": 15238001,
    "levelTitleTextMapHash": 1488627617,
    "NGFJHODMDDM": 4077895781,
    "avatarId": 10000025,
    "BGNHMOJMPJF": 800,
    "PHNNIPKMJJE": 4216338068
  },
  {
    "id": 2,
    "galleryId": 80402,
    "LEFBFOLADLM": [
      201,
      202,
      203
    ],
    "IEIOCFINIHE": 288011,
    "groupLinkId": 52380102,
    "FIJDJLOJBIF": 133101128,
    "LEJAPJBIOGI": 288015,
    "openDay": 2,
    "watcherId": 15238002,
    "levelTitleTextMapHash": 1628107961,
    "NGFJHODMDDM": 2830733685,
    "avatarId": 10000046,
    "BGNHMOJMPJF": 2900,
    "PHNNIPKMJJE": 478692932
  },
  {
    "id": 3,
    "galleryId": 80403,
    "LEFBFOLADLM": [
      301,
      302,
      303
    ],
    "IEIOCFINIHE": 257011,
    "groupLinkId": 52380103,
    "FIJDJLOJBIF": 133001255,
    "LEJAPJBIOGI": 257013,
    "openDay": 3,
    "watcherId": 15238003,
    "levelTitleTextMapHash": 3820126105,
    "NGFJHODMDDM": 488404285,
    "avatarId": 10000051,
    "BGNHMOJMPJF": 3200,
    "PHNNIPKMJJE": 3021806108
  },
  {
    "id": 4,
    "galleryId": 80404,
    "LEFBFOLADLM": [
      401,
      402,
      403
    ],
    "IEIOCFINIHE": 198011,
    "groupLinkId": 52380104,
    "FIJDJLOJBIF": 133002197,
    "LEJAPJBIOGI": 198013,
    "openDay": 4,
    "watcherId": 15238004,
    "levelTitleTextMapHash": 884093681,
    "NGFJHODMDDM": 822654221,
    "avatarId": 10000044,
    "BGNHMOJMPJF": 2400,
    "PHNNIPKMJJE": 3977245868
  },
  {
    "id": 5,
    "galleryId": 80405,
    "LEFBFOLADLM": [
      501,
      502,
      503
    ],
    "IEIOCFINIHE": 683004,
    "groupLinkId": 52380105,
    "FIJDJLOJBIF": 133303682,
    "LEJAPJBIOGI": 683020,
    "openDay": 5,
    "watcherId": 15238005,
    "levelTitleTextMapHash": 2721554881,
    "NGFJHODMDDM": 3353192517,
    "avatarId": 10000094,
    "BGNHMOJMPJF": 7900,
    "PHNNIPKMJJE": 3557119132
  },
  {
    "id": 6,
    "galleryId": 80406,
    "LEFBFOLADLM": [
      601,
      602,
      603
    ],
    "IEIOCFINIHE": 629004,
    "groupLinkId": 52380106,
    "FIJDJLOJBIF": 133310628,
    "LEJAPJBIOGI": 629019,
    "openDay": 6,
    "watcherId": 15238006,
    "levelTitleTextMapHash": 3953361809,
    "NGFJHODMDDM": 166459301,
    "avatarId": 10000097,
    "BGNHMOJMPJF": 8200,
    "PHNNIPKMJJE": 3761665076
  }
]