[
  {
    "HGBMHHCFBMC": 374740,
    "weight": 1,
    "BCAGBJCGBAN": [
      1
    ],
    "configID": 10120,
    "nameTextMapHash": 2370286617,
    "descTextMapHash": 389268241,
    "modelPath": "SceneObj_Homeworld_Exterior_Common_Prop_Thing_FairyTalesCapsuleToys_01",
    "EJINNGFOLEJ": "ART/UI/Atlas/Activity/FairyTales/CapsuleToys/UI_Icon_FairyTalesCapsuleToys_Settle_01"
  },
  {
    "HGBMHHCFBMC": 374741,
    "weight": 1,
    "BCAGBJCGBAN": [
      1
    ],
    "configID": 10121,
    "nameTextMapHash": 2693312617,
    "descTextMapHash": 90007889,
    "modelPath": "SceneObj_Homeworld_Exterior_Common_Prop_Thing_FairyTalesCapsuleToys_02",
    "EJINNGFOLEJ": "ART/UI/Atlas/Activity/FairyTales/CapsuleToys/UI_Icon_FairyTalesCapsuleToys_Settle_02"
  },
  {
    "HGBMHHCFBMC": 374742,
    "weight": 1,
    "BCAGBJCGBAN": [
      1
    ],
    "configID": 10122,
    "nameTextMapHash": 677029705,
    "descTextMapHash": 1985668849,
    "modelPath": "SceneObj_Homeworld_Exterior_Common_Prop_Thing_FairyTalesCapsuleToys_03",
    "EJINNGFOLEJ": "ART/UI/Atlas/Activity/FairyTales/CapsuleToys/UI_Icon_FairyTalesCapsuleToys_Settle_03"
  },
  {
    "HGBMHHCFBMC": 374743,
    "weight": 1,
    "BCAGBJCGBAN": [
      1
    ],
    "configID": 10123,
    "nameTextMapHash": 1844937129,
    "descTextMapHash": 3184183713,
    "modelPath": "SceneObj_Homeworld_Exterior_Common_Prop_Thing_FairyTalesCapsuleToys_04",
    "EJINNGFOLEJ": "ART/UI/Atlas/Activity/FairyTales/CapsuleToys/UI_Icon_FairyTalesCapsuleToys_Settle_04"
  },
  {
    "HGBMHHCFBMC": 374744,
    "weight": 1,
    "BCAGBJCGBAN": [
      1
    ],
    "configID": 10124,
    "nameTextMapHash": 2221123769,
    "descTextMapHash": 179293841,
    "modelPath": "SceneObj_Homeworld_Exterior_Common_Prop_Thing_FairyTalesCapsuleToys_05",
    "EJINNGFOLEJ": "ART/UI/Atlas/Activity/FairyTales/CapsuleToys/UI_Icon_FairyTalesCapsuleToys_Settle_05"
  },
  {
    "HGBMHHCFBMC": 374745,
    "weight": 1,
    "BCAGBJCGBAN": [
      1
    ],
    "configID": 10125,
    "nameTextMapHash": 1047853985,
    "descTextMapHash": 1753304945,
    "modelPath": "SceneObj_Homeworld_Exterior_Common_Prop_Thing_FairyTalesCapsuleToys_06",
    "EJINNGFOLEJ": "ART/UI/Atlas/Activity/FairyTales/CapsuleToys/UI_Icon_FairyTalesCapsuleToys_Settle_06"
  },
  {
    "HGBMHHCFBMC": 374746,
    "weight": 1,
    "BCAGBJCGBAN": [
      1
    ],
    "configID": 10126,
    "nameTextMapHash": 2536257081,
    "descTextMapHash": 1637319769,
    "modelPath": "SceneObj_Homeworld_Exterior_Common_Prop_Thing_FairyTalesCapsuleToys_07",
    "EJINNGFOLEJ": "ART/UI/Atlas/Activity/FairyTales/CapsuleToys/UI_Icon_FairyTalesCapsuleToys_Settle_07"
  },
  {
    "HGBMHHCFBMC": 374747,
    "weight": 1,
    "BCAGBJCGBAN": [
      1
    ],
    "configID": 10127,
    "nameTextMapHash": 3704474009,
    "descTextMapHash": 6367929,
    "modelPath": "SceneObj_Homeworld_Exterior_Common_Prop_Thing_FairyTalesCapsuleToys_08",
    "EJINNGFOLEJ": "ART/UI/Atlas/Activity/FairyTales/CapsuleToys/UI_Icon_FairyTalesCapsuleToys_Settle_08"
  },
  {
    "HGBMHHCFBMC": 374748,
    "weight": 1,
    "BCAGBJCGBAN": [
      1
    ],
    "configID": 10128,
    "nameTextMapHash": 101511449,
    "descTextMapHash": 2529710633,
    "modelPath": "SceneObj_Homeworld_Exterior_Common_Prop_Thing_FairyTalesCapsuleToys_09",
    "EJINNGFOLEJ": "ART/UI/Atlas/Activity/FairyTales/CapsuleToys/UI_Icon_FairyTalesCapsuleToys_Settle_09"
  },
  {
    "HGBMHHCFBMC": 374749,
    "weight": 1,
    "BCAGBJCGBAN": [
      1
    ],
    "configID": 10129,
    "nameTextMapHash": 2159490609,
    "descTextMapHash": 630360809,
    "modelPath": "SceneObj_Homeworld_Exterior_Common_Prop_Thing_FairyTalesCapsuleToys_10",
    "EJINNGFOLEJ": "ART/UI/Atlas/Activity/FairyTales/CapsuleToys/UI_Icon_FairyTalesCapsuleToys_Settle_10"
  },
  {
    "HGBMHHCFBMC": 374750,
    "weight": 1,
    "BCAGBJCGBAN": [
      1
    ],
    "configID": 10130,
    "nameTextMapHash": 4278495505,
    "descTextMapHash": 3253559417,
    "modelPath": "SceneObj_Homeworld_Exterior_Common_Prop_Thing_FairyTalesCapsuleToys_11",
    "EJINNGFOLEJ": "ART/UI/Atlas/Activity/FairyTales/CapsuleToys/UI_Icon_FairyTalesCapsuleToys_Settle_11"
  },
  {
    "HGBMHHCFBMC": 374751,
    "weight": 1,
    "BCAGBJCGBAN": [
      1
    ],
    "configID": 10131,
    "nameTextMapHash": 3144015689,
    "descTextMapHash": 467478297,
    "modelPath": "SceneObj_Homeworld_Exterior_Common_Prop_Thing_FairyTalesCapsuleToys_12",
    "EJINNGFOLEJ": "ART/UI/Atlas/Activity/FairyTales/CapsuleToys/UI_Icon_FairyTalesCapsuleToys_Settle_12"
  },
  {
    "HGBMHHCFBMC": 374752,
    "weight": 1,
    "BCAGBJCGBAN": [
      1
    ],
    "configID": 10132,
    "nameTextMapHash": 3641553409,
    "descTextMapHash": 1509882081,
    "modelPath": "SceneObj_Homeworld_Exterior_Common_Prop_Thing_FairyTalesCapsuleToys_13",
    "EJINNGFOLEJ": "ART/UI/Atlas/Activity/FairyTales/CapsuleToys/UI_Icon_FairyTalesCapsuleToys_Settle_13"
  },
  {
    "HGBMHHCFBMC": 374753,
    "weight": 1,
    "BCAGBJCGBAN": [
      2
    ],
    "configID": 10133,
    "nameTextMapHash": 3239231201,
    "descTextMapHash": 4233585009,
    "modelPath": "SceneObj_Homeworld_Exterior_Common_Prop_Thing_FairyTalesCapsuleToys_14",
    "EJINNGFOLEJ": "ART/UI/Atlas/Activity/FairyTales/CapsuleToys/UI_Icon_FairyTalesCapsuleToys_Settle_14"
  },
  {
    "HGBMHHCFBMC": 374754,
    "weight": 1,
    "BCAGBJCGBAN": [
      2
    ],
    "configID": 10134,
    "nameTextMapHash": 3122390473,
    "descTextMapHash": 1058846905,
    "modelPath": "SceneObj_Homeworld_Exterior_Common_Prop_Thing_FairyTalesCapsuleToys_15",
    "EJINNGFOLEJ": "ART/UI/Atlas/Activity/FairyTales/CapsuleToys/UI_Icon_FairyTalesCapsuleToys_Settle_15"
  },
  {
    "HGBMHHCFBMC": 374755,
    "weight": 1,
    "BCAGBJCGBAN": [
      2
    ],
    "configID": 10135,
    "nameTextMapHash": 3921587209,
    "descTextMapHash": 723214737,
    "modelPath": "SceneObj_Homeworld_Exterior_Common_Prop_Thing_FairyTalesCapsuleToys_16",
    "EJINNGFOLEJ": "ART/UI/Atlas/Activity/FairyTales/CapsuleToys/UI_Icon_FairyTalesCapsuleToys_Settle_16"
  },
  {
    "HGBMHHCFBMC": 374756,
    "weight": 1,
    "BCAGBJCGBAN": [
      2
    ],
    "configID": 10136,
    "nameTextMapHash": 604073489,
    "descTextMapHash": 1407549121,
    "modelPath": "SceneObj_Homeworld_Exterior_Common_Prop_Thing_FairyTalesCapsuleToys_17",
    "EJINNGFOLEJ": "ART/UI/Atlas/Activity/FairyTales/CapsuleToys/UI_Icon_FairyTalesCapsuleToys_Settle_17"
  },
  {
    "HGBMHHCFBMC": 374757,
    "weight": 1,
    "BCAGBJCGBAN": [
      2
    ],
    "configID": 10137,
    "nameTextMapHash": 342355625,
    "descTextMapHash": 1587457561,
    "modelPath": "SceneObj_Homeworld_Exterior_Common_Prop_Thing_FairyTalesCapsuleToys_18",
    "EJINNGFOLEJ": "ART/UI/Atlas/Activity/FairyTales/CapsuleToys/UI_Icon_FairyTalesCapsuleToys_Settle_18"
  },
  {
    "HGBMHHCFBMC": 374758,
    "weight": 1,
    "BCAGBJCGBAN": [
      2
    ],
    "configID": 10138,
    "nameTextMapHash": 3801492449,
    "descTextMapHash": 606781009,
    "modelPath": "SceneObj_Homeworld_Exterior_Common_Prop_Thing_FairyTalesCapsuleToys_19",
    "EJINNGFOLEJ": "ART/UI/Atlas/Activity/FairyTales/CapsuleToys/UI_Icon_FairyTalesCapsuleToys_Settle_19"
  },
  {
    "HGBMHHCFBMC": 374759,
    "weight": 1,
    "BCAGBJCGBAN": [
      2
    ],
    "configID": 10139,
    "nameTextMapHash": 2636940065,
    "descTextMapHash": 2985230793,
    "modelPath": "SceneObj_Homeworld_Exterior_Common_Prop_Thing_FairyTalesCapsuleToys_20",
    "EJINNGFOLEJ": "ART/UI/Atlas/Activity/FairyTales/CapsuleToys/UI_Icon_FairyTalesCapsuleToys_Settle_20"
  },
  {
    "HGBMHHCFBMC": 374760,
    "weight": 1,
    "BCAGBJCGBAN": [
      2
    ],
    "configID": 10140,
    "nameTextMapHash": 3575831505,
    "descTextMapHash": 3512074377,
    "modelPath": "SceneObj_Homeworld_Exterior_Common_Prop_Thing_FairyTalesCapsuleToys_21",
    "EJINNGFOLEJ": "ART/UI/Atlas/Activity/FairyTales/CapsuleToys/UI_Icon_FairyTalesCapsuleToys_Settle_21"
  },
  {
    "HGBMHHCFBMC": 374761,
    "weight": 1,
    "BCAGBJCGBAN": [
      2
    ],
    "configID": 10141,
    "nameTextMapHash": 1504541529,
    "descTextMapHash": 1333250105,
    "modelPath": "SceneObj_Homeworld_Exterior_Common_Prop_Thing_FairyTalesCapsuleToys_22",
    "EJINNGFOLEJ": "ART/UI/Atlas/Activity/FairyTales/CapsuleToys/UI_Icon_FairyTalesCapsuleToys_Settle_22"
  },
  {
    "HGBMHHCFBMC": 374762,
    "weight": 1,
    "BCAGBJCGBAN": [
      2
    ],
    "configID": 10142,
    "nameTextMapHash": 3718235329,
    "descTextMapHash": 580048817,
    "modelPath": "SceneObj_Homeworld_Exterior_Common_Prop_Thing_FairyTalesCapsuleToys_23",
    "EJINNGFOLEJ": "ART/UI/Atlas/Activity/FairyTales/CapsuleToys/UI_Icon_FairyTalesCapsuleToys_Settle_23"
  },
  {
    "HGBMHHCFBMC": 374763,
    "weight": 1,
    "BCAGBJCGBAN": [
      2
    ],
    "configID": 10143,
    "nameTextMapHash": 3268703433,
    "descTextMapHash": 1694009105,
    "modelPath": "SceneObj_Homeworld_Exterior_Common_Prop_Thing_FairyTalesCapsuleToys_24",
    "EJINNGFOLEJ": "ART/UI/Atlas/Activity/FairyTales/CapsuleToys/UI_Icon_FairyTalesCapsuleToys_Settle_24"
  },
  {
    "HGBMHHCFBMC": 374764,
    "weight": 1,
    "BCAGBJCGBAN": [
      2
    ],
    "configID": 10144,
    "nameTextMapHash": 733996281,
    "descTextMapHash": 3515410529,
    "modelPath": "SceneObj_Homeworld_Exterior_Common_Prop_Thing_FairyTalesCapsuleToys_25",
    "EJINNGFOLEJ": "ART/UI/Atlas/Activity/FairyTales/CapsuleToys/UI_Icon_FairyTalesCapsuleToys_Settle_25"
  },
  {
    "HGBMHHCFBMC": 374765,
    "weight": 1,
    "BCAGBJCGBAN": [
      2
    ],
    "configID": 10145,
    "nameTextMapHash": 439347841,
    "descTextMapHash": 846205809,
    "modelPath": "SceneObj_Homeworld_Exterior_Common_Prop_Thing_FairyTalesCapsuleToys_26",
    "EJINNGFOLEJ": "ART/UI/Atlas/Activity/FairyTales/CapsuleToys/UI_Icon_FairyTalesCapsuleToys_Settle_26"
  },
  {
    "HGBMHHCFBMC": 374766,
    "weight": 1,
    "BCAGBJCGBAN": [
      3
    ],
    "configID": 10146,
    "nameTextMapHash": 3184810857,
    "descTextMapHash": 755640129,
    "modelPath": "SceneObj_Homeworld_Exterior_Common_Prop_Thing_FairyTalesCapsuleToys_27",
    "EJINNGFOLEJ": "ART/UI/Atlas/Activity/FairyTales/CapsuleToys/UI_Icon_FairyTalesCapsuleToys_Settle_27"
  },
  {
    "HGBMHHCFBMC": 374767,
    "weight": 1,
    "BCAGBJCGBAN": [
      3
    ],
    "configID": 10147,
    "nameTextMapHash": 1401892601,
    "descTextMapHash": 1499966297,
    "modelPath": "SceneObj_Homeworld_Exterior_Common_Prop_Thing_FairyTalesCapsuleToys_28",
    "EJINNGFOLEJ": "ART/UI/Atlas/Activity/FairyTales/CapsuleToys/UI_Icon_FairyTalesCapsuleToys_Settle_28"
  },
  {
    "HGBMHHCFBMC": 374768,
    "weight": 1,
    "BCAGBJCGBAN": [
      3
    ],
    "configID": 10148,
    "nameTextMapHash": 2801331873,
    "descTextMapHash": 2672399169,
    "modelPath": "SceneObj_Homeworld_Exterior_Common_Prop_Thing_FairyTalesCapsuleToys_29",
    "EJINNGFOLEJ": "ART/UI/Atlas/Activity/FairyTales/CapsuleToys/UI_Icon_FairyTalesCapsuleToys_Settle_29"
  },
  {
    "HGBMHHCFBMC": 374769,
    "weight": 1,
    "BCAGBJCGBAN": [
      3
    ],
    "configID": 10149,
    "nameTextMapHash": 2359088705,
    "descTextMapHash": 3364892417,
    "modelPath": "SceneObj_Homeworld_Exterior_Common_Prop_Thing_FairyTalesCapsuleToys_30",
    "EJINNGFOLEJ": "ART/UI/Atlas/Activity/FairyTales/CapsuleToys/UI_Icon_FairyTalesCapsuleToys_Settle_30"
  },
  {
    "HGBMHHCFBMC": 374770,
    "weight": 1,
    "BCAGBJCGBAN": [
      3
    ],
    "configID": 10150,
    "nameTextMapHash": 2695772369,
    "descTextMapHash": 1466591961,
    "modelPath": "SceneObj_Homeworld_Exterior_Common_Prop_Thing_FairyTalesCapsuleToys_31",
    "EJINNGFOLEJ": "ART/UI/Atlas/Activity/FairyTales/CapsuleToys/UI_Icon_FairyTalesCapsuleToys_Settle_31"
  },
  {
    "HGBMHHCFBMC": 374771,
    "weight": 1,
    "BCAGBJCGBAN": [
      3
    ],
    "configID": 10151,
    "nameTextMapHash": 1543044729,
    "descTextMapHash": 2898905225,
    "modelPath": "SceneObj_Homeworld_Exterior_Common_Prop_Thing_FairyTalesCapsuleToys_32",
    "EJINNGFOLEJ": "ART/UI/Atlas/Activity/FairyTales/CapsuleToys/UI_Icon_FairyTalesCapsuleToys_Settle_32"
  },
  {
    "HGBMHHCFBMC": 374772,
    "weight": 1,
    "BCAGBJCGBAN": [
      3
    ],
    "configID": 10152,
    "nameTextMapHash": 1482451209,
    "descTextMapHash": 3592487289,
    "modelPath": "SceneObj_Homeworld_Exterior_Common_Prop_Thing_FairyTalesCapsuleToys_33",
    "EJINNGFOLEJ": "ART/UI/Atlas/Activity/FairyTales/CapsuleToys/UI_Icon_FairyTalesCapsuleToys_Settle_33"
  },
  {
    "HGBMHHCFBMC": 374773,
    "weight": 1,
    "BCAGBJCGBAN": [
      3
    ],
    "configID": 10153,
    "nameTextMapHash": 3724203585,
    "descTextMapHash": 1532793385,
    "modelPath": "SceneObj_Homeworld_Exterior_Common_Prop_Thing_FairyTalesCapsuleToys_34",
    "EJINNGFOLEJ": "ART/UI/Atlas/Activity/FairyTales/CapsuleToys/UI_Icon_FairyTalesCapsuleToys_Settle_34"
  },
  {
    "HGBMHHCFBMC": 374774,
    "weight": 1,
    "BCAGBJCGBAN": [
      3
    ],
    "configID": 10154,
    "nameTextMapHash": 2982586681,
    "descTextMapHash": 952684465,
    "modelPath": "SceneObj_Homeworld_Exterior_Common_Prop_Thing_FairyTalesCapsuleToys_35",
    "EJINNGFOLEJ": "ART/UI/Atlas/Activity/FairyTales/CapsuleToys/UI_Icon_FairyTalesCapsuleToys_Settle_35"
  },
  {
    "HGBMHHCFBMC": 374775,
    "weight": 1,
    "BCAGBJCGBAN": [
      3
    ],
    "configID": 10155,
    "nameTextMapHash": 3799479209,
    "descTextMapHash": 2725349745,
    "modelPath": "SceneObj_Homeworld_Exterior_Common_Prop_Thing_FairyTalesCapsuleToys_36",
    "EJINNGFOLEJ": "ART/UI/Atlas/Activity/FairyTales/CapsuleToys/UI_Icon_FairyTalesCapsuleToys_Settle_36"
  },
  {
    "HGBMHHCFBMC": 374776,
    "weight": 1,
    "BCAGBJCGBAN": [
      3
    ],
    "configID": 10156,
    "nameTextMapHash": 3598077833,
    "descTextMapHash": 2673576913,
    "modelPath": "SceneObj_Homeworld_Exterior_Common_Prop_Thing_FairyTalesCapsuleToys_37",
    "EJINNGFOLEJ": "ART/UI/Atlas/Activity/FairyTales/CapsuleToys/UI_Icon_FairyTalesCapsuleToys_Settle_37"
  },
  {
    "HGBMHHCFBMC": 374777,
    "weight": 1,
    "BCAGBJCGBAN": [
      3
    ],
    "configID": 10157,
    "nameTextMapHash": 566760177,
    "descTextMapHash": 1266602657,
    "modelPath": "SceneObj_Homeworld_Exterior_Common_Prop_Thing_FairyTalesCapsuleToys_38",
    "EJINNGFOLEJ": "ART/UI/Atlas/Activity/FairyTales/CapsuleToys/UI_Icon_FairyTalesCapsuleToys_Settle_38"
  },
  {
    "HGBMHHCFBMC": 374778,
    "weight": 1,
    "BCAGBJCGBAN": [
      3
    ],
    "configID": 10158,
    "nameTextMapHash": 1209151641,
    "descTextMapHash": 2100965217,
    "modelPath": "SceneObj_Homeworld_Exterior_Common_Prop_Thing_FairyTalesCapsuleToys_39",
    "EJINNGFOLEJ": "ART/UI/Atlas/Activity/FairyTales/CapsuleToys/UI_Icon_FairyTalesCapsuleToys_Settle_39"
  }
]