[
  {
    "id": 1,
    "challengeId": 1001,
    "watcherId": 1514801
  },
  {
    "id": 2,
    "challengeId": 1001,
    "watcherId": 1514802
  },
  {
    "id": 3,
    "challengeId": 1001,
    "watcherId": 1514803
  },
  {
    "id": 4,
    "challengeId": 1002,
    "watcherId": 1514811
  },
  {
    "id": 5,
    "challengeId": 1002,
    "watcherId": 1514812
  },
  {
    "id": 6,
    "challengeId": 1002,
    "watcherId": 1514813
  },
  {
    "id": 7,
    "challengeId": 1003,
    "watcherId": 1514821
  },
  {
    "id": 8,
    "challengeId": 1003,
    "watcherId": 1514822
  },
  {
    "id": 9,
    "challengeId": 1003,
    "watcherId": 1514823
  },
  {
    "id": 10,
    "challengeId": 1004,
    "watcherId": 1514831
  },
  {
    "id": 11,
    "challengeId": 1004,
    "watcherId": 1514832
  },
  {
    "id": 12,
    "challengeId": 1004,
    "watcherId": 1514833
  },
  {
    "id": 13,
    "challengeId": 1011,
    "watcherId": 15148001
  },
  {
    "id": 14,
    "challengeId": 1011,
    "watcherId": 15148002
  },
  {
    "id": 15,
    "challengeId": 1011,
    "watcherId": 15148003
  },
  {
    "id": 16,
    "challengeId": 1012,
    "watcherId": 15148004
  },
  {
    "id": 17,
    "challengeId": 1012,
    "watcherId": 15148005
  },
  {
    "id": 18,
    "challengeId": 1012,
    "watcherId": 15148006
  },
  {
    "id": 19,
    "challengeId": 1013,
    "watcherId": 15148007
  },
  {
    "id": 20,
    "challengeId": 1013,
    "watcherId": 15148008
  },
  {
    "id": 21,
    "challengeId": 1013,
    "watcherId": 15148009
  },
  {
    "id": 22,
    "challengeId": 1014,
    "watcherId": 15148010
  },
  {
    "id": 23,
    "challengeId": 1014,
    "watcherId": 15148011
  },
  {
    "id": 24,
    "challengeId": 1014,
    "watcherId": 15148012
  },
  {
    "id": 25,
    "challengeId": 1021,
    "watcherId": 15148021
  },
  {
    "id": 26,
    "challengeId": 1021,
    "watcherId": 15148022
  },
  {
    "id": 27,
    "challengeId": 1021,
    "watcherId": 15148023
  },
  {
    "id": 28,
    "challengeId": 1022,
    "watcherId": 15148024
  },
  {
    "id": 29,
    "challengeId": 1022,
    "watcherId": 15148025
  },
  {
    "id": 30,
    "challengeId": 1022,
    "watcherId": 15148026
  },
  {
    "id": 31,
    "challengeId": 1023,
    "watcherId": 15148027
  },
  {
    "id": 32,
    "challengeId": 1023,
    "watcherId": 15148028
  },
  {
    "id": 33,
    "challengeId": 1023,
    "watcherId": 15148029
  },
  {
    "id": 34,
    "challengeId": 1024,
    "watcherId": 15148030
  },
  {
    "id": 35,
    "challengeId": 1024,
    "watcherId": 15148031
  },
  {
    "id": 36,
    "challengeId": 1024,
    "watcherId": 15148032
  },
  {
    "id": 37,
    "challengeId": 1031,
    "watcherId": 15148041
  },
  {
    "id": 38,
    "challengeId": 1031,
    "watcherId": 15148042
  },
  {
    "id": 39,
    "challengeId": 1031,
    "watcherId": 15148043
  },
  {
    "id": 40,
    "challengeId": 1032,
    "watcherId": 15148044
  },
  {
    "id": 41,
    "challengeId": 1032,
    "watcherId": 15148045
  },
  {
    "id": 42,
    "challengeId": 1032,
    "watcherId": 15148046
  },
  {
    "id": 43,
    "challengeId": 1033,
    "watcherId": 15148047
  },
  {
    "id": 44,
    "challengeId": 1033,
    "watcherId": 15148048
  },
  {
    "id": 45,
    "challengeId": 1033,
    "watcherId": 15148049
  },
  {
    "id": 46,
    "challengeId": 1034,
    "watcherId": 15148050
  },
  {
    "id": 47,
    "challengeId": 1034,
    "watcherId": 15148051
  },
  {
    "id": 48,
    "challengeId": 1034,
    "watcherId": 15148052
  },
  {
    "id": 49,
    "challengeId": 1041,
    "watcherId": 15148061
  },
  {
    "id": 50,
    "challengeId": 1041,
    "watcherId": 15148062
  },
  {
    "id": 51,
    "challengeId": 1041,
    "watcherId": 15148063
  },
  {
    "id": 52,
    "challengeId": 1042,
    "watcherId": 15148064
  },
  {
    "id": 53,
    "challengeId": 1042,
    "watcherId": 15148065
  },
  {
    "id": 54,
    "challengeId": 1042,
    "watcherId": 15148066
  },
  {
    "id": 55,
    "challengeId": 1043,
    "watcherId": 15148067
  },
  {
    "id": 56,
    "challengeId": 1043,
    "watcherId": 15148068
  },
  {
    "id": 57,
    "challengeId": 1043,
    "watcherId": 15148069
  },
  {
    "id": 58,
    "challengeId": 1044,
    "watcherId": 15148070
  },
  {
    "id": 59,
    "challengeId": 1044,
    "watcherId": 15148071
  },
  {
    "id": 60,
    "challengeId": 1044,
    "watcherId": 15148072
  }
]