[
  {
    "id": 1,
    "openDayIndex": 1,
    "fetterIncCntLimit": 3,
    "materialIdList": [
      100022,
      100021,
      100016
    ],
    "materialNumList": [
      1,
      1,
      1
    ],
    "materialOrderList": [
      100016,
      100022,
      100021
    ],
    "nameTextMapHash": 3525292987,
    "descTextMapHash": 1870420608,
    "speed": 400,
    "times": 7,
    "clickNum": 2,
    "clickZone": [
      110,
      130
    ],
    "watcherId": 15125011
  },
  {
    "id": 2,
    "openDayIndex": 2,
    "fetterIncCntLimit": 6,
    "materialIdList": [
      100077,
      100076,
      100078
    ],
    "materialNumList": [
      1,
      2,
      1
    ],
    "materialOrderList": [
      100077,
      100076,
      100078,
      100076
    ],
    "nameTextMapHash": 3673086795,
    "descTextMapHash": 298304280,
    "speed": 400,
    "times": 7,
    "clickNum": 2,
    "clickZone": [
      110,
      130
    ],
    "watcherId": 15125012
  },
  {
    "id": 3,
    "openDayIndex": 3,
    "fetterIncCntLimit": 9,
    "materialIdList": [
      100020,
      100015,
      100016
    ],
    "materialNumList": [
      1,
      1,
      2
    ],
    "materialOrderList": [
      100020,
      100016,
      100015,
      100016
    ],
    "nameTextMapHash": 545802003,
    "descTextMapHash": 467760952,
    "speed": 400,
    "times": 7,
    "clickNum": 3,
    "clickZone": [
      100,
      120
    ],
    "watcherId": 15125013
  },
  {
    "id": 4,
    "openDayIndex": 4,
    "fetterIncCntLimit": 12,
    "materialIdList": [
      100055,
      100057,
      100016
    ],
    "materialNumList": [
      1,
      2,
      2
    ],
    "materialOrderList": [
      100057,
      100055,
      100016,
      100057,
      100016
    ],
    "nameTextMapHash": 232739563,
    "descTextMapHash": 2310127776,
    "speed": 400,
    "times": 7,
    "clickNum": 3,
    "clickZone": [
      100,
      120
    ],
    "watcherId": 15125014
  },
  {
    "id": 5,
    "openDayIndex": 5,
    "fetterIncCntLimit": 15,
    "materialIdList": [
      100055,
      100021,
      100077
    ],
    "materialNumList": [
      2,
      1,
      2
    ],
    "materialOrderList": [
      100077,
      100077,
      100055,
      100021,
      100055
    ],
    "nameTextMapHash": 2382072091,
    "descTextMapHash": 3782867624,
    "speed": 400,
    "times": 7,
    "clickNum": 4,
    "clickZone": [
      90,
      110
    ],
    "watcherId": 15125015
  },
  {
    "id": 6,
    "openDayIndex": 6,
    "fetterIncCntLimit": 18,
    "materialIdList": [
      100076,
      100057,
      110004
    ],
    "materialNumList": [
      3,
      2,
      1
    ],
    "materialOrderList": [
      110004,
      100076,
      100057,
      100076,
      100057,
      100076
    ],
    "nameTextMapHash": 2491925251,
    "descTextMapHash": 1800552600,
    "speed": 400,
    "times": 7,
    "clickNum": 4,
    "clickZone": [
      90,
      110
    ],
    "watcherId": 15125016
  },
  {
    "id": 7,
    "openDayIndex": 7,
    "fetterIncCntLimit": 21,
    "materialIdList": [
      110002,
      100016,
      100021
    ],
    "materialNumList": [
      1,
      1,
      4
    ],
    "materialOrderList": [
      100021,
      110002,
      100021,
      100016,
      100021,
      100021
    ],
    "nameTextMapHash": 2380693731,
    "descTextMapHash": 3741042336,
    "speed": 400,
    "times": 7,
    "clickNum": 4,
    "clickZone": [
      80,
      100
    ],
    "watcherId": 15125017
  }
]