[
  {
    "stageId": 1,
    "stageType": "STAGE_TYPE_NORMAL",
    "levelList": [
      9,
      11,
      13
    ],
    "dayIndex": 1,
    "stageNameTextMapHash": 2246554330,
    "watcherList": []
  },
  {
    "stageId": 2,
    "stageType": "STAGE_TYPE_NORMAL",
    "levelList": [
      1,
      5,
      15
    ],
    "dayIndex": 2,
    "stageNameTextMapHash": 1467929026,
    "watcherList": []
  },
  {
    "stageId": 3,
    "stageType": "STAGE_TYPE_NORMAL",
    "levelList": [
      4,
      12,
      17
    ],
    "dayIndex": 3,
    "stageNameTextMapHash": 4185100154,
    "watcherList": []
  },
  {
    "stageId": 4,
    "stageType": "STAGE_TYPE_NORMAL",
    "levelList": [
      7,
      10,
      6
    ],
    "dayIndex": 4,
    "stageNameTextMapHash": 1973797482,
    "watcherList": []
  },
  {
    "stageId": 5,
    "stageType": "STAGE_TYPE_RANDOM",
    "levelList": [],
    "dayIndex": 5,
    "stageNameTextMapHash": 2184004626,
    "watcherList": []
  },
  {
    "stageId": 6,
    "stageType": "STAGE_TYPE_NORMAL",
    "levelList": [
      37,
      40,
      31
    ],
    "dayIndex": 1,
    "stageNameTextMapHash": 891489362,
    "watcherList": []
  },
  {
    "stageId": 7,
    "stageType": "STAGE_TYPE_NORMAL",
    "levelList": [
      35,
      39,
      30
    ],
    "dayIndex": 2,
    "stageNameTextMapHash": 1923852442,
    "watcherList": []
  },
  {
    "stageId": 8,
    "stageType": "STAGE_TYPE_NORMAL",
    "levelList": [
      38,
      19,
      25
    ],
    "dayIndex": 3,
    "stageNameTextMapHash": 3647809002,
    "watcherList": []
  },
  {
    "stageId": 9,
    "stageType": "STAGE_TYPE_NORMAL",
    "levelList": [
      36,
      27,
      23
    ],
    "dayIndex": 4,
    "stageNameTextMapHash": 430863634,
    "watcherList": []
  },
  {
    "stageId": 10,
    "stageType": "STAGE_TYPE_RANDOM",
    "levelList": [],
    "dayIndex": 5,
    "stageNameTextMapHash": 697140114,
    "watcherList": []
  },
  {
    "stageId": 11,
    "stageType": "STAGE_TYPE_NORMAL",
    "levelList": [
      41,
      42,
      43
    ],
    "dayIndex": 1,
    "stageNameTextMapHash": 2665107106,
    "watcherList": [
      15232001,
      15232005,
      15232006,
      15232007
    ]
  },
  {
    "stageId": 12,
    "stageType": "STAGE_TYPE_NORMAL",
    "levelList": [
      44,
      45,
      46
    ],
    "dayIndex": 2,
    "stageNameTextMapHash": 3604247618,
    "watcherList": [
      15232002,
      15232008,
      15232009,
      15232010
    ]
  },
  {
    "stageId": 13,
    "stageType": "STAGE_TYPE_NORMAL",
    "levelList": [
      47,
      48,
      49
    ],
    "dayIndex": 3,
    "stageNameTextMapHash": 1433398130,
    "watcherList": [
      15232003,
      15232011,
      15232012,
      15232013
    ]
  },
  {
    "stageId": 14,
    "stageType": "STAGE_TYPE_NORMAL",
    "levelList": [
      50,
      51,
      52
    ],
    "dayIndex": 4,
    "stageNameTextMapHash": 1820489914,
    "watcherList": [
      15232004,
      15232014,
      15232015,
      15232016
    ]
  }
]