[
  {
    "id": 5182001,
    "preQuestId": 73531,
    "BIFKDNNADPI": 1000,
    "DAHKDJIBIBM": 3,
    "PCFANCGDNNO": 1,
    "KHKPBJHCPBC": [
      0.2,
      0.35
    ],
    "activitySkillId": 20095,
    "KCICKHFAGPI": 0.1,
    "NKPOLOPDLHD": 0.1,
    "CLOHKEMDCBO": 0.2,
    "CNCLLFAPLCB": 0.5,
    "CLCOAAFMONP": 0.2,
    "LFIGCPAAFLJ": 0.1,
    "LKIBALJJGOG": 0.8,
    "LIOAFFDGKCF": 0.2,
    "OFEGKKDJPCH": 0.1,
    "HHHJLKCPIBH": 0.8,
    "BKCEEGKDFAL": 3,
    "MLDJHDHCCMJ": "Eff_Activity_AutoTimeStop_Point",
    "HBCCNNALNOE": "Eff_Activity_AutoTimeStop_Link",
    "OGOCIEBCMJO": 0.8,
    "CMHJLBNLIME": "Eff_Activity_AutoTimeStop_Point_AS,Eff_Activity_AutoTimeStop_Point_Absorb,Eff_Activity_AutoTimeStop_Point_Absorb_Link",
    "AOHIGIHAKGK": "Eff_Activity_AutoTimeStop_Link_Terminal",
    "pushTipsId": 13270
  }
]