[
  {
    "id": 1,
    "ALGEFKCGDKD": "UI_JourneyDice_Medal_0",
    "levelNameTextMapHash": 917006781
  },
  {
    "id": 2,
    "PKLHELOFIMK": 1000,
    "ALGEFKCGDKD": "UI_JourneyDice_Medal_1",
    "levelNameTextMapHash": 1199593045
  },
  {
    "id": 3,
    "PKLHELOFIMK": 2000,
    "ALGEFKCGDKD": "UI_JourneyDice_Medal_2",
    "levelNameTextMapHash": 4287811325
  },
  {
    "id": 4,
    "PKLHELOFIMK": 3000,
    "ALGEFKCGDKD": "UI_JourneyDice_Medal_3",
    "levelNameTextMapHash": 3758958493
  },
  {
    "id": 5,
    "PKLHELOFIMK": 4500,
    "ALGEFKCGDKD": "UI_JourneyDice_Medal_4",
    "levelNameTextMapHash": 1081470245
  }
]