[
  {
    "id": 1,
    "groupLinkId": 50680101,
    "posTitleTextMapHash": 2579627204,
    "requireTitleInActivityPageTextMapHash": 3566607544,
    "requireDescInActivityPageTextMapHash": 826544447,
    "npcInviteDescTextMapHash": 4204524807,
    "npcCommentDescTextMapHash": 678648743,
    "picSmall": "UI_ActivityPhotoGraph_Img_PicSmall01",
    "picBig": "UI_ActivityPhotoGraph_Img_PicSmall01",
    "IADGHKGEBEF": "UI_ActivityPhotoGraph_Img_PicSmall01",
    "HFNMFHAAFKI": "UI_ActivityPhotoGraph_Img_PicSmall01",
    "photoCheckRootID": 100310001,
    "rootNodeDescTextMapHash": 3801962532,
    "photoCheckSubNodeID": [
      100320001,
      100320003,
      100320002,
      0
    ],
    "MPMEBGGMLCO": [
      100320001,
      100320003
    ],
    "HEHLFPLNHFL": [
      100320602,
      100320002
    ],
    "photoCheckSubNodeDesc": [
      2460005691,
      1112138405,
      2804116559,
      4105374179
    ],
    "openDay": 1,
    "watcherId": 15068001,
    "galleryId": 18001,
    "redPointID": 9571,
    "presetCheckRootID": 100310001,
    "presetCheckSubID": 100320001,
    "POCPEDOOFCK": 417406282,
    "presetCheckSubDescTextMapHash": 3716031003,
    "GAEJMHINBGJ": [],
    "LEDJHLDMOEA": [],
    "presetPreviewIconGirl": [],
    "presetPreviewIconBoy": [],
    "sceneID": 3
  },
  {
    "id": 2,
    "groupLinkId": 50680102,
    "posTitleTextMapHash": 1861657852,
    "requireTitleInActivityPageTextMapHash": 4012561264,
    "requireDescInActivityPageTextMapHash": 1238499871,
    "npcInviteDescTextMapHash": 3180780447,
    "npcCommentDescTextMapHash": 3357311831,
    "picSmall": "UI_ActivityPhotoGraph_Img_PicSmall02",
    "picBig": "UI_ActivityPhotoGraph_Img_PicSmall02",
    "IADGHKGEBEF": "UI_ActivityPhotoGraph_Img_PicSmall02",
    "HFNMFHAAFKI": "UI_ActivityPhotoGraph_Img_PicSmall02",
    "photoCheckRootID": 100310002,
    "rootNodeDescTextMapHash": 4233621668,
    "photoCheckSubNodeID": [
      100320101,
      100320103,
      100320102,
      0
    ],
    "MPMEBGGMLCO": [],
    "HEHLFPLNHFL": [],
    "photoCheckSubNodeDesc": [
      1318567251,
      475976149,
      2312920167,
      2267897147
    ],
    "openDay": 1,
    "watcherId": 15068002,
    "galleryId": 18002,
    "redPointID": 9572,
    "presetCheckRootID": 100310002,
    "presetCheckSubID": 100320101,
    "POCPEDOOFCK": 3728641818,
    "presetCheckSubDescTextMapHash": 4281468371,
    "GAEJMHINBGJ": [],
    "LEDJHLDMOEA": [],
    "presetPreviewIconGirl": [],
    "presetPreviewIconBoy": [],
    "sceneID": 3
  },
  {
    "id": 3,
    "groupLinkId": 50680103,
    "posTitleTextMapHash": 1507285516,
    "requireTitleInActivityPageTextMapHash": 1524827040,
    "requireDescInActivityPageTextMapHash": 1480906759,
    "npcInviteDescTextMapHash": 2932621591,
    "npcCommentDescTextMapHash": 2491401535,
    "picSmall": "UI_ActivityPhotoGraph_Img_PicSmall03",
    "picBig": "UI_ActivityPhotoGraph_Img_PicSmall03",
    "IADGHKGEBEF": "UI_ActivityPhotoGraph_Img_PicSmall03",
    "HFNMFHAAFKI": "UI_ActivityPhotoGraph_Img_PicSmall03",
    "photoCheckRootID": 100310003,
    "rootNodeDescTextMapHash": 2849500972,
    "photoCheckSubNodeID": [
      100320201,
      100320202,
      100320203,
      0
    ],
    "MPMEBGGMLCO": [],
    "HEHLFPLNHFL": [],
    "photoCheckSubNodeDesc": [
      2098943659,
      1445255293,
      4138431911,
      3313967731
    ],
    "openDay": 2,
    "watcherId": 15068003,
    "galleryId": 18003,
    "redPointID": 9573,
    "presetCheckRootID": 100310003,
    "presetCheckSubID": 100320201,
    "POCPEDOOFCK": 2676365554,
    "presetCheckSubDescTextMapHash": 3745144603,
    "GAEJMHINBGJ": [],
    "LEDJHLDMOEA": [],
    "presetPreviewIconGirl": [],
    "presetPreviewIconBoy": [],
    "sceneID": 3
  },
  {
    "id": 4,
    "groupLinkId": 50680104,
    "posTitleTextMapHash": 1544297900,
    "requireTitleInActivityPageTextMapHash": 4188076928,
    "requireDescInActivityPageTextMapHash": 1745828039,
    "npcInviteDescTextMapHash": 259369087,
    "npcCommentDescTextMapHash": 603228023,
    "picSmall": "UI_ActivityPhotoGraph_Img_PicSmall04",
    "picBig": "UI_ActivityPhotoGraph_Img_PicSmall04",
    "IADGHKGEBEF": "UI_ActivityPhotoGraph_Img_PicSmall04",
    "HFNMFHAAFKI": "UI_ActivityPhotoGraph_Img_PicSmall04",
    "photoCheckRootID": 100310004,
    "rootNodeDescTextMapHash": 3858348444,
    "photoCheckSubNodeID": [
      100320301,
      100320302,
      100320303,
      0
    ],
    "MPMEBGGMLCO": [],
    "HEHLFPLNHFL": [],
    "photoCheckSubNodeDesc": [
      875228579,
      901941061,
      1472349295,
      1504859611
    ],
    "openDay": 2,
    "watcherId": 15068004,
    "galleryId": 18004,
    "redPointID": 9574,
    "presetCheckRootID": 100310004,
    "presetCheckSubID": 100320301,
    "POCPEDOOFCK": 2578595706,
    "presetCheckSubDescTextMapHash": 3463778531,
    "GAEJMHINBGJ": [],
    "LEDJHLDMOEA": [],
    "presetPreviewIconGirl": [],
    "presetPreviewIconBoy": [],
    "sceneID": 3
  },
  {
    "id": 5,
    "groupLinkId": 50680105,
    "posTitleTextMapHash": 1544128732,
    "requireTitleInActivityPageTextMapHash": 2461568856,
    "requireDescInActivityPageTextMapHash": 341381575,
    "npcInviteDescTextMapHash": 1032033591,
    "npcCommentDescTextMapHash": 4219039447,
    "picSmall": "UI_ActivityPhotoGraph_Img_PicSmall05",
    "picBig": "UI_ActivityPhotoGraph_Img_PicSmall05",
    "IADGHKGEBEF": "UI_ActivityPhotoGraph_Img_PicSmall05",
    "HFNMFHAAFKI": "UI_ActivityPhotoGraph_Img_PicSmall05",
    "photoCheckRootID": 100310005,
    "rootNodeDescTextMapHash": 2209893572,
    "photoCheckSubNodeID": [
      100320401,
      100320402,
      0,
      0
    ],
    "MPMEBGGMLCO": [],
    "HEHLFPLNHFL": [],
    "photoCheckSubNodeDesc": [
      203584819,
      1491808181,
      4291487391,
      1508813899
    ],
    "openDay": 3,
    "watcherId": 15068005,
    "galleryId": 18005,
    "redPointID": 9575,
    "presetCheckRootID": 100310005,
    "presetCheckSubID": 100320401,
    "POCPEDOOFCK": 3320088658,
    "presetCheckSubDescTextMapHash": 1794800459,
    "GAEJMHINBGJ": [],
    "LEDJHLDMOEA": [],
    "presetPreviewIconGirl": [],
    "presetPreviewIconBoy": [],
    "sceneID": 3
  },
  {
    "id": 6,
    "groupLinkId": 50680106,
    "posTitleTextMapHash": 1159231948,
    "requireTitleInActivityPageTextMapHash": 1897559584,
    "requireDescInActivityPageTextMapHash": 2000419879,
    "npcInviteDescTextMapHash": 31107391,
    "npcCommentDescTextMapHash": 1118961263,
    "picSmall": "UI_ActivityPhotoGraph_Img_PicSmall06",
    "picBig": "UI_ActivityPhotoGraph_Img_PicSmall06",
    "IADGHKGEBEF": "UI_ActivityPhotoGraph_Img_PicSmall06",
    "HFNMFHAAFKI": "UI_ActivityPhotoGraph_Img_PicSmall06",
    "photoCheckRootID": 100310006,
    "rootNodeDescTextMapHash": 61293772,
    "photoCheckSubNodeID": [
      100320501,
      100320502,
      100320503,
      0
    ],
    "MPMEBGGMLCO": [],
    "HEHLFPLNHFL": [],
    "photoCheckSubNodeDesc": [
      3353684523,
      1060313701,
      2216010063,
      4162190307
    ],
    "openDay": 3,
    "watcherId": 15068006,
    "galleryId": 18006,
    "redPointID": 9576,
    "presetCheckRootID": 100310006,
    "presetCheckSubID": 100320501,
    "POCPEDOOFCK": 1361285418,
    "presetCheckSubDescTextMapHash": 3614787579,
    "GAEJMHINBGJ": [],
    "LEDJHLDMOEA": [],
    "presetPreviewIconGirl": [],
    "presetPreviewIconBoy": [],
    "sceneID": 3
  },
  {
    "id": 7,
    "groupLinkId": 50680107,
    "posTitleTextMapHash": 1008097788,
    "requireTitleInActivityPageTextMapHash": 2905038552,
    "requireDescInActivityPageTextMapHash": 1731122783,
    "npcInviteDescTextMapHash": 259269607,
    "npcCommentDescTextMapHash": 3363150687,
    "picSmall": "UI_ActivityPhotoGraph_Img_PicSmall07",
    "picBig": "UI_ActivityPhotoGraph_Img_PicSmall07",
    "IADGHKGEBEF": "UI_ActivityPhotoGraph_Img_PicSmall07",
    "HFNMFHAAFKI": "UI_ActivityPhotoGraph_Img_PicSmall07",
    "photoCheckRootID": 100310007,
    "rootNodeDescTextMapHash": 1838929548,
    "photoCheckSubNodeID": [
      100320601,
      100320602,
      100320603,
      100320604
    ],
    "MPMEBGGMLCO": [],
    "HEHLFPLNHFL": [],
    "photoCheckSubNodeDesc": [
      2161596163,
      1864514101,
      3123945511,
      4192581027
    ],
    "openDay": 4,
    "watcherId": 15068007,
    "galleryId": 18007,
    "redPointID": 9577,
    "presetCheckRootID": 100310007,
    "presetCheckSubID": 100320601,
    "POCPEDOOFCK": 661706730,
    "presetCheckSubDescTextMapHash": 3646827803,
    "GAEJMHINBGJ": [],
    "LEDJHLDMOEA": [],
    "presetPreviewIconGirl": [],
    "presetPreviewIconBoy": [],
    "sceneID": 3
  },
  {
    "id": 8,
    "groupLinkId": 50680108,
    "posTitleTextMapHash": 1481732196,
    "requireTitleInActivityPageTextMapHash": 3411497480,
    "requireDescInActivityPageTextMapHash": 2396445783,
    "npcInviteDescTextMapHash": 3056700559,
    "npcCommentDescTextMapHash": 4172155015,
    "picSmall": "UI_ActivityPhotoGraph_Img_PicSmall08",
    "picBig": "UI_ActivityPhotoGraph_Img_PicSmall08",
    "IADGHKGEBEF": "UI_ActivityPhotoGraph_Img_PicSmall08",
    "HFNMFHAAFKI": "UI_ActivityPhotoGraph_Img_PicSmall08",
    "photoCheckRootID": 100310008,
    "rootNodeDescTextMapHash": 1268414940,
    "photoCheckSubNodeID": [
      100320701,
      100320702,
      100320703,
      0
    ],
    "MPMEBGGMLCO": [],
    "HEHLFPLNHFL": [],
    "photoCheckSubNodeDesc": [
      407139955,
      1053785925,
      1231365071,
      266556963
    ],
    "openDay": 4,
    "watcherId": 15068008,
    "galleryId": 18008,
    "redPointID": 9578,
    "presetCheckRootID": 100310008,
    "presetCheckSubID": 100320701,
    "POCPEDOOFCK": 665914474,
    "presetCheckSubDescTextMapHash": 2718228547,
    "GAEJMHINBGJ": [],
    "LEDJHLDMOEA": [],
    "presetPreviewIconGirl": [],
    "presetPreviewIconBoy": [],
    "sceneID": 3
  },
  {
    "id": 9,
    "groupLinkId": 50680109,
    "posTitleTextMapHash": 2001646228,
    "requireTitleInActivityPageTextMapHash": 1388335416,
    "requireDescInActivityPageTextMapHash": 1962309399,
    "npcInviteDescTextMapHash": 3830853279,
    "npcCommentDescTextMapHash": 3991394847,
    "picSmall": "UI_ActivityPhotoGraph_Img_PicSmall09",
    "picBig": "UI_ActivityPhotoGraph_Img_PicSmall09",
    "IADGHKGEBEF": "UI_ActivityPhotoGraph_Img_PicSmall09",
    "HFNMFHAAFKI": "UI_ActivityPhotoGraph_Img_PicSmall09",
    "photoCheckRootID": 100310009,
    "rootNodeDescTextMapHash": 759233124,
    "photoCheckSubNodeID": [
      100320801,
      100320802,
      100320803,
      0
    ],
    "MPMEBGGMLCO": [],
    "HEHLFPLNHFL": [],
    "photoCheckSubNodeDesc": [
      724492355,
      1356596917,
      235354311,
      2269298147
    ],
    "openDay": 5,
    "watcherId": 15068009,
    "galleryId": 18009,
    "redPointID": 9579,
    "presetCheckRootID": 100310009,
    "presetCheckSubID": 100320801,
    "POCPEDOOFCK": 3549006090,
    "presetCheckSubDescTextMapHash": 3662874003,
    "GAEJMHINBGJ": [],
    "LEDJHLDMOEA": [],
    "presetPreviewIconGirl": [],
    "presetPreviewIconBoy": [],
    "sceneID": 3
  },
  {
    "id": 10,
    "groupLinkId": 50680110,
    "posTitleTextMapHash": 263727268,
    "requireTitleInActivityPageTextMapHash": 3478590160,
    "requireDescInActivityPageTextMapHash": 852473903,
    "npcInviteDescTextMapHash": 3431998567,
    "npcCommentDescTextMapHash": 1668549951,
    "picSmall": "UI_ActivityPhotoGraph_Img_PicSmall10",
    "picBig": "UI_ActivityPhotoGraph_Img_PicSmall10",
    "IADGHKGEBEF": "UI_ActivityPhotoGraph_Img_PicSmall10",
    "HFNMFHAAFKI": "UI_ActivityPhotoGraph_Img_PicSmall10",
    "photoCheckRootID": 100310010,
    "rootNodeDescTextMapHash": 204137284,
    "photoCheckSubNodeID": [
      100320901,
      100320902,
      100320903,
      100320904
    ],
    "MPMEBGGMLCO": [],
    "HEHLFPLNHFL": [],
    "photoCheckSubNodeDesc": [
      1034180667,
      2630058301,
      3329362255,
      1060155483
    ],
    "openDay": 5,
    "watcherId": 15068010,
    "galleryId": 18010,
    "redPointID": 9580,
    "presetCheckRootID": 100310010,
    "presetCheckSubID": 100320901,
    "POCPEDOOFCK": 1617271850,
    "presetCheckSubDescTextMapHash": 1730666323,
    "GAEJMHINBGJ": [],
    "LEDJHLDMOEA": [],
    "presetPreviewIconGirl": [],
    "presetPreviewIconBoy": [],
    "sceneID": 3
  },
  {
    "id": 11,
    "groupLinkId": 50680111,
    "posTitleTextMapHash": 3973179460,
    "requireTitleInActivityPageTextMapHash": 815722792,
    "requireDescInActivityPageTextMapHash": 170904175,
    "npcInviteDescTextMapHash": 1618060159,
    "npcCommentDescTextMapHash": 3953237639,
    "picSmall": "UI_ActivityPhotoGraph_Img_PicSmall11",
    "picBig": "UI_ActivityPhotoGraph_Img_PicSmall11",
    "IADGHKGEBEF": "UI_ActivityPhotoGraph_Img_PicSmall11",
    "HFNMFHAAFKI": "UI_ActivityPhotoGraph_Img_PicSmall11",
    "photoCheckRootID": 100310011,
    "rootNodeDescTextMapHash": 1769697956,
    "photoCheckSubNodeID": [
      100321001,
      100321002,
      0,
      0
    ],
    "MPMEBGGMLCO": [],
    "HEHLFPLNHFL": [],
    "photoCheckSubNodeDesc": [
      4100851379,
      3412887813,
      2642841927,
      1861492635
    ],
    "openDay": 6,
    "watcherId": 15068011,
    "galleryId": 18011,
    "redPointID": 9581,
    "presetCheckRootID": 100310011,
    "presetCheckSubID": 100321001,
    "POCPEDOOFCK": 2980701842,
    "presetCheckSubDescTextMapHash": 517936523,
    "GAEJMHINBGJ": [],
    "LEDJHLDMOEA": [],
    "presetPreviewIconGirl": [],
    "presetPreviewIconBoy": [],
    "sceneID": 3
  },
  {
    "id": 12,
    "groupLinkId": 50680112,
    "posTitleTextMapHash": 1464619652,
    "requireTitleInActivityPageTextMapHash": 658155184,
    "requireDescInActivityPageTextMapHash": 826647927,
    "npcInviteDescTextMapHash": 999074119,
    "npcCommentDescTextMapHash": 2364178999,
    "picSmall": "UI_ActivityPhotoGraph_Img_PicSmall12",
    "picBig": "UI_ActivityPhotoGraph_Img_PicSmall12",
    "IADGHKGEBEF": "UI_ActivityPhotoGraph_Img_PicSmall12",
    "HFNMFHAAFKI": "UI_ActivityPhotoGraph_Img_PicSmall12",
    "photoCheckRootID": 100310012,
    "rootNodeDescTextMapHash": 3005907996,
    "photoCheckSubNodeID": [
      100321101,
      100321102,
      0,
      0
    ],
    "MPMEBGGMLCO": [],
    "HEHLFPLNHFL": [],
    "photoCheckSubNodeDesc": [
      2615617747,
      3382024045,
      2448081895,
      3390444515
    ],
    "openDay": 6,
    "watcherId": 15068012,
    "galleryId": 18012,
    "redPointID": 9582,
    "presetCheckRootID": 100310012,
    "presetCheckSubID": 100321101,
    "POCPEDOOFCK": 3643351394,
    "presetCheckSubDescTextMapHash": 1088478083,
    "GAEJMHINBGJ": [],
    "LEDJHLDMOEA": [],
    "presetPreviewIconGirl": [],
    "presetPreviewIconBoy": [],
    "sceneID": 3
  },
  {
    "id": 13,
    "groupLinkId": 50680113,
    "posTitleTextMapHash": 970431404,
    "requireTitleInActivityPageTextMapHash": 860150592,
    "requireDescInActivityPageTextMapHash": 2578402631,
    "npcInviteDescTextMapHash": 4128404231,
    "npcCommentDescTextMapHash": 1052985839,
    "picSmall": "UI_ActivityPhotoGraph_Img_PicSmall13",
    "picBig": "UI_ActivityPhotoGraph_Img_PicSmall13",
    "IADGHKGEBEF": "UI_ActivityPhotoGraph_Img_PicSmall13",
    "HFNMFHAAFKI": "UI_ActivityPhotoGraph_Img_PicSmall13",
    "photoCheckRootID": 100310013,
    "rootNodeDescTextMapHash": 1842092964,
    "photoCheckSubNodeID": [
      100321201,
      100321202,
      100321203,
      100321204
    ],
    "MPMEBGGMLCO": [],
    "HEHLFPLNHFL": [],
    "photoCheckSubNodeDesc": [
      1159773451,
      2385445925,
      4158040583,
      3478932579
    ],
    "openDay": 7,
    "watcherId": 15068013,
    "galleryId": 18013,
    "redPointID": 9583,
    "presetCheckRootID": 100310013,
    "presetCheckSubID": 100321201,
    "POCPEDOOFCK": 2109132186,
    "presetCheckSubDescTextMapHash": 1683764179,
    "GAEJMHINBGJ": [],
    "LEDJHLDMOEA": [],
    "presetPreviewIconGirl": [],
    "presetPreviewIconBoy": [],
    "sceneID": 3
  },
  {
    "id": 14,
    "groupLinkId": 50680114,
    "posTitleTextMapHash": 15301068,
    "requireTitleInActivityPageTextMapHash": 3613288616,
    "requireDescInActivityPageTextMapHash": 3288211895,
    "npcInviteDescTextMapHash": 1266794567,
    "npcCommentDescTextMapHash": 2247183807,
    "picSmall": "UI_ActivityPhotoGraph_Img_PicSmall14",
    "picBig": "UI_ActivityPhotoGraph_Img_PicSmall14",
    "IADGHKGEBEF": "UI_ActivityPhotoGraph_Img_PicSmall14",
    "HFNMFHAAFKI": "UI_ActivityPhotoGraph_Img_PicSmall14",
    "photoCheckRootID": 100310014,
    "rootNodeDescTextMapHash": 484790980,
    "photoCheckSubNodeID": [
      100321301,
      100321302,
      0,
      0
    ],
    "MPMEBGGMLCO": [],
    "HEHLFPLNHFL": [],
    "photoCheckSubNodeDesc": [
      1199945275,
      1519986829,
      1275069775,
      1933882715
    ],
    "openDay": 7,
    "watcherId": 15068014,
    "galleryId": 18014,
    "redPointID": 9584,
    "presetCheckRootID": 100310014,
    "presetCheckSubID": 100321301,
    "POCPEDOOFCK": 3704825482,
    "presetCheckSubDescTextMapHash": 3908539619,
    "GAEJMHINBGJ": [],
    "LEDJHLDMOEA": [],
    "presetPreviewIconGirl": [],
    "presetPreviewIconBoy": [],
    "sceneID": 3
  },
  {
    "id": 15,
    "groupLinkId": 51080101,
    "posTitleTextMapHash": 812258972,
    "requireTitleInActivityPageTextMapHash": 3732936272,
    "requireDescInActivityPageTextMapHash": 2485998655,
    "npcInviteDescTextMapHash": 2920672287,
    "npcCommentDescTextMapHash": 1681934343,
    "picSmall": "UI_ActivityPhotoGraphV2_Img_PicSmall01",
    "picBig": "UI_ActivityPhotoGraphV2_Img_PicSmall01",
    "IADGHKGEBEF": "UI_ActivityPhotoGraphV2_Img_PicSmall01",
    "HFNMFHAAFKI": "UI_ActivityPhotoGraphV2_Img_PicSmall01",
    "photoCheckRootID": 100415001,
    "rootNodeDescTextMapHash": 3379340420,
    "photoCheckSubNodeID": [
      100425002,
      100425001,
      0,
      0
    ],
    "MPMEBGGMLCO": [],
    "HEHLFPLNHFL": [],
    "photoCheckSubNodeDesc": [
      4046049243,
      338634869,
      2530076487,
      2709354411
    ],
    "openDay": 1,
    "watcherId": 15108001,
    "galleryId": 29001,
    "redPointID": 321030,
    "presetCheckRootID": 100410001,
    "presetCheckSubID": 100420001,
    "POCPEDOOFCK": 774518498,
    "presetCheckSubDescTextMapHash": 230083123,
    "GAEJMHINBGJ": [
      "UI_ActivityPhotoGraphV2_Img_PicSmall01_G01",
      "UI_ActivityPhotoGraphV2_Img_PicSmall01_G02",
      "UI_ActivityPhotoGraphV2_Img_PicSmall01_G03",
      "UI_ActivityPhotoGraphV2_Img_PicSmall01_G04"
    ],
    "LEDJHLDMOEA": [
      "UI_ActivityPhotoGraphV2_Img_PicSmall01_B01",
      "UI_ActivityPhotoGraphV2_Img_PicSmall01_B02",
      "UI_ActivityPhotoGraphV2_Img_PicSmall01_B03",
      "UI_ActivityPhotoGraphV2_Img_PicSmall01_B04"
    ],
    "presetPreviewIconGirl": [
      "UI_ActivityPhotoGraphV2_Img_PicSmall01_G01",
      "UI_ActivityPhotoGraphV2_Img_PicSmall01_G02",
      "UI_ActivityPhotoGraphV2_Img_PicSmall01_G03",
      "UI_ActivityPhotoGraphV2_Img_PicSmall01_G04"
    ],
    "presetPreviewIconBoy": [
      "UI_ActivityPhotoGraphV2_Img_PicSmall01_B01",
      "UI_ActivityPhotoGraphV2_Img_PicSmall01_B02",
      "UI_ActivityPhotoGraphV2_Img_PicSmall01_B03",
      "UI_ActivityPhotoGraphV2_Img_PicSmall01_B04"
    ],
    "sceneID": 3
  },
  {
    "id": 16,
    "groupLinkId": 51080102,
    "posTitleTextMapHash": 1723170988,
    "requireTitleInActivityPageTextMapHash": 2745094744,
    "requireDescInActivityPageTextMapHash": 3236310159,
    "npcInviteDescTextMapHash": 1338451159,
    "npcCommentDescTextMapHash": 1608562487,
    "picSmall": "UI_ActivityPhotoGraphV2_Img_PicSmall02",
    "picBig": "UI_ActivityPhotoGraphV2_Img_PicSmall02",
    "IADGHKGEBEF": "UI_ActivityPhotoGraphV2_Img_PicSmall02",
    "HFNMFHAAFKI": "UI_ActivityPhotoGraphV2_Img_PicSmall02",
    "photoCheckRootID": 100415002,
    "rootNodeDescTextMapHash": 1689032692,
    "photoCheckSubNodeID": [
      100425103,
      100425101,
      100425102,
      0
    ],
    "MPMEBGGMLCO": [],
    "HEHLFPLNHFL": [],
    "photoCheckSubNodeDesc": [
      2584871899,
      3245432661,
      1132937783,
      2048222955
    ],
    "openDay": 1,
    "watcherId": 15108002,
    "galleryId": 29002,
    "redPointID": 321031,
    "presetCheckRootID": 100410002,
    "presetCheckSubID": 100420101,
    "POCPEDOOFCK": 1906070466,
    "presetCheckSubDescTextMapHash": 259155699,
    "GAEJMHINBGJ": [
      "UI_ActivityPhotoGraphV2_Img_PicSmall02_G01",
      "UI_ActivityPhotoGraphV2_Img_PicSmall02_G02",
      "UI_ActivityPhotoGraphV2_Img_PicSmall02_G03",
      "UI_ActivityPhotoGraphV2_Img_PicSmall02_G04"
    ],
    "LEDJHLDMOEA": [
      "UI_ActivityPhotoGraphV2_Img_PicSmall02_B01",
      "UI_ActivityPhotoGraphV2_Img_PicSmall02_B02",
      "UI_ActivityPhotoGraphV2_Img_PicSmall02_B03",
      "UI_ActivityPhotoGraphV2_Img_PicSmall02_B04"
    ],
    "presetPreviewIconGirl": [
      "UI_ActivityPhotoGraphV2_Img_PicSmall02_G01",
      "UI_ActivityPhotoGraphV2_Img_PicSmall02_G02",
      "UI_ActivityPhotoGraphV2_Img_PicSmall02_G03",
      "UI_ActivityPhotoGraphV2_Img_PicSmall02_G04"
    ],
    "presetPreviewIconBoy": [
      "UI_ActivityPhotoGraphV2_Img_PicSmall02_B01",
      "UI_ActivityPhotoGraphV2_Img_PicSmall02_B02",
      "UI_ActivityPhotoGraphV2_Img_PicSmall02_B03",
      "UI_ActivityPhotoGraphV2_Img_PicSmall02_B04"
    ],
    "sceneID": 3
  },
  {
    "id": 17,
    "groupLinkId": 51080103,
    "posTitleTextMapHash": 3833181708,
    "requireTitleInActivityPageTextMapHash": 141960064,
    "requireDescInActivityPageTextMapHash": 2630470495,
    "npcInviteDescTextMapHash": 1976601167,
    "npcCommentDescTextMapHash": 1756206167,
    "picSmall": "UI_ActivityPhotoGraphV2_Img_PicSmall03",
    "picBig": "UI_ActivityPhotoGraphV2_Img_PicSmall03",
    "IADGHKGEBEF": "UI_ActivityPhotoGraphV2_Img_PicSmall03",
    "HFNMFHAAFKI": "UI_ActivityPhotoGraphV2_Img_PicSmall03",
    "photoCheckRootID": 100415003,
    "rootNodeDescTextMapHash": 2302325868,
    "photoCheckSubNodeID": [
      100425203,
      100425201,
      100425202,
      0
    ],
    "MPMEBGGMLCO": [],
    "HEHLFPLNHFL": [],
    "photoCheckSubNodeDesc": [
      2351549491,
      1931622741,
      3121389935,
      1757296627
    ],
    "openDay": 2,
    "watcherId": 15108003,
    "galleryId": 29003,
    "redPointID": 321032,
    "presetCheckRootID": 100410003,
    "presetCheckSubID": 100420201,
    "POCPEDOOFCK": 1463812402,
    "presetCheckSubDescTextMapHash": 3052774515,
    "GAEJMHINBGJ": [
      "UI_ActivityPhotoGraphV2_Img_PicSmall03_G01",
      "UI_ActivityPhotoGraphV2_Img_PicSmall03_G02",
      "UI_ActivityPhotoGraphV2_Img_PicSmall03_G03",
      "UI_ActivityPhotoGraphV2_Img_PicSmall03_G04"
    ],
    "LEDJHLDMOEA": [
      "UI_ActivityPhotoGraphV2_Img_PicSmall03_B01",
      "UI_ActivityPhotoGraphV2_Img_PicSmall03_B02",
      "UI_ActivityPhotoGraphV2_Img_PicSmall03_B03",
      "UI_ActivityPhotoGraphV2_Img_PicSmall03_B04"
    ],
    "presetPreviewIconGirl": [
      "UI_ActivityPhotoGraphV2_Img_PicSmall03_G01",
      "UI_ActivityPhotoGraphV2_Img_PicSmall03_G02",
      "UI_ActivityPhotoGraphV2_Img_PicSmall03_G03",
      "UI_ActivityPhotoGraphV2_Img_PicSmall03_G04"
    ],
    "presetPreviewIconBoy": [
      "UI_ActivityPhotoGraphV2_Img_PicSmall03_B01",
      "UI_ActivityPhotoGraphV2_Img_PicSmall03_B02",
      "UI_ActivityPhotoGraphV2_Img_PicSmall03_B03",
      "UI_ActivityPhotoGraphV2_Img_PicSmall03_B04"
    ],
    "sceneID": 3
  },
  {
    "id": 18,
    "groupLinkId": 51080104,
    "posTitleTextMapHash": 2457760316,
    "requireTitleInActivityPageTextMapHash": 1400624384,
    "requireDescInActivityPageTextMapHash": 3304241295,
    "npcInviteDescTextMapHash": 275916679,
    "npcCommentDescTextMapHash": 3328784119,
    "picSmall": "UI_ActivityPhotoGraphV2_Img_PicSmall04",
    "picBig": "UI_ActivityPhotoGraphV2_Img_PicSmall04",
    "IADGHKGEBEF": "UI_ActivityPhotoGraphV2_Img_PicSmall04",
    "HFNMFHAAFKI": "UI_ActivityPhotoGraphV2_Img_PicSmall04",
    "photoCheckRootID": 100415004,
    "rootNodeDescTextMapHash": 2221680932,
    "photoCheckSubNodeID": [
      100425303,
      100425301,
      100425302,
      0
    ],
    "MPMEBGGMLCO": [],
    "HEHLFPLNHFL": [],
    "photoCheckSubNodeDesc": [
      1526189875,
      14956229,
      1209256711,
      2281696131
    ],
    "openDay": 2,
    "watcherId": 15108004,
    "galleryId": 29004,
    "redPointID": 321033,
    "presetCheckRootID": 100410004,
    "presetCheckSubID": 100420301,
    "POCPEDOOFCK": 3137627602,
    "presetCheckSubDescTextMapHash": 3202977307,
    "GAEJMHINBGJ": [
      "UI_ActivityPhotoGraphV2_Img_PicSmall04_G01",
      "UI_ActivityPhotoGraphV2_Img_PicSmall04_G02",
      "UI_ActivityPhotoGraphV2_Img_PicSmall04_G03",
      "UI_ActivityPhotoGraphV2_Img_PicSmall04_G04"
    ],
    "LEDJHLDMOEA": [
      "UI_ActivityPhotoGraphV2_Img_PicSmall04_B01",
      "UI_ActivityPhotoGraphV2_Img_PicSmall04_B02",
      "UI_ActivityPhotoGraphV2_Img_PicSmall04_B03",
      "UI_ActivityPhotoGraphV2_Img_PicSmall04_B04"
    ],
    "presetPreviewIconGirl": [
      "UI_ActivityPhotoGraphV2_Img_PicSmall04_G01",
      "UI_ActivityPhotoGraphV2_Img_PicSmall04_G02",
      "UI_ActivityPhotoGraphV2_Img_PicSmall04_G03",
      "UI_ActivityPhotoGraphV2_Img_PicSmall04_G04"
    ],
    "presetPreviewIconBoy": [
      "UI_ActivityPhotoGraphV2_Img_PicSmall04_B01",
      "UI_ActivityPhotoGraphV2_Img_PicSmall04_B02",
      "UI_ActivityPhotoGraphV2_Img_PicSmall04_B03",
      "UI_ActivityPhotoGraphV2_Img_PicSmall04_B04"
    ],
    "sceneID": 3
  },
  {
    "id": 19,
    "groupLinkId": 51080105,
    "posTitleTextMapHash": 3355716948,
    "requireTitleInActivityPageTextMapHash": 3495306648,
    "requireDescInActivityPageTextMapHash": 4128290671,
    "npcInviteDescTextMapHash": 488557295,
    "npcCommentDescTextMapHash": 3337114575,
    "picSmall": "UI_ActivityPhotoGraphV2_Img_PicSmall05",
    "picBig": "UI_ActivityPhotoGraphV2_Img_PicSmall05",
    "IADGHKGEBEF": "UI_ActivityPhotoGraphV2_Img_PicSmall05",
    "HFNMFHAAFKI": "UI_ActivityPhotoGraphV2_Img_PicSmall05",
    "photoCheckRootID": 100415005,
    "rootNodeDescTextMapHash": 1188734508,
    "photoCheckSubNodeID": [
      100425403,
      100425401,
      100425402,
      0
    ],
    "MPMEBGGMLCO": [],
    "HEHLFPLNHFL": [],
    "photoCheckSubNodeDesc": [
      2080679955,
      1243309,
      1578295175,
      42861771
    ],
    "openDay": 3,
    "watcherId": 15108005,
    "galleryId": 29005,
    "redPointID": 321034,
    "presetCheckRootID": 100410005,
    "presetCheckSubID": 100420401,
    "POCPEDOOFCK": 2683405730,
    "presetCheckSubDescTextMapHash": 2212643347,
    "GAEJMHINBGJ": [
      "UI_ActivityPhotoGraphV2_Img_PicSmall05_G01",
      "UI_ActivityPhotoGraphV2_Img_PicSmall05_G02",
      "UI_ActivityPhotoGraphV2_Img_PicSmall05_G03",
      "UI_ActivityPhotoGraphV2_Img_PicSmall05_G04"
    ],
    "LEDJHLDMOEA": [
      "UI_ActivityPhotoGraphV2_Img_PicSmall05_B01",
      "UI_ActivityPhotoGraphV2_Img_PicSmall05_B02",
      "UI_ActivityPhotoGraphV2_Img_PicSmall05_B03",
      "UI_ActivityPhotoGraphV2_Img_PicSmall05_B04"
    ],
    "presetPreviewIconGirl": [
      "UI_ActivityPhotoGraphV2_Img_PicSmall05_G01",
      "UI_ActivityPhotoGraphV2_Img_PicSmall05_G02",
      "UI_ActivityPhotoGraphV2_Img_PicSmall05_G03",
      "UI_ActivityPhotoGraphV2_Img_PicSmall05_G04"
    ],
    "presetPreviewIconBoy": [
      "UI_ActivityPhotoGraphV2_Img_PicSmall05_B01",
      "UI_ActivityPhotoGraphV2_Img_PicSmall05_B02",
      "UI_ActivityPhotoGraphV2_Img_PicSmall05_B03",
      "UI_ActivityPhotoGraphV2_Img_PicSmall05_B04"
    ],
    "sceneID": 3
  },
  {
    "id": 20,
    "groupLinkId": 51080106,
    "posTitleTextMapHash": 3021847068,
    "requireTitleInActivityPageTextMapHash": 1902709504,
    "requireDescInActivityPageTextMapHash": 120626871,
    "npcInviteDescTextMapHash": 405242679,
    "npcCommentDescTextMapHash": 2892918343,
    "picSmall": "UI_ActivityPhotoGraphV2_Img_PicSmall06",
    "picBig": "UI_ActivityPhotoGraphV2_Img_PicSmall06",
    "IADGHKGEBEF": "UI_ActivityPhotoGraphV2_Img_PicSmall06",
    "HFNMFHAAFKI": "UI_ActivityPhotoGraphV2_Img_PicSmall06",
    "photoCheckRootID": 100415006,
    "rootNodeDescTextMapHash": 3935464036,
    "photoCheckSubNodeID": [
      100425503,
      100425501,
      100425502,
      0
    ],
    "MPMEBGGMLCO": [],
    "HEHLFPLNHFL": [],
    "photoCheckSubNodeDesc": [
      3921391723,
      2633016429,
      187435647,
      1490613755
    ],
    "openDay": 3,
    "watcherId": 15108006,
    "galleryId": 29006,
    "redPointID": 321035,
    "presetCheckRootID": 100410006,
    "presetCheckSubID": 100420501,
    "POCPEDOOFCK": 3724205130,
    "presetCheckSubDescTextMapHash": 3204856659,
    "GAEJMHINBGJ": [
      "UI_ActivityPhotoGraphV2_Img_PicSmall06_G01",
      "UI_ActivityPhotoGraphV2_Img_PicSmall06_G02",
      "UI_ActivityPhotoGraphV2_Img_PicSmall06_G03",
      "UI_ActivityPhotoGraphV2_Img_PicSmall06_G04"
    ],
    "LEDJHLDMOEA": [
      "UI_ActivityPhotoGraphV2_Img_PicSmall06_B01",
      "UI_ActivityPhotoGraphV2_Img_PicSmall06_B02",
      "UI_ActivityPhotoGraphV2_Img_PicSmall06_B03",
      "UI_ActivityPhotoGraphV2_Img_PicSmall06_B04"
    ],
    "presetPreviewIconGirl": [
      "UI_ActivityPhotoGraphV2_Img_PicSmall06_G01",
      "UI_ActivityPhotoGraphV2_Img_PicSmall06_G02",
      "UI_ActivityPhotoGraphV2_Img_PicSmall06_G03",
      "UI_ActivityPhotoGraphV2_Img_PicSmall06_G04"
    ],
    "presetPreviewIconBoy": [
      "UI_ActivityPhotoGraphV2_Img_PicSmall06_B01",
      "UI_ActivityPhotoGraphV2_Img_PicSmall06_B02",
      "UI_ActivityPhotoGraphV2_Img_PicSmall06_B03",
      "UI_ActivityPhotoGraphV2_Img_PicSmall06_B04"
    ],
    "sceneID": 3
  },
  {
    "id": 21,
    "groupLinkId": 51080107,
    "posTitleTextMapHash": 3550787756,
    "requireTitleInActivityPageTextMapHash": 1358302616,
    "requireDescInActivityPageTextMapHash": 3791497311,
    "npcInviteDescTextMapHash": 4238332367,
    "npcCommentDescTextMapHash": 1669700223,
    "picSmall": "UI_ActivityPhotoGraphV2_Img_PicSmall07",
    "picBig": "UI_ActivityPhotoGraphV2_Img_PicSmall07",
    "IADGHKGEBEF": "UI_ActivityPhotoGraphV2_Img_PicSmall07",
    "HFNMFHAAFKI": "UI_ActivityPhotoGraphV2_Img_PicSmall07",
    "photoCheckRootID": 100415007,
    "rootNodeDescTextMapHash": 2696300508,
    "photoCheckSubNodeID": [
      100425603,
      100425601,
      100425602,
      0
    ],
    "MPMEBGGMLCO": [],
    "HEHLFPLNHFL": [],
    "photoCheckSubNodeDesc": [
      1931270947,
      420975829,
      1220783687,
      3056020259
    ],
    "openDay": 4,
    "watcherId": 15108007,
    "galleryId": 29007,
    "redPointID": 321036,
    "presetCheckRootID": 100410007,
    "presetCheckSubID": 100420601,
    "POCPEDOOFCK": 2851079162,
    "presetCheckSubDescTextMapHash": 3280630979,
    "GAEJMHINBGJ": [
      "UI_ActivityPhotoGraphV2_Img_PicSmall07_G01",
      "UI_ActivityPhotoGraphV2_Img_PicSmall07_G02",
      "UI_ActivityPhotoGraphV2_Img_PicSmall07_G03",
      "UI_ActivityPhotoGraphV2_Img_PicSmall07_G04"
    ],
    "LEDJHLDMOEA": [
      "UI_ActivityPhotoGraphV2_Img_PicSmall07_B01",
      "UI_ActivityPhotoGraphV2_Img_PicSmall07_B02",
      "UI_ActivityPhotoGraphV2_Img_PicSmall07_B03",
      "UI_ActivityPhotoGraphV2_Img_PicSmall07_B04"
    ],
    "presetPreviewIconGirl": [
      "UI_ActivityPhotoGraphV2_Img_PicSmall07_G01",
      "UI_ActivityPhotoGraphV2_Img_PicSmall07_G02",
      "UI_ActivityPhotoGraphV2_Img_PicSmall07_G03",
      "UI_ActivityPhotoGraphV2_Img_PicSmall07_G04"
    ],
    "presetPreviewIconBoy": [
      "UI_ActivityPhotoGraphV2_Img_PicSmall07_B01",
      "UI_ActivityPhotoGraphV2_Img_PicSmall07_B02",
      "UI_ActivityPhotoGraphV2_Img_PicSmall07_B03",
      "UI_ActivityPhotoGraphV2_Img_PicSmall07_B04"
    ],
    "sceneID": 3
  },
  {
    "id": 22,
    "groupLinkId": 51080108,
    "posTitleTextMapHash": 3030052716,
    "requireTitleInActivityPageTextMapHash": 987722872,
    "requireDescInActivityPageTextMapHash": 691885703,
    "npcInviteDescTextMapHash": 2665416079,
    "npcCommentDescTextMapHash": 1193839991,
    "picSmall": "UI_ActivityPhotoGraphV2_Img_PicSmall08",
    "picBig": "UI_ActivityPhotoGraphV2_Img_PicSmall08",
    "IADGHKGEBEF": "UI_ActivityPhotoGraphV2_Img_PicSmall08",
    "HFNMFHAAFKI": "UI_ActivityPhotoGraphV2_Img_PicSmall08",
    "photoCheckRootID": 100415008,
    "rootNodeDescTextMapHash": 3061316324,
    "photoCheckSubNodeID": [
      100425703,
      100425701,
      100425702,
      0
    ],
    "MPMEBGGMLCO": [],
    "HEHLFPLNHFL": [],
    "photoCheckSubNodeDesc": [
      3277416867,
      3835555349,
      210268711,
      638004187
    ],
    "openDay": 4,
    "watcherId": 15108008,
    "galleryId": 29008,
    "redPointID": 321037,
    "presetCheckRootID": 100410008,
    "presetCheckSubID": 100420701,
    "POCPEDOOFCK": 1687066842,
    "presetCheckSubDescTextMapHash": 1021544603,
    "GAEJMHINBGJ": [
      "UI_ActivityPhotoGraphV2_Img_PicSmall08_G01",
      "UI_ActivityPhotoGraphV2_Img_PicSmall08_G02",
      "UI_ActivityPhotoGraphV2_Img_PicSmall08_G03",
      "UI_ActivityPhotoGraphV2_Img_PicSmall08_G04"
    ],
    "LEDJHLDMOEA": [
      "UI_ActivityPhotoGraphV2_Img_PicSmall08_B01",
      "UI_ActivityPhotoGraphV2_Img_PicSmall08_B02",
      "UI_ActivityPhotoGraphV2_Img_PicSmall08_B03",
      "UI_ActivityPhotoGraphV2_Img_PicSmall08_B04"
    ],
    "presetPreviewIconGirl": [
      "UI_ActivityPhotoGraphV2_Img_PicSmall08_G01",
      "UI_ActivityPhotoGraphV2_Img_PicSmall08_G02",
      "UI_ActivityPhotoGraphV2_Img_PicSmall08_G03",
      "UI_ActivityPhotoGraphV2_Img_PicSmall08_G04"
    ],
    "presetPreviewIconBoy": [
      "UI_ActivityPhotoGraphV2_Img_PicSmall08_B01",
      "UI_ActivityPhotoGraphV2_Img_PicSmall08_B02",
      "UI_ActivityPhotoGraphV2_Img_PicSmall08_B03",
      "UI_ActivityPhotoGraphV2_Img_PicSmall08_B04"
    ],
    "sceneID": 3
  },
  {
    "id": 23,
    "groupLinkId": 51080109,
    "posTitleTextMapHash": 2743544108,
    "requireTitleInActivityPageTextMapHash": 4114519184,
    "requireDescInActivityPageTextMapHash": 1200446551,
    "npcInviteDescTextMapHash": 2529667415,
    "npcCommentDescTextMapHash": 365290207,
    "picSmall": "UI_ActivityPhotoGraphV2_Img_PicSmall09",
    "picBig": "UI_ActivityPhotoGraphV2_Img_PicSmall09",
    "IADGHKGEBEF": "UI_ActivityPhotoGraphV2_Img_PicSmall09",
    "HFNMFHAAFKI": "UI_ActivityPhotoGraphV2_Img_PicSmall09",
    "photoCheckRootID": 100415009,
    "rootNodeDescTextMapHash": 2277813332,
    "photoCheckSubNodeID": [
      100425803,
      100425801,
      100425802,
      0
    ],
    "MPMEBGGMLCO": [],
    "HEHLFPLNHFL": [],
    "photoCheckSubNodeDesc": [
      1191306955,
      3692622037,
      3392418519,
      1265185955
    ],
    "openDay": 5,
    "watcherId": 15108009,
    "galleryId": 29009,
    "redPointID": 321038,
    "presetCheckRootID": 100410009,
    "presetCheckSubID": 100420801,
    "POCPEDOOFCK": 2939923218,
    "presetCheckSubDescTextMapHash": 867357843,
    "GAEJMHINBGJ": [
      "UI_ActivityPhotoGraphV2_Img_PicSmall09_G01",
      "UI_ActivityPhotoGraphV2_Img_PicSmall09_G02",
      "UI_ActivityPhotoGraphV2_Img_PicSmall09_G03",
      "UI_ActivityPhotoGraphV2_Img_PicSmall09_G04"
    ],
    "LEDJHLDMOEA": [
      "UI_ActivityPhotoGraphV2_Img_PicSmall09_B01",
      "UI_ActivityPhotoGraphV2_Img_PicSmall09_B02",
      "UI_ActivityPhotoGraphV2_Img_PicSmall09_B03",
      "UI_ActivityPhotoGraphV2_Img_PicSmall09_B04"
    ],
    "presetPreviewIconGirl": [
      "UI_ActivityPhotoGraphV2_Img_PicSmall09_G01",
      "UI_ActivityPhotoGraphV2_Img_PicSmall09_G02",
      "UI_ActivityPhotoGraphV2_Img_PicSmall09_G03",
      "UI_ActivityPhotoGraphV2_Img_PicSmall09_G04"
    ],
    "presetPreviewIconBoy": [
      "UI_ActivityPhotoGraphV2_Img_PicSmall09_B01",
      "UI_ActivityPhotoGraphV2_Img_PicSmall09_B02",
      "UI_ActivityPhotoGraphV2_Img_PicSmall09_B03",
      "UI_ActivityPhotoGraphV2_Img_PicSmall09_B04"
    ],
    "sceneID": 3
  },
  {
    "id": 24,
    "groupLinkId": 51080110,
    "posTitleTextMapHash": 2178459836,
    "requireTitleInActivityPageTextMapHash": 927069296,
    "requireDescInActivityPageTextMapHash": 376444727,
    "npcInviteDescTextMapHash": 3687492663,
    "npcCommentDescTextMapHash": 3049508463,
    "picSmall": "UI_ActivityPhotoGraphV2_Img_PicSmall10",
    "picBig": "UI_ActivityPhotoGraphV2_Img_PicSmall10",
    "IADGHKGEBEF": "UI_ActivityPhotoGraphV2_Img_PicSmall10",
    "HFNMFHAAFKI": "UI_ActivityPhotoGraphV2_Img_PicSmall10",
    "photoCheckRootID": 100415010,
    "rootNodeDescTextMapHash": 696660988,
    "photoCheckSubNodeID": [
      100425903,
      100425902,
      0,
      0
    ],
    "MPMEBGGMLCO": [],
    "HEHLFPLNHFL": [],
    "photoCheckSubNodeDesc": [
      1095269451,
      3448836285,
      344956615,
      77365587
    ],
    "openDay": 5,
    "watcherId": 15108010,
    "galleryId": 29010,
    "redPointID": 321039,
    "presetCheckRootID": 100410010,
    "presetCheckSubID": 100420901,
    "POCPEDOOFCK": 2092465034,
    "presetCheckSubDescTextMapHash": 1059862875,
    "GAEJMHINBGJ": [
      "UI_ActivityPhotoGraphV2_Img_PicSmall10_G01",
      "UI_ActivityPhotoGraphV2_Img_PicSmall10_G02",
      "UI_ActivityPhotoGraphV2_Img_PicSmall10_G03",
      "UI_ActivityPhotoGraphV2_Img_PicSmall10_G04"
    ],
    "LEDJHLDMOEA": [
      "UI_ActivityPhotoGraphV2_Img_PicSmall10_B01",
      "UI_ActivityPhotoGraphV2_Img_PicSmall10_B02",
      "UI_ActivityPhotoGraphV2_Img_PicSmall10_B03",
      "UI_ActivityPhotoGraphV2_Img_PicSmall10_B04"
    ],
    "presetPreviewIconGirl": [
      "UI_ActivityPhotoGraphV2_Img_PicSmall10_G01",
      "UI_ActivityPhotoGraphV2_Img_PicSmall10_G02",
      "UI_ActivityPhotoGraphV2_Img_PicSmall10_G03",
      "UI_ActivityPhotoGraphV2_Img_PicSmall10_G04"
    ],
    "presetPreviewIconBoy": [
      "UI_ActivityPhotoGraphV2_Img_PicSmall10_B01",
      "UI_ActivityPhotoGraphV2_Img_PicSmall10_B02",
      "UI_ActivityPhotoGraphV2_Img_PicSmall10_B03",
      "UI_ActivityPhotoGraphV2_Img_PicSmall10_B04"
    ],
    "sceneID": 3
  },
  {
    "id": 25,
    "groupLinkId": 51080111,
    "posTitleTextMapHash": 2824551548,
    "requireTitleInActivityPageTextMapHash": 4066149824,
    "requireDescInActivityPageTextMapHash": 542891399,
    "npcInviteDescTextMapHash": 1894999,
    "npcCommentDescTextMapHash": 1112085111,
    "picSmall": "UI_ActivityPhotoGraphV2_Img_PicSmall11",
    "picBig": "UI_ActivityPhotoGraphV2_Img_PicSmall11",
    "IADGHKGEBEF": "UI_ActivityPhotoGraphV2_Img_PicSmall11",
    "HFNMFHAAFKI": "UI_ActivityPhotoGraphV2_Img_PicSmall11",
    "photoCheckRootID": 100415011,
    "rootNodeDescTextMapHash": 786463692,
    "photoCheckSubNodeID": [
      100426003,
      100426001,
      100426002,
      0
    ],
    "MPMEBGGMLCO": [],
    "HEHLFPLNHFL": [],
    "photoCheckSubNodeDesc": [
      3741327427,
      1114175973,
      2360208151,
      553292099
    ],
    "openDay": 6,
    "watcherId": 15108011,
    "galleryId": 29011,
    "redPointID": 321040,
    "presetCheckRootID": 100410011,
    "presetCheckSubID": 100421001,
    "POCPEDOOFCK": 3536591354,
    "presetCheckSubDescTextMapHash": 2203842411,
    "GAEJMHINBGJ": [
      "UI_ActivityPhotoGraphV2_Img_PicSmall11_G01",
      "UI_ActivityPhotoGraphV2_Img_PicSmall11_G02",
      "UI_ActivityPhotoGraphV2_Img_PicSmall11_G03",
      "UI_ActivityPhotoGraphV2_Img_PicSmall11_G04"
    ],
    "LEDJHLDMOEA": [
      "UI_ActivityPhotoGraphV2_Img_PicSmall11_B01",
      "UI_ActivityPhotoGraphV2_Img_PicSmall11_B02",
      "UI_ActivityPhotoGraphV2_Img_PicSmall11_B03",
      "UI_ActivityPhotoGraphV2_Img_PicSmall11_B04"
    ],
    "presetPreviewIconGirl": [
      "UI_ActivityPhotoGraphV2_Img_PicSmall11_G01",
      "UI_ActivityPhotoGraphV2_Img_PicSmall11_G02",
      "UI_ActivityPhotoGraphV2_Img_PicSmall11_G03",
      "UI_ActivityPhotoGraphV2_Img_PicSmall11_G04"
    ],
    "presetPreviewIconBoy": [
      "UI_ActivityPhotoGraphV2_Img_PicSmall11_B01",
      "UI_ActivityPhotoGraphV2_Img_PicSmall11_B02",
      "UI_ActivityPhotoGraphV2_Img_PicSmall11_B03",
      "UI_ActivityPhotoGraphV2_Img_PicSmall11_B04"
    ],
    "sceneID": 3
  },
  {
    "id": 26,
    "groupLinkId": 51080112,
    "posTitleTextMapHash": 1835461588,
    "requireTitleInActivityPageTextMapHash": 1249958248,
    "requireDescInActivityPageTextMapHash": 3865408311,
    "npcInviteDescTextMapHash": 2267758655,
    "npcCommentDescTextMapHash": 3857983943,
    "picSmall": "UI_ActivityPhotoGraphV2_Img_PicSmall12",
    "picBig": "UI_ActivityPhotoGraphV2_Img_PicSmall12",
    "IADGHKGEBEF": "UI_ActivityPhotoGraphV2_Img_PicSmall12",
    "HFNMFHAAFKI": "UI_ActivityPhotoGraphV2_Img_PicSmall12",
    "photoCheckRootID": 100415012,
    "rootNodeDescTextMapHash": 1131535708,
    "photoCheckSubNodeID": [
      100426103,
      100426101,
      100426102,
      0
    ],
    "MPMEBGGMLCO": [],
    "HEHLFPLNHFL": [],
    "photoCheckSubNodeDesc": [
      3851226163,
      3894918829,
      3339176119,
      2340859859
    ],
    "openDay": 6,
    "watcherId": 15108012,
    "galleryId": 29012,
    "redPointID": 321041,
    "presetCheckRootID": 100410012,
    "presetCheckSubID": 100421101,
    "POCPEDOOFCK": 816063890,
    "presetCheckSubDescTextMapHash": 3811618347,
    "GAEJMHINBGJ": [
      "UI_ActivityPhotoGraphV2_Img_PicSmall12_G01",
      "UI_ActivityPhotoGraphV2_Img_PicSmall12_G02",
      "UI_ActivityPhotoGraphV2_Img_PicSmall12_G03",
      "UI_ActivityPhotoGraphV2_Img_PicSmall12_G04"
    ],
    "LEDJHLDMOEA": [
      "UI_ActivityPhotoGraphV2_Img_PicSmall12_B01",
      "UI_ActivityPhotoGraphV2_Img_PicSmall12_B02",
      "UI_ActivityPhotoGraphV2_Img_PicSmall12_B03",
      "UI_ActivityPhotoGraphV2_Img_PicSmall12_B04"
    ],
    "presetPreviewIconGirl": [
      "UI_ActivityPhotoGraphV2_Img_PicSmall12_G01",
      "UI_ActivityPhotoGraphV2_Img_PicSmall12_G02",
      "UI_ActivityPhotoGraphV2_Img_PicSmall12_G03",
      "UI_ActivityPhotoGraphV2_Img_PicSmall12_G04"
    ],
    "presetPreviewIconBoy": [
      "UI_ActivityPhotoGraphV2_Img_PicSmall12_B01",
      "UI_ActivityPhotoGraphV2_Img_PicSmall12_B02",
      "UI_ActivityPhotoGraphV2_Img_PicSmall12_B03",
      "UI_ActivityPhotoGraphV2_Img_PicSmall12_B04"
    ],
    "sceneID": 3
  },
  {
    "id": 27,
    "groupLinkId": 51080113,
    "posTitleTextMapHash": 1763175444,
    "requireTitleInActivityPageTextMapHash": 125470544,
    "requireDescInActivityPageTextMapHash": 3774181295,
    "npcInviteDescTextMapHash": 501517935,
    "npcCommentDescTextMapHash": 1172206487,
    "picSmall": "UI_ActivityPhotoGraphV2_Img_PicSmall13",
    "picBig": "UI_ActivityPhotoGraphV2_Img_PicSmall13",
    "IADGHKGEBEF": "UI_ActivityPhotoGraphV2_Img_PicSmall13",
    "HFNMFHAAFKI": "UI_ActivityPhotoGraphV2_Img_PicSmall13",
    "photoCheckRootID": 100415013,
    "rootNodeDescTextMapHash": 3277048564,
    "photoCheckSubNodeID": [
      100426203,
      100426201,
      100426202,
      0
    ],
    "MPMEBGGMLCO": [],
    "HEHLFPLNHFL": [],
    "photoCheckSubNodeDesc": [
      1187891731,
      4249372589,
      2363608207,
      3048585451
    ],
    "openDay": 7,
    "watcherId": 15108013,
    "galleryId": 29013,
    "redPointID": 321042,
    "presetCheckRootID": 100410013,
    "presetCheckSubID": 100421201,
    "POCPEDOOFCK": 947678954,
    "presetCheckSubDescTextMapHash": 1112028867,
    "GAEJMHINBGJ": [
      "UI_ActivityPhotoGraphV2_Img_PicSmall13_G01",
      "UI_ActivityPhotoGraphV2_Img_PicSmall13_G02",
      "UI_ActivityPhotoGraphV2_Img_PicSmall13_G03",
      "UI_ActivityPhotoGraphV2_Img_PicSmall13_G04"
    ],
    "LEDJHLDMOEA": [
      "UI_ActivityPhotoGraphV2_Img_PicSmall13_B01",
      "UI_ActivityPhotoGraphV2_Img_PicSmall13_B02",
      "UI_ActivityPhotoGraphV2_Img_PicSmall13_B03",
      "UI_ActivityPhotoGraphV2_Img_PicSmall13_B04"
    ],
    "presetPreviewIconGirl": [
      "UI_ActivityPhotoGraphV2_Img_PicSmall13_G01",
      "UI_ActivityPhotoGraphV2_Img_PicSmall13_G02",
      "UI_ActivityPhotoGraphV2_Img_PicSmall13_G03",
      "UI_ActivityPhotoGraphV2_Img_PicSmall13_G04"
    ],
    "presetPreviewIconBoy": [
      "UI_ActivityPhotoGraphV2_Img_PicSmall13_B01",
      "UI_ActivityPhotoGraphV2_Img_PicSmall13_B02",
      "UI_ActivityPhotoGraphV2_Img_PicSmall13_B03",
      "UI_ActivityPhotoGraphV2_Img_PicSmall13_B04"
    ],
    "sceneID": 3
  },
  {
    "id": 28,
    "groupLinkId": 51080114,
    "posTitleTextMapHash": 1839537924,
    "requireTitleInActivityPageTextMapHash": 1251056176,
    "requireDescInActivityPageTextMapHash": 4169994999,
    "npcInviteDescTextMapHash": 2840001239,
    "npcCommentDescTextMapHash": 2884099055,
    "picSmall": "UI_ActivityPhotoGraphV2_Img_PicSmall14",
    "picBig": "UI_ActivityPhotoGraphV2_Img_PicSmall14",
    "IADGHKGEBEF": "UI_ActivityPhotoGraphV2_Img_PicSmall14",
    "HFNMFHAAFKI": "UI_ActivityPhotoGraphV2_Img_PicSmall14",
    "photoCheckRootID": 100415014,
    "rootNodeDescTextMapHash": 345921300,
    "photoCheckSubNodeID": [
      100426303,
      100426302,
      0,
      0
    ],
    "MPMEBGGMLCO": [],
    "HEHLFPLNHFL": [],
    "photoCheckSubNodeDesc": [
      2447808371,
      3997199077,
      2920723703,
      3120077587
    ],
    "openDay": 7,
    "watcherId": 15108014,
    "galleryId": 29014,
    "redPointID": 321043,
    "presetCheckRootID": 100410014,
    "presetCheckSubID": 100421301,
    "POCPEDOOFCK": 2389795634,
    "presetCheckSubDescTextMapHash": 3600920707,
    "GAEJMHINBGJ": [
      "UI_ActivityPhotoGraphV2_Img_PicSmall14_G01",
      "UI_ActivityPhotoGraphV2_Img_PicSmall14_G02",
      "UI_ActivityPhotoGraphV2_Img_PicSmall14_G03",
      "UI_ActivityPhotoGraphV2_Img_PicSmall14_G04"
    ],
    "LEDJHLDMOEA": [
      "UI_ActivityPhotoGraphV2_Img_PicSmall14_B01",
      "UI_ActivityPhotoGraphV2_Img_PicSmall14_B02",
      "UI_ActivityPhotoGraphV2_Img_PicSmall14_B03",
      "UI_ActivityPhotoGraphV2_Img_PicSmall14_B04"
    ],
    "presetPreviewIconGirl": [
      "UI_ActivityPhotoGraphV2_Img_PicSmall14_G01",
      "UI_ActivityPhotoGraphV2_Img_PicSmall14_G02",
      "UI_ActivityPhotoGraphV2_Img_PicSmall14_G03",
      "UI_ActivityPhotoGraphV2_Img_PicSmall14_G04"
    ],
    "presetPreviewIconBoy": [
      "UI_ActivityPhotoGraphV2_Img_PicSmall14_B01",
      "UI_ActivityPhotoGraphV2_Img_PicSmall14_B02",
      "UI_ActivityPhotoGraphV2_Img_PicSmall14_B03",
      "UI_ActivityPhotoGraphV2_Img_PicSmall14_B04"
    ],
    "sceneID": 3
  },
  {
    "id": 29,
    "groupLinkId": 52010101,
    "posTitleTextMapHash": 1758785204,
    "requireTitleInActivityPageTextMapHash": 1072134296,
    "requireDescInActivityPageTextMapHash": 2015940855,
    "npcInviteDescTextMapHash": 2451093327,
    "npcCommentDescTextMapHash": 1696338039,
    "picSmall": "UI_ActivityPhotoGraphV4_Img_PicSmall01",
    "picBig": "UI_ActivityPhotoGraphV4_Img_PicSmall01",
    "IADGHKGEBEF": "",
    "HFNMFHAAFKI": "",
    "photoCheckRootID": 100810121,
    "rootNodeDescTextMapHash": 2853728396,
    "photoCheckSubNodeID": [
      0,
      0,
      0,
      0
    ],
    "MPMEBGGMLCO": [
      100820102
    ],
    "HEHLFPLNHFL": [
      100830101,
      100830102
    ],
    "photoCheckSubNodeDesc": [
      3961685595,
      313940085,
      1305497183,
      136857539
    ],
    "openDay": 1,
    "watcherId": 15201001,
    "galleryId": 78201,
    "redPointID": 481010,
    "presetCheckRootID": 100810101,
    "presetCheckSubID": 100820101,
    "POCPEDOOFCK": 690677810,
    "presetCheckSubDescTextMapHash": 613477339,
    "GAEJMHINBGJ": [
      "UI_ActivityPhotoGraphV4_Img_PicSmall01_G01",
      "UI_ActivityPhotoGraphV4_Img_PicSmall01_G02",
      "UI_ActivityPhotoGraphV4_Img_PicSmall01_G03"
    ],
    "LEDJHLDMOEA": [
      "UI_ActivityPhotoGraphV4_Img_PicSmall01_B01",
      "UI_ActivityPhotoGraphV4_Img_PicSmall01_B02",
      "UI_ActivityPhotoGraphV4_Img_PicSmall01_B03"
    ],
    "presetPreviewIconGirl": [],
    "presetPreviewIconBoy": [],
    "sceneID": 3
  },
  {
    "id": 30,
    "groupLinkId": 52010102,
    "posTitleTextMapHash": 893570132,
    "requireTitleInActivityPageTextMapHash": 1795020944,
    "requireDescInActivityPageTextMapHash": 4252357687,
    "npcInviteDescTextMapHash": 272672735,
    "npcCommentDescTextMapHash": 2418625847,
    "picSmall": "UI_ActivityPhotoGraphV4_Img_PicSmall02",
    "picBig": "UI_ActivityPhotoGraphV4_Img_PicSmall02",
    "IADGHKGEBEF": "",
    "HFNMFHAAFKI": "",
    "photoCheckRootID": 100810221,
    "rootNodeDescTextMapHash": 4288770932,
    "photoCheckSubNodeID": [
      0,
      0,
      0,
      0
    ],
    "MPMEBGGMLCO": [
      100820202
    ],
    "HEHLFPLNHFL": [
      100830201,
      100830202
    ],
    "photoCheckSubNodeDesc": [
      546041747,
      4214534541,
      705693207,
      276312051
    ],
    "openDay": 1,
    "watcherId": 15201002,
    "galleryId": 78202,
    "redPointID": 481011,
    "presetCheckRootID": 100810201,
    "presetCheckSubID": 100820201,
    "POCPEDOOFCK": 2287793314,
    "presetCheckSubDescTextMapHash": 2269548499,
    "GAEJMHINBGJ": [
      "UI_ActivityPhotoGraphV4_Img_PicSmall02_G01",
      "UI_ActivityPhotoGraphV4_Img_PicSmall02_G02",
      "UI_ActivityPhotoGraphV4_Img_PicSmall02_G03"
    ],
    "LEDJHLDMOEA": [
      "UI_ActivityPhotoGraphV4_Img_PicSmall02_B01",
      "UI_ActivityPhotoGraphV4_Img_PicSmall02_B02",
      "UI_ActivityPhotoGraphV4_Img_PicSmall02_B03"
    ],
    "presetPreviewIconGirl": [],
    "presetPreviewIconBoy": [],
    "sceneID": 3
  },
  {
    "id": 31,
    "groupLinkId": 52010201,
    "posTitleTextMapHash": 2623329804,
    "requireTitleInActivityPageTextMapHash": 3198589048,
    "requireDescInActivityPageTextMapHash": 1773066775,
    "npcInviteDescTextMapHash": 249207079,
    "npcCommentDescTextMapHash": 119122687,
    "picSmall": "UI_ActivityPhotoGraphV4_Img_PicSmall03",
    "picBig": "UI_ActivityPhotoGraphV4_Img_PicSmall03",
    "IADGHKGEBEF": "",
    "HFNMFHAAFKI": "",
    "photoCheckRootID": 100810321,
    "rootNodeDescTextMapHash": 1781015916,
    "photoCheckSubNodeID": [
      0,
      0,
      0,
      0
    ],
    "MPMEBGGMLCO": [
      100820302
    ],
    "HEHLFPLNHFL": [
      100830301,
      100830302
    ],
    "photoCheckSubNodeDesc": [
      2518946323,
      70815549,
      2625897327,
      2320446187
    ],
    "openDay": 2,
    "watcherId": 15201003,
    "galleryId": 78203,
    "redPointID": 481012,
    "presetCheckRootID": 100810301,
    "presetCheckSubID": 100820301,
    "POCPEDOOFCK": 393207162,
    "presetCheckSubDescTextMapHash": 2952269155,
    "GAEJMHINBGJ": [
      "UI_ActivityPhotoGraphV4_Img_PicSmall03_G01",
      "UI_ActivityPhotoGraphV4_Img_PicSmall03_G02",
      "UI_ActivityPhotoGraphV4_Img_PicSmall03_G03"
    ],
    "LEDJHLDMOEA": [
      "UI_ActivityPhotoGraphV4_Img_PicSmall03_B01",
      "UI_ActivityPhotoGraphV4_Img_PicSmall03_B02",
      "UI_ActivityPhotoGraphV4_Img_PicSmall03_B03"
    ],
    "presetPreviewIconGirl": [],
    "presetPreviewIconBoy": [],
    "sceneID": 3
  },
  {
    "id": 32,
    "groupLinkId": 52010202,
    "posTitleTextMapHash": 3204593956,
    "requireTitleInActivityPageTextMapHash": 1200687488,
    "requireDescInActivityPageTextMapHash": 226493535,
    "npcInviteDescTextMapHash": 1954957087,
    "npcCommentDescTextMapHash": 974443175,
    "picSmall": "UI_ActivityPhotoGraphV4_Img_PicSmall04_1",
    "picBig": "UI_ActivityPhotoGraphV4_Img_PicSmall04_1",
    "IADGHKGEBEF": "UI_ActivityPhotoGraphV4_Img_PicSmall04_2",
    "HFNMFHAAFKI": "UI_ActivityPhotoGraphV4_Img_PicSmall04_2",
    "photoCheckRootID": 100810421,
    "rootNodeDescTextMapHash": 84882036,
    "photoCheckSubNodeID": [
      0,
      0,
      0,
      0
    ],
    "MPMEBGGMLCO": [
      100820402
    ],
    "HEHLFPLNHFL": [
      100830401,
      100830402
    ],
    "photoCheckSubNodeDesc": [
      4284933339,
      2100299181,
      982178215,
      704541763
    ],
    "openDay": 2,
    "watcherId": 15201004,
    "galleryId": 78204,
    "redPointID": 481013,
    "presetCheckRootID": 100810401,
    "presetCheckSubID": 100820401,
    "POCPEDOOFCK": 2320166258,
    "presetCheckSubDescTextMapHash": 2402205291,
    "GAEJMHINBGJ": [
      "UI_ActivityPhotoGraphV4_Img_PicSmall04_G01",
      "UI_ActivityPhotoGraphV4_Img_PicSmall04_G02",
      "UI_ActivityPhotoGraphV4_Img_PicSmall04_G03"
    ],
    "LEDJHLDMOEA": [
      "UI_ActivityPhotoGraphV4_Img_PicSmall04_B01",
      "UI_ActivityPhotoGraphV4_Img_PicSmall04_B02",
      "UI_ActivityPhotoGraphV4_Img_PicSmall04_B03"
    ],
    "presetPreviewIconGirl": [
      "UI_ActivityPhotoGraphV4_Img_PicSmall04_G04",
      "UI_ActivityPhotoGraphV4_Img_PicSmall04_G05",
      "UI_ActivityPhotoGraphV4_Img_PicSmall04_G06"
    ],
    "presetPreviewIconBoy": [
      "UI_ActivityPhotoGraphV4_Img_PicSmall04_B04",
      "UI_ActivityPhotoGraphV4_Img_PicSmall04_B05",
      "UI_ActivityPhotoGraphV4_Img_PicSmall04_B06"
    ],
    "sceneID": 3,
    "CIOJDPKNJNA": 7408213
  },
  {
    "id": 33,
    "groupLinkId": 52010301,
    "posTitleTextMapHash": 4087923004,
    "requireTitleInActivityPageTextMapHash": 4246974752,
    "requireDescInActivityPageTextMapHash": 675039271,
    "npcInviteDescTextMapHash": 2185414263,
    "npcCommentDescTextMapHash": 2307536071,
    "picSmall": "UI_ActivityPhotoGraphV4_Img_PicSmall05",
    "picBig": "UI_ActivityPhotoGraphV4_Img_PicSmall05",
    "IADGHKGEBEF": "",
    "HFNMFHAAFKI": "",
    "photoCheckRootID": 100810521,
    "rootNodeDescTextMapHash": 2687588188,
    "photoCheckSubNodeID": [
      0,
      0,
      0,
      0
    ],
    "MPMEBGGMLCO": [
      100820502
    ],
    "HEHLFPLNHFL": [
      100830501,
      100830502
    ],
    "photoCheckSubNodeDesc": [
      338388803,
      1384727461,
      2955111287,
      1255466219
    ],
    "openDay": 3,
    "watcherId": 15201005,
    "galleryId": 78205,
    "redPointID": 481014,
    "presetCheckRootID": 100810501,
    "presetCheckSubID": 100820501,
    "POCPEDOOFCK": 1654086954,
    "presetCheckSubDescTextMapHash": 1452948595,
    "GAEJMHINBGJ": [
      "UI_ActivityPhotoGraphV4_Img_PicSmall05_G01",
      "UI_ActivityPhotoGraphV4_Img_PicSmall05_G02",
      "UI_ActivityPhotoGraphV4_Img_PicSmall05_G03"
    ],
    "LEDJHLDMOEA": [
      "UI_ActivityPhotoGraphV4_Img_PicSmall05_B01",
      "UI_ActivityPhotoGraphV4_Img_PicSmall05_B02",
      "UI_ActivityPhotoGraphV4_Img_PicSmall05_B03"
    ],
    "presetPreviewIconGirl": [],
    "presetPreviewIconBoy": [],
    "sceneID": 3
  },
  {
    "id": 34,
    "groupLinkId": 52010302,
    "posTitleTextMapHash": 1280927156,
    "requireTitleInActivityPageTextMapHash": 2245778264,
    "requireDescInActivityPageTextMapHash": 3978971855,
    "npcInviteDescTextMapHash": 1715393567,
    "npcCommentDescTextMapHash": 462905519,
    "picSmall": "UI_ActivityPhotoGraphV4_Img_PicSmall06",
    "picBig": "UI_ActivityPhotoGraphV4_Img_PicSmall06",
    "IADGHKGEBEF": "",
    "HFNMFHAAFKI": "",
    "photoCheckRootID": 100810621,
    "rootNodeDescTextMapHash": 3110664124,
    "photoCheckSubNodeID": [
      0,
      0,
      0,
      0
    ],
    "MPMEBGGMLCO": [
      100820602
    ],
    "HEHLFPLNHFL": [
      100830601,
      100830602
    ],
    "photoCheckSubNodeDesc": [
      1454627451,
      4234524429,
      4142351071,
      3569381931
    ],
    "openDay": 3,
    "watcherId": 15201006,
    "galleryId": 78206,
    "redPointID": 481015,
    "presetCheckRootID": 100810601,
    "presetCheckSubID": 100820601,
    "POCPEDOOFCK": 3185143994,
    "presetCheckSubDescTextMapHash": 819749787,
    "GAEJMHINBGJ": [
      "UI_ActivityPhotoGraphV4_Img_PicSmall06_G01",
      "UI_ActivityPhotoGraphV4_Img_PicSmall06_G02",
      "UI_ActivityPhotoGraphV4_Img_PicSmall06_G03"
    ],
    "LEDJHLDMOEA": [
      "UI_ActivityPhotoGraphV4_Img_PicSmall06_B01",
      "UI_ActivityPhotoGraphV4_Img_PicSmall06_B02",
      "UI_ActivityPhotoGraphV4_Img_PicSmall06_B03"
    ],
    "presetPreviewIconGirl": [],
    "presetPreviewIconBoy": [],
    "sceneID": 3
  },
  {
    "id": 35,
    "groupLinkId": 52010401,
    "posTitleTextMapHash": 1028736212,
    "requireTitleInActivityPageTextMapHash": 1236666088,
    "requireDescInActivityPageTextMapHash": 2453807079,
    "npcInviteDescTextMapHash": 500533815,
    "npcCommentDescTextMapHash": 2001666447,
    "picSmall": "UI_ActivityPhotoGraphV4_Img_PicSmall07",
    "picBig": "UI_ActivityPhotoGraphV4_Img_PicSmall07",
    "IADGHKGEBEF": "",
    "HFNMFHAAFKI": "",
    "photoCheckRootID": 100810721,
    "rootNodeDescTextMapHash": 2489576004,
    "photoCheckSubNodeID": [
      0,
      0,
      0,
      0
    ],
    "MPMEBGGMLCO": [
      100820702
    ],
    "HEHLFPLNHFL": [
      100830701,
      100830702
    ],
    "photoCheckSubNodeDesc": [
      3049350963,
      860028053,
      454767823,
      3424326331
    ],
    "openDay": 4,
    "watcherId": 15201007,
    "galleryId": 78207,
    "redPointID": 481016,
    "presetCheckRootID": 100810701,
    "presetCheckSubID": 100820701,
    "POCPEDOOFCK": 3192378650,
    "presetCheckSubDescTextMapHash": 963343171,
    "GAEJMHINBGJ": [
      "UI_ActivityPhotoGraphV4_Img_PicSmall07_G01",
      "UI_ActivityPhotoGraphV4_Img_PicSmall07_G02",
      "UI_ActivityPhotoGraphV4_Img_PicSmall07_G03"
    ],
    "LEDJHLDMOEA": [
      "UI_ActivityPhotoGraphV4_Img_PicSmall07_B01",
      "UI_ActivityPhotoGraphV4_Img_PicSmall07_B02",
      "UI_ActivityPhotoGraphV4_Img_PicSmall07_B03"
    ],
    "presetPreviewIconGirl": [],
    "presetPreviewIconBoy": [],
    "sceneID": 3
  },
  {
    "id": 36,
    "groupLinkId": 52010402,
    "posTitleTextMapHash": 1366088972,
    "requireTitleInActivityPageTextMapHash": 3243353784,
    "requireDescInActivityPageTextMapHash": 214459895,
    "npcInviteDescTextMapHash": 4191300583,
    "npcCommentDescTextMapHash": 2781983975,
    "picSmall": "UI_ActivityPhotoGraphV4_Img_PicSmall08",
    "picBig": "UI_ActivityPhotoGraphV4_Img_PicSmall08",
    "IADGHKGEBEF": "",
    "HFNMFHAAFKI": "",
    "photoCheckRootID": 100810821,
    "rootNodeDescTextMapHash": 3617339300,
    "photoCheckSubNodeID": [
      0,
      0,
      0,
      0
    ],
    "MPMEBGGMLCO": [
      100820802
    ],
    "HEHLFPLNHFL": [
      100830801,
      100830802
    ],
    "photoCheckSubNodeDesc": [
      2744858427,
      927496693,
      2155245039,
      3723288155
    ],
    "openDay": 4,
    "watcherId": 15201008,
    "galleryId": 78208,
    "redPointID": 481017,
    "presetCheckRootID": 100810801,
    "presetCheckSubID": 100820801,
    "POCPEDOOFCK": 2140839050,
    "presetCheckSubDescTextMapHash": 1197196259,
    "GAEJMHINBGJ": [
      "UI_ActivityPhotoGraphV4_Img_PicSmall08_G01",
      "UI_ActivityPhotoGraphV4_Img_PicSmall08_G02",
      "UI_ActivityPhotoGraphV4_Img_PicSmall08_G03"
    ],
    "LEDJHLDMOEA": [
      "UI_ActivityPhotoGraphV4_Img_PicSmall08_B01",
      "UI_ActivityPhotoGraphV4_Img_PicSmall08_B02",
      "UI_ActivityPhotoGraphV4_Img_PicSmall08_B03"
    ],
    "presetPreviewIconGirl": [],
    "presetPreviewIconBoy": [],
    "sceneID": 3
  },
  {
    "id": 37,
    "groupLinkId": 52010501,
    "posTitleTextMapHash": 951398484,
    "requireTitleInActivityPageTextMapHash": 1305705056,
    "requireDescInActivityPageTextMapHash": 2446391711,
    "npcInviteDescTextMapHash": 993724031,
    "npcCommentDescTextMapHash": 437937879,
    "picSmall": "UI_ActivityPhotoGraphV4_Img_PicSmall09",
    "picBig": "UI_ActivityPhotoGraphV4_Img_PicSmall09",
    "IADGHKGEBEF": "",
    "HFNMFHAAFKI": "",
    "photoCheckRootID": 100810921,
    "rootNodeDescTextMapHash": 205617124,
    "photoCheckSubNodeID": [
      0,
      0,
      0,
      0
    ],
    "MPMEBGGMLCO": [
      100820902
    ],
    "HEHLFPLNHFL": [
      100830901,
      100830902
    ],
    "photoCheckSubNodeDesc": [
      1923662811,
      1724861205,
      2694376623,
      779945739
    ],
    "openDay": 5,
    "watcherId": 15201009,
    "galleryId": 78209,
    "redPointID": 481018,
    "presetCheckRootID": 100810901,
    "presetCheckSubID": 100820901,
    "POCPEDOOFCK": 3958393722,
    "presetCheckSubDescTextMapHash": 2880026123,
    "GAEJMHINBGJ": [
      "UI_ActivityPhotoGraphV4_Img_PicSmall09_G01",
      "UI_ActivityPhotoGraphV4_Img_PicSmall09_G02",
      "UI_ActivityPhotoGraphV4_Img_PicSmall09_G03"
    ],
    "LEDJHLDMOEA": [
      "UI_ActivityPhotoGraphV4_Img_PicSmall09_B01",
      "UI_ActivityPhotoGraphV4_Img_PicSmall09_B02",
      "UI_ActivityPhotoGraphV4_Img_PicSmall09_B03"
    ],
    "presetPreviewIconGirl": [],
    "presetPreviewIconBoy": [],
    "sceneID": 3
  },
  {
    "id": 38,
    "groupLinkId": 52010502,
    "posTitleTextMapHash": 4086306196,
    "requireTitleInActivityPageTextMapHash": 2404624448,
    "requireDescInActivityPageTextMapHash": 1309608391,
    "npcInviteDescTextMapHash": 2964270495,
    "npcCommentDescTextMapHash": 97428903,
    "picSmall": "UI_ActivityPhotoGraphV4_Img_PicSmall10",
    "picBig": "UI_ActivityPhotoGraphV4_Img_PicSmall10",
    "IADGHKGEBEF": "",
    "HFNMFHAAFKI": "",
    "photoCheckRootID": 100811021,
    "rootNodeDescTextMapHash": 4292963796,
    "photoCheckSubNodeID": [
      0,
      0,
      0,
      0
    ],
    "MPMEBGGMLCO": [
      100821002
    ],
    "HEHLFPLNHFL": [
      100831001,
      100831002
    ],
    "photoCheckSubNodeDesc": [
      3120715803,
      903844589,
      3948386823,
      2681254819
    ],
    "openDay": 5,
    "watcherId": 15201010,
    "galleryId": 78210,
    "redPointID": 481019,
    "presetCheckRootID": 100811001,
    "presetCheckSubID": 100821001,
    "POCPEDOOFCK": 1311814178,
    "presetCheckSubDescTextMapHash": 637523643,
    "GAEJMHINBGJ": [
      "UI_ActivityPhotoGraphV4_Img_PicSmall10_G01",
      "UI_ActivityPhotoGraphV4_Img_PicSmall10_G02",
      "UI_ActivityPhotoGraphV4_Img_PicSmall10_G03"
    ],
    "LEDJHLDMOEA": [
      "UI_ActivityPhotoGraphV4_Img_PicSmall10_B01",
      "UI_ActivityPhotoGraphV4_Img_PicSmall10_B02",
      "UI_ActivityPhotoGraphV4_Img_PicSmall10_B03"
    ],
    "presetPreviewIconGirl": [],
    "presetPreviewIconBoy": [],
    "sceneID": 3
  },
  {
    "id": 39,
    "groupLinkId": 52010601,
    "posTitleTextMapHash": 2913759548,
    "requireTitleInActivityPageTextMapHash": 1435790256,
    "requireDescInActivityPageTextMapHash": 2262285103,
    "npcInviteDescTextMapHash": 1930983991,
    "npcCommentDescTextMapHash": 1089862271,
    "picSmall": "UI_ActivityPhotoGraphV4_Img_PicSmall11",
    "picBig": "UI_ActivityPhotoGraphV4_Img_PicSmall11",
    "IADGHKGEBEF": "",
    "HFNMFHAAFKI": "",
    "photoCheckRootID": 100811121,
    "rootNodeDescTextMapHash": 2268049044,
    "photoCheckSubNodeID": [
      0,
      0,
      0,
      0
    ],
    "MPMEBGGMLCO": [
      100821102
    ],
    "HEHLFPLNHFL": [
      100831101,
      100831102
    ],
    "photoCheckSubNodeDesc": [
      3555443659,
      4015705229,
      3150569063,
      893471643
    ],
    "openDay": 6,
    "watcherId": 15201011,
    "galleryId": 78211,
    "redPointID": 481020,
    "presetCheckRootID": 100811101,
    "presetCheckSubID": 100821101,
    "POCPEDOOFCK": 245786178,
    "presetCheckSubDescTextMapHash": 3778014219,
    "GAEJMHINBGJ": [
      "UI_ActivityPhotoGraphV4_Img_PicSmall11_G01",
      "UI_ActivityPhotoGraphV4_Img_PicSmall11_G02",
      "UI_ActivityPhotoGraphV4_Img_PicSmall11_G03"
    ],
    "LEDJHLDMOEA": [
      "UI_ActivityPhotoGraphV4_Img_PicSmall11_B01",
      "UI_ActivityPhotoGraphV4_Img_PicSmall11_B02",
      "UI_ActivityPhotoGraphV4_Img_PicSmall11_B03"
    ],
    "presetPreviewIconGirl": [],
    "presetPreviewIconBoy": [],
    "sceneID": 3
  },
  {
    "id": 40,
    "groupLinkId": 52010602,
    "posTitleTextMapHash": 3649703844,
    "requireTitleInActivityPageTextMapHash": 15708544,
    "requireDescInActivityPageTextMapHash": 86418223,
    "npcInviteDescTextMapHash": 405510039,
    "npcCommentDescTextMapHash": 1325414911,
    "picSmall": "UI_ActivityPhotoGraphV4_Img_PicSmall12",
    "picBig": "UI_ActivityPhotoGraphV4_Img_PicSmall12",
    "IADGHKGEBEF": "",
    "HFNMFHAAFKI": "",
    "photoCheckRootID": 100811221,
    "rootNodeDescTextMapHash": 2769075532,
    "photoCheckSubNodeID": [
      0,
      0,
      0,
      0
    ],
    "MPMEBGGMLCO": [
      100821202
    ],
    "HEHLFPLNHFL": [
      100831201,
      100831202
    ],
    "photoCheckSubNodeDesc": [
      13213843,
      849774685,
      2937306095,
      299222051
    ],
    "openDay": 6,
    "watcherId": 15201012,
    "galleryId": 78212,
    "redPointID": 481021,
    "presetCheckRootID": 100811201,
    "presetCheckSubID": 100821201,
    "POCPEDOOFCK": 777925954,
    "presetCheckSubDescTextMapHash": 913976403,
    "GAEJMHINBGJ": [
      "UI_ActivityPhotoGraphV4_Img_PicSmall12_G01",
      "UI_ActivityPhotoGraphV4_Img_PicSmall12_G02",
      "UI_ActivityPhotoGraphV4_Img_PicSmall12_G03"
    ],
    "LEDJHLDMOEA": [
      "UI_ActivityPhotoGraphV4_Img_PicSmall12_B01",
      "UI_ActivityPhotoGraphV4_Img_PicSmall12_B02",
      "UI_ActivityPhotoGraphV4_Img_PicSmall12_B03"
    ],
    "presetPreviewIconGirl": [],
    "presetPreviewIconBoy": [],
    "sceneID": 3
  },
  {
    "id": 41,
    "groupLinkId": 52010701,
    "posTitleTextMapHash": 4055848188,
    "requireTitleInActivityPageTextMapHash": 840067768,
    "requireDescInActivityPageTextMapHash": 349424935,
    "npcInviteDescTextMapHash": 3293935471,
    "npcCommentDescTextMapHash": 2109829391,
    "picSmall": "UI_ActivityPhotoGraphV4_Img_PicSmall13",
    "picBig": "UI_ActivityPhotoGraphV4_Img_PicSmall13",
    "IADGHKGEBEF": "",
    "HFNMFHAAFKI": "",
    "photoCheckRootID": 100811321,
    "rootNodeDescTextMapHash": 4088689652,
    "photoCheckSubNodeID": [
      0,
      0,
      0,
      0
    ],
    "MPMEBGGMLCO": [
      100821302
    ],
    "HEHLFPLNHFL": [
      100831301,
      100831302
    ],
    "photoCheckSubNodeDesc": [
      1108233251,
      3391716021,
      3714828479,
      2580778875
    ],
    "openDay": 7,
    "watcherId": 15201013,
    "galleryId": 78213,
    "redPointID": 481022,
    "presetCheckRootID": 100811301,
    "presetCheckSubID": 100821301,
    "POCPEDOOFCK": 4131917562,
    "presetCheckSubDescTextMapHash": 275857811,
    "GAEJMHINBGJ": [
      "UI_ActivityPhotoGraphV4_Img_PicSmall13_G01",
      "UI_ActivityPhotoGraphV4_Img_PicSmall13_G02",
      "UI_ActivityPhotoGraphV4_Img_PicSmall13_G03"
    ],
    "LEDJHLDMOEA": [
      "UI_ActivityPhotoGraphV4_Img_PicSmall13_B01",
      "UI_ActivityPhotoGraphV4_Img_PicSmall13_B02",
      "UI_ActivityPhotoGraphV4_Img_PicSmall13_B03"
    ],
    "presetPreviewIconGirl": [],
    "presetPreviewIconBoy": [],
    "sceneID": 3
  },
  {
    "id": 42,
    "groupLinkId": 52010702,
    "posTitleTextMapHash": 2557202916,
    "requireTitleInActivityPageTextMapHash": 1507584784,
    "requireDescInActivityPageTextMapHash": 2944591767,
    "npcInviteDescTextMapHash": 4125106807,
    "npcCommentDescTextMapHash": 2513876087,
    "picSmall": "UI_ActivityPhotoGraphV4_Img_PicSmall14_1",
    "picBig": "UI_ActivityPhotoGraphV4_Img_PicSmall14_1",
    "IADGHKGEBEF": "UI_ActivityPhotoGraphV4_Img_PicSmall14_2",
    "HFNMFHAAFKI": "UI_ActivityPhotoGraphV4_Img_PicSmall14_2",
    "photoCheckRootID": 100811421,
    "rootNodeDescTextMapHash": 2123070532,
    "photoCheckSubNodeID": [
      0,
      0,
      0,
      0
    ],
    "MPMEBGGMLCO": [
      100821402
    ],
    "HEHLFPLNHFL": [
      100831401,
      100831402
    ],
    "photoCheckSubNodeDesc": [
      1873465107,
      2258731125,
      2691851831,
      1804570571
    ],
    "openDay": 7,
    "watcherId": 15201014,
    "galleryId": 78214,
    "redPointID": 481023,
    "presetCheckRootID": 100811401,
    "presetCheckSubID": 100821401,
    "POCPEDOOFCK": 878119194,
    "presetCheckSubDescTextMapHash": 758797355,
    "GAEJMHINBGJ": [
      "UI_ActivityPhotoGraphV4_Img_PicSmall14_G01",
      "UI_ActivityPhotoGraphV4_Img_PicSmall14_G02",
      "UI_ActivityPhotoGraphV4_Img_PicSmall14_G03"
    ],
    "LEDJHLDMOEA": [
      "UI_ActivityPhotoGraphV4_Img_PicSmall14_B01",
      "UI_ActivityPhotoGraphV4_Img_PicSmall14_B02",
      "UI_ActivityPhotoGraphV4_Img_PicSmall14_B03"
    ],
    "presetPreviewIconGirl": [
      "UI_ActivityPhotoGraphV4_Img_PicSmall14_G04",
      "UI_ActivityPhotoGraphV4_Img_PicSmall14_G05",
      "UI_ActivityPhotoGraphV4_Img_PicSmall14_G06"
    ],
    "presetPreviewIconBoy": [
      "UI_ActivityPhotoGraphV4_Img_PicSmall14_B04",
      "UI_ActivityPhotoGraphV4_Img_PicSmall14_B05",
      "UI_ActivityPhotoGraphV4_Img_PicSmall14_B06"
    ],
    "sceneID": 3,
    "CIOJDPKNJNA": 7408516
  },
  {
    "id": 43,
    "groupLinkId": 52050101,
    "posTitleTextMapHash": 1207742596,
    "requireTitleInActivityPageTextMapHash": 86458776,
    "requireDescInActivityPageTextMapHash": 3565863839,
    "npcInviteDescTextMapHash": 2082547111,
    "npcCommentDescTextMapHash": 775356991,
    "picSmall": "UI_ActivityPhotoGraphV2_Img_PicSmall01",
    "picBig": "UI_ActivityPhotoGraphV2_Img_PicSmall01",
    "IADGHKGEBEF": "UI_ActivityPhotoGraphV2_Img_PicSmall01",
    "HFNMFHAAFKI": "UI_ActivityPhotoGraphV2_Img_PicSmall01",
    "photoCheckRootID": 100910101,
    "rootNodeDescTextMapHash": 644153212,
    "photoCheckSubNodeID": [
      0,
      0,
      0,
      0
    ],
    "MPMEBGGMLCO": [
      100920101,
      100930101,
      100940101
    ],
    "HEHLFPLNHFL": [],
    "photoCheckSubNodeDesc": [
      2970763411,
      3946243005,
      19246527,
      950001811
    ],
    "openDay": 1,
    "watcherId": 15205001,
    "galleryId": 78701,
    "redPointID": 502010,
    "presetCheckRootID": 100910101,
    "POCPEDOOFCK": 3325056482,
    "presetCheckSubDescTextMapHash": 4184343579,
    "GAEJMHINBGJ": [
      "UI_ActivityPhotographV5_Img_PicSmall01_G01",
      "UI_ActivityPhotographV5_Img_PicSmall01_G02",
      "UI_ActivityPhotographV5_Img_PicSmall01_G03"
    ],
    "LEDJHLDMOEA": [
      "UI_ActivityPhotographV5_Img_PicSmall01_B01",
      "UI_ActivityPhotographV5_Img_PicSmall01_B02",
      "UI_ActivityPhotographV5_Img_PicSmall01_B03"
    ],
    "presetPreviewIconGirl": [
      "UI_ActivityPhotographV5_Img_PicSmall01_G01",
      "UI_ActivityPhotographV5_Img_PicSmall01_G02",
      "UI_ActivityPhotographV5_Img_PicSmall01_G03"
    ],
    "presetPreviewIconBoy": [
      "UI_ActivityPhotographV5_Img_PicSmall01_B01",
      "UI_ActivityPhotographV5_Img_PicSmall01_B02",
      "UI_ActivityPhotographV5_Img_PicSmall01_B03"
    ],
    "sceneID": 3,
    "ODLAFPDCMHH": 1
  },
  {
    "id": 44,
    "groupLinkId": 52050102,
    "posTitleTextMapHash": 1403783028,
    "requireTitleInActivityPageTextMapHash": 3897973000,
    "requireDescInActivityPageTextMapHash": 1938716815,
    "npcInviteDescTextMapHash": 3228528791,
    "npcCommentDescTextMapHash": 3429101463,
    "picSmall": "UI_ActivityPhotoGraphV2_Img_PicSmall02",
    "picBig": "UI_ActivityPhotoGraphV2_Img_PicSmall02",
    "IADGHKGEBEF": "UI_ActivityPhotoGraphV2_Img_PicSmall02",
    "HFNMFHAAFKI": "UI_ActivityPhotoGraphV2_Img_PicSmall02",
    "photoCheckRootID": 100910102,
    "rootNodeDescTextMapHash": 1447980540,
    "photoCheckSubNodeID": [
      0,
      0,
      0,
      0
    ],
    "MPMEBGGMLCO": [
      100920201,
      100930201,
      100940201
    ],
    "HEHLFPLNHFL": [],
    "photoCheckSubNodeDesc": [
      1116443891,
      1281675821,
      2900659007,
      3066268779
    ],
    "openDay": 1,
    "watcherId": 15205002,
    "galleryId": 78702,
    "redPointID": 502011,
    "presetCheckRootID": 100910102,
    "POCPEDOOFCK": 3056742594,
    "presetCheckSubDescTextMapHash": 3697255035,
    "GAEJMHINBGJ": [
      "UI_ActivityPhotographV5_Img_PicSmall01_G04",
      "UI_ActivityPhotographV5_Img_PicSmall01_G05",
      "UI_ActivityPhotographV5_Img_PicSmall01_G06"
    ],
    "LEDJHLDMOEA": [
      "UI_ActivityPhotographV5_Img_PicSmall01_B04",
      "UI_ActivityPhotographV5_Img_PicSmall01_B05",
      "UI_ActivityPhotographV5_Img_PicSmall01_B06"
    ],
    "presetPreviewIconGirl": [],
    "presetPreviewIconBoy": [
      "UI_ActivityPhotographV5_Img_PicSmall01_B04",
      "UI_ActivityPhotographV5_Img_PicSmall01_B05",
      "UI_ActivityPhotographV5_Img_PicSmall01_B06"
    ],
    "sceneID": 3,
    "ODLAFPDCMHH": 2
  },
  {
    "id": 45,
    "groupLinkId": 52050201,
    "posTitleTextMapHash": 1500225180,
    "requireTitleInActivityPageTextMapHash": 3062028968,
    "requireDescInActivityPageTextMapHash": 1161339399,
    "npcInviteDescTextMapHash": 2507222623,
    "npcCommentDescTextMapHash": 1938509119,
    "picSmall": "UI_ActivityPhotoGraphV2_Img_PicSmall01",
    "picBig": "UI_ActivityPhotoGraphV2_Img_PicSmall01",
    "IADGHKGEBEF": "UI_ActivityPhotoGraphV2_Img_PicSmall01",
    "HFNMFHAAFKI": "UI_ActivityPhotoGraphV2_Img_PicSmall01",
    "photoCheckRootID": 100910103,
    "rootNodeDescTextMapHash": 1197511148,
    "photoCheckSubNodeID": [
      0,
      0,
      0,
      0
    ],
    "MPMEBGGMLCO": [
      100920301,
      100930301,
      100940301
    ],
    "HEHLFPLNHFL": [],
    "photoCheckSubNodeDesc": [
      1500704571,
      464065821,
      843118103,
      3441279691
    ],
    "openDay": 2,
    "watcherId": 15205003,
    "galleryId": 78703,
    "redPointID": 502012,
    "presetCheckRootID": 100910103,
    "POCPEDOOFCK": 156607962,
    "presetCheckSubDescTextMapHash": 2556498707,
    "GAEJMHINBGJ": [
      "UI_ActivityPhotographV5_Img_PicSmall02_G01",
      "UI_ActivityPhotographV5_Img_PicSmall02_G02",
      "UI_ActivityPhotographV5_Img_PicSmall02_G03"
    ],
    "LEDJHLDMOEA": [
      "UI_ActivityPhotographV5_Img_PicSmall02_B01",
      "UI_ActivityPhotographV5_Img_PicSmall02_B02",
      "UI_ActivityPhotographV5_Img_PicSmall02_B03"
    ],
    "presetPreviewIconGirl": [
      "UI_ActivityPhotographV5_Img_PicSmall02_G01",
      "UI_ActivityPhotographV5_Img_PicSmall02_G02",
      "UI_ActivityPhotographV5_Img_PicSmall02_G03"
    ],
    "presetPreviewIconBoy": [
      "UI_ActivityPhotographV5_Img_PicSmall02_B01",
      "UI_ActivityPhotographV5_Img_PicSmall02_B02",
      "UI_ActivityPhotographV5_Img_PicSmall02_B03"
    ],
    "sceneID": 3,
    "ODLAFPDCMHH": 3
  },
  {
    "id": 46,
    "groupLinkId": 52050202,
    "posTitleTextMapHash": 3269480196,
    "requireTitleInActivityPageTextMapHash": 2891195072,
    "requireDescInActivityPageTextMapHash": 1777550047,
    "npcInviteDescTextMapHash": 243193151,
    "npcCommentDescTextMapHash": 1369022127,
    "picSmall": "UI_ActivityPhotoGraphV2_Img_PicSmall02",
    "picBig": "UI_ActivityPhotoGraphV2_Img_PicSmall02",
    "IADGHKGEBEF": "UI_ActivityPhotoGraphV2_Img_PicSmall02",
    "HFNMFHAAFKI": "UI_ActivityPhotoGraphV2_Img_PicSmall02",
    "photoCheckRootID": 100910104,
    "rootNodeDescTextMapHash": 1167488260,
    "photoCheckSubNodeID": [
      0,
      0,
      0,
      0
    ],
    "MPMEBGGMLCO": [
      100920401,
      100930401,
      100940401
    ],
    "HEHLFPLNHFL": [],
    "photoCheckSubNodeDesc": [
      560199891,
      3801136605,
      199216679,
      2639674451
    ],
    "openDay": 2,
    "watcherId": 15205004,
    "galleryId": 78704,
    "redPointID": 502013,
    "presetCheckRootID": 100910104,
    "POCPEDOOFCK": 1970572002,
    "presetCheckSubDescTextMapHash": 3200563587,
    "GAEJMHINBGJ": [
      "UI_ActivityPhotographV5_Img_PicSmall02_G04",
      "UI_ActivityPhotographV5_Img_PicSmall02_G05",
      "UI_ActivityPhotographV5_Img_PicSmall02_G06"
    ],
    "LEDJHLDMOEA": [
      "UI_ActivityPhotographV5_Img_PicSmall02_B04",
      "UI_ActivityPhotographV5_Img_PicSmall02_B05",
      "UI_ActivityPhotographV5_Img_PicSmall02_B06"
    ],
    "presetPreviewIconGirl": [
      "UI_ActivityPhotographV5_Img_PicSmall02_G04",
      "UI_ActivityPhotographV5_Img_PicSmall02_G05",
      "UI_ActivityPhotographV5_Img_PicSmall02_G06"
    ],
    "presetPreviewIconBoy": [
      "UI_ActivityPhotographV5_Img_PicSmall02_B04",
      "UI_ActivityPhotographV5_Img_PicSmall02_B05",
      "UI_ActivityPhotographV5_Img_PicSmall02_B06"
    ],
    "sceneID": 3,
    "ODLAFPDCMHH": 4
  },
  {
    "id": 47,
    "groupLinkId": 52050301,
    "posTitleTextMapHash": 2565306196,
    "requireTitleInActivityPageTextMapHash": 2758472320,
    "requireDescInActivityPageTextMapHash": 4118001623,
    "npcInviteDescTextMapHash": 2646417775,
    "npcCommentDescTextMapHash": 2627644543,
    "picSmall": "UI_ActivityPhotoGraphV2_Img_PicSmall01",
    "picBig": "UI_ActivityPhotoGraphV2_Img_PicSmall01",
    "IADGHKGEBEF": "UI_ActivityPhotoGraphV2_Img_PicSmall01",
    "HFNMFHAAFKI": "UI_ActivityPhotoGraphV2_Img_PicSmall01",
    "photoCheckRootID": 100910105,
    "rootNodeDescTextMapHash": 2373004732,
    "photoCheckSubNodeID": [
      0,
      0,
      0,
      0
    ],
    "MPMEBGGMLCO": [
      100920501,
      100930501,
      100940501
    ],
    "HEHLFPLNHFL": [],
    "photoCheckSubNodeDesc": [
      1509380587,
      3244559061,
      1434457527,
      363110883
    ],
    "openDay": 3,
    "watcherId": 15205005,
    "galleryId": 78705,
    "redPointID": 502014,
    "presetCheckRootID": 100910105,
    "POCPEDOOFCK": 3604222186,
    "presetCheckSubDescTextMapHash": 2661025515,
    "GAEJMHINBGJ": [
      "UI_ActivityPhotographV5_Img_PicSmall03_G01",
      "UI_ActivityPhotographV5_Img_PicSmall03_G02",
      "UI_ActivityPhotographV5_Img_PicSmall03_G03"
    ],
    "LEDJHLDMOEA": [
      "UI_ActivityPhotographV5_Img_PicSmall03_B01",
      "UI_ActivityPhotographV5_Img_PicSmall03_B02",
      "UI_ActivityPhotographV5_Img_PicSmall03_B03"
    ],
    "presetPreviewIconGirl": [
      "UI_ActivityPhotographV5_Img_PicSmall03_G01",
      "UI_ActivityPhotographV5_Img_PicSmall03_G02",
      "UI_ActivityPhotographV5_Img_PicSmall03_G03"
    ],
    "presetPreviewIconBoy": [
      "UI_ActivityPhotographV5_Img_PicSmall03_B01",
      "UI_ActivityPhotographV5_Img_PicSmall03_B02",
      "UI_ActivityPhotographV5_Img_PicSmall03_B03"
    ],
    "sceneID": 3,
    "ODLAFPDCMHH": 5
  },
  {
    "id": 48,
    "groupLinkId": 52050302,
    "posTitleTextMapHash": 3817205932,
    "requireTitleInActivityPageTextMapHash": 862736512,
    "requireDescInActivityPageTextMapHash": 4152103223,
    "npcInviteDescTextMapHash": 227993295,
    "npcCommentDescTextMapHash": 726856711,
    "picSmall": "UI_ActivityPhotoGraphV2_Img_PicSmall02",
    "picBig": "UI_ActivityPhotoGraphV2_Img_PicSmall02",
    "IADGHKGEBEF": "UI_ActivityPhotoGraphV2_Img_PicSmall02",
    "HFNMFHAAFKI": "UI_ActivityPhotoGraphV2_Img_PicSmall02",
    "photoCheckRootID": 100910106,
    "rootNodeDescTextMapHash": 3632220604,
    "photoCheckSubNodeID": [
      0,
      0,
      0,
      0
    ],
    "MPMEBGGMLCO": [
      100920601,
      100930601,
      100940601
    ],
    "HEHLFPLNHFL": [],
    "photoCheckSubNodeDesc": [
      1355279923,
      897753453,
      3893404311,
      3886203411
    ],
    "openDay": 3,
    "watcherId": 15205006,
    "galleryId": 78706,
    "redPointID": 502015,
    "presetCheckRootID": 100910106,
    "POCPEDOOFCK": 2032278386,
    "presetCheckSubDescTextMapHash": 790410051,
    "GAEJMHINBGJ": [
      "UI_ActivityPhotographV5_Img_PicSmall03_G04",
      "UI_ActivityPhotographV5_Img_PicSmall03_G05",
      "UI_ActivityPhotographV5_Img_PicSmall03_G06"
    ],
    "LEDJHLDMOEA": [
      "UI_ActivityPhotographV5_Img_PicSmall03_B04",
      "UI_ActivityPhotographV5_Img_PicSmall03_B05",
      "UI_ActivityPhotographV5_Img_PicSmall03_B06"
    ],
    "presetPreviewIconGirl": [
      "UI_ActivityPhotographV5_Img_PicSmall03_G04",
      "UI_ActivityPhotographV5_Img_PicSmall03_G05",
      "UI_ActivityPhotographV5_Img_PicSmall03_G06"
    ],
    "presetPreviewIconBoy": [
      "UI_ActivityPhotographV5_Img_PicSmall03_B04",
      "UI_ActivityPhotographV5_Img_PicSmall03_B05",
      "UI_ActivityPhotographV5_Img_PicSmall03_B06"
    ],
    "sceneID": 3,
    "ODLAFPDCMHH": 6
  },
  {
    "id": 49,
    "groupLinkId": 52050401,
    "posTitleTextMapHash": 538191492,
    "requireTitleInActivityPageTextMapHash": 2826047128,
    "requireDescInActivityPageTextMapHash": 1675798639,
    "npcInviteDescTextMapHash": 1930782471,
    "npcCommentDescTextMapHash": 3083259535,
    "picSmall": "UI_ActivityPhotoGraphV2_Img_PicSmall01",
    "picBig": "UI_ActivityPhotoGraphV2_Img_PicSmall01",
    "IADGHKGEBEF": "UI_ActivityPhotoGraphV2_Img_PicSmall01",
    "HFNMFHAAFKI": "UI_ActivityPhotoGraphV2_Img_PicSmall01",
    "photoCheckRootID": 100910107,
    "rootNodeDescTextMapHash": 3320549964,
    "photoCheckSubNodeID": [
      0,
      0,
      0,
      0
    ],
    "MPMEBGGMLCO": [
      100920701,
      100930701,
      100940701
    ],
    "HEHLFPLNHFL": [],
    "photoCheckSubNodeDesc": [
      3680429507,
      2505201221,
      1902907439,
      1844851171
    ],
    "openDay": 4,
    "watcherId": 15205007,
    "galleryId": 78707,
    "redPointID": 502016,
    "presetCheckRootID": 100910107,
    "POCPEDOOFCK": 1756673914,
    "presetCheckSubDescTextMapHash": 2892701355,
    "GAEJMHINBGJ": [
      "UI_ActivityPhotographV5_Img_PicSmall04_G01",
      "UI_ActivityPhotographV5_Img_PicSmall04_G02",
      "UI_ActivityPhotographV5_Img_PicSmall04_G03"
    ],
    "LEDJHLDMOEA": [
      "UI_ActivityPhotographV5_Img_PicSmall04_B01",
      "UI_ActivityPhotographV5_Img_PicSmall04_B02",
      "UI_ActivityPhotographV5_Img_PicSmall04_B03"
    ],
    "presetPreviewIconGirl": [
      "UI_ActivityPhotographV5_Img_PicSmall04_G01",
      "UI_ActivityPhotographV5_Img_PicSmall04_G02",
      "UI_ActivityPhotographV5_Img_PicSmall04_G03"
    ],
    "presetPreviewIconBoy": [
      "UI_ActivityPhotographV5_Img_PicSmall04_B01",
      "UI_ActivityPhotographV5_Img_PicSmall04_B02",
      "UI_ActivityPhotographV5_Img_PicSmall04_B03"
    ],
    "sceneID": 3,
    "ODLAFPDCMHH": 7
  },
  {
    "id": 50,
    "groupLinkId": 52050402,
    "posTitleTextMapHash": 4015957756,
    "requireTitleInActivityPageTextMapHash": 1565434928,
    "requireDescInActivityPageTextMapHash": 3713544847,
    "npcInviteDescTextMapHash": 2452584439,
    "npcCommentDescTextMapHash": 3316408151,
    "picSmall": "UI_ActivityPhotoGraphV2_Img_PicSmall02",
    "picBig": "UI_ActivityPhotoGraphV2_Img_PicSmall02",
    "IADGHKGEBEF": "UI_ActivityPhotoGraphV2_Img_PicSmall02",
    "HFNMFHAAFKI": "UI_ActivityPhotoGraphV2_Img_PicSmall02",
    "photoCheckRootID": 100910108,
    "rootNodeDescTextMapHash": 733375028,
    "photoCheckSubNodeID": [
      0,
      0,
      0,
      0
    ],
    "MPMEBGGMLCO": [
      100920801,
      100930801,
      100940801
    ],
    "HEHLFPLNHFL": [],
    "photoCheckSubNodeDesc": [
      72606171,
      2943669981,
      353126207,
      4249267155
    ],
    "openDay": 4,
    "watcherId": 15205008,
    "galleryId": 78708,
    "redPointID": 502017,
    "presetCheckRootID": 100910108,
    "POCPEDOOFCK": 562100410,
    "presetCheckSubDescTextMapHash": 2284274323,
    "GAEJMHINBGJ": [
      "UI_ActivityPhotographV5_Img_PicSmall04_G04",
      "UI_ActivityPhotographV5_Img_PicSmall04_G05",
      "UI_ActivityPhotographV5_Img_PicSmall04_G06"
    ],
    "LEDJHLDMOEA": [
      "UI_ActivityPhotographV5_Img_PicSmall04_B04",
      "UI_ActivityPhotographV5_Img_PicSmall04_B05",
      "UI_ActivityPhotographV5_Img_PicSmall04_B06"
    ],
    "presetPreviewIconGirl": [
      "UI_ActivityPhotographV5_Img_PicSmall04_G04",
      "UI_ActivityPhotographV5_Img_PicSmall04_G05",
      "UI_ActivityPhotographV5_Img_PicSmall04_G06"
    ],
    "presetPreviewIconBoy": [
      "UI_ActivityPhotographV5_Img_PicSmall04_B04",
      "UI_ActivityPhotographV5_Img_PicSmall04_B05",
      "UI_ActivityPhotographV5_Img_PicSmall04_B06"
    ],
    "sceneID": 3,
    "ODLAFPDCMHH": 8
  },
  {
    "id": 51,
    "groupLinkId": 52050501,
    "posTitleTextMapHash": 1310951892,
    "requireTitleInActivityPageTextMapHash": 408407600,
    "requireDescInActivityPageTextMapHash": 1125463047,
    "npcInviteDescTextMapHash": 425063831,
    "npcCommentDescTextMapHash": 2568428087,
    "picSmall": "UI_ActivityPhotoGraphV2_Img_PicSmall01",
    "picBig": "UI_ActivityPhotoGraphV2_Img_PicSmall01",
    "IADGHKGEBEF": "UI_ActivityPhotoGraphV2_Img_PicSmall01",
    "HFNMFHAAFKI": "UI_ActivityPhotoGraphV2_Img_PicSmall01",
    "photoCheckRootID": 100910109,
    "rootNodeDescTextMapHash": 3730217548,
    "photoCheckSubNodeID": [
      0,
      0,
      0,
      0
    ],
    "MPMEBGGMLCO": [
      100920901,
      100930901,
      100940901
    ],
    "HEHLFPLNHFL": [],
    "photoCheckSubNodeDesc": [
      1692186283,
      2472520709,
      1561689535,
      2705163003
    ],
    "openDay": 5,
    "watcherId": 15205009,
    "galleryId": 78709,
    "redPointID": 502018,
    "presetCheckRootID": 100910109,
    "POCPEDOOFCK": 2975833546,
    "presetCheckSubDescTextMapHash": 628106131,
    "GAEJMHINBGJ": [
      "UI_ActivityPhotographV5_Img_PicSmall05_G01",
      "UI_ActivityPhotographV5_Img_PicSmall05_G02",
      "UI_ActivityPhotographV5_Img_PicSmall05_G03"
    ],
    "LEDJHLDMOEA": [
      "UI_ActivityPhotographV5_Img_PicSmall05_B01",
      "UI_ActivityPhotographV5_Img_PicSmall05_B02",
      "UI_ActivityPhotographV5_Img_PicSmall05_B03"
    ],
    "presetPreviewIconGirl": [
      "UI_ActivityPhotographV5_Img_PicSmall05_G01",
      "UI_ActivityPhotographV5_Img_PicSmall05_G02",
      "UI_ActivityPhotographV5_Img_PicSmall05_G03"
    ],
    "presetPreviewIconBoy": [
      "UI_ActivityPhotographV5_Img_PicSmall05_B01",
      "UI_ActivityPhotographV5_Img_PicSmall05_B02",
      "UI_ActivityPhotographV5_Img_PicSmall05_B03"
    ],
    "sceneID": 3,
    "ODLAFPDCMHH": 9
  },
  {
    "id": 52,
    "groupLinkId": 52050502,
    "posTitleTextMapHash": 2448019756,
    "requireTitleInActivityPageTextMapHash": 2159051992,
    "requireDescInActivityPageTextMapHash": 4043883927,
    "npcInviteDescTextMapHash": 1955728903,
    "npcCommentDescTextMapHash": 2050960343,
    "picSmall": "UI_ActivityPhotoGraphV2_Img_PicSmall02",
    "picBig": "UI_ActivityPhotoGraphV2_Img_PicSmall02",
    "IADGHKGEBEF": "UI_ActivityPhotoGraphV2_Img_PicSmall02",
    "HFNMFHAAFKI": "UI_ActivityPhotoGraphV2_Img_PicSmall02",
    "photoCheckRootID": 100910110,
    "rootNodeDescTextMapHash": 336234996,
    "photoCheckSubNodeID": [
      0,
      0,
      0,
      0
    ],
    "MPMEBGGMLCO": [
      100921001,
      100931001,
      100941001
    ],
    "HEHLFPLNHFL": [],
    "photoCheckSubNodeDesc": [
      1670494507,
      3701236973,
      3192612423,
      244267731
    ],
    "openDay": 5,
    "watcherId": 15205010,
    "galleryId": 78710,
    "redPointID": 502019,
    "presetCheckRootID": 100910110,
    "POCPEDOOFCK": 99972690,
    "presetCheckSubDescTextMapHash": 2484084235,
    "GAEJMHINBGJ": [
      "UI_ActivityPhotographV5_Img_PicSmall05_G04",
      "UI_ActivityPhotographV5_Img_PicSmall05_G05",
      "UI_ActivityPhotographV5_Img_PicSmall05_G06"
    ],
    "LEDJHLDMOEA": [
      "UI_ActivityPhotographV5_Img_PicSmall05_B04",
      "UI_ActivityPhotographV5_Img_PicSmall05_B05",
      "UI_ActivityPhotographV5_Img_PicSmall05_B06"
    ],
    "presetPreviewIconGirl": [
      "UI_ActivityPhotographV5_Img_PicSmall05_G04",
      "UI_ActivityPhotographV5_Img_PicSmall05_G05",
      "UI_ActivityPhotographV5_Img_PicSmall05_G06"
    ],
    "presetPreviewIconBoy": [
      "UI_ActivityPhotographV5_Img_PicSmall05_B04",
      "UI_ActivityPhotographV5_Img_PicSmall05_B05",
      "UI_ActivityPhotographV5_Img_PicSmall05_B06"
    ],
    "sceneID": 3,
    "ODLAFPDCMHH": 10
  },
  {
    "id": 53,
    "groupLinkId": 52050601,
    "posTitleTextMapHash": 2716263316,
    "requireTitleInActivityPageTextMapHash": 2625636224,
    "requireDescInActivityPageTextMapHash": 4000402479,
    "npcInviteDescTextMapHash": 3900815703,
    "npcCommentDescTextMapHash": 4081942247,
    "picSmall": "UI_ActivityPhotoGraphV2_Img_PicSmall01",
    "picBig": "UI_ActivityPhotoGraphV2_Img_PicSmall01",
    "IADGHKGEBEF": "UI_ActivityPhotoGraphV2_Img_PicSmall01",
    "HFNMFHAAFKI": "UI_ActivityPhotoGraphV2_Img_PicSmall01",
    "photoCheckRootID": 100910111,
    "rootNodeDescTextMapHash": 1982370700,
    "photoCheckSubNodeID": [
      0,
      0,
      0,
      0
    ],
    "MPMEBGGMLCO": [
      100921101,
      100931101,
      100941101
    ],
    "HEHLFPLNHFL": [],
    "photoCheckSubNodeDesc": [
      740545859,
      2265169933,
      1861298655,
      3949471659
    ],
    "openDay": 6,
    "watcherId": 15205011,
    "galleryId": 78711,
    "redPointID": 502020,
    "presetCheckRootID": 100910111,
    "POCPEDOOFCK": 382620042,
    "presetCheckSubDescTextMapHash": 3184633659,
    "GAEJMHINBGJ": [
      "UI_ActivityPhotographV5_Img_PicSmall06_G01",
      "UI_ActivityPhotographV5_Img_PicSmall06_G02",
      "UI_ActivityPhotographV5_Img_PicSmall06_G03"
    ],
    "LEDJHLDMOEA": [
      "UI_ActivityPhotographV5_Img_PicSmall06_B01",
      "UI_ActivityPhotographV5_Img_PicSmall06_B02",
      "UI_ActivityPhotographV5_Img_PicSmall06_B03"
    ],
    "presetPreviewIconGirl": [
      "UI_ActivityPhotographV5_Img_PicSmall06_G01",
      "UI_ActivityPhotographV5_Img_PicSmall06_G02",
      "UI_ActivityPhotographV5_Img_PicSmall06_G03"
    ],
    "presetPreviewIconBoy": [
      "UI_ActivityPhotographV5_Img_PicSmall06_B01",
      "UI_ActivityPhotographV5_Img_PicSmall06_B02",
      "UI_ActivityPhotographV5_Img_PicSmall06_B03"
    ],
    "sceneID": 3,
    "ODLAFPDCMHH": 11
  },
  {
    "id": 54,
    "groupLinkId": 52050602,
    "posTitleTextMapHash": 3251202532,
    "requireTitleInActivityPageTextMapHash": 1613691288,
    "requireDescInActivityPageTextMapHash": 3070515791,
    "npcInviteDescTextMapHash": 2227539943,
    "npcCommentDescTextMapHash": 3395519655,
    "picSmall": "UI_ActivityPhotoGraphV2_Img_PicSmall02",
    "picBig": "UI_ActivityPhotoGraphV2_Img_PicSmall02",
    "IADGHKGEBEF": "UI_ActivityPhotoGraphV2_Img_PicSmall02",
    "HFNMFHAAFKI": "UI_ActivityPhotoGraphV2_Img_PicSmall02",
    "photoCheckRootID": 100910112,
    "rootNodeDescTextMapHash": 582312948,
    "photoCheckSubNodeID": [
      0,
      0,
      0,
      0
    ],
    "MPMEBGGMLCO": [
      100921201,
      100931201,
      100941201
    ],
    "HEHLFPLNHFL": [],
    "photoCheckSubNodeDesc": [
      1555134443,
      3393246837,
      2519123903,
      858402243
    ],
    "openDay": 6,
    "watcherId": 15205012,
    "galleryId": 78712,
    "redPointID": 502021,
    "presetCheckRootID": 100910112,
    "POCPEDOOFCK": 3036572826,
    "presetCheckSubDescTextMapHash": 3356445787,
    "GAEJMHINBGJ": [
      "UI_ActivityPhotographV5_Img_PicSmall06_G04",
      "UI_ActivityPhotographV5_Img_PicSmall06_G05",
      "UI_ActivityPhotographV5_Img_PicSmall06_G06"
    ],
    "LEDJHLDMOEA": [
      "UI_ActivityPhotographV5_Img_PicSmall06_B04",
      "UI_ActivityPhotographV5_Img_PicSmall06_B05",
      "UI_ActivityPhotographV5_Img_PicSmall06_B06"
    ],
    "presetPreviewIconGirl": [
      "UI_ActivityPhotographV5_Img_PicSmall06_G04",
      "UI_ActivityPhotographV5_Img_PicSmall06_G05",
      "UI_ActivityPhotographV5_Img_PicSmall06_G06"
    ],
    "presetPreviewIconBoy": [
      "UI_ActivityPhotographV5_Img_PicSmall06_B04",
      "UI_ActivityPhotographV5_Img_PicSmall06_B05",
      "UI_ActivityPhotographV5_Img_PicSmall06_B06"
    ],
    "sceneID": 3,
    "ODLAFPDCMHH": 12
  }
]