[
  {
    "OBOKJCGJELJ": 1,
    "titleTextMapHash": 1258507101,
    "nameTextMapHash": 360108076,
    "OJEIHMKMNMC": 30,
    "GPFDOIFIGPK": [
      374740,
      374741,
      374742,
      374743,
      374744,
      374745,
      374746,
      374747,
      374748,
      374749,
      374750,
      374751,
      374752
    ],
    "AAGDKABEPFI": 7,
    "JNOMJBLEEBG": 5,
    "FJICFMNDJJE": 4,
    "DNIPBOKKHBD": 70294009,
    "ANDADCNGCFD": 77215105,
    "ICOOAFKMHOE": 610003030,
    "cutsceneId": 610003030
  },
  {
    "OBOKJCGJELJ": 2,
    "titleTextMapHash": 2586253589,
    "nameTextMapHash": 619781308,
    "OJEIHMKMNMC": 30,
    "GPFDOIFIGPK": [
      374753,
      374754,
      374755,
      374756,
      374757,
      374758,
      374759,
      374760,
      374761,
      374762,
      374763,
      374764,
      374765
    ],
    "AAGDKABEPFI": 7,
    "JNOMJBLEEBG": 5,
    "FJICFMNDJJE": 4,
    "DNIPBOKKHBD": 70294010,
    "ANDADCNGCFD": 77215106,
    "ICOOAFKMHOE": 610001089,
    "cutsceneId": 610001089
  },
  {
    "OBOKJCGJELJ": 3,
    "titleTextMapHash": 1502215821,
    "nameTextMapHash": 2023771220,
    "OJEIHMKMNMC": 30,
    "GPFDOIFIGPK": [
      374766,
      374767,
      374768,
      374769,
      374770,
      374771,
      374772,
      374773,
      374774,
      374775,
      374776,
      374777,
      374778
    ],
    "AAGDKABEPFI": 8,
    "JNOMJBLEEBG": 5,
    "FJICFMNDJJE": 4,
    "DNIPBOKKHBD": 70294011,
    "ANDADCNGCFD": 77215107,
    "ICOOAFKMHOE": 610001090,
    "cutsceneId": 610001090
  }
]