[
  {
    "id": 1,
    "groupBundleID": 51470001,
    "JHFHJEAFGPN": 15147102,
    "LMKNDAFACNI": 100611001,
    "descTextMapHash": 746353847,
    "PIMMPHMNIIL": 3984995879952920834
  },
  {
    "id": 2,
    "groupBundleID": 51470002,
    "JHFHJEAFGPN": 15147102,
    "LMKNDAFACNI": 100611002,
    "descTextMapHash": 3527122711,
    "PIMMPHMNIIL": 15036531695282728902
  },
  {
    "id": 3,
    "groupBundleID": 51470003,
    "JHFHJEAFGPN": 15147102,
    "LMKNDAFACNI": 100611003,
    "descTextMapHash": 1462264767,
    "PIMMPHMNIIL": 17619767553443631380
  },
  {
    "id": 4,
    "groupBundleID": 51471002,
    "JHFHJEAFGPN": 15147202,
    "LMKNDAFACNI": 100612001,
    "descTextMapHash": 1202041551,
    "PIMMPHMNIIL": 1829197125252501404
  },
  {
    "id": 5,
    "JHFHJEAFGPN": 15147202,
    "LMKNDAFACNI": 100612002,
    "descTextMapHash": 2615084879,
    "PIMMPHMNIIL": 1116263915712208253
  },
  {
    "id": 6,
    "groupBundleID": 51471003,
    "JHFHJEAFGPN": 15147202,
    "LMKNDAFACNI": 100612003,
    "descTextMapHash": 1961097031,
    "PIMMPHMNIIL": 9367905466401276681
  },
  {
    "id": 7,
    "groupBundleID": 51471001,
    "JHFHJEAFGPN": 15147202,
    "LMKNDAFACNI": 100612004,
    "descTextMapHash": 250121983,
    "PIMMPHMNIIL": 15064000287913296108
  },
  {
    "id": 8,
    "groupBundleID": 51471003,
    "JHFHJEAFGPN": 15147202,
    "LMKNDAFACNI": 100612005,
    "descTextMapHash": 1000800855,
    "PIMMPHMNIIL": 9339888265549406426
  },
  {
    "id": 9,
    "groupBundleID": 51471001,
    "JHFHJEAFGPN": 15147202,
    "LMKNDAFACNI": 100612006,
    "descTextMapHash": 3294973495,
    "PIMMPHMNIIL": 17187950528307731624
  },
  {
    "id": 10,
    "groupBundleID": 51471002,
    "JHFHJEAFGPN": 15147202,
    "LMKNDAFACNI": 100612007,
    "descTextMapHash": 3887663903,
    "PIMMPHMNIIL": 15536624951447629044
  },
  {
    "id": 11,
    "JHFHJEAFGPN": 15147202,
    "LMKNDAFACNI": 100612008,
    "descTextMapHash": 3921961047,
    "PIMMPHMNIIL": 328673775400299989
  },
  {
    "id": 12,
    "JHFHJEAFGPN": 15147202,
    "LMKNDAFACNI": 100612009,
    "descTextMapHash": 1360375319,
    "PIMMPHMNIIL": 17123868553350154007
  },
  {
    "id": 13,
    "JHFHJEAFGPN": 15147202,
    "LMKNDAFACNI": 100612010,
    "descTextMapHash": 325359351,
    "PIMMPHMNIIL": 8083325749045260899
  },
  {
    "id": 14,
    "JHFHJEAFGPN": 15147202,
    "LMKNDAFACNI": 100612011,
    "descTextMapHash": 3032609727,
    "PIMMPHMNIIL": 8919993034654594001
  },
  {
    "id": 15,
    "JHFHJEAFGPN": 15147202,
    "LMKNDAFACNI": 100612012,
    "descTextMapHash": 2671004791,
    "PIMMPHMNIIL": 4205021744422839861
  },
  {
    "id": 16,
    "groupBundleID": 51472001,
    "JHFHJEAFGPN": 15147302,
    "LMKNDAFACNI": 100613001,
    "descTextMapHash": 3454943503,
    "PIMMPHMNIIL": 11736971186661487073
  },
  {
    "id": 17,
    "groupBundleID": 51472002,
    "JHFHJEAFGPN": 15147302,
    "LMKNDAFACNI": 100613002,
    "descTextMapHash": 969716887,
    "PIMMPHMNIIL": 433392534384129210
  },
  {
    "id": 18,
    "groupBundleID": 51472001,
    "JHFHJEAFGPN": 15147302,
    "LMKNDAFACNI": 100613003,
    "descTextMapHash": 3772797231,
    "PIMMPHMNIIL": 15173965653704851128
  },
  {
    "id": 19,
    "groupBundleID": 51474002,
    "JHFHJEAFGPN": 15147402,
    "LMKNDAFACNI": 100614001,
    "descTextMapHash": 924157823,
    "PIMMPHMNIIL": 1835881941892733915
  },
  {
    "id": 20,
    "JHFHJEAFGPN": 15147402,
    "LMKNDAFACNI": 100614002,
    "descTextMapHash": 3894827239,
    "PIMMPHMNIIL": 16093937762977769994
  },
  {
    "id": 21,
    "groupBundleID": 51474003,
    "JHFHJEAFGPN": 15147402,
    "LMKNDAFACNI": 100614003,
    "descTextMapHash": 2954480055,
    "PIMMPHMNIIL": 2678183470601549500
  },
  {
    "id": 22,
    "JHFHJEAFGPN": 15147402,
    "LMKNDAFACNI": 100614004,
    "descTextMapHash": 184068351,
    "PIMMPHMNIIL": 2887080671291707306
  },
  {
    "id": 23,
    "groupBundleID": 51474001,
    "JHFHJEAFGPN": 15147402,
    "LMKNDAFACNI": 100614005,
    "descTextMapHash": 2398050759,
    "PIMMPHMNIIL": 4783221891910723327
  },
  {
    "id": 24,
    "JHFHJEAFGPN": 15147402,
    "LMKNDAFACNI": 100614006,
    "descTextMapHash": 539665887,
    "PIMMPHMNIIL": 12977097198672119675
  },
  {
    "id": 25,
    "groupBundleID": 51475001,
    "EAEGCBNMIIA": true,
    "JHFHJEAFGPN": 15147502,
    "LMKNDAFACNI": 100615001,
    "descTextMapHash": 2050082567,
    "PIMMPHMNIIL": 7470267793583276680
  },
  {
    "id": 26,
    "groupBundleID": 51475002,
    "EAEGCBNMIIA": true,
    "JHFHJEAFGPN": 15147502,
    "LMKNDAFACNI": 100615002,
    "descTextMapHash": 229767327,
    "PIMMPHMNIIL": 18355030761141633718
  },
  {
    "id": 27,
    "groupBundleID": 51476002,
    "EAEGCBNMIIA": true,
    "JHFHJEAFGPN": 15147602,
    "LMKNDAFACNI": 100616001,
    "descTextMapHash": 282882591,
    "PIMMPHMNIIL": 12728455691411997817
  },
  {
    "id": 28,
    "groupBundleID": 51476001,
    "JHFHJEAFGPN": 15147602,
    "LMKNDAFACNI": 100616002,
    "descTextMapHash": 3638183183,
    "PIMMPHMNIIL": 12462796264453357693
  },
  {
    "id": 29,
    "JHFHJEAFGPN": 15147402,
    "LMKNDAFACNI": 100614011,
    "descTextMapHash": 1670202007,
    "PIMMPHMNIIL": 911117411797997030
  },
  {
    "id": 30,
    "groupBundleID": 51474001,
    "JHFHJEAFGPN": 15147402,
    "LMKNDAFACNI": 100614014,
    "descTextMapHash": 787962839,
    "PIMMPHMNIIL": 13153194977847780026
  },
  {
    "id": 31,
    "groupBundleID": 51474004,
    "JHFHJEAFGPN": 15147402,
    "LMKNDAFACNI": 100614015,
    "descTextMapHash": 3200397639,
    "PIMMPHMNIIL": 2084349379102675711
  },
  {
    "id": 32,
    "groupBundleID": 51474004,
    "JHFHJEAFGPN": 15147402,
    "LMKNDAFACNI": 100614016,
    "descTextMapHash": 3685352399,
    "PIMMPHMNIIL": 4460508184238803190
  }
]