[
  {
    "GGBOHCEFIIL": [
      102,
      101,
      104,
      103,
      105
    ],
    "COOEJHHIOAH": [
      106
    ],
    "OOGFNDHFDHC": [
      105,
      104,
      101,
      103,
      102
    ],
    "HKDEKNIMKAC": [
      [
        105,
        104,
        101
      ],
      [
        105,
        103,
        102
      ],
      [],
      [],
      []
    ],
    "DJBAJHNKOEH": 742225832605657605,
    "OEAABJPBMAB": 15168563701659965968,
    "PLNOFPGCNFB": 1,
    "BJHODIAFJIH": 90,
    "IALKMDOPEHI": 8,
    "descTextMapHash": 1305920803,
    "levelID": 1,
    "activityID": 2035,
    "nameTextMapHash": 3820223675,
    "questList": [],
    "POGAPJOAPNE": [],
    "watcherList": [
      12035201
    ],
    "openDay": 1,
    "LCDPEEFMCBP": [
      "ACTIVITY_LEVEL_COND_TYPE_DEFAULT"
    ],
    "LBPIFEDIDKK": [
      "ACTIVITY_LEVEL_COND_TYPE_OPEN_DAY",
      "ACTIVITY_LEVEL_COND_TYPE_DEFAULT"
    ],
    "GNACDEMMLCE": [
      "ACTIVITY_LEVEL_COND_TYPE_WATCHER_REWARD_TAKEN"
    ]
  },
  {
    "GGBOHCEFIIL": [
      302,
      306,
      305,
      303,
      304,
      301
    ],
    "COOEJHHIOAH": [
      307
    ],
    "OOGFNDHFDHC": [
      306,
      305,
      304,
      303,
      302,
      301
    ],
    "HKDEKNIMKAC": [
      [
        305,
        304,
        303,
        302
      ],
      [
        306,
        304,
        301
      ],
      [],
      [],
      []
    ],
    "DJBAJHNKOEH": 5491454500998155601,
    "OEAABJPBMAB": 13322387599431457207,
    "PLNOFPGCNFB": 1,
    "BJHODIAFJIH": 90,
    "IALKMDOPEHI": 8,
    "descTextMapHash": 1280158539,
    "levelID": 2,
    "activityID": 2035,
    "nameTextMapHash": 248300379,
    "questList": [],
    "POGAPJOAPNE": [
      1
    ],
    "watcherList": [
      12035202
    ],
    "openDay": 1,
    "LCDPEEFMCBP": [
      "ACTIVITY_LEVEL_COND_TYPE_PRE_LEVEL_FINISH"
    ],
    "LBPIFEDIDKK": [
      "ACTIVITY_LEVEL_COND_TYPE_OPEN_DAY",
      "ACTIVITY_LEVEL_COND_TYPE_DEFAULT"
    ],
    "GNACDEMMLCE": [
      "ACTIVITY_LEVEL_COND_TYPE_WATCHER_REWARD_TAKEN"
    ]
  },
  {
    "GGBOHCEFIIL": [
      506,
      504,
      502,
      501,
      505,
      507,
      503
    ],
    "COOEJHHIOAH": [
      508
    ],
    "OOGFNDHFDHC": [
      507,
      506,
      505,
      504,
      503,
      502,
      501
    ],
    "HKDEKNIMKAC": [
      [
        507,
        505,
        504
      ],
      [
        506,
        505,
        503,
        502
      ],
      [
        503,
        501
      ],
      [],
      []
    ],
    "DJBAJHNKOEH": 5812696070203144974,
    "OEAABJPBMAB": 14453867231639741673,
    "PLNOFPGCNFB": 1,
    "BJHODIAFJIH": 90,
    "IALKMDOPEHI": 8,
    "descTextMapHash": 4184070539,
    "levelID": 3,
    "activityID": 2035,
    "nameTextMapHash": 3209213955,
    "questList": [],
    "POGAPJOAPNE": [
      2
    ],
    "watcherList": [
      12035203
    ],
    "openDay": 3,
    "LCDPEEFMCBP": [
      "ACTIVITY_LEVEL_COND_TYPE_PRE_LEVEL_FINISH"
    ],
    "LBPIFEDIDKK": [
      "ACTIVITY_LEVEL_COND_TYPE_OPEN_DAY",
      "ACTIVITY_LEVEL_COND_TYPE_DEFAULT"
    ],
    "GNACDEMMLCE": [
      "ACTIVITY_LEVEL_COND_TYPE_WATCHER_REWARD_TAKEN"
    ]
  },
  {
    "GGBOHCEFIIL": [
      602,
      606,
      604,
      601,
      607,
      603,
      605
    ],
    "COOEJHHIOAH": [
      608
    ],
    "OOGFNDHFDHC": [
      607,
      606,
      605,
      604,
      603,
      602,
      601
    ],
    "HKDEKNIMKAC": [
      [
        607,
        606,
        604
      ],
      [
        606,
        605,
        603,
        602
      ],
      [
        606,
        601
      ],
      [],
      []
    ],
    "DJBAJHNKOEH": 18012490789317441938,
    "OEAABJPBMAB": 13108498192177092040,
    "PLNOFPGCNFB": 1,
    "BJHODIAFJIH": 90,
    "IALKMDOPEHI": 8,
    "descTextMapHash": 2915758115,
    "levelID": 4,
    "activityID": 2035,
    "nameTextMapHash": 1912734627,
    "questList": [],
    "POGAPJOAPNE": [
      3
    ],
    "watcherList": [
      12035204
    ],
    "openDay": 3,
    "LCDPEEFMCBP": [
      "ACTIVITY_LEVEL_COND_TYPE_PRE_LEVEL_FINISH"
    ],
    "LBPIFEDIDKK": [
      "ACTIVITY_LEVEL_COND_TYPE_OPEN_DAY",
      "ACTIVITY_LEVEL_COND_TYPE_DEFAULT"
    ],
    "GNACDEMMLCE": [
      "ACTIVITY_LEVEL_COND_TYPE_WATCHER_REWARD_TAKEN"
    ]
  },
  {
    "GGBOHCEFIIL": [
      204,
      207,
      203,
      206,
      202,
      201,
      205
    ],
    "COOEJHHIOAH": [
      208
    ],
    "OOGFNDHFDHC": [
      207,
      206,
      205,
      204,
      203,
      202,
      201
    ],
    "HKDEKNIMKAC": [
      [
        207,
        206,
        205,
        204
      ],
      [
        206,
        202,
        201
      ],
      [
        207,
        203,
        202,
        201
      ],
      [],
      []
    ],
    "DJBAJHNKOEH": 3177236515507858612,
    "OEAABJPBMAB": 5357606182637692835,
    "PLNOFPGCNFB": 1,
    "BJHODIAFJIH": 90,
    "IALKMDOPEHI": 8,
    "descTextMapHash": 1234084515,
    "levelID": 5,
    "activityID": 2035,
    "nameTextMapHash": 3851886411,
    "questList": [],
    "POGAPJOAPNE": [
      4
    ],
    "watcherList": [
      12035205
    ],
    "openDay": 5,
    "LCDPEEFMCBP": [
      "ACTIVITY_LEVEL_COND_TYPE_PRE_LEVEL_FINISH"
    ],
    "LBPIFEDIDKK": [
      "ACTIVITY_LEVEL_COND_TYPE_OPEN_DAY",
      "ACTIVITY_LEVEL_COND_TYPE_DEFAULT"
    ],
    "GNACDEMMLCE": [
      "ACTIVITY_LEVEL_COND_TYPE_WATCHER_REWARD_TAKEN"
    ]
  },
  {
    "GGBOHCEFIIL": [
      405,
      402,
      407,
      404,
      406,
      408,
      401,
      403
    ],
    "COOEJHHIOAH": [
      409
    ],
    "OOGFNDHFDHC": [
      408,
      407,
      406,
      405,
      404,
      403,
      402,
      401
    ],
    "HKDEKNIMKAC": [
      [
        408,
        406,
        405,
        404
      ],
      [
        406,
        403,
        402,
        401
      ],
      [
        407,
        402
      ],
      [],
      []
    ],
    "DJBAJHNKOEH": 746481408537049151,
    "OEAABJPBMAB": 7029223917895423836,
    "PLNOFPGCNFB": 1,
    "BJHODIAFJIH": 90,
    "IALKMDOPEHI": 8,
    "descTextMapHash": 1818911067,
    "levelID": 6,
    "activityID": 2035,
    "nameTextMapHash": 2645024307,
    "questList": [],
    "POGAPJOAPNE": [
      5
    ],
    "watcherList": [
      12035206
    ],
    "openDay": 5,
    "LCDPEEFMCBP": [
      "ACTIVITY_LEVEL_COND_TYPE_PRE_LEVEL_FINISH"
    ],
    "LBPIFEDIDKK": [
      "ACTIVITY_LEVEL_COND_TYPE_OPEN_DAY",
      "ACTIVITY_LEVEL_COND_TYPE_DEFAULT"
    ],
    "GNACDEMMLCE": [
      "ACTIVITY_LEVEL_COND_TYPE_WATCHER_REWARD_TAKEN"
    ]
  },
  {
    "GGBOHCEFIIL": [
      707,
      702,
      703,
      701,
      705,
      706
    ],
    "COOEJHHIOAH": [
      708
    ],
    "OOGFNDHFDHC": [
      707,
      706,
      705,
      703,
      702,
      701
    ],
    "HKDEKNIMKAC": [
      [
        707,
        706,
        705,
        702,
        701
      ],
      [
        707,
        703,
        701
      ],
      [],
      [],
      []
    ],
    "DJBAJHNKOEH": 16168145036064008348,
    "OEAABJPBMAB": 12207371871243245788,
    "PLNOFPGCNFB": 1,
    "BJHODIAFJIH": 90,
    "IALKMDOPEHI": 8,
    "descTextMapHash": 3707599107,
    "levelID": 7,
    "activityID": 2035,
    "nameTextMapHash": 1191527955,
    "questList": [],
    "POGAPJOAPNE": [
      6
    ],
    "watcherList": [
      12035207
    ],
    "openDay": 7,
    "LCDPEEFMCBP": [
      "ACTIVITY_LEVEL_COND_TYPE_PRE_LEVEL_FINISH"
    ],
    "LBPIFEDIDKK": [
      "ACTIVITY_LEVEL_COND_TYPE_OPEN_DAY",
      "ACTIVITY_LEVEL_COND_TYPE_DEFAULT"
    ],
    "GNACDEMMLCE": [
      "ACTIVITY_LEVEL_COND_TYPE_WATCHER_REWARD_TAKEN"
    ]
  },
  {
    "GGBOHCEFIIL": [
      805,
      807,
      801,
      804,
      802,
      806,
      803
    ],
    "COOEJHHIOAH": [
      808
    ],
    "OOGFNDHFDHC": [
      806,
      807,
      805,
      804,
      803,
      802,
      801
    ],
    "HKDEKNIMKAC": [
      [
        806,
        804,
        803,
        802,
        801
      ],
      [
        806,
        807,
        805,
        801
      ],
      [],
      [],
      []
    ],
    "DJBAJHNKOEH": 17723070935262721482,
    "OEAABJPBMAB": 929612743368552161,
    "PLNOFPGCNFB": 1,
    "BJHODIAFJIH": 90,
    "IALKMDOPEHI": 8,
    "descTextMapHash": 276996467,
    "levelID": 8,
    "activityID": 2035,
    "nameTextMapHash": 3733838819,
    "questList": [],
    "POGAPJOAPNE": [
      7
    ],
    "watcherList": [
      12035208
    ],
    "openDay": 7,
    "LCDPEEFMCBP": [
      "ACTIVITY_LEVEL_COND_TYPE_PRE_LEVEL_FINISH"
    ],
    "LBPIFEDIDKK": [
      "ACTIVITY_LEVEL_COND_TYPE_OPEN_DAY",
      "ACTIVITY_LEVEL_COND_TYPE_DEFAULT"
    ],
    "GNACDEMMLCE": [
      "ACTIVITY_LEVEL_COND_TYPE_WATCHER_REWARD_TAKEN"
    ]
  },
  {
    "NMBJKDMMODG": true,
    "GGBOHCEFIIL": [
      905,
      903,
      901,
      902,
      904
    ],
    "COOEJHHIOAH": [
      906
    ],
    "OOGFNDHFDHC": [
      905,
      904,
      903,
      902,
      901
    ],
    "HKDEKNIMKAC": [
      [
        905,
        904,
        903,
        902,
        901
      ],
      [],
      [],
      [],
      []
    ],
    "DJBAJHNKOEH": 4192422690669958081,
    "OEAABJPBMAB": 2287647351398800988,
    "PLNOFPGCNFB": 1,
    "BJHODIAFJIH": 90,
    "IALKMDOPEHI": 8,
    "descTextMapHash": 2131024715,
    "levelID": 9,
    "activityID": 2035,
    "nameTextMapHash": 2580347371,
    "questList": [],
    "POGAPJOAPNE": [
      1
    ],
    "watcherList": [],
    "openDay": 3,
    "LCDPEEFMCBP": [
      "ACTIVITY_LEVEL_COND_TYPE_PRE_LEVEL_FINISH"
    ],
    "LBPIFEDIDKK": [
      "ACTIVITY_LEVEL_COND_TYPE_OPEN_DAY",
      "ACTIVITY_LEVEL_COND_TYPE_DEFAULT"
    ],
    "GNACDEMMLCE": [
      "ACTIVITY_LEVEL_COND_TYPE_WATCHER_REWARD_TAKEN"
    ]
  }
]