[
  {
    "scheduleId": 2027001,
    "CNAGKOPNNEI": 10013,
    "NKFPOMOIOHL": 13258,
    "battlePushTips": 13262,
    "COGGLDEBDBK": 6149,
    "CDJCOHKFKKG": 2027021,
    "FJNNACODIIM": 74679,
    "EGDOMCNMGPP": 74681,
    "GHGFHMPPBJA": 74680,
    "CECIEJDAGMB": 74675,
    "NIADNEALFKM": 1094,
    "CKAJEFGDEKI": 1131,
    "PKMLJCPGJLI": 1106,
    "LOOEPOGPJDM": 12426,
    "AIADJAMEFEM": 12027901,
    "AACIAMKBOCE": [
      12027902,
      12027903,
      12027904,
      12027905,
      12027906
    ],
    "CAFANIMAIML": 70331001,
    "OMPGKNNBIPK": 40,
    "FOEEJKIGMKL": 6,
    "NMCOFBHNEPF": 12,
    "POLOAICFNFF": "ART/UI/Atlas/DungeonPic/UI_DungeonPic_Combat_Fd_Studio",
    "LECONPEHPLG": 170,
    "PHBCOOCMODG": 167,
    "JLCJMOCCIBL": [
      "UI_ACTIVITY_FILMFESTSHOOTING_TITLE1",
      "UI_ACTIVITY_FILMFESTSHOOTING_TITLE2",
      "UI_ACTIVITY_FILMFESTSHOOTING_TITLE3",
      "UI_ACTIVITY_FILMFESTSHOOTING_TITLE4"
    ],
    "AOFBEGJICIA": 999,
    "IOECJMMOEMI": [
      "UI_ACTIVITY_FILMFESTSHOOTING_SLOT1",
      "UI_ACTIVITY_FILMFESTSHOOTING_SLOT2",
      "UI_ACTIVITY_FILMFESTSHOOTING_SLOT3",
      "UI_ACTIVITY_FILMFESTSHOOTING_SLOT4",
      "UI_ACTIVITY_FILMFESTSHOOTING_SLOT5"
    ],
    "HHAGJEKPEPG": 20,
    "BKKBLNOGLLC": 10,
    "IPABAEEMPOD": 6148,
    "MCGJCKLKBPF": 2027022,
    "BJJEELPMHCP": 6152
  }
]