[
  {
    "id": 1,
    "scheduleId": 5167001,
    "dungeonId": 9701,
    "AIPEFKMMEGA": 13506001,
    "descTextMapHash": 2946987152
  },
  {
    "id": 2,
    "scheduleId": 5167001,
    "dungeonId": 9701,
    "AIPEFKMMEGA": 13506004,
    "descTextMapHash": 1640155648,
    "orderType": "MAX"
  },
  {
    "id": 3,
    "scheduleId": 5167001,
    "dungeonId": 9702,
    "AIPEFKMMEGA": 13506005,
    "descTextMapHash": 3985036632
  },
  {
    "id": 4,
    "scheduleId": 5167001,
    "dungeonId": 9702,
    "AIPEFKMMEGA": 13506008,
    "descTextMapHash": 3309875472,
    "orderType": "MAX"
  },
  {
    "id": 5,
    "scheduleId": 5167001,
    "dungeonId": 9703,
    "AIPEFKMMEGA": 13506009,
    "descTextMapHash": 3215817128
  },
  {
    "id": 6,
    "scheduleId": 5167001,
    "dungeonId": 9703,
    "AIPEFKMMEGA": 13506012,
    "descTextMapHash": 3676172392,
    "orderType": "MAX"
  },
  {
    "id": 7,
    "scheduleId": 5167001,
    "dungeonId": 9704,
    "AIPEFKMMEGA": 13506013,
    "descTextMapHash": 2646496416
  },
  {
    "id": 8,
    "scheduleId": 5167001,
    "dungeonId": 9704,
    "AIPEFKMMEGA": 13506016,
    "descTextMapHash": 4017157896,
    "orderType": "MAX"
  },
  {
    "id": 9,
    "scheduleId": 5167001,
    "dungeonId": 9705,
    "AIPEFKMMEGA": 13506017,
    "descTextMapHash": 3111402784
  },
  {
    "id": 10,
    "scheduleId": 5167001,
    "dungeonId": 9705,
    "AIPEFKMMEGA": 13506020,
    "descTextMapHash": 4030406544,
    "orderType": "MAX"
  },
  {
    "id": 11,
    "scheduleId": 5167001,
    "dungeonId": 9706,
    "AIPEFKMMEGA": 13506021,
    "descTextMapHash": 1261435752
  },
  {
    "id": 12,
    "scheduleId": 5167001,
    "dungeonId": 9706,
    "AIPEFKMMEGA": 13506024,
    "descTextMapHash": 441127832,
    "orderType": "MAX"
  },
  {
    "id": 13,
    "scheduleId": 5167001,
    "dungeonId": 9707,
    "AIPEFKMMEGA": 13506025,
    "descTextMapHash": 1036667704
  }
]