[
  {
    "id": 2,
    "activityId": 5125,
    "scheduleId": 5125001,
    "spiceId": 141115,
    "watcherIdList": [
      15125001,
      15125002,
      15125003,
      15125004,
      15125005,
      15125006,
      15125007,
      15125008,
      15125009,
      15125010,
      15125011,
      15125012,
      15125013,
      15125014,
      15125015,
      15125016,
      15125017
    ],
    "fetterValue": 100,
    "extraWidth": 5,
    "preQuestID": 71655
  }
]