[
  {
    "groupLinkId": 20320201,
    "levelID": 1,
    "activityID": 2032,
    "nameTextMapHash": 701135485,
    "questList": [],
    "POGAPJOAPNE": [],
    "watcherList": [
      12032301,
      12032302,
      12032303
    ],
    "openDay": 1,
    "LCDPEEFMCBP": [
      "ACTIVITY_LEVEL_COND_TYPE_DEFAULT"
    ],
    "LBPIFEDIDKK": [
      "ACTIVITY_LEVEL_COND_TYPE_OPEN_DAY",
      "ACTIVITY_LEVEL_COND_TYPE_DEFAULT"
    ],
    "GNACDEMMLCE": [
      "ACTIVITY_LEVEL_COND_TYPE_WATCHER_REWARD_TAKEN"
    ]
  },
  {
    "groupLinkId": 20320202,
    "levelID": 2,
    "activityID": 2032,
    "nameTextMapHash": 1536443237,
    "questList": [
      4016218,
      4016327
    ],
    "POGAPJOAPNE": [],
    "watcherList": [
      12032304,
      12032305,
      12032306
    ],
    "openDay": 4,
    "LCDPEEFMCBP": [
      "ACTIVITY_LEVEL_COND_TYPE_MAIN_QUEST"
    ],
    "LBPIFEDIDKK": [
      "ACTIVITY_LEVEL_COND_TYPE_OPEN_DAY",
      "ACTIVITY_LEVEL_COND_TYPE_DEFAULT"
    ],
    "GNACDEMMLCE": [
      "ACTIVITY_LEVEL_COND_TYPE_WATCHER_REWARD_TAKEN"
    ]
  },
  {
    "groupLinkId": 20320203,
    "levelID": 3,
    "activityID": 2032,
    "nameTextMapHash": 3126588725,
    "questList": [
      4016218,
      4016319,
      4016447
    ],
    "POGAPJOAPNE": [],
    "watcherList": [
      12032307,
      12032308,
      12032309
    ],
    "openDay": 6,
    "LCDPEEFMCBP": [
      "ACTIVITY_LEVEL_COND_TYPE_MAIN_QUEST"
    ],
    "LBPIFEDIDKK": [
      "ACTIVITY_LEVEL_COND_TYPE_OPEN_DAY",
      "ACTIVITY_LEVEL_COND_TYPE_DEFAULT"
    ],
    "GNACDEMMLCE": [
      "ACTIVITY_LEVEL_COND_TYPE_WATCHER_REWARD_TAKEN"
    ]
  }
]