[
  {
    "id": 1,
    "openDay": 1,
    "levelNameTextMapHash": 2693591708,
    "score": 10,
    "calibrationTime": "0,400",
    "dungeonId": 3061,
    "galleryId": 42002,
    "adjustDungeonId": 3068,
    "adjustGalleryId": 42005,
    "watcherId": [
      12021101,
      12021102,
      12021103
    ],
    "tutorialId": 6122,
    "playTutorialId": 6133,
    "PLPEMDPIFCO": 969,
    "comboStrength": [
      3,
      6
    ]
  },
  {
    "id": 2,
    "openDay": 5,
    "type": "PIG",
    "levelNameTextMapHash": 885053972,
    "score": 10,
    "calibrationTime": "0,400",
    "dungeonId": 3060,
    "galleryId": 42001,
    "adjustDungeonId": 3067,
    "adjustGalleryId": 42004,
    "watcherId": [
      12021104,
      12021105,
      12021106
    ],
    "tutorialId": 6121,
    "playTutorialId": 6132,
    "PLPEMDPIFCO": 968,
    "comboStrength": [
      6,
      12
    ]
  },
  {
    "id": 3,
    "openDay": 7,
    "type": "FISH",
    "levelNameTextMapHash": 2857629900,
    "score": 10,
    "calibrationTime": "0,400",
    "dungeonId": 3062,
    "galleryId": 42003,
    "adjustDungeonId": 3069,
    "adjustGalleryId": 42006,
    "watcherId": [
      12021107,
      12021108,
      12021109
    ],
    "tutorialId": 6123,
    "playTutorialId": 6134,
    "PLPEMDPIFCO": 970,
    "comboStrength": [
      3,
      6
    ]
  }
]