[
  {
    "id": 1,
    "ALBFPKKJDBL": 3754733967
  },
  {
    "id": 2,
    "ALBFPKKJDBL": 2676109455
  },
  {
    "id": 3,
    "ALBFPKKJDBL": 2375635679
  },
  {
    "id": 4,
    "ALBFPKKJDBL": 1645834799
  },
  {
    "id": 5,
    "ALBFPKKJDBL": 3852493711
  },
  {
    "id": 6,
    "ALBFPKKJDBL": 2215289103
  }
]