[
  {
    "id": 1,
    "JGKKFHLFOHC": 1,
    "subType": "ALCHEMY_SIM_BOTTLE_SUBTYPE_BODY",
    "nameTextMapHash": 1143692537,
    "descriptionTextMapHash": 2852887032,
    "BPJFNCFKHCM": 1,
    "quality": 3,
    "iconHash": 1276571881216314493,
    "BHDMPJHMPHC": "AlchemySim_BottleTemp1",
    "EEFBMKGJCEI": 400181
  },
  {
    "id": 2,
    "PJGPGNOEDAA": 400,
    "subType": "ALCHEMY_SIM_BOTTLE_SUBTYPE_BODY",
    "nameTextMapHash": 195836865,
    "descriptionTextMapHash": 3411801608,
    "BPJFNCFKHCM": 2,
    "quality": 4,
    "iconHash": 16785428816823986104,
    "BHDMPJHMPHC": "AlchemySim_BottleTemp2",
    "EEFBMKGJCEI": 400182
  },
  {
    "id": 3,
    "PJGPGNOEDAA": 400,
    "subType": "ALCHEMY_SIM_BOTTLE_SUBTYPE_BODY",
    "nameTextMapHash": 4006040161,
    "descriptionTextMapHash": 1447995512,
    "BPJFNCFKHCM": 3,
    "quality": 4,
    "iconHash": 3322777278525042109,
    "BHDMPJHMPHC": "AlchemySim_BottleTemp3",
    "EEFBMKGJCEI": 400183
  },
  {
    "id": 4,
    "PJGPGNOEDAA": 400,
    "subType": "ALCHEMY_SIM_BOTTLE_SUBTYPE_BODY",
    "nameTextMapHash": 3366592401,
    "descriptionTextMapHash": 184961960,
    "BPJFNCFKHCM": 4,
    "quality": 4,
    "iconHash": 1044531993751410233,
    "BHDMPJHMPHC": "AlchemySim_BottleTemp4",
    "EEFBMKGJCEI": 400184
  },
  {
    "id": 5,
    "PJGPGNOEDAA": 400,
    "subType": "ALCHEMY_SIM_BOTTLE_SUBTYPE_BODY",
    "nameTextMapHash": 2270992913,
    "descriptionTextMapHash": 299839384,
    "BPJFNCFKHCM": 5,
    "quality": 4,
    "iconHash": 6767969586847249020,
    "BHDMPJHMPHC": "AlchemySim_BottleTemp5",
    "EEFBMKGJCEI": 400185
  },
  {
    "id": 6,
    "PJGPGNOEDAA": 400,
    "subType": "ALCHEMY_SIM_BOTTLE_SUBTYPE_BODY",
    "nameTextMapHash": 3059590017,
    "descriptionTextMapHash": 3063453744,
    "BPJFNCFKHCM": 6,
    "quality": 4,
    "iconHash": 13610989403008228609,
    "BHDMPJHMPHC": "AlchemySim_BottleTemp6",
    "EEFBMKGJCEI": 400186
  },
  {
    "id": 7,
    "subType": "ALCHEMY_SIM_BOTTLE_SUBTYPE_DECORATION",
    "nameTextMapHash": 3041400145,
    "descriptionTextMapHash": 3511052408,
    "BPJFNCFKHCM": 1,
    "quality": 4,
    "iconHash": 18350527427370743074,
    "BHDMPJHMPHC": "UI_Icon_AlchemySim_Hanging_1",
    "EEFBMKGJCEI": 400187
  },
  {
    "id": 8,
    "subType": "ALCHEMY_SIM_BOTTLE_SUBTYPE_DECORATION",
    "nameTextMapHash": 4045302945,
    "descriptionTextMapHash": 1927279120,
    "BPJFNCFKHCM": 2,
    "quality": 4,
    "iconHash": 10700677056854974266,
    "BHDMPJHMPHC": "UI_Icon_AlchemySim_Hanging_2",
    "EEFBMKGJCEI": 400188
  },
  {
    "id": 9,
    "subType": "ALCHEMY_SIM_BOTTLE_SUBTYPE_DECORATION",
    "nameTextMapHash": 3149670049,
    "descriptionTextMapHash": 3841992760,
    "BPJFNCFKHCM": 3,
    "quality": 4,
    "iconHash": 10843329131560966685,
    "BHDMPJHMPHC": "UI_Icon_AlchemySim_Hanging_3",
    "EEFBMKGJCEI": 400189
  },
  {
    "id": 10,
    "subType": "ALCHEMY_SIM_BOTTLE_SUBTYPE_DECORATION",
    "nameTextMapHash": 1221204969,
    "descriptionTextMapHash": 1948592232,
    "BPJFNCFKHCM": 4,
    "quality": 4,
    "iconHash": 14673180978882453036,
    "BHDMPJHMPHC": "UI_Icon_AlchemySim_Hanging_4",
    "EEFBMKGJCEI": 400190
  },
  {
    "id": 11,
    "subType": "ALCHEMY_SIM_BOTTLE_SUBTYPE_DECORATION",
    "nameTextMapHash": 668583097,
    "descriptionTextMapHash": 478466120,
    "BPJFNCFKHCM": 5,
    "quality": 4,
    "iconHash": 13273931695749638047,
    "BHDMPJHMPHC": "UI_Icon_AlchemySim_Hanging_5",
    "EEFBMKGJCEI": 400191
  }
]