[
  {
    "id": 1,
    "EMBJLNICMAN": 2701,
    "PDNFLCPCLIE": 158
  },
  {
    "id": 2,
    "EMBJLNICMAN": 2701,
    "PDNFLCPCLIE": 159
  },
  {
    "id": 3,
    "EMBJLNICMAN": 4204,
    "PDNFLCPCLIE": 1145
  },
  {
    "id": 4,
    "EMBJLNICMAN": 4204,
    "PDNFLCPCLIE": 1162
  }
]