[
  {
    "GJDBPAKMCLJ": 2,
    "BKELHGMIALK": 0.25,
    "PFJILKBKJPC": 20,
    "CIPEOLLEJPB": 150,
    "DPEHFFHJMHE": 10
  },
  {
    "type": "Mid",
    "GJDBPAKMCLJ": 3,
    "BKELHGMIALK": 0.3,
    "PFJILKBKJPC": 20,
    "CIPEOLLEJPB": 150,
    "DPEHFFHJMHE": 10
  },
  {
    "type": "Hi",
    "GJDBPAKMCLJ": 4,
    "BKELHGMIALK": 0.4,
    "PFJILKBKJPC": 20,
    "CIPEOLLEJPB": 150,
    "DPEHFFHJMHE": 10
  },
  {
    "type": "Top",
    "GJDBPAKMCLJ": 5,
    "BKELHGMIALK": 0.5,
    "PFJILKBKJPC": 20,
    "CIPEOLLEJPB": 180,
    "DPEHFFHJMHE": 10
  }
]