[
  {
    "id": 50029001,
    "materialId": 100223,
    "sortOrder": 1010
  },
  {
    "id": 50029002,
    "materialId": 100361,
    "sortOrder": 1011
  },
  {
    "id": 50029003,
    "materialId": 101558,
    "sortOrder": 1012
  },
  {
    "id": 50056001,
    "materialId": 121064,
    "sortOrder": 1013
  },
  {
    "id": 50061001,
    "materialId": 121096,
    "sortOrder": 1014
  },
  {
    "id": 50006001,
    "materialId": 100208,
    "sortOrder": 2010
  },
  {
    "id": 50016001,
    "materialId": 100507,
    "sortOrder": 2011
  },
  {
    "id": 50016002,
    "materialId": 100508,
    "sortOrder": 2012
  },
  {
    "id": 50016003,
    "materialId": 100509,
    "sortOrder": 2013
  },
  {
    "id": 50002001,
    "materialId": 100182,
    "sortOrder": 3001
  },
  {
    "id": 50002002,
    "materialId": 100183,
    "sortOrder": 3002
  },
  {
    "id": 50004001,
    "materialId": 100196,
    "sortOrder": 3003
  },
  {
    "id": 50004002,
    "materialId": 100197,
    "sortOrder": 3004
  },
  {
    "id": 50007005,
    "materialId": 100389,
    "sortOrder": 3005
  },
  {
    "id": 50007001,
    "materialId": 100226,
    "sortOrder": 3006
  },
  {
    "id": 50007007,
    "materialId": 100391,
    "sortOrder": 3007
  },
  {
    "id": 50007002,
    "materialId": 100227,
    "sortOrder": 3008
  },
  {
    "id": 50007003,
    "materialId": 100228,
    "sortOrder": 3009
  },
  {
    "id": 50007004,
    "materialId": 100388,
    "sortOrder": 3010
  },
  {
    "id": 50007006,
    "materialId": 100390,
    "sortOrder": 3011
  },
  {
    "id": 50007008,
    "materialId": 100441,
    "sortOrder": 3012
  },
  {
    "id": 50007009,
    "materialId": 100706,
    "sortOrder": 3013
  },
  {
    "id": 50007010,
    "materialId": 101541,
    "sortOrder": 3067
  },
  {
    "id": 50007011,
    "materialId": 101601,
    "sortOrder": 3069
  },
  {
    "id": 50008005,
    "materialId": 100229,
    "sortOrder": 3014
  },
  {
    "id": 50008001,
    "materialId": 100230,
    "sortOrder": 3015
  },
  {
    "id": 50008002,
    "materialId": 100239,
    "sortOrder": 3016
  },
  {
    "id": 50008003,
    "materialId": 100240,
    "sortOrder": 3017
  },
  {
    "id": 50008004,
    "materialId": 100241,
    "sortOrder": 3018
  },
  {
    "id": 50008006,
    "materialId": 101540,
    "sortOrder": 3068
  },
  {
    "id": 50009001,
    "materialId": 100399,
    "sortOrder": 3019
  },
  {
    "id": 50009002,
    "materialId": 100400,
    "sortOrder": 3020
  },
  {
    "id": 50009003,
    "materialId": 100637,
    "sortOrder": 3021
  },
  {
    "id": 50009004,
    "materialId": 100638,
    "sortOrder": 3022
  },
  {
    "id": 50009005,
    "materialId": 100730,
    "sortOrder": 3023
  },
  {
    "id": 50009006,
    "materialId": 100731,
    "sortOrder": 3024
  },
  {
    "id": 50010001,
    "materialId": 100406,
    "sortOrder": 3025
  },
  {
    "id": 50010002,
    "materialId": 100407,
    "sortOrder": 3026
  },
  {
    "id": 50010003,
    "materialId": 100615,
    "sortOrder": 3027
  },
  {
    "id": 50010004,
    "materialId": 100408,
    "sortOrder": 3028
  },
  {
    "id": 50011001,
    "materialId": 100411,
    "sortOrder": 3029
  },
  {
    "id": 50011002,
    "materialId": 100412,
    "sortOrder": 3030
  },
  {
    "id": 50015001,
    "materialId": 100480,
    "sortOrder": 3031
  },
  {
    "id": 50015002,
    "materialId": 100481,
    "sortOrder": 3032
  },
  {
    "id": 50015003,
    "materialId": 100482,
    "sortOrder": 3033
  },
  {
    "id": 50015004,
    "materialId": 100483,
    "sortOrder": 3034
  },
  {
    "id": 50017001,
    "materialId": 100565,
    "sortOrder": 3035
  },
  {
    "id": 50017002,
    "materialId": 100566,
    "sortOrder": 3036
  },
  {
    "id": 50017003,
    "materialId": 100567,
    "sortOrder": 3037
  },
  {
    "id": 50019001,
    "materialId": 100573,
    "sortOrder": 3038
  },
  {
    "id": 50019002,
    "materialId": 100574,
    "sortOrder": 3039
  },
  {
    "id": 50019003,
    "materialId": 100575,
    "sortOrder": 3040
  },
  {
    "id": 50019004,
    "materialId": 100576,
    "sortOrder": 3041
  },
  {
    "id": 50020001,
    "materialId": 100577,
    "sortOrder": 3042
  },
  {
    "id": 50020002,
    "materialId": 100578,
    "sortOrder": 3043
  },
  {
    "id": 50020003,
    "materialId": 100579,
    "sortOrder": 3044
  },
  {
    "id": 50020004,
    "materialId": 100580,
    "sortOrder": 3045
  },
  {
    "id": 50023001,
    "materialId": 100586,
    "sortOrder": 3046
  },
  {
    "id": 50023002,
    "materialId": 100587,
    "sortOrder": 3047
  },
  {
    "id": 50023003,
    "materialId": 100588,
    "sortOrder": 3048
  },
  {
    "id": 50023004,
    "materialId": 100589,
    "sortOrder": 3049
  },
  {
    "id": 50025001,
    "materialId": 100403,
    "sortOrder": 3050
  },
  {
    "id": 50025002,
    "materialId": 100624,
    "sortOrder": 3051
  },
  {
    "id": 50025003,
    "materialId": 100640,
    "sortOrder": 3052
  },
  {
    "id": 50027001,
    "materialId": 100402,
    "sortOrder": 3054
  },
  {
    "id": 50027004,
    "materialId": 100733,
    "sortOrder": 3056
  },
  {
    "id": 50028001,
    "materialId": 100201,
    "sortOrder": 3057
  },
  {
    "id": 50028002,
    "materialId": 100213,
    "sortOrder": 3058
  },
  {
    "id": 50026001,
    "materialId": 100642,
    "sortOrder": 3059
  },
  {
    "id": 50026004,
    "materialId": 100643,
    "sortOrder": 3060
  },
  {
    "id": 50026005,
    "materialId": 100644,
    "sortOrder": 3061
  },
  {
    "id": 50026006,
    "materialId": 100786,
    "sortOrder": 3062
  },
  {
    "id": 50026007,
    "materialId": 100787,
    "sortOrder": 3063
  },
  {
    "id": 50033001,
    "materialId": 101529,
    "sortOrder": 3064
  },
  {
    "id": 50033002,
    "materialId": 101530,
    "sortOrder": 3065
  },
  {
    "id": 50033003,
    "materialId": 101531,
    "sortOrder": 3066
  },
  {
    "id": 50036001,
    "materialId": 101599,
    "sortOrder": 3070
  },
  {
    "id": 50037001,
    "materialId": 101680,
    "sortOrder": 3080
  },
  {
    "id": 50037002,
    "materialId": 101681,
    "sortOrder": 3081
  },
  {
    "id": 50037003,
    "materialId": 101682,
    "sortOrder": 3082
  },
  {
    "id": 50037004,
    "materialId": 101683,
    "sortOrder": 3083
  },
  {
    "id": 50037005,
    "materialId": 101684,
    "sortOrder": 3084
  },
  {
    "id": 50045001,
    "materialId": 120413,
    "sortOrder": 3085
  },
  {
    "id": 50045002,
    "materialId": 120414,
    "sortOrder": 3086
  },
  {
    "id": 50045003,
    "materialId": 120415,
    "sortOrder": 3087
  },
  {
    "id": 50049001,
    "materialId": 120425,
    "sortOrder": 3088
  },
  {
    "id": 50049002,
    "materialId": 120426,
    "sortOrder": 3089
  },
  {
    "id": 50049003,
    "materialId": 120427,
    "sortOrder": 3090
  },
  {
    "id": 50050001,
    "materialId": 120797,
    "sortOrder": 3091
  },
  {
    "id": 50050002,
    "materialId": 120798,
    "sortOrder": 3092
  },
  {
    "id": 50051001,
    "materialId": 120799,
    "sortOrder": 3093
  },
  {
    "id": 50051002,
    "materialId": 120800,
    "sortOrder": 3094
  },
  {
    "id": 50051003,
    "materialId": 120801,
    "sortOrder": 3095
  },
  {
    "id": 50052001,
    "materialId": 120995,
    "sortOrder": 3096
  },
  {
    "id": 50052002,
    "materialId": 120996,
    "sortOrder": 3097
  },
  {
    "id": 50052003,
    "materialId": 120997,
    "sortOrder": 3098
  },
  {
    "id": 50052004,
    "materialId": 120998,
    "sortOrder": 3099
  },
  {
    "id": 50052005,
    "materialId": 120999,
    "sortOrder": 3100
  },
  {
    "id": 50052006,
    "materialId": 121000,
    "sortOrder": 3101
  },
  {
    "id": 50052007,
    "materialId": 121001,
    "sortOrder": 3102
  },
  {
    "id": 50052008,
    "materialId": 121002,
    "sortOrder": 3103
  },
  {
    "id": 50054001,
    "materialId": 121058,
    "sortOrder": 3104
  },
  {
    "id": 50054002,
    "materialId": 121059,
    "sortOrder": 3105
  },
  {
    "id": 50054003,
    "materialId": 121060,
    "sortOrder": 3106
  },
  {
    "id": 50055001,
    "materialId": 121061,
    "sortOrder": 3107
  },
  {
    "id": 50055002,
    "materialId": 121062,
    "sortOrder": 3108
  },
  {
    "id": 50055003,
    "materialId": 121063,
    "sortOrder": 3109
  },
  {
    "id": 50058001,
    "materialId": 121088,
    "sortOrder": 3110
  },
  {
    "id": 50058002,
    "materialId": 121089,
    "sortOrder": 3111
  },
  {
    "id": 50058003,
    "materialId": 121090,
    "sortOrder": 3112
  },
  {
    "id": 50060001,
    "materialId": 121093,
    "sortOrder": 3113
  },
  {
    "id": 50060002,
    "materialId": 121094,
    "sortOrder": 3114
  },
  {
    "id": 50060003,
    "materialId": 121095,
    "sortOrder": 3115
  },
  {
    "id": 50062001,
    "materialId": 121178,
    "sortOrder": 3116
  },
  {
    "id": 50062002,
    "materialId": 121179,
    "sortOrder": 3117
  },
  {
    "id": 50063001,
    "materialId": 121180,
    "sortOrder": 3118
  },
  {
    "id": 50063002,
    "materialId": 121181,
    "sortOrder": 3119
  },
  {
    "id": 50063003,
    "materialId": 121182,
    "sortOrder": 3120
  },
  {
    "id": 50001001,
    "materialId": 100178,
    "sortOrder": 4001
  },
  {
    "id": 50001002,
    "materialId": 100179,
    "sortOrder": 4002
  },
  {
    "id": 50001003,
    "materialId": 100180,
    "sortOrder": 4003
  },
  {
    "id": 50001004,
    "materialId": 100611,
    "sortOrder": 4004
  },
  {
    "id": 50001005,
    "materialId": 100198,
    "sortOrder": 4005
  },
  {
    "id": 50001006,
    "materialId": 100612,
    "sortOrder": 4006
  },
  {
    "id": 50001007,
    "materialId": 100613,
    "sortOrder": 4007
  },
  {
    "id": 50001008,
    "materialId": 100614,
    "sortOrder": 4008
  },
  {
    "id": 50001009,
    "materialId": 100199,
    "sortOrder": 4009
  },
  {
    "id": 50001010,
    "materialId": 100200,
    "sortOrder": 4010
  },
  {
    "id": 50003001,
    "materialId": 100188,
    "sortOrder": 4011
  },
  {
    "id": 50003002,
    "materialId": 100189,
    "sortOrder": 4012
  },
  {
    "id": 50003003,
    "materialId": 100190,
    "sortOrder": 4013
  },
  {
    "id": 50003004,
    "materialId": 100607,
    "sortOrder": 4014
  },
  {
    "id": 50003005,
    "materialId": 100191,
    "sortOrder": 4015
  },
  {
    "id": 50003006,
    "materialId": 100192,
    "sortOrder": 4016
  },
  {
    "id": 50003007,
    "materialId": 100193,
    "sortOrder": 4017
  },
  {
    "id": 50003008,
    "materialId": 100608,
    "sortOrder": 4018
  },
  {
    "id": 50003009,
    "materialId": 100609,
    "sortOrder": 4019
  },
  {
    "id": 50003010,
    "materialId": 100194,
    "sortOrder": 4020
  },
  {
    "id": 50003011,
    "materialId": 100195,
    "sortOrder": 4021
  },
  {
    "id": 50005001,
    "materialId": 100202,
    "sortOrder": 4022
  },
  {
    "id": 50005002,
    "materialId": 100203,
    "sortOrder": 4023
  },
  {
    "id": 50005003,
    "materialId": 100204,
    "sortOrder": 4024
  },
  {
    "id": 50005004,
    "materialId": 100205,
    "sortOrder": 4025
  },
  {
    "id": 50005005,
    "materialId": 100206,
    "sortOrder": 4026
  },
  {
    "id": 50005006,
    "materialId": 100610,
    "sortOrder": 4027
  },
  {
    "id": 50005007,
    "materialId": 100207,
    "sortOrder": 4028
  },
  {
    "id": 50012001,
    "materialId": 100432,
    "sortOrder": 4029
  },
  {
    "id": 50012002,
    "materialId": 100433,
    "sortOrder": 4030
  },
  {
    "id": 50012003,
    "materialId": 100434,
    "sortOrder": 4031
  },
  {
    "id": 50012004,
    "materialId": 100435,
    "sortOrder": 4032
  },
  {
    "id": 50012005,
    "materialId": 100436,
    "sortOrder": 4033
  },
  {
    "id": 50012006,
    "materialId": 100364,
    "sortOrder": 4034
  },
  {
    "id": 50013001,
    "materialId": 100437,
    "sortOrder": 4035
  },
  {
    "id": 50013002,
    "materialId": 100438,
    "sortOrder": 4036
  },
  {
    "id": 50013003,
    "materialId": 100439,
    "sortOrder": 4037
  },
  {
    "id": 50013004,
    "materialId": 100440,
    "sortOrder": 4038
  },
  {
    "id": 50018001,
    "materialId": 100568,
    "sortOrder": 4039
  },
  {
    "id": 50018002,
    "materialId": 100569,
    "sortOrder": 4040
  },
  {
    "id": 50018003,
    "materialId": 100570,
    "sortOrder": 4041
  },
  {
    "id": 50018004,
    "materialId": 100571,
    "sortOrder": 4042
  },
  {
    "id": 50018005,
    "materialId": 100572,
    "sortOrder": 4043
  },
  {
    "id": 50018006,
    "materialId": 100734,
    "sortOrder": 4044
  },
  {
    "id": 50018007,
    "materialId": 100735,
    "sortOrder": 4045
  },
  {
    "id": 50018008,
    "materialId": 100736,
    "sortOrder": 4046
  },
  {
    "id": 50018009,
    "materialId": 100783,
    "sortOrder": 4047
  },
  {
    "id": 50018012,
    "materialId": 100784,
    "sortOrder": 4048
  },
  {
    "id": 50018013,
    "materialId": 100785,
    "sortOrder": 4049
  },
  {
    "id": 50022001,
    "materialId": 100215,
    "sortOrder": 4050
  },
  {
    "id": 50022002,
    "materialId": 100216,
    "sortOrder": 4051
  },
  {
    "id": 50022003,
    "materialId": 100217,
    "sortOrder": 4052
  },
  {
    "id": 50022004,
    "materialId": 100218,
    "sortOrder": 4053
  },
  {
    "id": 50022005,
    "materialId": 100219,
    "sortOrder": 4054
  },
  {
    "id": 50022006,
    "materialId": 100220,
    "sortOrder": 4055
  },
  {
    "id": 50022007,
    "materialId": 100221,
    "sortOrder": 4056
  },
  {
    "id": 50024001,
    "materialId": 100590,
    "sortOrder": 4057
  },
  {
    "id": 50024002,
    "materialId": 100591,
    "sortOrder": 4058
  },
  {
    "id": 50024003,
    "materialId": 100592,
    "sortOrder": 4059
  },
  {
    "id": 50024004,
    "materialId": 100593,
    "sortOrder": 4060
  },
  {
    "id": 50030001,
    "materialId": 101507,
    "sortOrder": 4071
  },
  {
    "id": 50030002,
    "materialId": 101508,
    "sortOrder": 4072
  },
  {
    "id": 50030003,
    "materialId": 101509,
    "sortOrder": 4073
  },
  {
    "id": 50030004,
    "materialId": 101510,
    "sortOrder": 4074
  },
  {
    "id": 50030005,
    "materialId": 101511,
    "sortOrder": 4075
  },
  {
    "id": 50030006,
    "materialId": 101512,
    "sortOrder": 4076
  },
  {
    "id": 50031001,
    "materialId": 101523,
    "sortOrder": 4080
  },
  {
    "id": 50031002,
    "materialId": 101524,
    "sortOrder": 4081
  },
  {
    "id": 50031003,
    "materialId": 101525,
    "sortOrder": 4082
  },
  {
    "id": 50031004,
    "materialId": 101526,
    "sortOrder": 4083
  },
  {
    "id": 50031005,
    "materialId": 101527,
    "sortOrder": 4084
  },
  {
    "id": 50031006,
    "materialId": 101588,
    "sortOrder": 4085
  },
  {
    "id": 50032001,
    "materialId": 101532,
    "sortOrder": 4086
  },
  {
    "id": 50032002,
    "materialId": 101533,
    "sortOrder": 4087
  },
  {
    "id": 50032003,
    "materialId": 101534,
    "sortOrder": 4088
  },
  {
    "id": 50032004,
    "materialId": 101535,
    "sortOrder": 4089
  },
  {
    "id": 50032005,
    "materialId": 101536,
    "sortOrder": 4090
  },
  {
    "id": 50032006,
    "materialId": 101766,
    "sortOrder": 4091
  },
  {
    "id": 50034001,
    "materialId": 101548,
    "sortOrder": 4092
  },
  {
    "id": 50034002,
    "materialId": 101549,
    "sortOrder": 4093
  },
  {
    "id": 50034003,
    "materialId": 101550,
    "sortOrder": 4094
  },
  {
    "id": 50034004,
    "materialId": 101551,
    "sortOrder": 4095
  },
  {
    "id": 50034005,
    "materialId": 101552,
    "sortOrder": 4096
  },
  {
    "id": 50034006,
    "materialId": 101553,
    "sortOrder": 4097
  },
  {
    "id": 50035001,
    "materialId": 101554,
    "sortOrder": 4098
  },
  {
    "id": 50038001,
    "materialId": 120019,
    "sortOrder": 4104
  },
  {
    "id": 50038002,
    "materialId": 120020,
    "sortOrder": 4105
  },
  {
    "id": 50039001,
    "materialId": 120022,
    "sortOrder": 4106
  },
  {
    "id": 50039002,
    "materialId": 120023,
    "sortOrder": 4107
  },
  {
    "id": 50039003,
    "materialId": 120024,
    "sortOrder": 4108
  },
  {
    "id": 50040001,
    "materialId": 120025,
    "sortOrder": 4109
  },
  {
    "id": 50040002,
    "materialId": 120026,
    "sortOrder": 4110
  },
  {
    "id": 50040003,
    "materialId": 120027,
    "sortOrder": 4111
  },
  {
    "id": 50041001,
    "materialId": 120074,
    "sortOrder": 4112
  },
  {
    "id": 50041002,
    "materialId": 120075,
    "sortOrder": 4113
  },
  {
    "id": 50041003,
    "materialId": 120076,
    "sortOrder": 4114
  },
  {
    "id": 50041004,
    "materialId": 120077,
    "sortOrder": 4115
  },
  {
    "id": 50041005,
    "materialId": 120078,
    "sortOrder": 4116
  },
  {
    "id": 50041006,
    "materialId": 120079,
    "sortOrder": 4117
  },
  {
    "id": 50042001,
    "materialId": 120404,
    "sortOrder": 5001
  },
  {
    "id": 50042002,
    "materialId": 120405,
    "sortOrder": 5002
  },
  {
    "id": 50042003,
    "materialId": 120406,
    "sortOrder": 5003
  },
  {
    "id": 50043001,
    "materialId": 120407,
    "sortOrder": 5004
  },
  {
    "id": 50043002,
    "materialId": 120408,
    "sortOrder": 5005
  },
  {
    "id": 50043003,
    "materialId": 120409,
    "sortOrder": 5006
  },
  {
    "id": 50044001,
    "materialId": 120410,
    "sortOrder": 5007
  },
  {
    "id": 50044002,
    "materialId": 120411,
    "sortOrder": 5008
  },
  {
    "id": 50044003,
    "materialId": 120412,
    "sortOrder": 5009
  },
  {
    "id": 50046001,
    "materialId": 120416,
    "sortOrder": 5013
  },
  {
    "id": 50046002,
    "materialId": 120417,
    "sortOrder": 5014
  },
  {
    "id": 50046003,
    "materialId": 120418,
    "sortOrder": 5015
  },
  {
    "id": 50047001,
    "materialId": 120419,
    "sortOrder": 5016
  },
  {
    "id": 50047002,
    "materialId": 120420,
    "sortOrder": 5017
  },
  {
    "id": 50047003,
    "materialId": 120421,
    "sortOrder": 5018
  },
  {
    "id": 50048001,
    "materialId": 120422,
    "sortOrder": 5019
  },
  {
    "id": 50048002,
    "materialId": 120423,
    "sortOrder": 5020
  },
  {
    "id": 50048003,
    "materialId": 120424,
    "sortOrder": 5021
  },
  {
    "id": 50053001,
    "materialId": 120988,
    "sortOrder": 5022
  },
  {
    "id": 50053002,
    "materialId": 120989,
    "sortOrder": 5023
  },
  {
    "id": 50053003,
    "materialId": 120990,
    "sortOrder": 5024
  },
  {
    "id": 50053004,
    "materialId": 120991,
    "sortOrder": 5025
  },
  {
    "id": 50053005,
    "materialId": 120992,
    "sortOrder": 5026
  },
  {
    "id": 50053006,
    "materialId": 120993,
    "sortOrder": 5027
  },
  {
    "id": 50053007,
    "materialId": 120994,
    "sortOrder": 5028
  },
  {
    "id": 50057001,
    "materialId": 121065,
    "sortOrder": 5029
  },
  {
    "id": 50059001,
    "materialId": 121091,
    "sortOrder": 5030
  },
  {
    "id": 50059002,
    "materialId": 121092,
    "sortOrder": 5031
  },
  {
    "id": 50014001,
    "materialId": 100442,
    "sortOrder": 4061,
    "isDisuse": true
  },
  {
    "id": 50014002,
    "materialId": 100443,
    "sortOrder": 4062,
    "isDisuse": true
  },
  {
    "id": 50014003,
    "materialId": 100444,
    "sortOrder": 4063,
    "isDisuse": true
  },
  {
    "id": 50014004,
    "materialId": 100445,
    "sortOrder": 4064,
    "isDisuse": true
  },
  {
    "id": 50021001,
    "materialId": 100366,
    "sortOrder": 4065,
    "isDisuse": true
  },
  {
    "id": 50021002,
    "materialId": 100367,
    "sortOrder": 4066,
    "isDisuse": true
  },
  {
    "id": 50021003,
    "materialId": 100368,
    "sortOrder": 4067,
    "isDisuse": true
  },
  {
    "id": 50021004,
    "materialId": 100369,
    "sortOrder": 4068,
    "isDisuse": true
  },
  {
    "id": 50026002,
    "materialId": 100643,
    "sortOrder": 4069,
    "isDisuse": true
  },
  {
    "id": 50026003,
    "materialId": 100644,
    "sortOrder": 4070,
    "isDisuse": true
  },
  {
    "id": 50027002,
    "materialId": 100732,
    "sortOrder": 3055,
    "isDisuse": true
  },
  {
    "id": 50027003,
    "materialId": 100733,
    "sortOrder": 3056,
    "isDisuse": true
  },
  {
    "id": 50025004,
    "materialId": 100641,
    "sortOrder": 3053,
    "isDisuse": true
  },
  {
    "id": 50018010,
    "materialId": 100784,
    "sortOrder": 4048,
    "isDisuse": true
  },
  {
    "id": 50018011,
    "materialId": 100785,
    "sortOrder": 4049,
    "isDisuse": true
  },
  {
    "id": 50030007,
    "materialId": 101555,
    "sortOrder": 4077,
    "isDisuse": true
  },
  {
    "id": 50030008,
    "materialId": 101556,
    "sortOrder": 4078,
    "isDisuse": true
  },
  {
    "id": 50030009,
    "materialId": 101557,
    "sortOrder": 4079,
    "isDisuse": true
  }
]