[
  {
    "id": 1,
    "suitNameTextMapHash": 3784200505
  },
  {
    "id": 2,
    "suitNameTextMapHash": 167104193
  },
  {
    "id": 3,
    "suitNameTextMapHash": 680091433
  },
  {
    "id": 4,
    "suitNameTextMapHash": 1401031897
  },
  {
    "id": 5,
    "suitNameTextMapHash": 1915903505
  },
  {
    "id": 21,
    "suitNameTextMapHash": 547389577
  },
  {
    "id": 24,
    "suitNameTextMapHash": 2276231465
  },
  {
    "id": 1006,
    "suitNameTextMapHash": 1075609745
  },
  {
    "id": 1007,
    "suitNameTextMapHash": 2477320513
  },
  {
    "id": 1008,
    "suitNameTextMapHash": 862553137
  },
  {
    "id": 1009,
    "suitNameTextMapHash": 2506664433
  },
  {
    "id": 1010,
    "suitNameTextMapHash": 2168086081
  },
  {
    "id": 1011,
    "suitNameTextMapHash": 509440233
  },
  {
    "id": 1012,
    "suitNameTextMapHash": 1755613673
  },
  {
    "id": 1013,
    "suitNameTextMapHash": 2828111577
  },
  {
    "id": 1014,
    "suitNameTextMapHash": 3494131801
  },
  {
    "id": 1015,
    "suitNameTextMapHash": 2423093673
  },
  {
    "id": 1016,
    "suitNameTextMapHash": 824980849
  },
  {
    "id": 1017,
    "suitNameTextMapHash": 2094776353
  },
  {
    "id": 1018,
    "suitNameTextMapHash": 1243933865
  },
  {
    "id": 1019,
    "suitNameTextMapHash": 1687351225
  },
  {
    "id": 1020,
    "suitNameTextMapHash": 3892893201
  },
  {
    "id": 1022,
    "suitNameTextMapHash": 756410737
  },
  {
    "id": 1023,
    "suitNameTextMapHash": 2995449881
  },
  {
    "id": 1024,
    "suitNameTextMapHash": 3000283129
  },
  {
    "id": 1025,
    "suitNameTextMapHash": 3465589785
  },
  {
    "id": 1026,
    "suitNameTextMapHash": 1049314353
  },
  {
    "id": 1027,
    "suitNameTextMapHash": 1437515721
  },
  {
    "id": 1028,
    "suitNameTextMapHash": 780050585
  },
  {
    "id": 1029,
    "suitNameTextMapHash": 2307031473
  },
  {
    "id": 1030,
    "suitNameTextMapHash": 450333377
  },
  {
    "id": 1031,
    "suitNameTextMapHash": 3574408249
  },
  {
    "id": 1032,
    "suitNameTextMapHash": 1317155449
  },
  {
    "id": 1033,
    "suitNameTextMapHash": 1160668169
  },
  {
    "id": 1034,
    "suitNameTextMapHash": 803725193
  },
  {
    "id": 1035,
    "suitNameTextMapHash": 2524206881
  },
  {
    "id": 1036,
    "suitNameTextMapHash": 1056836313
  },
  {
    "id": 1037,
    "suitNameTextMapHash": 1856506249
  },
  {
    "id": 1038,
    "suitNameTextMapHash": 324985233
  },
  {
    "id": 1039,
    "suitNameTextMapHash": 2993243393
  },
  {
    "id": 1040,
    "suitNameTextMapHash": 2632475457
  },
  {
    "id": 1041,
    "suitNameTextMapHash": 412050057
  },
  {
    "id": 1042,
    "suitNameTextMapHash": 1036989385
  },
  {
    "id": 1043,
    "suitNameTextMapHash": 769818865
  },
  {
    "id": 1044,
    "suitNameTextMapHash": 2500083177
  },
  {
    "id": 1045,
    "suitNameTextMapHash": 1778745305
  },
  {
    "id": 1046,
    "suitNameTextMapHash": 798968873
  },
  {
    "id": 1047,
    "suitNameTextMapHash": 4074126665
  },
  {
    "id": 1048,
    "suitNameTextMapHash": 1092637633
  },
  {
    "id": 1049,
    "suitNameTextMapHash": 3097438353
  },
  {
    "id": 1050,
    "suitNameTextMapHash": 2743030425
  },
  {
    "id": 1051,
    "suitNameTextMapHash": 1282281577
  },
  {
    "id": 1052,
    "suitNameTextMapHash": 3005639337
  },
  {
    "id": 1053,
    "suitNameTextMapHash": 2385321841
  },
  {
    "id": 1054,
    "suitNameTextMapHash": 3966078489
  },
  {
    "id": 1055,
    "suitNameTextMapHash": 2655359609
  },
  {
    "id": 1056,
    "suitNameTextMapHash": 1278173745
  },
  {
    "id": 1057,
    "suitNameTextMapHash": 1106892529
  },
  {
    "id": 1058,
    "suitNameTextMapHash": 3280319705
  },
  {
    "id": 1059,
    "suitNameTextMapHash": 2133545433
  },
  {
    "id": 1060,
    "suitNameTextMapHash": 2026707937
  },
  {
    "id": 1061,
    "suitNameTextMapHash": 686919793
  },
  {
    "id": 1062,
    "suitNameTextMapHash": 26272409
  }
]