[
  {
    "JAEEDBINLIC": 35110101,
    "BHPIHGBBGDI": "ART/UI/Atlas/MonsterIcon/UI_ActivityIcon_BoxMatch_Male_Genevieve",
    "MIMOBOFLOCB": "GV_BoxMatch_StartBurst",
    "skillCD": 8,
    "skillIconPath": "ART/UI/Atlas/SkillIcons/Btn_BoxMatch_FireCracker",
    "skillNameTextMapHash": 1631494232,
    "skillDescTextMapHash": 1846869190,
    "abilityStatesBanSkill": [
      "ElementFrozen",
      "Struggle",
      "ElementPetrifaction"
    ],
    "animatorParamBanSkill": "BurstUnavailable"
  },
  {
    "JAEEDBINLIC": 35110201,
    "BHPIHGBBGDI": "ART/UI/Atlas/MonsterIcon/UI_ActivityIcon_BoxMatch_Male_Poiret",
    "MIMOBOFLOCB": "GV_BoxMatch_StartBurst",
    "skillCD": 6,
    "skillIconPath": "ART/UI/Atlas/SkillIcons/Btn_BoxMatch_SugarGlass",
    "skillNameTextMapHash": 1200420216,
    "skillDescTextMapHash": 1484843078,
    "abilityStatesBanSkill": [
      "ElementFrozen",
      "Struggle",
      "ElementPetrifaction"
    ],
    "animatorParamBanSkill": "BurstUnavailable"
  },
  {
    "JAEEDBINLIC": 35110301,
    "BHPIHGBBGDI": "ART/UI/Atlas/MonsterIcon/UI_ActivityIcon_BoxMatch_Male_Poiret",
    "MIMOBOFLOCB": "GV_BoxMatch_StartBurst",
    "skillCD": 6,
    "skillIconPath": "ART/UI/Atlas/SkillIcons/Btn_BoxMatch_SugarGlass",
    "skillNameTextMapHash": 3608738368,
    "skillDescTextMapHash": 1324957270,
    "abilityStatesBanSkill": [
      "ElementFrozen",
      "Struggle",
      "ElementPetrifaction"
    ],
    "animatorParamBanSkill": "BurstUnavailable"
  },
  {
    "JAEEDBINLIC": 35110103,
    "BHPIHGBBGDI": "ART/UI/Atlas/MonsterIcon/UI_ActivityIcon_BoxMatch_Male_Genevieve",
    "MIMOBOFLOCB": "GV_BoxMatch_StartBurst",
    "skillCD": 5,
    "skillIconPath": "ART/UI/Atlas/SkillIcons/Btn_BoxMatch_FireCracker",
    "skillNameTextMapHash": 3871172672,
    "skillDescTextMapHash": 85361894,
    "abilityStatesBanSkill": [
      "ElementFrozen",
      "Struggle",
      "ElementPetrifaction"
    ],
    "animatorParamBanSkill": "BurstUnavailable"
  },
  {
    "JAEEDBINLIC": 25050601,
    "BHPIHGBBGDI": "ART/UI/Atlas/MonsterIcon/UI_ActivityIcon_BoxMatch_Male_Goncourt",
    "MIMOBOFLOCB": "",
    "skillIconPath": "",
    "skillNameTextMapHash": 614955864,
    "skillDescTextMapHash": 3750093294,
    "abilityStatesBanSkill": [],
    "animatorParamBanSkill": ""
  },
  {
    "JAEEDBINLIC": 23010101,
    "BHPIHGBBGDI": "ART/UI/Atlas/MonsterIcon/UI_MonsterIcon_Skirmisher_Male_Fat_SprayGun_Ice_01",
    "MIMOBOFLOCB": "",
    "skillIconPath": "",
    "skillNameTextMapHash": 3301180136,
    "skillDescTextMapHash": 3569372374,
    "abilityStatesBanSkill": [],
    "animatorParamBanSkill": ""
  },
  {
    "JAEEDBINLIC": 25100101,
    "BHPIHGBBGDI": "ART/UI/Atlas/MonsterIcon/UI_MonsterIcon_Samurai_Kairagi_01",
    "MIMOBOFLOCB": "",
    "skillIconPath": "",
    "skillNameTextMapHash": 1503029528,
    "skillDescTextMapHash": 647067526,
    "abilityStatesBanSkill": [],
    "animatorParamBanSkill": ""
  },
  {
    "JAEEDBINLIC": 24066001,
    "BHPIHGBBGDI": "ART/UI/Atlas/MonsterIcon/UI_MonsterIcon_MachinaIustitia_Bradamante",
    "MIMOBOFLOCB": "",
    "skillIconPath": "",
    "skillNameTextMapHash": 948837272,
    "skillDescTextMapHash": 3526923062,
    "abilityStatesBanSkill": [],
    "animatorParamBanSkill": ""
  },
  {
    "JAEEDBINLIC": 24065901,
    "BHPIHGBBGDI": "ART/UI/Atlas/MonsterIcon/UI_MonsterIcon_MachinaIustitia_Ruggiero_02",
    "MIMOBOFLOCB": "",
    "skillIconPath": "",
    "skillNameTextMapHash": 659360960,
    "skillDescTextMapHash": 1871145126,
    "abilityStatesBanSkill": [],
    "animatorParamBanSkill": ""
  },
  {
    "JAEEDBINLIC": 25060104,
    "BHPIHGBBGDI": "ART/UI/Atlas/MonsterIcon/UI_ActivityIcon_BoxMatch_Male_Roussimoff",
    "MIMOBOFLOCB": "",
    "skillIconPath": "",
    "skillNameTextMapHash": 230607736,
    "skillDescTextMapHash": 4080260342,
    "abilityStatesBanSkill": [],
    "animatorParamBanSkill": ""
  },
  {
    "JAEEDBINLIC": 35110102,
    "BHPIHGBBGDI": "ART/UI/Atlas/MonsterIcon/UI_ActivityIcon_BoxMatch_Male_Genevieve",
    "MIMOBOFLOCB": "",
    "skillIconPath": "",
    "skillNameTextMapHash": 180028128,
    "skillDescTextMapHash": 4274106102,
    "abilityStatesBanSkill": [],
    "animatorParamBanSkill": ""
  }
]