[
  {
    "id": 1,
    "iconName": "UI_Buff_Charge_Gadget",
    "effectName": "",
    "NCJMKHINBJJ": ""
  },
  {
    "id": 2,
    "iconName": "UI_Buff_Charge_Monster",
    "fillEffectType": "CHARING_FILL_NEGATIVE",
    "effectName": "",
    "NCJMKHINBJJ": ""
  },
  {
    "id": 3,
    "iconName": "UI_Buff_Charge_Revive",
    "fillEffectType": "CHARING_FILL_NEGATIVE",
    "effectName": "",
    "NCJMKHINBJJ": ""
  },
  {
    "id": 4,
    "iconName": "UI_Buff_Charge_Botany",
    "effectName": "",
    "NCJMKHINBJJ": ""
  },
  {
    "id": 5,
    "iconName": "UI_Buff_Charge_Gadget",
    "effectName": "NyxStateBar_FillEffect",
    "NCJMKHINBJJ": "NyxStateBar_FireEffect"
  },
  {
    "id": 6,
    "iconName": "UI_Buff_TournamentFlame",
    "effectName": "",
    "NCJMKHINBJJ": ""
  }
]