[
  {
    "id": 1001,
    "CHLPLINANCE": "UI_MonsterIcon_Hili_Fire_Range",
    "nameTextMapHash": 1951826670,
    "descTextMapHash": 2461141478,
    "BPGNBCFJHPI": []
  },
  {
    "id": 1002,
    "CHLPLINANCE": "UI_MonsterIcon_Slime_Water_02",
    "nameTextMapHash": 1695892150,
    "descTextMapHash": 3750132870,
    "BPGNBCFJHPI": [
      10001,
      10003
    ]
  },
  {
    "id": 1003,
    "CHLPLINANCE": "UI_MonsterIcon_Slime_Water_03",
    "nameTextMapHash": 1953720462,
    "descTextMapHash": 306164638,
    "BPGNBCFJHPI": [
      10002,
      10004
    ],
    "KHKHLHJLGKF": true
  },
  {
    "id": 1004,
    "CHLPLINANCE": "UI_MonsterIcon_Slime_Fire_02",
    "nameTextMapHash": 4007974646,
    "descTextMapHash": 1395289006,
    "BPGNBCFJHPI": [
      10002,
      10004
    ]
  },
  {
    "id": 1005,
    "CHLPLINANCE": "UI_MonsterIcon_Slime_Fire_03",
    "nameTextMapHash": 2637430630,
    "descTextMapHash": 2006317646,
    "BPGNBCFJHPI": [
      10002,
      10004
    ]
  },
  {
    "id": 1006,
    "CHLPLINANCE": "UI_MonsterIcon_Slime_Electric_02",
    "nameTextMapHash": 3492550854,
    "descTextMapHash": 610192590,
    "BPGNBCFJHPI": [
      10005,
      10006,
      10007
    ],
    "KHKHLHJLGKF": true
  },
  {
    "id": 1007,
    "CHLPLINANCE": "UI_MonsterIcon_Slime_Electric_03",
    "nameTextMapHash": 4239331694,
    "descTextMapHash": 2670525254,
    "BPGNBCFJHPI": [
      10005,
      10006,
      10007
    ],
    "KHKHLHJLGKF": true
  },
  {
    "id": 1008,
    "CHLPLINANCE": "UI_MonsterIcon_Sylph_Water_01",
    "nameTextMapHash": 4130385686,
    "descTextMapHash": 4196692350,
    "BPGNBCFJHPI": [
      10001,
      10003
    ]
  },
  {
    "id": 1009,
    "CHLPLINANCE": "UI_MonsterIcon_Sylph_Fire_01",
    "nameTextMapHash": 3945607294,
    "descTextMapHash": 118248270,
    "BPGNBCFJHPI": [
      10002,
      10004
    ]
  },
  {
    "id": 1010,
    "CHLPLINANCE": "UI_MonsterIcon_Sylph_Ice_01",
    "nameTextMapHash": 3899188238,
    "descTextMapHash": 3463776998,
    "BPGNBCFJHPI": [
      10005,
      10006,
      10007
    ],
    "KHKHLHJLGKF": true
  },
  {
    "id": 1011,
    "CHLPLINANCE": "UI_MonsterIcon_Sylph_Electric_01",
    "nameTextMapHash": 2063577390,
    "descTextMapHash": 2451239158,
    "BPGNBCFJHPI": [
      10005,
      10006,
      10007
    ],
    "KHKHLHJLGKF": true
  },
  {
    "id": 1012,
    "CHLPLINANCE": "UI_MonsterIcon_Fungus_Amanita_Du_Anudatta_Water",
    "nameTextMapHash": 3193765854,
    "descTextMapHash": 3751340126,
    "BPGNBCFJHPI": [
      10001,
      10003
    ]
  },
  {
    "id": 1013,
    "CHLPLINANCE": "UI_MonsterIcon_Fungus_Amanita_Unu_Anudatta_Grass",
    "nameTextMapHash": 1796862022,
    "descTextMapHash": 3711445686,
    "BPGNBCFJHPI": [
      10001,
      10003
    ],
    "KHKHLHJLGKF": true
  },
  {
    "id": 1014,
    "CHLPLINANCE": "UI_MonsterIcon_Drake_Deepsea_Water",
    "nameTextMapHash": 721792454,
    "descTextMapHash": 499730774,
    "BPGNBCFJHPI": [
      10009
    ]
  },
  {
    "id": 1015,
    "CHLPLINANCE": "UI_MonsterIcon_Hound_Kanis_Rock",
    "nameTextMapHash": 1277295366,
    "descTextMapHash": 2899636838,
    "BPGNBCFJHPI": [
      10009
    ],
    "KHKHLHJLGKF": true
  },
  {
    "id": 2001,
    "CHLPLINANCE": "UI_MonsterIcon_Human_Female_NoWeapon_Mosasaurus",
    "nameTextMapHash": 1032523406,
    "descTextMapHash": 54726446,
    "BPGNBCFJHPI": []
  },
  {
    "id": 2002,
    "CHLPLINANCE": "UI_MonsterIcon_Human_Fat_NoWeapon_Mosasaurus",
    "nameTextMapHash": 3333373830,
    "descTextMapHash": 1206844582,
    "BPGNBCFJHPI": []
  },
  {
    "id": 2003,
    "CHLPLINANCE": "UI_MonsterIcon_Human_Male_Sword_Mosasaurus",
    "nameTextMapHash": 3696930742,
    "descTextMapHash": 3820475926,
    "BPGNBCFJHPI": []
  },
  {
    "id": 2004,
    "CHLPLINANCE": "UI_MonsterIcon_Human_Female_Sword_Hookwalker",
    "nameTextMapHash": 775580638,
    "descTextMapHash": 951671598,
    "BPGNBCFJHPI": []
  },
  {
    "id": 2005,
    "CHLPLINANCE": "UI_MonsterIcon_Human_Male_Sword_Hookwalker",
    "nameTextMapHash": 3671544606,
    "descTextMapHash": 3891281382,
    "BPGNBCFJHPI": []
  },
  {
    "id": 2006,
    "CHLPLINANCE": "UI_MonsterIcon_Human_Male_Claymore_Hookwalker",
    "nameTextMapHash": 278726990,
    "descTextMapHash": 264404518,
    "BPGNBCFJHPI": []
  },
  {
    "id": 2007,
    "CHLPLINANCE": "UI_MonsterIcon_Tribalwarrior_Chainsword_Hookwalker",
    "nameTextMapHash": 3615764942,
    "descTextMapHash": 1754022198,
    "BPGNBCFJHPI": []
  },
  {
    "id": 2008,
    "CHLPLINANCE": "UI_MonsterIcon_Tribalwarrior_Launcher_Hookwalker",
    "nameTextMapHash": 3261269710,
    "descTextMapHash": 1444808046,
    "BPGNBCFJHPI": []
  },
  {
    "id": 3001,
    "CHLPLINANCE": "UI_MonsterIcon_Thoarder_Male_Hunter_01",
    "nameTextMapHash": 1890371774,
    "descTextMapHash": 3741602878,
    "BPGNBCFJHPI": []
  },
  {
    "id": 3002,
    "CHLPLINANCE": "UI_MonsterIcon_Thoarder_Male_Sailor_01",
    "nameTextMapHash": 987203846,
    "descTextMapHash": 3348374502,
    "BPGNBCFJHPI": []
  },
  {
    "id": 3003,
    "CHLPLINANCE": "UI_MonsterIcon_Thoarder_MuscleMan_Miner_01",
    "nameTextMapHash": 1365628566,
    "descTextMapHash": 1192916142,
    "BPGNBCFJHPI": []
  },
  {
    "id": 3004,
    "CHLPLINANCE": "UI_MonsterIcon_Eremite_MuscleMan_Simitar",
    "nameTextMapHash": 418673982,
    "descTextMapHash": 3105883998,
    "BPGNBCFJHPI": []
  },
  {
    "id": 3005,
    "CHLPLINANCE": "UI_MonsterIcon_Eremite_MuscleMan_Gloves",
    "nameTextMapHash": 326508414,
    "descTextMapHash": 362030606,
    "BPGNBCFJHPI": []
  },
  {
    "id": 3006,
    "CHLPLINANCE": "UI_MonsterIcon_Eremite_Male_Standard_Pole",
    "nameTextMapHash": 4293981198,
    "descTextMapHash": 2729311446,
    "BPGNBCFJHPI": []
  },
  {
    "id": 3007,
    "CHLPLINANCE": "UI_MonsterIcon_Eremite_Male_Standard_Crossbow",
    "nameTextMapHash": 3967919958,
    "descTextMapHash": 331214214,
    "BPGNBCFJHPI": []
  },
  {
    "id": 3008,
    "CHLPLINANCE": "UI_MonsterIcon_Human_Fat_NoWeapon_Mosasaurus",
    "nameTextMapHash": 3871554158,
    "descTextMapHash": 3632127742,
    "BPGNBCFJHPI": []
  },
  {
    "id": 3009,
    "CHLPLINANCE": "UI_MonsterIcon_Human_Male_Sword_Mosasaurus",
    "nameTextMapHash": 497508126,
    "descTextMapHash": 3557075134,
    "BPGNBCFJHPI": []
  },
  {
    "id": 3010,
    "CHLPLINANCE": "UI_MonsterIcon_Human_Female_NoWeapon_Mosasaurus",
    "nameTextMapHash": 2894176998,
    "descTextMapHash": 128169182,
    "BPGNBCFJHPI": []
  },
  {
    "id": 4001,
    "CHLPLINANCE": "UI_MonsterIcon_MachinaIustitia_Pylon",
    "nameTextMapHash": 843047118,
    "descTextMapHash": 3991717822,
    "BPGNBCFJHPI": []
  },
  {
    "id": 4002,
    "CHLPLINANCE": "UI_MonsterIcon_MachinaIustitia_Probe",
    "nameTextMapHash": 2431814910,
    "descTextMapHash": 2474284678,
    "BPGNBCFJHPI": []
  },
  {
    "id": 4003,
    "CHLPLINANCE": "UI_MonsterIcon_MachinaIustitia_LengthShifter",
    "nameTextMapHash": 3574680590,
    "descTextMapHash": 4072339214,
    "BPGNBCFJHPI": []
  },
  {
    "id": 4004,
    "CHLPLINANCE": "UI_MonsterIcon_MachinaIustitia_Ruggiero_02",
    "nameTextMapHash": 2804827742,
    "descTextMapHash": 2413248334,
    "BPGNBCFJHPI": []
  },
  {
    "id": 4005,
    "CHLPLINANCE": "UI_MonsterIcon_MachinaIustitia_Bradamante",
    "nameTextMapHash": 144931766,
    "descTextMapHash": 3934978470,
    "BPGNBCFJHPI": []
  },
  {
    "id": 4006,
    "CHLPLINANCE": "UI_MonsterIcon_MachinaIustitia_Excavator",
    "nameTextMapHash": 3709705326,
    "descTextMapHash": 3634055918,
    "BPGNBCFJHPI": []
  },
  {
    "id": 4007,
    "CHLPLINANCE": "UI_MonsterIcon_MachinaIustitia_Ruggiero_01",
    "nameTextMapHash": 3944405910,
    "descTextMapHash": 905792806,
    "BPGNBCFJHPI": []
  },
  {
    "id": 5001,
    "CHLPLINANCE": "UI_MonsterIcon_Brute_None_01",
    "nameTextMapHash": 2608253126,
    "descTextMapHash": 1490901710,
    "BPGNBCFJHPI": [
      10007
    ],
    "KHKHLHJLGKF": true
  },
  {
    "id": 5002,
    "CHLPLINANCE": "UI_MonsterIcon_Brute_None_01",
    "nameTextMapHash": 738149750,
    "descTextMapHash": 3908360174,
    "BPGNBCFJHPI": [
      10007
    ]
  },
  {
    "id": 5003,
    "CHLPLINANCE": "UI_MonsterIcon_Hilistray_Wind",
    "nameTextMapHash": 1395587150,
    "descTextMapHash": 1126926790,
    "BPGNBCFJHPI": [
      10001,
      10003
    ],
    "KHKHLHJLGKF": true
  },
  {
    "id": 5004,
    "CHLPLINANCE": "UI_MonsterIcon_Hilistray_Water",
    "nameTextMapHash": 4114954590,
    "descTextMapHash": 1006739422,
    "BPGNBCFJHPI": [
      10002,
      10004,
      10005,
      10006
    ],
    "KHKHLHJLGKF": true
  },
  {
    "id": 5005,
    "CHLPLINANCE": "UI_MonsterIcon_Abyss_Fire_01",
    "nameTextMapHash": 3454123822,
    "descTextMapHash": 267864862,
    "BPGNBCFJHPI": [
      10001,
      10003,
      10005,
      10006
    ],
    "KHKHLHJLGKF": true
  },
  {
    "id": 5006,
    "CHLPLINANCE": "UI_MonsterIcon_Abyss_Water_01",
    "nameTextMapHash": 698213934,
    "descTextMapHash": 3640900662,
    "BPGNBCFJHPI": [
      10002,
      10004
    ],
    "KHKHLHJLGKF": true
  },
  {
    "id": 5007,
    "CHLPLINANCE": "UI_MonsterIcon_Abyss_Electric_01",
    "nameTextMapHash": 1580151630,
    "descTextMapHash": 4273562222,
    "BPGNBCFJHPI": [
      10005,
      10006
    ],
    "KHKHLHJLGKF": true
  },
  {
    "id": 5008,
    "CHLPLINANCE": "UI_MonsterIcon_Skirmisher_Male_Fat_SprayGun_Ice_01",
    "nameTextMapHash": 3950226350,
    "descTextMapHash": 3666813870,
    "BPGNBCFJHPI": [
      10005,
      10006
    ],
    "KHKHLHJLGKF": true
  },
  {
    "id": 5009,
    "CHLPLINANCE": "UI_MonsterIcon_Skirmisher_Male_Fat_SprayGun_Water_01",
    "nameTextMapHash": 3760113134,
    "descTextMapHash": 3904492078,
    "BPGNBCFJHPI": [
      10002,
      10004
    ],
    "KHKHLHJLGKF": true
  },
  {
    "id": 5010,
    "CHLPLINANCE": "UI_MonsterIcon_Skirmisher_Male_Strong_GreatHammer_Electric_01",
    "nameTextMapHash": 2767818190,
    "descTextMapHash": 431610894,
    "BPGNBCFJHPI": [
      10002,
      10004,
      10005,
      10006
    ],
    "KHKHLHJLGKF": true
  },
  {
    "id": 5011,
    "CHLPLINANCE": "UI_MonsterIcon_Skirmisher_Male_Standard_Staff_Rock_01",
    "nameTextMapHash": 1684986646,
    "descTextMapHash": 2915422358,
    "BPGNBCFJHPI": [
      10007
    ],
    "KHKHLHJLGKF": true
  },
  {
    "id": 5012,
    "CHLPLINANCE": "UI_MonsterIcon_Skirmisher_Male_Standard_Rifle_Fire_01",
    "nameTextMapHash": 523466014,
    "descTextMapHash": 2930994726,
    "BPGNBCFJHPI": [
      10001,
      10003
    ],
    "KHKHLHJLGKF": true
  },
  {
    "id": 5013,
    "CHLPLINANCE": "UI_MonsterIcon_Fatuus_Summoner_01",
    "nameTextMapHash": 1413294694,
    "descTextMapHash": 3373016894,
    "BPGNBCFJHPI": [
      10007
    ],
    "KHKHLHJLGKF": true
  },
  {
    "id": 5014,
    "CHLPLINANCE": "UI_MonsterIcon_Fatuus_Fire_01",
    "nameTextMapHash": 3822526958,
    "descTextMapHash": 3540183702,
    "BPGNBCFJHPI": [
      10007
    ]
  },
  {
    "id": 5015,
    "CHLPLINANCE": "UI_MonsterIcon_Lava_Solid",
    "nameTextMapHash": 1562875718,
    "descTextMapHash": 1750372278,
    "BPGNBCFJHPI": [
      10009
    ]
  },
  {
    "id": 5016,
    "CHLPLINANCE": "UI_MonsterIcon_Golem_Legion",
    "nameTextMapHash": 4123347686,
    "descTextMapHash": 3334935166,
    "BPGNBCFJHPI": [
      10007
    ],
    "KHKHLHJLGKF": true
  },
  {
    "id": 5017,
    "CHLPLINANCE": "UI_MonsterIcon_Hound_Kanis_Rock",
    "nameTextMapHash": 2216442502,
    "descTextMapHash": 3345744142,
    "BPGNBCFJHPI": [
      10009
    ],
    "KHKHLHJLGKF": true
  },
  {
    "id": 6001,
    "CHLPLINANCE": "UI_MonsterIcon_Fungus_Deux_Beta_Rock",
    "nameTextMapHash": 323152678,
    "descTextMapHash": 2012637958,
    "BPGNBCFJHPI": []
  },
  {
    "id": 6002,
    "CHLPLINANCE": "UI_MonsterIcon_Fungus_Amanita_Du_Udatta_Rock",
    "nameTextMapHash": 1947325142,
    "descTextMapHash": 2072689654,
    "BPGNBCFJHPI": []
  },
  {
    "id": 6003,
    "CHLPLINANCE": "UI_MonsterIcon_Drake_Primo_Rock",
    "nameTextMapHash": 4185899054,
    "descTextMapHash": 4220720294,
    "DCJBPNEGIMN": true,
    "BPGNBCFJHPI": []
  },
  {
    "id": 7001,
    "CHLPLINANCE": "UI_MonsterIcon_Samurai_Ronin_03",
    "nameTextMapHash": 413498206,
    "descTextMapHash": 1596806422,
    "BPGNBCFJHPI": []
  },
  {
    "id": 7002,
    "CHLPLINANCE": "UI_MonsterIcon_Samurai_Ronin_01",
    "nameTextMapHash": 2105177862,
    "descTextMapHash": 2693585462,
    "BPGNBCFJHPI": []
  },
  {
    "id": 7003,
    "CHLPLINANCE": "UI_MonsterIcon_Samurai_Kairagi_01",
    "nameTextMapHash": 785986046,
    "descTextMapHash": 2524832838,
    "BPGNBCFJHPI": []
  },
  {
    "id": 7004,
    "CHLPLINANCE": "UI_MonsterIcon_Samurai_Ningyo",
    "nameTextMapHash": 3591652582,
    "descTextMapHash": 3208376390,
    "DCJBPNEGIMN": true,
    "BPGNBCFJHPI": []
  },
  {
    "id": 8001,
    "CHLPLINANCE": "UI_MonsterIcon_Apparatus_Enigma_BionicNettler",
    "nameTextMapHash": 3639800790,
    "descTextMapHash": 1823435782,
    "BPGNBCFJHPI": [
      11307
    ]
  },
  {
    "id": 8002,
    "CHLPLINANCE": "UI_MonsterIcon_Gargoyle",
    "nameTextMapHash": 4047506166,
    "descTextMapHash": 973829990,
    "BPGNBCFJHPI": [
      11307
    ],
    "KHKHLHJLGKF": true
  },
  {
    "id": 8003,
    "CHLPLINANCE": "UI_MonsterIcon_Apparatus_Perpetual",
    "nameTextMapHash": 3398883750,
    "descTextMapHash": 942285694,
    "DCJBPNEGIMN": true,
    "BPGNBCFJHPI": []
  },
  {
    "id": 9001,
    "CHLPLINANCE": "UI_MonsterIcon_Human_Male_Claymore_Hookwalker",
    "nameTextMapHash": 2127156126,
    "descTextMapHash": 1444819750,
    "BPGNBCFJHPI": [
      11309
    ]
  },
  {
    "id": 9002,
    "CHLPLINANCE": "UI_MonsterIcon_Human_Female_Sword_Hookwalker",
    "nameTextMapHash": 1752630390,
    "descTextMapHash": 1317261846,
    "BPGNBCFJHPI": [
      11309
    ]
  },
  {
    "id": 9003,
    "CHLPLINANCE": "UI_MonsterIcon_Human_Male_Sword_Hookwalker",
    "nameTextMapHash": 3508940254,
    "descTextMapHash": 2454145126,
    "BPGNBCFJHPI": []
  },
  {
    "id": 9004,
    "CHLPLINANCE": "UI_MonsterIcon_Tribalwarrior_Launcher_Hookwalker",
    "nameTextMapHash": 596957262,
    "descTextMapHash": 3461126262,
    "BPGNBCFJHPI": [
      11309
    ],
    "KHKHLHJLGKF": true
  },
  {
    "id": 9005,
    "CHLPLINANCE": "UI_MonsterIcon_Fungus_Raptor",
    "nameTextMapHash": 712742238,
    "descTextMapHash": 1049725222,
    "DCJBPNEGIMN": true,
    "BPGNBCFJHPI": []
  }
]