[
  {
    "tabId": 1001,
    "tabNameTextMapHash": 2710518899,
    "slotIdentifierPathList": [
      "FlowerShelf"
    ],
    "effectSlotSelect": "Eff_SceneObj_FlowerShlef_Switch",
    "effectPartsSetup": "Eff_SceneObj_FlowerShlef_Switch",
    "noPartsTipsTextMapHash": 2734436925,
    "getPartsTipsTextMapHash": 211211571
  },
  {
    "tabId": 1002,
    "tabNameTextMapHash": 3705330299,
    "slotIdentifierPathList": [
      "FlowerShelf",
      "Flower1"
    ],
    "dependentTabId": 1001,
    "effectSlotSelect": "Eff_SceneObj_FlowerPot_Selected",
    "effectPartsSetup": "Eff_SceneObj_Flower_Switch",
    "noPartsTipsTextMapHash": 1741001165,
    "getPartsTipsTextMapHash": 1074787019
  },
  {
    "tabId": 1003,
    "tabNameTextMapHash": 592305467,
    "slotIdentifierPathList": [
      "FlowerShelf",
      "Flower2"
    ],
    "dependentTabId": 1001,
    "effectSlotSelect": "Eff_SceneObj_FlowerPot_Selected",
    "effectPartsSetup": "Eff_SceneObj_Flower_Switch",
    "noPartsTipsTextMapHash": 1076783373,
    "getPartsTipsTextMapHash": 1693251187
  },
  {
    "tabId": 1004,
    "tabNameTextMapHash": 1277736707,
    "slotIdentifierPathList": [
      "FlowerShelf",
      "Flower3"
    ],
    "dependentTabId": 1001,
    "effectSlotSelect": "Eff_SceneObj_FlowerPot_Selected",
    "effectPartsSetup": "Eff_SceneObj_Flower_Switch",
    "noPartsTipsTextMapHash": 4101174461,
    "getPartsTipsTextMapHash": 2300085403
  },
  {
    "tabId": 1005,
    "tabNameTextMapHash": 4054028299,
    "slotIdentifierPathList": [
      "Flower1"
    ],
    "effectSlotSelect": "Eff_SceneObj_FlowerPot_Selected",
    "effectPartsSetup": "Eff_SceneObj_Flower_Switch",
    "noPartsTipsTextMapHash": 3647383885,
    "getPartsTipsTextMapHash": 4191383659
  },
  {
    "tabId": 1006,
    "tabNameTextMapHash": 93117563,
    "slotIdentifierPathList": [
      "Flower2"
    ],
    "effectSlotSelect": "Eff_SceneObj_FlowerPot_Selected",
    "effectPartsSetup": "Eff_SceneObj_Flower_Switch",
    "noPartsTipsTextMapHash": 1073089381,
    "getPartsTipsTextMapHash": 562779299
  },
  {
    "tabId": 1007,
    "tabNameTextMapHash": 798223691,
    "slotIdentifierPathList": [
      "Flower3"
    ],
    "effectSlotSelect": "Eff_SceneObj_FlowerPot_Selected",
    "effectPartsSetup": "Eff_SceneObj_Flower_Switch",
    "noPartsTipsTextMapHash": 3567065125,
    "getPartsTipsTextMapHash": 3493302571
  },
  {
    "tabId": 2001,
    "tabNameTextMapHash": 4177260251,
    "slotIdentifierPathList": [
      "Head"
    ],
    "effectSlotSelect": "",
    "effectPartsSetup": "",
    "noPartsTipsTextMapHash": 1693751781,
    "getPartsTipsTextMapHash": 1655486411
  },
  {
    "tabId": 2002,
    "tabNameTextMapHash": 1972529011,
    "slotIdentifierPathList": [
      "Hand"
    ],
    "effectSlotSelect": "",
    "effectPartsSetup": "",
    "noPartsTipsTextMapHash": 237195237,
    "getPartsTipsTextMapHash": 3442949251
  },
  {
    "tabId": 2003,
    "tabNameTextMapHash": 4210768979,
    "slotIdentifierPathList": [
      "Head",
      "Hat"
    ],
    "dependentTabId": 2001,
    "effectSlotSelect": "",
    "effectPartsSetup": "",
    "noPartsTipsTextMapHash": 646079205,
    "getPartsTipsTextMapHash": 1340284355
  },
  {
    "tabId": 2004,
    "tabNameTextMapHash": 4056943835,
    "slotIdentifierPathList": [
      "Head",
      "Scarf"
    ],
    "dependentTabId": 2001,
    "effectSlotSelect": "",
    "effectPartsSetup": "",
    "noPartsTipsTextMapHash": 3547007709,
    "getPartsTipsTextMapHash": 749863699
  },
  {
    "tabId": 2005,
    "tabNameTextMapHash": 3633818947,
    "slotIdentifierPathList": [
      "Head",
      "Eye"
    ],
    "dependentTabId": 2001,
    "effectSlotSelect": "",
    "effectPartsSetup": "",
    "noPartsTipsTextMapHash": 3049999909,
    "getPartsTipsTextMapHash": 3932694547
  },
  {
    "tabId": 2006,
    "tabNameTextMapHash": 3131636803,
    "slotIdentifierPathList": [
      "Head",
      "Nose"
    ],
    "dependentTabId": 2001,
    "effectSlotSelect": "",
    "effectPartsSetup": "",
    "noPartsTipsTextMapHash": 1012689941,
    "getPartsTipsTextMapHash": 585857363
  },
  {
    "tabId": 3001,
    "tabNameTextMapHash": 3941446811,
    "slotIdentifierPathList": [
      "FrontScene"
    ],
    "effectSlotSelect": "",
    "effectPartsSetup": "",
    "noPartsTipsTextMapHash": 2021312237,
    "getPartsTipsTextMapHash": 4010405451
  },
  {
    "tabId": 3002,
    "tabNameTextMapHash": 2759979219,
    "slotIdentifierPathList": [
      "BehindScene"
    ],
    "effectSlotSelect": "",
    "effectPartsSetup": "",
    "noPartsTipsTextMapHash": 892697741,
    "getPartsTipsTextMapHash": 3805043395
  },
  {
    "tabId": 3003,
    "tabNameTextMapHash": 1960841939,
    "slotIdentifierPathList": [
      "FrontScene",
      "VitalFlower1"
    ],
    "dependentTabId": 3001,
    "effectSlotSelect": "Eff_SceneObj_Irodori_Flower_Selected",
    "effectPartsSetup": "",
    "noPartsTipsTextMapHash": 926879837,
    "getPartsTipsTextMapHash": 2955367739
  },
  {
    "tabId": 3004,
    "tabNameTextMapHash": 2631694803,
    "slotIdentifierPathList": [
      "FrontScene",
      "VitalFlower2"
    ],
    "dependentTabId": 3001,
    "effectSlotSelect": "Eff_SceneObj_Irodori_Flower_Selected",
    "effectPartsSetup": "",
    "noPartsTipsTextMapHash": 4016139189,
    "getPartsTipsTextMapHash": 1480909067
  },
  {
    "tabId": 3005,
    "tabNameTextMapHash": 3796612835,
    "slotIdentifierPathList": [
      "FrontScene",
      "VitalFlower3"
    ],
    "dependentTabId": 3001,
    "effectSlotSelect": "Eff_SceneObj_Irodori_Flower_Selected",
    "effectPartsSetup": "",
    "noPartsTipsTextMapHash": 3302761821,
    "getPartsTipsTextMapHash": 4183802379
  },
  {
    "tabId": 3006,
    "tabNameTextMapHash": 3936319635,
    "slotIdentifierPathList": [
      "FrontScene",
      "VitalFlower4"
    ],
    "dependentTabId": 3001,
    "effectSlotSelect": "Eff_SceneObj_Irodori_Flower_Selected",
    "effectPartsSetup": "",
    "noPartsTipsTextMapHash": 2489947509,
    "getPartsTipsTextMapHash": 3599916203
  },
  {
    "tabId": 3007,
    "tabNameTextMapHash": 3548648587,
    "slotIdentifierPathList": [
      "FrontScene",
      "VitalFlower5"
    ],
    "dependentTabId": 3001,
    "effectSlotSelect": "Eff_SceneObj_Irodori_Flower_Selected",
    "effectPartsSetup": "",
    "noPartsTipsTextMapHash": 220218853,
    "getPartsTipsTextMapHash": 297459419
  },
  {
    "tabId": 3008,
    "tabNameTextMapHash": 278556483,
    "slotIdentifierPathList": [
      "FrontScene",
      "VitalFlower6"
    ],
    "dependentTabId": 3001,
    "effectSlotSelect": "Eff_SceneObj_Irodori_Flower_Selected",
    "effectPartsSetup": "",
    "noPartsTipsTextMapHash": 1203503621,
    "getPartsTipsTextMapHash": 3705479875
  },
  {
    "tabId": 4001,
    "tabNameTextMapHash": 3258853123,
    "slotIdentifierPathList": [
      "Body"
    ],
    "effectSlotSelect": "",
    "effectPartsSetup": "",
    "noPartsTipsTextMapHash": 218368549,
    "getPartsTipsTextMapHash": 3524425659
  },
  {
    "tabId": 4002,
    "tabNameTextMapHash": 3567021371,
    "slotIdentifierPathList": [
      "Body",
      "Head"
    ],
    "dependentTabId": 4001,
    "effectSlotSelect": "",
    "effectPartsSetup": "",
    "noPartsTipsTextMapHash": 2209394557,
    "getPartsTipsTextMapHash": 440883323
  },
  {
    "tabId": 4003,
    "tabNameTextMapHash": 2749613003,
    "slotIdentifierPathList": [
      "Body",
      "Head",
      "Hat"
    ],
    "dependentTabId": 4002,
    "effectSlotSelect": "",
    "effectPartsSetup": "",
    "noPartsTipsTextMapHash": 2870987189,
    "getPartsTipsTextMapHash": 1180535835
  },
  {
    "tabId": 4004,
    "tabNameTextMapHash": 1198204219,
    "slotIdentifierPathList": [
      "Body",
      "Head",
      "Cape"
    ],
    "dependentTabId": 4002,
    "effectSlotSelect": "",
    "effectPartsSetup": "",
    "noPartsTipsTextMapHash": 3076120429,
    "getPartsTipsTextMapHash": 2497396051
  },
  {
    "tabId": 4005,
    "tabNameTextMapHash": 3102569515,
    "slotIdentifierPathList": [
      "Body",
      "Head",
      "Eye"
    ],
    "dependentTabId": 4002,
    "effectSlotSelect": "",
    "effectPartsSetup": "",
    "noPartsTipsTextMapHash": 3584154557,
    "getPartsTipsTextMapHash": 1556471123
  },
  {
    "tabId": 4006,
    "tabNameTextMapHash": 3541483531,
    "slotIdentifierPathList": [
      "Head"
    ],
    "effectSlotSelect": "",
    "effectPartsSetup": "",
    "noPartsTipsTextMapHash": 1394748677,
    "getPartsTipsTextMapHash": 3345068675
  },
  {
    "tabId": 4007,
    "tabNameTextMapHash": 1090854779,
    "slotIdentifierPathList": [
      "Head",
      "Hat"
    ],
    "dependentTabId": 4006,
    "effectSlotSelect": "",
    "effectPartsSetup": "",
    "noPartsTipsTextMapHash": 4081383461,
    "getPartsTipsTextMapHash": 2385346283
  },
  {
    "tabId": 4008,
    "tabNameTextMapHash": 2665349235,
    "slotIdentifierPathList": [
      "Head",
      "Cape"
    ],
    "dependentTabId": 4006,
    "effectSlotSelect": "",
    "effectPartsSetup": "",
    "noPartsTipsTextMapHash": 2624097437,
    "getPartsTipsTextMapHash": 2598414523
  },
  {
    "tabId": 4009,
    "tabNameTextMapHash": 147308395,
    "slotIdentifierPathList": [
      "Head",
      "Eye"
    ],
    "dependentTabId": 4006,
    "effectSlotSelect": "",
    "effectPartsSetup": "",
    "noPartsTipsTextMapHash": 3055600829,
    "getPartsTipsTextMapHash": 3842385771
  },
  {
    "tabId": 5001,
    "tabNameTextMapHash": 2562366571,
    "slotIdentifierPathList": [
      "Shed"
    ],
    "effectSlotSelect": "",
    "effectPartsSetup": "",
    "noPartsTipsTextMapHash": 2958517349,
    "getPartsTipsTextMapHash": 2013512499
  },
  {
    "tabId": 5002,
    "tabNameTextMapHash": 2022691947,
    "slotIdentifierPathList": [
      "Shed",
      "FrontGround"
    ],
    "dependentTabId": 5001,
    "effectSlotSelect": "",
    "effectPartsSetup": "",
    "noPartsTipsTextMapHash": 317864861,
    "getPartsTipsTextMapHash": 2269552459
  },
  {
    "tabId": 5003,
    "tabNameTextMapHash": 1436630307,
    "slotIdentifierPathList": [
      "Shed",
      "SideGround"
    ],
    "dependentTabId": 5001,
    "effectSlotSelect": "",
    "effectPartsSetup": "",
    "noPartsTipsTextMapHash": 2588907573,
    "getPartsTipsTextMapHash": 3751295115
  },
  {
    "tabId": 5004,
    "tabNameTextMapHash": 91433619,
    "slotIdentifierPathList": [
      "Shed",
      "PendantA"
    ],
    "dependentTabId": 5001,
    "effectSlotSelect": "",
    "effectPartsSetup": "",
    "noPartsTipsTextMapHash": 1556804869,
    "getPartsTipsTextMapHash": 1898918915
  },
  {
    "tabId": 5005,
    "tabNameTextMapHash": 2586358963,
    "slotIdentifierPathList": [
      "Shed",
      "PendantB"
    ],
    "dependentTabId": 5001,
    "effectSlotSelect": "",
    "effectPartsSetup": "",
    "noPartsTipsTextMapHash": 3094473029,
    "getPartsTipsTextMapHash": 144277179
  },
  {
    "tabId": 6001,
    "tabNameTextMapHash": 594419875,
    "slotIdentifierPathList": [
      "Easel"
    ],
    "effectSlotSelect": "",
    "effectPartsSetup": "",
    "noPartsTipsTextMapHash": 11309845,
    "getPartsTipsTextMapHash": 3641950219
  },
  {
    "tabId": 7001,
    "tabNameTextMapHash": 1223359323,
    "slotIdentifierPathList": [
      "Booth11"
    ],
    "effectSlotSelect": "Eff_SceneObj_CapsuleToys_Cabinet_01",
    "effectPartsSetup": "",
    "noPartsTipsTextMapHash": 529818837,
    "getPartsTipsTextMapHash": 977161851
  },
  {
    "tabId": 7002,
    "tabNameTextMapHash": 1869215851,
    "slotIdentifierPathList": [
      "Booth12"
    ],
    "effectSlotSelect": "Eff_SceneObj_CapsuleToys_Cabinet_01",
    "effectPartsSetup": "",
    "noPartsTipsTextMapHash": 4003387469,
    "getPartsTipsTextMapHash": 2466712563
  },
  {
    "tabId": 7003,
    "tabNameTextMapHash": 1824107275,
    "slotIdentifierPathList": [
      "Booth13"
    ],
    "effectSlotSelect": "Eff_SceneObj_CapsuleToys_Cabinet_01",
    "effectPartsSetup": "",
    "noPartsTipsTextMapHash": 1971301685,
    "getPartsTipsTextMapHash": 2950084227
  },
  {
    "tabId": 7004,
    "tabNameTextMapHash": 1225782899,
    "slotIdentifierPathList": [
      "Booth14"
    ],
    "effectSlotSelect": "Eff_SceneObj_CapsuleToys_Cabinet_01",
    "effectPartsSetup": "",
    "noPartsTipsTextMapHash": 433261053,
    "getPartsTipsTextMapHash": 220057899
  },
  {
    "tabId": 7005,
    "tabNameTextMapHash": 365193827,
    "slotIdentifierPathList": [
      "Booth15"
    ],
    "effectSlotSelect": "Eff_SceneObj_CapsuleToys_Cabinet_01",
    "effectPartsSetup": "",
    "noPartsTipsTextMapHash": 1199990645,
    "getPartsTipsTextMapHash": 3782388891
  },
  {
    "tabId": 7006,
    "tabNameTextMapHash": 570106075,
    "slotIdentifierPathList": [
      "Booth16"
    ],
    "effectSlotSelect": "Eff_SceneObj_CapsuleToys_Cabinet_01",
    "effectPartsSetup": "",
    "noPartsTipsTextMapHash": 1236172085,
    "getPartsTipsTextMapHash": 1339395939
  },
  {
    "tabId": 7007,
    "tabNameTextMapHash": 127471579,
    "slotIdentifierPathList": [
      "Booth17"
    ],
    "effectSlotSelect": "Eff_SceneObj_CapsuleToys_Cabinet_01",
    "effectPartsSetup": "",
    "noPartsTipsTextMapHash": 2277084725,
    "getPartsTipsTextMapHash": 2390882843
  },
  {
    "tabId": 7008,
    "tabNameTextMapHash": 121841251,
    "slotIdentifierPathList": [
      "Booth18"
    ],
    "effectSlotSelect": "Eff_SceneObj_CapsuleToys_Cabinet_01",
    "effectPartsSetup": "",
    "noPartsTipsTextMapHash": 315829677,
    "getPartsTipsTextMapHash": 4202695651
  },
  {
    "tabId": 7011,
    "tabNameTextMapHash": 1669538603,
    "slotIdentifierPathList": [
      "Booth21"
    ],
    "effectSlotSelect": "Eff_SceneObj_CapsuleToys_Cabinet_01",
    "effectPartsSetup": "",
    "noPartsTipsTextMapHash": 3926859605,
    "getPartsTipsTextMapHash": 2456493451
  },
  {
    "tabId": 7012,
    "tabNameTextMapHash": 2139565523,
    "slotIdentifierPathList": [
      "Booth22"
    ],
    "effectSlotSelect": "Eff_SceneObj_CapsuleToys_Cabinet_01",
    "effectPartsSetup": "",
    "noPartsTipsTextMapHash": 3830598373,
    "getPartsTipsTextMapHash": 2572018179
  },
  {
    "tabId": 7013,
    "tabNameTextMapHash": 4097647531,
    "slotIdentifierPathList": [
      "Booth23"
    ],
    "effectSlotSelect": "Eff_SceneObj_CapsuleToys_Cabinet_01",
    "effectPartsSetup": "",
    "noPartsTipsTextMapHash": 2748695205,
    "getPartsTipsTextMapHash": 1255833995
  },
  {
    "tabId": 7014,
    "tabNameTextMapHash": 1420563971,
    "slotIdentifierPathList": [
      "Booth24"
    ],
    "effectSlotSelect": "Eff_SceneObj_CapsuleToys_Cabinet_01",
    "effectPartsSetup": "",
    "noPartsTipsTextMapHash": 2605408029,
    "getPartsTipsTextMapHash": 3753633275
  },
  {
    "tabId": 7015,
    "tabNameTextMapHash": 4123050051,
    "slotIdentifierPathList": [
      "Booth25"
    ],
    "effectSlotSelect": "Eff_SceneObj_CapsuleToys_Cabinet_01",
    "effectPartsSetup": "",
    "noPartsTipsTextMapHash": 2304320205,
    "getPartsTipsTextMapHash": 308151555
  },
  {
    "tabId": 7016,
    "tabNameTextMapHash": 1109214003,
    "slotIdentifierPathList": [
      "Booth26"
    ],
    "effectSlotSelect": "Eff_SceneObj_CapsuleToys_Cabinet_01",
    "effectPartsSetup": "",
    "noPartsTipsTextMapHash": 3207183917,
    "getPartsTipsTextMapHash": 264180691
  },
  {
    "tabId": 7017,
    "tabNameTextMapHash": 4040543435,
    "slotIdentifierPathList": [
      "Booth27"
    ],
    "effectSlotSelect": "Eff_SceneObj_CapsuleToys_Cabinet_01",
    "effectPartsSetup": "",
    "noPartsTipsTextMapHash": 1772322573,
    "getPartsTipsTextMapHash": 2719704659
  },
  {
    "tabId": 7018,
    "tabNameTextMapHash": 2675870531,
    "slotIdentifierPathList": [
      "Booth28"
    ],
    "effectSlotSelect": "Eff_SceneObj_CapsuleToys_Cabinet_01",
    "effectPartsSetup": "",
    "noPartsTipsTextMapHash": 1914901109,
    "getPartsTipsTextMapHash": 4266852707
  },
  {
    "tabId": 7021,
    "tabNameTextMapHash": 4000869363,
    "slotIdentifierPathList": [
      "Booth31"
    ],
    "effectSlotSelect": "Eff_SceneObj_CapsuleToys_Cabinet_01",
    "effectPartsSetup": "",
    "noPartsTipsTextMapHash": 1364773277,
    "getPartsTipsTextMapHash": 1934783227
  },
  {
    "tabId": 7022,
    "tabNameTextMapHash": 178752987,
    "slotIdentifierPathList": [
      "Booth32"
    ],
    "effectSlotSelect": "Eff_SceneObj_CapsuleToys_Cabinet_01",
    "effectPartsSetup": "",
    "noPartsTipsTextMapHash": 2844692117,
    "getPartsTipsTextMapHash": 1011526899
  },
  {
    "tabId": 7023,
    "tabNameTextMapHash": 143223931,
    "slotIdentifierPathList": [
      "Booth33"
    ],
    "effectSlotSelect": "Eff_SceneObj_CapsuleToys_Cabinet_01",
    "effectPartsSetup": "",
    "noPartsTipsTextMapHash": 2195234589,
    "getPartsTipsTextMapHash": 289626659
  },
  {
    "tabId": 7024,
    "tabNameTextMapHash": 2382495987,
    "slotIdentifierPathList": [
      "Booth34"
    ],
    "effectSlotSelect": "Eff_SceneObj_CapsuleToys_Cabinet_01",
    "effectPartsSetup": "",
    "noPartsTipsTextMapHash": 1479526853,
    "getPartsTipsTextMapHash": 3121844755
  },
  {
    "tabId": 7025,
    "tabNameTextMapHash": 1101623819,
    "slotIdentifierPathList": [
      "Booth35"
    ],
    "effectSlotSelect": "Eff_SceneObj_CapsuleToys_Cabinet_01",
    "effectPartsSetup": "",
    "noPartsTipsTextMapHash": 2875783213,
    "getPartsTipsTextMapHash": 3701135699
  },
  {
    "tabId": 7026,
    "tabNameTextMapHash": 2465302547,
    "slotIdentifierPathList": [
      "Booth36"
    ],
    "effectSlotSelect": "Eff_SceneObj_CapsuleToys_Cabinet_01",
    "effectPartsSetup": "",
    "noPartsTipsTextMapHash": 1430891285,
    "getPartsTipsTextMapHash": 3049357659
  },
  {
    "tabId": 7027,
    "tabNameTextMapHash": 3553219523,
    "slotIdentifierPathList": [
      "Booth37"
    ],
    "effectSlotSelect": "Eff_SceneObj_CapsuleToys_Cabinet_01",
    "effectPartsSetup": "",
    "noPartsTipsTextMapHash": 2787793205,
    "getPartsTipsTextMapHash": 2837590611
  },
  {
    "tabId": 7028,
    "tabNameTextMapHash": 1542598827,
    "slotIdentifierPathList": [
      "Booth38"
    ],
    "effectSlotSelect": "Eff_SceneObj_CapsuleToys_Cabinet_01",
    "effectPartsSetup": "",
    "noPartsTipsTextMapHash": 2601490189,
    "getPartsTipsTextMapHash": 2030805715
  },
  {
    "tabId": 100101,
    "tabNameTextMapHash": 314051144,
    "slotIdentifierPathList": [
      "LeftHill"
    ],
    "effectSlotSelect": "",
    "effectPartsSetup": "",
    "noPartsTipsTextMapHash": 2351091748,
    "getPartsTipsTextMapHash": 2903350498
  },
  {
    "tabId": 100102,
    "tabNameTextMapHash": 18497744,
    "slotIdentifierPathList": [
      "RightHill"
    ],
    "effectSlotSelect": "",
    "effectPartsSetup": "",
    "noPartsTipsTextMapHash": 3273732940,
    "getPartsTipsTextMapHash": 3044273634
  }
]