[
  {
    "dungeonId": 9241,
    "galleryId": 79331,
    "descTextMapHash": 3498117437,
    "CACMDOODJPC": "UI_NPC_Quest_Collingwood_Circle",
    "HHJHLIFBEAP": 3586579136,
    "PAAJKHCBPEF": "UI_Img_SumeruBirth_DreamExplore_Level01",
    "LKJNDKNOFPH": 3433786785,
    "levelID": 1,
    "activityID": 2034,
    "nameTextMapHash": 334215094,
    "questList": [
      73353
    ],
    "POGAPJOAPNE": [],
    "watcherList": [
      12034201
    ],
    "openDay": 1,
    "LCDPEEFMCBP": [
      "ACTIVITY_LEVEL_COND_TYPE_MAIN_QUEST"
    ],
    "LBPIFEDIDKK": [
      "ACTIVITY_LEVEL_COND_TYPE_OPEN_DAY"
    ],
    "GNACDEMMLCE": [
      "ACTIVITY_LEVEL_COND_TYPE_WATCHER_REWARD_TAKEN"
    ]
  },
  {
    "dungeonId": 9242,
    "galleryId": 79332,
    "FADMGBLBLEL": 2,
    "descTextMapHash": 3889779133,
    "CACMDOODJPC": "UI_NPC_Quest_Youguang_Circle",
    "HHJHLIFBEAP": 3834859744,
    "PAAJKHCBPEF": "UI_Img_SumeruBirth_DreamExplore_Level02",
    "LKJNDKNOFPH": 1609710553,
    "levelID": 2,
    "activityID": 2034,
    "nameTextMapHash": 690947446,
    "questList": [
      73353
    ],
    "POGAPJOAPNE": [],
    "watcherList": [
      12034202
    ],
    "openDay": 2,
    "LCDPEEFMCBP": [
      "ACTIVITY_LEVEL_COND_TYPE_MAIN_QUEST"
    ],
    "LBPIFEDIDKK": [
      "ACTIVITY_LEVEL_COND_TYPE_OPEN_DAY"
    ],
    "GNACDEMMLCE": [
      "ACTIVITY_LEVEL_COND_TYPE_WATCHER_REWARD_TAKEN"
    ]
  },
  {
    "dungeonId": 9243,
    "galleryId": 79333,
    "FADMGBLBLEL": 2,
    "descTextMapHash": 2903228749,
    "CACMDOODJPC": "UI_NPC_Quest_HiguchiTetsuya_Circle",
    "HHJHLIFBEAP": 4005646536,
    "PAAJKHCBPEF": "UI_Img_SumeruBirth_DreamExplore_Level03",
    "LKJNDKNOFPH": 2220027097,
    "levelID": 3,
    "activityID": 2034,
    "nameTextMapHash": 3454881390,
    "questList": [
      73353
    ],
    "POGAPJOAPNE": [],
    "watcherList": [
      12034203
    ],
    "openDay": 3,
    "LCDPEEFMCBP": [
      "ACTIVITY_LEVEL_COND_TYPE_MAIN_QUEST"
    ],
    "LBPIFEDIDKK": [
      "ACTIVITY_LEVEL_COND_TYPE_OPEN_DAY"
    ],
    "GNACDEMMLCE": [
      "ACTIVITY_LEVEL_COND_TYPE_WATCHER_REWARD_TAKEN"
    ]
  },
  {
    "dungeonId": 9244,
    "galleryId": 79334,
    "FADMGBLBLEL": 2,
    "descTextMapHash": 157043541,
    "CACMDOODJPC": "UI_NPC_Quest_Nitesh_Circle",
    "HHJHLIFBEAP": 4011005560,
    "PAAJKHCBPEF": "UI_Img_SumeruBirth_DreamExplore_Level04",
    "LKJNDKNOFPH": 1090843577,
    "levelID": 4,
    "activityID": 2034,
    "nameTextMapHash": 111768126,
    "questList": [
      73353
    ],
    "POGAPJOAPNE": [],
    "watcherList": [
      12034204
    ],
    "openDay": 4,
    "LCDPEEFMCBP": [
      "ACTIVITY_LEVEL_COND_TYPE_MAIN_QUEST"
    ],
    "LBPIFEDIDKK": [
      "ACTIVITY_LEVEL_COND_TYPE_OPEN_DAY"
    ],
    "GNACDEMMLCE": [
      "ACTIVITY_LEVEL_COND_TYPE_WATCHER_REWARD_TAKEN"
    ]
  },
  {
    "dungeonId": 9245,
    "galleryId": 79335,
    "FADMGBLBLEL": 2,
    "descTextMapHash": 4281551317,
    "CACMDOODJPC": "UI_NPC_Quest_Piyush_Circle",
    "HHJHLIFBEAP": 2828232600,
    "PAAJKHCBPEF": "UI_Img_SumeruBirth_DreamExplore_Level05",
    "LKJNDKNOFPH": 3691750569,
    "levelID": 5,
    "activityID": 2034,
    "nameTextMapHash": 2917002510,
    "questList": [
      73353
    ],
    "POGAPJOAPNE": [],
    "watcherList": [
      12034205
    ],
    "openDay": 5,
    "LCDPEEFMCBP": [
      "ACTIVITY_LEVEL_COND_TYPE_MAIN_QUEST"
    ],
    "LBPIFEDIDKK": [
      "ACTIVITY_LEVEL_COND_TYPE_OPEN_DAY"
    ],
    "GNACDEMMLCE": [
      "ACTIVITY_LEVEL_COND_TYPE_WATCHER_REWARD_TAKEN"
    ]
  }
]