[
  {
    "id": 10100,
    "freeStyleId": 10100,
    "bubbleName": "",
    "emotionPath": "Cs_Emo_Avatar_Coop_Standby",
    "protectTime": 0.5
  },
  {
    "id": 10101,
    "freeStyleId": 10101,
    "bubbleName": "",
    "emotionPath": "Cs_Emo_Avatar_Coop_Smile01",
    "protectTime": 0.5
  },
  {
    "id": 10201,
    "freeStyleId": 10201,
    "bubbleName": "EmojiBubble_Emoji_Happy",
    "emotionPath": "Cs_Emo_Avatar_Coop_Happy01",
    "protectTime": 0.5
  },
  {
    "id": 10301,
    "freeStyleId": 10301,
    "bubbleName": "EmojiBubble_Emoji_Sad",
    "emotionPath": "Cs_Emo_Avatar_Coop_Sad01",
    "protectTime": 0.5
  },
  {
    "id": 10302,
    "freeStyleId": 10301,
    "bubbleName": "",
    "emotionPath": "Cs_Emo_Avatar_Coop_Sad01",
    "protectTime": 0.5
  },
  {
    "id": 10303,
    "freeStyleId": 10401,
    "bubbleName": "",
    "emotionPath": "Cs_Emo_Avatar_Coop_Flipped01",
    "protectTime": 0.5
  },
  {
    "id": 10401,
    "freeStyleId": 10401,
    "bubbleName": "EmojiBubble_Emoji_Love",
    "emotionPath": "Cs_Emo_Avatar_Coop_Flipped01",
    "protectTime": 0.5
  },
  {
    "id": 10501,
    "freeStyleId": 10501,
    "bubbleName": "EmojiBubble_Emoji_Angry",
    "emotionPath": "Cs_Emo_Avatar_Coop_Angry01",
    "protectTime": 0.5
  },
  {
    "id": 10502,
    "freeStyleId": 10501,
    "bubbleName": "",
    "emotionPath": "Cs_Emo_Avatar_Coop_Angry01",
    "protectTime": 0.5
  },
  {
    "id": 10601,
    "freeStyleId": 10601,
    "bubbleName": "EmojiBubble_Emoji_Thinking",
    "emotionPath": "Cs_Emo_Avatar_Coop_Think01",
    "protectTime": 0.5
  },
  {
    "id": 10602,
    "freeStyleId": 10601,
    "bubbleName": "",
    "emotionPath": "Cs_Emo_Avatar_Coop_Think01",
    "protectTime": 0.5
  },
  {
    "id": 10701,
    "freeStyleId": 10701,
    "bubbleName": "EmojiBubble_Emoji_Surprise",
    "emotionPath": "Cs_Emo_Avatar_Coop_Surprised01",
    "protectTime": 0.5
  },
  {
    "id": 10702,
    "freeStyleId": 10701,
    "bubbleName": "",
    "emotionPath": "Cs_Emo_Avatar_Coop_Surprised01",
    "protectTime": 0.5
  },
  {
    "id": 10801,
    "freeStyleId": 10801,
    "bubbleName": "",
    "emotionPath": "Cs_Emo_Avatar_Coop_Shy01",
    "protectTime": 0.5
  },
  {
    "id": 1101,
    "freeStyleId": 1171,
    "bubbleName": "",
    "emotionPath": "Cs_Emo_NPC_Normal01_B",
    "protectTime": 0.5
  },
  {
    "id": 1102,
    "freeStyleId": 1172,
    "bubbleName": "",
    "emotionPath": "Cs_Emo_NPC_Normal01_B",
    "protectTime": 0.5
  },
  {
    "id": 1103,
    "freeStyleId": 1173,
    "bubbleName": "",
    "emotionPath": "Cs_Emo_NPC_Normal01_B",
    "protectTime": 0.5
  },
  {
    "id": 1201,
    "freeStyleId": 1230,
    "bubbleName": "",
    "emotionPath": "Cs_Emo_NPC_WinkA01",
    "protectTime": 0.5
  },
  {
    "id": 1301,
    "freeStyleId": 1290,
    "bubbleName": "EmojiBubble_Emoji_Exciting",
    "emotionPath": "Cs_Emo_NPC_WinkA01",
    "protectTime": 0.5
  },
  {
    "id": 1401,
    "freeStyleId": 1160,
    "bubbleName": "EmojiBubble_Emoji_Awkward",
    "emotionPath": "Cs_Emo_NPC_WinkB03",
    "protectTime": 0.5
  },
  {
    "id": 1501,
    "freeStyleId": 1130,
    "bubbleName": "EmojiBubble_Emoji_love",
    "emotionPath": "Cs_Emo_NPC_Sad01_B",
    "protectTime": 0.5
  },
  {
    "id": 1601,
    "freeStyleId": 1120,
    "bubbleName": "EmojiBubble_Emoji_Angry",
    "emotionPath": "Cs_Emo_NPC_Angry02_B",
    "protectTime": 0.5
  },
  {
    "id": 1701,
    "freeStyleId": 1190,
    "bubbleName": "EmojiBubble_Emoji_Query",
    "emotionPath": "Cs_Emo_NPC_Doubt01_B",
    "protectTime": 0.5
  },
  {
    "id": 1801,
    "freeStyleId": 1060,
    "bubbleName": "EmojiBubble_Emoji_Surprise",
    "emotionPath": "Cs_Emo_NPC_Angry01_B",
    "protectTime": 0.5
  },
  {
    "id": 1901,
    "freeStyleId": 1090,
    "bubbleName": "",
    "emotionPath": "Cs_Emo_NPC_WinkA03",
    "protectTime": 0.5
  },
  {
    "id": 2101,
    "freeStyleId": 1172,
    "bubbleName": "",
    "emotionPath": "Cs_Emo_NPC_Normal01_B",
    "protectTime": 0.5
  },
  {
    "id": 2102,
    "freeStyleId": 1171,
    "bubbleName": "",
    "emotionPath": "Cs_Emo_NPC_Sad01_B",
    "protectTime": 0.5
  },
  {
    "id": 2103,
    "freeStyleId": 4140,
    "bubbleName": "",
    "emotionPath": "Cs_Emo_NPC_Normal01_B",
    "protectTime": 0.5
  },
  {
    "id": 2201,
    "freeStyleId": 1090,
    "bubbleName": "",
    "emotionPath": "Cs_Emo_NPC_WinkA01",
    "protectTime": 0.5
  },
  {
    "id": 2301,
    "freeStyleId": 1290,
    "bubbleName": "EmojiBubble_Emoji_Happy",
    "emotionPath": "Cs_Emo_NPC_WinkA01",
    "protectTime": 0.5
  },
  {
    "id": 2401,
    "freeStyleId": 1240,
    "bubbleName": "EmojiBubble_Emoji_Sad",
    "emotionPath": "Cs_Emo_NPC_Sad02_B",
    "protectTime": 0.5
  },
  {
    "id": 2501,
    "freeStyleId": 1130,
    "bubbleName": "EmojiBubble_Emoji_love",
    "emotionPath": "Cs_Emo_NPC_Sad01_B",
    "protectTime": 0.5
  },
  {
    "id": 2601,
    "freeStyleId": 1120,
    "bubbleName": "EmojiBubble_Emoji_Angry",
    "emotionPath": "Cs_Emo_NPC_Angry02_B",
    "protectTime": 0.5
  },
  {
    "id": 2701,
    "freeStyleId": 1190,
    "bubbleName": "EmojiBubble_Emoji_Thinking",
    "emotionPath": "Cs_Emo_NPC_Doubt01_B",
    "protectTime": 0.5
  },
  {
    "id": 2801,
    "freeStyleId": 1060,
    "bubbleName": "EmojiBubble_Emoji_Surprise",
    "emotionPath": "Cs_Emo_NPC_Angry01_B",
    "protectTime": 0.5
  },
  {
    "id": 2901,
    "freeStyleId": 1090,
    "bubbleName": "EmojiBubble_Emoji_love",
    "emotionPath": "Cs_Emo_NPC_WinkA03",
    "protectTime": 0.5
  },
  {
    "id": 3101,
    "freeStyleId": 1171,
    "bubbleName": "",
    "emotionPath": "Cs_Emo_NPC_Normal01_B",
    "protectTime": 0.5
  },
  {
    "id": 3102,
    "freeStyleId": 5010,
    "bubbleName": "",
    "emotionPath": "Cs_Emo_NPC_Normal01_B",
    "protectTime": 0.5
  },
  {
    "id": 3103,
    "freeStyleId": 1171,
    "bubbleName": "",
    "emotionPath": "Cs_Emo_NPC_Sad01_B",
    "protectTime": 0.5
  },
  {
    "id": 3201,
    "freeStyleId": 5010,
    "bubbleName": "",
    "emotionPath": "Cs_Emo_NPC_WinkA01",
    "protectTime": 0.5
  },
  {
    "id": 3301,
    "freeStyleId": 5010,
    "bubbleName": "EmojiBubble_Emoji_Happy",
    "emotionPath": "Cs_Emo_NPC_WinkA01",
    "protectTime": 0.5
  },
  {
    "id": 3401,
    "freeStyleId": 5010,
    "bubbleName": "EmojiBubble_Emoji_Sad",
    "emotionPath": "Cs_Emo_NPC_Sad02_B",
    "protectTime": 0.5
  },
  {
    "id": 3501,
    "freeStyleId": 5010,
    "bubbleName": "EmojiBubble_Emoji_Love",
    "emotionPath": "Cs_Emo_NPC_WinkA01",
    "protectTime": 0.5
  },
  {
    "id": 3601,
    "freeStyleId": 5010,
    "bubbleName": "EmojiBubble_Emoji_Angry",
    "emotionPath": "Cs_Emo_NPC_Angry02_B",
    "protectTime": 0.5
  },
  {
    "id": 3701,
    "freeStyleId": 5010,
    "bubbleName": "EmojiBubble_Emoji_Thinking",
    "emotionPath": "Cs_Emo_NPC_Doubt01_B",
    "protectTime": 0.5
  },
  {
    "id": 3801,
    "freeStyleId": 1070,
    "bubbleName": "EmojiBubble_Emoji_Surprise",
    "emotionPath": "Cs_Emo_NPC_Angry01_B",
    "protectTime": 0.5
  },
  {
    "id": 3901,
    "freeStyleId": 5010,
    "bubbleName": "EmojiBubble_Emoji_Love",
    "emotionPath": "Cs_Emo_NPC_WinkA03",
    "protectTime": 0.5
  },
  {
    "id": 4101,
    "freeStyleId": 1171,
    "bubbleName": "",
    "emotionPath": "Cs_Emo_NPC_Normal01_B",
    "protectTime": 0.5
  },
  {
    "id": 4102,
    "freeStyleId": 1050,
    "bubbleName": "",
    "emotionPath": "Cs_Emo_NPC_Normal01_B",
    "protectTime": 0.5
  },
  {
    "id": 4201,
    "freeStyleId": 1060,
    "bubbleName": "",
    "emotionPath": "Cs_Emo_NPC_WinkA01",
    "protectTime": 0.5
  },
  {
    "id": 4301,
    "freeStyleId": 5010,
    "bubbleName": "EmojiBubble_Emoji_Happy",
    "emotionPath": "Cs_Emo_NPC_WinkA01",
    "protectTime": 0.5
  },
  {
    "id": 4401,
    "freeStyleId": 5030,
    "bubbleName": "EmojiBubble_Emoji_Sad",
    "emotionPath": "Cs_Emo_NPC_WinkB03",
    "protectTime": 0.5
  },
  {
    "id": 4501,
    "freeStyleId": 1060,
    "bubbleName": "EmojiBubble_Emoji_Exciting",
    "emotionPath": "Cs_Emo_NPC_Normal01_B",
    "protectTime": 0.5
  },
  {
    "id": 4601,
    "freeStyleId": 1060,
    "bubbleName": "EmojiBubble_Emoji_Angry",
    "emotionPath": "Cs_Emo_NPC_Normal01_B",
    "protectTime": 0.5
  },
  {
    "id": 4701,
    "freeStyleId": 1090,
    "bubbleName": "EmojiBubble_Emoji_Thinking",
    "emotionPath": "Cs_Emo_NPC_Doubt01_B",
    "protectTime": 0.5
  },
  {
    "id": 4801,
    "freeStyleId": 1060,
    "bubbleName": "EmojiBubble_Emoji_Surprise",
    "emotionPath": "Cs_Emo_NPC_Normal01_B",
    "protectTime": 0.5
  },
  {
    "id": 4901,
    "freeStyleId": 1050,
    "bubbleName": "EmojiBubble_Emoji_Love",
    "emotionPath": "Cs_Emo_NPC_WinkA03",
    "protectTime": 0.5
  },
  {
    "id": 5101,
    "freeStyleId": 1171,
    "bubbleName": "",
    "emotionPath": "Cs_Emo_NPC_Normal01_B",
    "protectTime": 0.5
  },
  {
    "id": 5103,
    "freeStyleId": 1120,
    "bubbleName": "",
    "emotionPath": "Cs_Emo_NPC_Normal01_B",
    "protectTime": 0.5
  },
  {
    "id": 5201,
    "freeStyleId": 1120,
    "bubbleName": "",
    "emotionPath": "Cs_Emo_NPC_WinkA01",
    "protectTime": 0.5
  },
  {
    "id": 5301,
    "freeStyleId": 1290,
    "bubbleName": "EmojiBubble_Emoji_Happy",
    "emotionPath": "Cs_Emo_NPC_WinkA01",
    "protectTime": 0.5
  },
  {
    "id": 5401,
    "freeStyleId": 4040,
    "bubbleName": "EmojiBubble_Emoji_Awkward",
    "emotionPath": "Cs_Emo_NPC_WinkB03",
    "protectTime": 0.5
  },
  {
    "id": 5501,
    "freeStyleId": 4030,
    "bubbleName": "EmojiBubble_Emoji_Exciting",
    "emotionPath": "Cs_Emo_NPC_Sad01_B",
    "protectTime": 0.5
  },
  {
    "id": 5601,
    "freeStyleId": 1120,
    "bubbleName": "EmojiBubble_Emoji_Angry",
    "emotionPath": "Cs_Emo_NPC_Angry02_B",
    "protectTime": 0.5
  },
  {
    "id": 5701,
    "freeStyleId": 1120,
    "bubbleName": "EmojiBubble_Emoji_Query",
    "emotionPath": "Cs_Emo_NPC_Doubt01_B",
    "protectTime": 0.5
  },
  {
    "id": 5801,
    "freeStyleId": 1120,
    "bubbleName": "EmojiBubble_Emoji_Surprise",
    "emotionPath": "Cs_Emo_NPC_Angry01_B",
    "protectTime": 0.5
  },
  {
    "id": 5901,
    "freeStyleId": 1120,
    "bubbleName": "EmojiBubble_Emoji_Love",
    "emotionPath": "Cs_Emo_NPC_WinkA03",
    "protectTime": 0.5
  }
]