[
  {
    "id": 1,
    "type": "FISH_STOCK_TYPE_DAY",
    "fishWeight": {
      "1": 50,
      "2": 80
    }
  },
  {
    "id": 2,
    "type": "FISH_STOCK_TYPE_DAY",
    "fishWeight": {}
  },
  {
    "id": 3,
    "type": "FISH_STOCK_TYPE_NIGHT",
    "fishWeight": {
      "1": 50,
      "2": 80
    }
  },
  {
    "id": 4,
    "type": "FISH_STOCK_TYPE_ANY",
    "fishWeight": {
      "5": 50,
      "6": 50,
      "10": 50,
      "11": 50,
      "17": 50,
      "18": 50
    }
  },
  {
    "id": 1011,
    "type": "FISH_STOCK_TYPE_ANY",
    "fishWeight": {
      "1": 300,
      "4": 300
    }
  },
  {
    "id": 1012,
    "type": "FISH_STOCK_TYPE_ANY",
    "fishWeight": {
      "1": 0,
      "1001": 100
    }
  },
  {
    "id": 10011,
    "type": "FISH_STOCK_TYPE_DAY",
    "fishWeight": {
      "1": 300,
      "1001": 10,
      "4": 300,
      "1004": 10,
      "12": 200,
      "1012": 12,
      "16": 300,
      "1016": 20,
      "6": 100,
      "1006": 8
    }
  },
  {
    "id": 10012,
    "type": "FISH_STOCK_TYPE_NIGHT",
    "fishWeight": {
      "1": 300,
      "1001": 10,
      "4": 300,
      "1004": 10,
      "12": 200,
      "1012": 12,
      "9": 300,
      "1009": 20,
      "5": 100,
      "1005": 8
    }
  },
  {
    "id": 10021,
    "type": "FISH_STOCK_TYPE_DAY",
    "fishWeight": {
      "1": 300,
      "1001": 10,
      "4": 300,
      "1004": 10,
      "16": 300,
      "1016": 20
    }
  },
  {
    "id": 10022,
    "type": "FISH_STOCK_TYPE_NIGHT",
    "fishWeight": {
      "1": 300,
      "1001": 10,
      "4": 300,
      "1004": 10,
      "9": 300,
      "1009": 20
    }
  },
  {
    "id": 10031,
    "type": "FISH_STOCK_TYPE_DAY",
    "fishWeight": {
      "1": 300,
      "1001": 10,
      "4": 300,
      "1004": 10,
      "6": 100,
      "1006": 8
    }
  },
  {
    "id": 10032,
    "type": "FISH_STOCK_TYPE_NIGHT",
    "fishWeight": {
      "1": 300,
      "1001": 10,
      "4": 300,
      "1004": 10,
      "5": 100,
      "1005": 8
    }
  },
  {
    "id": 10041,
    "type": "FISH_STOCK_TYPE_DAY",
    "fishWeight": {
      "1": 300,
      "1001": 10,
      "4": 300,
      "1004": 10,
      "16": 300,
      "1016": 20
    }
  },
  {
    "id": 10042,
    "type": "FISH_STOCK_TYPE_NIGHT",
    "fishWeight": {
      "1": 300,
      "1001": 10,
      "4": 300,
      "1004": 10,
      "5": 100,
      "1005": 8
    }
  },
  {
    "id": 10051,
    "type": "FISH_STOCK_TYPE_DAY",
    "fishWeight": {
      "4": 300,
      "1004": 10,
      "13": 200,
      "1013": 12,
      "16": 300,
      "1016": 20,
      "6": 100,
      "1006": 8
    }
  },
  {
    "id": 10052,
    "type": "FISH_STOCK_TYPE_NIGHT",
    "fishWeight": {
      "4": 300,
      "1004": 10,
      "13": 200,
      "1013": 12,
      "9": 300,
      "1009": 20
    }
  },
  {
    "id": 10061,
    "type": "FISH_STOCK_TYPE_DAY",
    "fishWeight": {
      "4": 300,
      "1004": 10,
      "21": 200,
      "1021": 12,
      "20": 200,
      "1020": 12,
      "16": 300,
      "1016": 20,
      "10": 200,
      "1010": 15
    }
  },
  {
    "id": 10062,
    "type": "FISH_STOCK_TYPE_NIGHT",
    "fishWeight": {
      "4": 300,
      "1004": 10,
      "21": 200,
      "1021": 12,
      "20": 200,
      "1020": 12,
      "9": 300,
      "1009": 20,
      "5": 100,
      "1005": 8
    }
  },
  {
    "id": 10071,
    "type": "FISH_STOCK_TYPE_DAY",
    "fishWeight": {
      "1": 300,
      "1001": 10,
      "16": 300,
      "1016": 20
    }
  },
  {
    "id": 10072,
    "type": "FISH_STOCK_TYPE_NIGHT",
    "fishWeight": {
      "1": 300,
      "1001": 10,
      "9": 300,
      "1009": 20,
      "11": 400,
      "1011": 100
    }
  },
  {
    "id": 10081,
    "type": "FISH_STOCK_TYPE_DAY",
    "fishWeight": {
      "1": 300,
      "1001": 10,
      "4": 300,
      "1004": 10,
      "21": 200,
      "1021": 12,
      "20": 200,
      "1020": 12,
      "16": 300,
      "1016": 20,
      "10": 200,
      "1010": 15
    }
  },
  {
    "id": 10082,
    "type": "FISH_STOCK_TYPE_NIGHT",
    "fishWeight": {
      "1": 300,
      "1001": 10,
      "4": 300,
      "1004": 10,
      "21": 200,
      "1021": 12,
      "20": 200,
      "1020": 12,
      "9": 300,
      "1009": 20
    }
  },
  {
    "id": 10091,
    "type": "FISH_STOCK_TYPE_DAY",
    "fishWeight": {
      "1": 300,
      "1001": 100,
      "4": 300,
      "1004": 100,
      "12": 200,
      "1012": 100,
      "13": 200,
      "1013": 100,
      "6": 100,
      "1006": 100
    }
  },
  {
    "id": 10092,
    "type": "FISH_STOCK_TYPE_NIGHT",
    "fishWeight": {
      "1": 300,
      "1001": 100,
      "4": 300,
      "1004": 100,
      "12": 200,
      "1012": 100,
      "13": 200,
      "1013": 100,
      "9": 300,
      "1009": 100,
      "5": 100,
      "1005": 100
    }
  },
  {
    "id": 10101,
    "type": "FISH_STOCK_TYPE_DAY",
    "fishWeight": {
      "1": 300,
      "1001": 100,
      "4": 300,
      "1004": 100,
      "16": 300,
      "1016": 100,
      "6": 100,
      "1006": 100
    }
  },
  {
    "id": 10102,
    "type": "FISH_STOCK_TYPE_NIGHT",
    "fishWeight": {
      "1": 300,
      "1001": 100,
      "4": 300,
      "1004": 100,
      "9": 300,
      "1009": 100
    }
  },
  {
    "id": 10111,
    "type": "FISH_STOCK_TYPE_DAY",
    "fishWeight": {
      "1": 300,
      "1001": 100,
      "4": 300,
      "1004": 100,
      "21": 200,
      "20": 200,
      "1020": 100,
      "16": 300,
      "1016": 100
    }
  },
  {
    "id": 10112,
    "type": "FISH_STOCK_TYPE_NIGHT",
    "fishWeight": {
      "1": 300,
      "1001": 100,
      "4": 300,
      "1004": 100,
      "21": 200,
      "20": 200,
      "1020": 100,
      "9": 300,
      "1009": 100,
      "5": 100,
      "1005": 100
    }
  },
  {
    "id": 10121,
    "type": "FISH_STOCK_TYPE_DAY",
    "fishWeight": {
      "1": 300,
      "1001": 100,
      "4": 300,
      "1004": 100,
      "21": 200,
      "20": 200,
      "1020": 100,
      "16": 300,
      "1016": 100,
      "6": 100,
      "1006": 100
    }
  },
  {
    "id": 10122,
    "type": "FISH_STOCK_TYPE_NIGHT",
    "fishWeight": {
      "1": 300,
      "1001": 100,
      "4": 300,
      "1004": 100,
      "21": 200,
      "20": 200,
      "1020": 100,
      "5": 100,
      "1005": 100
    }
  },
  {
    "id": 10131,
    "type": "FISH_STOCK_TYPE_DAY",
    "fishWeight": {
      "1": 300,
      "1001": 100,
      "4": 300,
      "1004": 100,
      "6": 100,
      "1006": 100
    }
  },
  {
    "id": 10132,
    "type": "FISH_STOCK_TYPE_NIGHT",
    "fishWeight": {
      "1": 300,
      "1001": 100,
      "4": 300,
      "1004": 100,
      "5": 100,
      "1005": 100
    }
  },
  {
    "id": 10141,
    "type": "FISH_STOCK_TYPE_DAY",
    "fishWeight": {
      "1": 300,
      "1001": 100,
      "4": 300,
      "1004": 100,
      "6": 100,
      "1006": 100
    }
  },
  {
    "id": 10142,
    "type": "FISH_STOCK_TYPE_NIGHT",
    "fishWeight": {
      "1": 300,
      "1001": 100,
      "4": 300,
      "1004": 100,
      "9": 300,
      "1009": 100
    }
  },
  {
    "id": 20011,
    "type": "FISH_STOCK_TYPE_DAY",
    "fishWeight": {
      "3": 300,
      "1003": 10,
      "21": 200,
      "1021": 12,
      "14": 300,
      "1014": 20,
      "6": 100,
      "1006": 8
    }
  },
  {
    "id": 20012,
    "type": "FISH_STOCK_TYPE_NIGHT",
    "fishWeight": {
      "3": 300,
      "1003": 10,
      "21": 200,
      "1021": 12,
      "8": 300,
      "1008": 20,
      "5": 100,
      "1005": 8
    }
  },
  {
    "id": 20021,
    "type": "FISH_STOCK_TYPE_DAY",
    "fishWeight": {
      "1": 300,
      "1001": 10,
      "14": 300,
      "1014": 20
    }
  },
  {
    "id": 20022,
    "type": "FISH_STOCK_TYPE_NIGHT",
    "fishWeight": {
      "1": 300,
      "1001": 10,
      "8": 300,
      "1008": 20
    }
  },
  {
    "id": 20031,
    "type": "FISH_STOCK_TYPE_DAY",
    "fishWeight": {
      "1": 300,
      "1001": 10,
      "3": 300,
      "1003": 10,
      "6": 100,
      "1006": 8,
      "17": 400,
      "1017": 100
    }
  },
  {
    "id": 20032,
    "type": "FISH_STOCK_TYPE_NIGHT",
    "fishWeight": {
      "1": 300,
      "1001": 10,
      "3": 300,
      "1003": 10,
      "5": 100,
      "1005": 8
    }
  },
  {
    "id": 20041,
    "type": "FISH_STOCK_TYPE_DAY",
    "fishWeight": {
      "1": 300,
      "1001": 10,
      "3": 300,
      "1003": 10,
      "14": 300,
      "1014": 20,
      "6": 100,
      "1006": 8
    }
  },
  {
    "id": 20042,
    "type": "FISH_STOCK_TYPE_NIGHT",
    "fishWeight": {
      "1": 300,
      "1001": 10,
      "3": 300,
      "1003": 10,
      "8": 300,
      "1008": 20,
      "5": 100,
      "1005": 8
    }
  },
  {
    "id": 20051,
    "type": "FISH_STOCK_TYPE_DAY",
    "fishWeight": {
      "3": 300,
      "1003": 10,
      "12": 200,
      "1012": 12,
      "13": 200,
      "1013": 12,
      "14": 300,
      "1014": 20,
      "10": 200,
      "1010": 15
    }
  },
  {
    "id": 20052,
    "type": "FISH_STOCK_TYPE_NIGHT",
    "fishWeight": {
      "3": 300,
      "1003": 10,
      "12": 200,
      "1012": 12,
      "13": 200,
      "1013": 12,
      "8": 300,
      "1008": 20
    }
  },
  {
    "id": 20061,
    "type": "FISH_STOCK_TYPE_DAY",
    "fishWeight": {
      "1": 300,
      "1001": 10,
      "6": 100,
      "1006": 8
    }
  },
  {
    "id": 20062,
    "type": "FISH_STOCK_TYPE_NIGHT",
    "fishWeight": {
      "1": 300,
      "1001": 10,
      "8": 300,
      "1008": 20
    }
  },
  {
    "id": 20071,
    "type": "FISH_STOCK_TYPE_DAY",
    "fishWeight": {
      "1": 300,
      "1001": 10,
      "3": 300,
      "1003": 10,
      "14": 300,
      "1014": 20
    }
  },
  {
    "id": 20072,
    "type": "FISH_STOCK_TYPE_NIGHT",
    "fishWeight": {
      "1": 300,
      "1001": 10,
      "3": 300,
      "1003": 10,
      "5": 100,
      "1005": 8
    }
  },
  {
    "id": 20081,
    "type": "FISH_STOCK_TYPE_DAY",
    "fishWeight": {
      "3": 300,
      "1003": 10,
      "12": 200,
      "1012": 12,
      "13": 200,
      "1013": 12,
      "14": 300,
      "1014": 20,
      "10": 200,
      "1010": 15
    }
  },
  {
    "id": 20082,
    "type": "FISH_STOCK_TYPE_NIGHT",
    "fishWeight": {
      "3": 300,
      "1003": 10,
      "12": 200,
      "1012": 12,
      "13": 200,
      "1013": 12,
      "8": 300,
      "1008": 20
    }
  },
  {
    "id": 20091,
    "type": "FISH_STOCK_TYPE_DAY",
    "fishWeight": {
      "3": 300,
      "1003": 10,
      "12": 200,
      "1012": 12,
      "13": 200,
      "1013": 12,
      "14": 300,
      "1014": 20,
      "10": 200,
      "1010": 15
    }
  },
  {
    "id": 20092,
    "type": "FISH_STOCK_TYPE_NIGHT",
    "fishWeight": {
      "3": 300,
      "1003": 10,
      "12": 200,
      "1012": 12,
      "13": 200,
      "1013": 12,
      "8": 300,
      "1008": 20
    }
  },
  {
    "id": 20101,
    "type": "FISH_STOCK_TYPE_DAY",
    "fishWeight": {
      "3": 300,
      "1003": 10,
      "20": 200,
      "1020": 12,
      "6": 100,
      "1006": 8
    }
  },
  {
    "id": 20102,
    "type": "FISH_STOCK_TYPE_NIGHT",
    "fishWeight": {
      "3": 300,
      "1003": 10,
      "20": 200,
      "1020": 12,
      "8": 300,
      "1008": 20,
      "5": 100,
      "1005": 8
    }
  },
  {
    "id": 20111,
    "type": "FISH_STOCK_TYPE_DAY",
    "fishWeight": {
      "1": 300,
      "1001": 10,
      "14": 300,
      "1014": 20,
      "6": 100,
      "1006": 8
    }
  },
  {
    "id": 20112,
    "type": "FISH_STOCK_TYPE_NIGHT",
    "fishWeight": {
      "1": 300,
      "1001": 10,
      "5": 100,
      "1005": 8
    }
  },
  {
    "id": 20121,
    "type": "FISH_STOCK_TYPE_DAY",
    "fishWeight": {
      "1": 300,
      "1001": 10,
      "21": 200,
      "1021": 12,
      "14": 300,
      "1014": 20,
      "10": 200,
      "1010": 15
    }
  },
  {
    "id": 20122,
    "type": "FISH_STOCK_TYPE_NIGHT",
    "fishWeight": {
      "1": 300,
      "1001": 10,
      "21": 200,
      "1021": 12,
      "8": 300,
      "1008": 20
    }
  },
  {
    "id": 20131,
    "type": "FISH_STOCK_TYPE_DAY",
    "fishWeight": {
      "3": 300,
      "1003": 10,
      "20": 200,
      "1020": 12,
      "10": 200,
      "1010": 15,
      "6": 100,
      "1006": 8
    }
  },
  {
    "id": 20132,
    "type": "FISH_STOCK_TYPE_NIGHT",
    "fishWeight": {
      "3": 300,
      "1003": 10,
      "20": 200,
      "1020": 12,
      "5": 100,
      "1005": 8
    }
  },
  {
    "id": 20141,
    "type": "FISH_STOCK_TYPE_DAY",
    "fishWeight": {
      "1": 300,
      "1001": 10,
      "38": 300,
      "1038": 20,
      "12": 200,
      "1012": 12,
      "13": 200,
      "1013": 12,
      "14": 300,
      "1014": 20
    }
  },
  {
    "id": 20142,
    "type": "FISH_STOCK_TYPE_NIGHT",
    "fishWeight": {
      "1": 300,
      "1001": 10,
      "38": 300,
      "1038": 20,
      "12": 200,
      "1012": 12,
      "13": 200,
      "1013": 12,
      "8": 300,
      "1008": 20
    }
  },
  {
    "id": 20151,
    "type": "FISH_STOCK_TYPE_DAY",
    "fishWeight": {
      "3": 300,
      "1003": 10,
      "38": 300,
      "1038": 20,
      "12": 200,
      "1012": 12,
      "10": 200,
      "1010": 15
    }
  },
  {
    "id": 20152,
    "type": "FISH_STOCK_TYPE_NIGHT",
    "fishWeight": {
      "3": 300,
      "1003": 10,
      "38": 300,
      "1038": 20,
      "12": 200,
      "1012": 12,
      "5": 100,
      "1005": 8
    }
  },
  {
    "id": 20161,
    "type": "FISH_STOCK_TYPE_DAY",
    "fishWeight": {
      "1": 300,
      "1001": 10,
      "38": 300,
      "1038": 20,
      "13": 200,
      "1013": 12,
      "6": 100,
      "1006": 8
    }
  },
  {
    "id": 20162,
    "type": "FISH_STOCK_TYPE_NIGHT",
    "fishWeight": {
      "1": 300,
      "1001": 10,
      "38": 300,
      "1038": 20,
      "13": 200,
      "1013": 12,
      "8": 300,
      "1008": 20,
      "5": 100,
      "1005": 8
    }
  },
  {
    "id": 30011,
    "type": "FISH_STOCK_TYPE_DAY",
    "fishWeight": {
      "1": 300,
      "1001": 10,
      "2": 300,
      "1002": 10,
      "12": 200,
      "1012": 12,
      "15": 300,
      "1015": 20,
      "6": 100,
      "1006": 8
    }
  },
  {
    "id": 30012,
    "type": "FISH_STOCK_TYPE_NIGHT",
    "fishWeight": {
      "18": 400,
      "1018": 25
    }
  },
  {
    "id": 30021,
    "type": "FISH_STOCK_TYPE_DAY",
    "fishWeight": {
      "2": 300,
      "1002": 10,
      "15": 300,
      "1015": 20
    }
  },
  {
    "id": 30022,
    "type": "FISH_STOCK_TYPE_NIGHT",
    "fishWeight": {
      "2": 300,
      "1002": 10,
      "7": 300,
      "1007": 20
    }
  },
  {
    "id": 30031,
    "type": "FISH_STOCK_TYPE_DAY",
    "fishWeight": {
      "2": 300,
      "1002": 10,
      "21": 200,
      "1021": 12,
      "20": 200,
      "1020": 12,
      "10": 200,
      "1010": 15
    }
  },
  {
    "id": 30032,
    "type": "FISH_STOCK_TYPE_NIGHT",
    "fishWeight": {
      "2": 300,
      "1002": 10,
      "21": 200,
      "1021": 12,
      "20": 200,
      "1020": 12,
      "7": 300,
      "1007": 20
    }
  },
  {
    "id": 30041,
    "type": "FISH_STOCK_TYPE_DAY",
    "fishWeight": {
      "1": 300,
      "1001": 10,
      "2": 300,
      "1002": 10,
      "15": 300,
      "1015": 20,
      "6": 100,
      "1006": 8
    }
  },
  {
    "id": 30042,
    "type": "FISH_STOCK_TYPE_NIGHT",
    "fishWeight": {
      "1": 300,
      "1001": 10,
      "2": 300,
      "1002": 10,
      "7": 300,
      "1007": 20,
      "5": 100,
      "1005": 8
    }
  },
  {
    "id": 30051,
    "type": "FISH_STOCK_TYPE_DAY",
    "fishWeight": {
      "2": 300,
      "1002": 10,
      "12": 200,
      "1012": 12,
      "13": 200,
      "1013": 12,
      "15": 300,
      "1015": 20,
      "10": 200,
      "1010": 15
    }
  },
  {
    "id": 30052,
    "type": "FISH_STOCK_TYPE_NIGHT",
    "fishWeight": {
      "2": 300,
      "1002": 10,
      "12": 200,
      "1012": 12,
      "13": 200,
      "1013": 12,
      "7": 300,
      "1007": 20
    }
  },
  {
    "id": 30061,
    "type": "FISH_STOCK_TYPE_DAY",
    "fishWeight": {
      "1": 300,
      "1001": 10,
      "20": 200,
      "1020": 12,
      "15": 300,
      "1015": 20,
      "6": 100,
      "1006": 8
    }
  },
  {
    "id": 30062,
    "type": "FISH_STOCK_TYPE_NIGHT",
    "fishWeight": {
      "1": 300,
      "1001": 10,
      "20": 200,
      "1020": 12,
      "5": 100,
      "1005": 8
    }
  },
  {
    "id": 30071,
    "type": "FISH_STOCK_TYPE_DAY",
    "fishWeight": {
      "1": 300,
      "1001": 10,
      "2": 300,
      "1002": 10,
      "15": 300,
      "1015": 20,
      "6": 100,
      "1006": 8
    }
  },
  {
    "id": 30072,
    "type": "FISH_STOCK_TYPE_NIGHT",
    "fishWeight": {
      "1": 300,
      "1001": 10,
      "2": 300,
      "1002": 10,
      "7": 300,
      "1007": 20,
      "5": 100,
      "1005": 8
    }
  },
  {
    "id": 30081,
    "type": "FISH_STOCK_TYPE_DAY",
    "fishWeight": {
      "1": 300,
      "1001": 10,
      "21": 200,
      "1021": 12,
      "15": 300,
      "1015": 20
    }
  },
  {
    "id": 30082,
    "type": "FISH_STOCK_TYPE_NIGHT",
    "fishWeight": {
      "1": 300,
      "1001": 10,
      "21": 200,
      "1021": 12,
      "7": 300,
      "1007": 20
    }
  },
  {
    "id": 30091,
    "type": "FISH_STOCK_TYPE_DAY",
    "fishWeight": {
      "1": 300,
      "1001": 10,
      "2": 300,
      "1002": 10,
      "6": 100,
      "1006": 8
    }
  },
  {
    "id": 30092,
    "type": "FISH_STOCK_TYPE_NIGHT",
    "fishWeight": {
      "1": 300,
      "1001": 10,
      "2": 300,
      "1002": 10,
      "5": 100,
      "1005": 8
    }
  },
  {
    "id": 30101,
    "type": "FISH_STOCK_TYPE_DAY",
    "fishWeight": {
      "1": 300,
      "1001": 10,
      "15": 300,
      "1015": 20,
      "10": 200,
      "1010": 15
    }
  },
  {
    "id": 30102,
    "type": "FISH_STOCK_TYPE_NIGHT",
    "fishWeight": {
      "1": 300,
      "1001": 10,
      "7": 300,
      "1007": 20
    }
  },
  {
    "id": 30111,
    "type": "FISH_STOCK_TYPE_DAY",
    "fishWeight": {
      "22": 300,
      "1022": 20,
      "23": 300,
      "1023": 20,
      "15": 300,
      "1015": 20
    }
  },
  {
    "id": 30112,
    "type": "FISH_STOCK_TYPE_NIGHT",
    "fishWeight": {
      "22": 300,
      "1022": 20,
      "23": 300,
      "1023": 20,
      "5": 100,
      "1005": 8
    }
  },
  {
    "id": 30121,
    "type": "FISH_STOCK_TYPE_DAY",
    "fishWeight": {
      "22": 300,
      "1022": 20,
      "23": 300,
      "1023": 20,
      "10": 200,
      "1010": 15
    }
  },
  {
    "id": 30122,
    "type": "FISH_STOCK_TYPE_NIGHT",
    "fishWeight": {
      "22": 300,
      "1022": 20,
      "23": 300,
      "1023": 20,
      "5": 100,
      "1005": 8
    }
  },
  {
    "id": 30131,
    "type": "FISH_STOCK_TYPE_DAY",
    "fishWeight": {
      "22": 300,
      "1022": 20,
      "23": 300,
      "1023": 20,
      "6": 100,
      "1006": 8
    }
  },
  {
    "id": 30132,
    "type": "FISH_STOCK_TYPE_NIGHT",
    "fishWeight": {
      "22": 300,
      "1022": 20,
      "23": 300,
      "1023": 20,
      "7": 300,
      "1007": 20
    }
  },
  {
    "id": 30141,
    "type": "FISH_STOCK_TYPE_DAY",
    "fishWeight": {
      "1": 300,
      "1001": 100,
      "2": 300,
      "1002": 100,
      "21": 200,
      "20": 200,
      "1020": 100,
      "15": 300,
      "1015": 100,
      "6": 100,
      "1006": 100
    }
  },
  {
    "id": 30142,
    "type": "FISH_STOCK_TYPE_NIGHT",
    "fishWeight": {
      "1": 300,
      "1001": 100,
      "2": 300,
      "1002": 100,
      "21": 200,
      "20": 200,
      "1020": 100,
      "8": 300,
      "1008": 100,
      "5": 100,
      "1005": 100
    }
  },
  {
    "id": 30151,
    "type": "FISH_STOCK_TYPE_DAY",
    "fishWeight": {
      "1": 300,
      "1001": 100,
      "2": 300,
      "1002": 100,
      "21": 200,
      "20": 200,
      "1020": 100,
      "15": 300,
      "1015": 100
    }
  },
  {
    "id": 30152,
    "type": "FISH_STOCK_TYPE_NIGHT",
    "fishWeight": {
      "1": 300,
      "1001": 100,
      "2": 300,
      "1002": 100,
      "21": 200,
      "20": 200,
      "1020": 100,
      "8": 300,
      "1008": 100,
      "5": 100,
      "1005": 100
    }
  },
  {
    "id": 40011,
    "type": "FISH_STOCK_TYPE_DAY",
    "fishWeight": {
      "28": 300,
      "1028": 20,
      "29": 300,
      "1029": 20,
      "25": 3200,
      "1025": 240
    }
  },
  {
    "id": 40012,
    "type": "FISH_STOCK_TYPE_NIGHT",
    "fishWeight": {
      "28": 300,
      "1028": 20,
      "29": 300,
      "1029": 20,
      "27": 300,
      "1027": 20
    }
  },
  {
    "id": 40021,
    "type": "FISH_STOCK_TYPE_DAY",
    "fishWeight": {
      "28": 300,
      "1028": 20,
      "26": 300,
      "1026": 20
    }
  },
  {
    "id": 40022,
    "type": "FISH_STOCK_TYPE_NIGHT",
    "fishWeight": {
      "28": 300,
      "1028": 20,
      "27": 300,
      "1027": 20,
      "5": 100,
      "1005": 8
    }
  },
  {
    "id": 40031,
    "type": "FISH_STOCK_TYPE_DAY",
    "fishWeight": {
      "29": 300,
      "1029": 20,
      "24": 300,
      "1024": 20
    }
  },
  {
    "id": 40032,
    "type": "FISH_STOCK_TYPE_NIGHT",
    "fishWeight": {
      "29": 300,
      "1029": 20,
      "27": 300,
      "1027": 20,
      "5": 100,
      "1005": 8
    }
  },
  {
    "id": 40041,
    "type": "FISH_STOCK_TYPE_DAY",
    "fishWeight": {
      "28": 300,
      "1028": 20,
      "29": 300,
      "1029": 20,
      "24": 300,
      "1024": 20,
      "26": 300,
      "1026": 20,
      "6": 100,
      "1006": 8
    }
  },
  {
    "id": 40042,
    "type": "FISH_STOCK_TYPE_NIGHT",
    "fishWeight": {
      "28": 300,
      "1028": 20,
      "29": 300,
      "1029": 20,
      "27": 300,
      "1027": 20
    }
  },
  {
    "id": 40051,
    "type": "FISH_STOCK_TYPE_DAY",
    "fishWeight": {
      "1": 300,
      "1001": 10,
      "28": 300,
      "1028": 20,
      "29": 300,
      "1029": 20,
      "24": 300,
      "1024": 20,
      "26": 300,
      "1026": 20
    }
  },
  {
    "id": 40052,
    "type": "FISH_STOCK_TYPE_NIGHT",
    "fishWeight": {
      "1": 300,
      "1001": 10,
      "28": 300,
      "1028": 20,
      "29": 300,
      "1029": 20,
      "27": 300,
      "1027": 20
    }
  },
  {
    "id": 40061,
    "type": "FISH_STOCK_TYPE_DAY",
    "fishWeight": {
      "28": 300,
      "1028": 20,
      "29": 300,
      "1029": 20,
      "24": 300,
      "1024": 20,
      "26": 300,
      "1026": 20,
      "10": 200,
      "1010": 15
    }
  },
  {
    "id": 40062,
    "type": "FISH_STOCK_TYPE_NIGHT",
    "fishWeight": {
      "28": 300,
      "1028": 20,
      "29": 300,
      "1029": 20,
      "27": 300,
      "1027": 20
    }
  },
  {
    "id": 40071,
    "type": "FISH_STOCK_TYPE_DAY",
    "fishWeight": {
      "1": 300,
      "1001": 10,
      "28": 300,
      "1028": 20,
      "24": 300,
      "1024": 20,
      "10": 200,
      "1010": 15
    }
  },
  {
    "id": 40072,
    "type": "FISH_STOCK_TYPE_NIGHT",
    "fishWeight": {
      "1": 300,
      "1001": 10,
      "28": 300,
      "1028": 20,
      "27": 300,
      "1027": 20,
      "5": 100,
      "1005": 8
    }
  },
  {
    "id": 40081,
    "type": "FISH_STOCK_TYPE_DAY",
    "fishWeight": {
      "1": 300,
      "1001": 10,
      "29": 300,
      "1029": 20,
      "24": 300,
      "1024": 20,
      "26": 300,
      "1026": 20,
      "6": 100,
      "1006": 8
    }
  },
  {
    "id": 40082,
    "type": "FISH_STOCK_TYPE_NIGHT",
    "fishWeight": {
      "1": 300,
      "1001": 10,
      "29": 300,
      "1029": 20,
      "5": 100,
      "1005": 8
    }
  },
  {
    "id": 40091,
    "type": "FISH_STOCK_TYPE_DAY",
    "fishWeight": {
      "1": 300,
      "1001": 10,
      "28": 300,
      "1028": 20,
      "29": 300,
      "1029": 20,
      "24": 300,
      "1024": 20,
      "26": 300,
      "1026": 20
    }
  },
  {
    "id": 40092,
    "type": "FISH_STOCK_TYPE_NIGHT",
    "fishWeight": {
      "1": 300,
      "1001": 10,
      "28": 300,
      "1028": 20,
      "29": 300,
      "1029": 20,
      "27": 300,
      "1027": 20
    }
  },
  {
    "id": 40101,
    "type": "FISH_STOCK_TYPE_DAY",
    "fishWeight": {
      "1": 300,
      "1001": 10,
      "28": 300,
      "1028": 20,
      "24": 300,
      "1024": 20,
      "10": 200,
      "1010": 15
    }
  },
  {
    "id": 40102,
    "type": "FISH_STOCK_TYPE_NIGHT",
    "fishWeight": {
      "1": 300,
      "1001": 10,
      "28": 300,
      "1028": 20,
      "5": 100,
      "1005": 8
    }
  },
  {
    "id": 40111,
    "type": "FISH_STOCK_TYPE_DAY",
    "fishWeight": {
      "1": 300,
      "1001": 10,
      "29": 300,
      "1029": 20,
      "26": 300,
      "1026": 20,
      "6": 100,
      "1006": 8
    }
  },
  {
    "id": 40112,
    "type": "FISH_STOCK_TYPE_NIGHT",
    "fishWeight": {
      "1": 300,
      "1001": 10,
      "29": 300,
      "1029": 20,
      "27": 300,
      "1027": 20
    }
  },
  {
    "id": 40121,
    "type": "FISH_STOCK_TYPE_DAY",
    "fishWeight": {
      "28": 300,
      "1028": 20,
      "29": 300,
      "1029": 20,
      "24": 300,
      "1024": 20,
      "26": 300,
      "1026": 20
    }
  },
  {
    "id": 40122,
    "type": "FISH_STOCK_TYPE_NIGHT",
    "fishWeight": {
      "28": 300,
      "1028": 20,
      "29": 300,
      "1029": 20,
      "27": 300,
      "1027": 20
    }
  },
  {
    "id": 40131,
    "type": "FISH_STOCK_TYPE_DAY",
    "fishWeight": {
      "28": 300,
      "1028": 20,
      "29": 300,
      "1029": 20,
      "24": 300,
      "1024": 20,
      "26": 300,
      "1026": 20
    }
  },
  {
    "id": 40132,
    "type": "FISH_STOCK_TYPE_NIGHT",
    "fishWeight": {
      "28": 300,
      "1028": 20,
      "29": 300,
      "1029": 20,
      "27": 300,
      "1027": 20,
      "5": 100,
      "1005": 8
    }
  },
  {
    "id": 50011,
    "type": "FISH_STOCK_TYPE_DAY",
    "fishWeight": {
      "30": 300,
      "1030": 20,
      "34": 300,
      "1034": 20,
      "32": 300,
      "1032": 20
    }
  },
  {
    "id": 50012,
    "type": "FISH_STOCK_TYPE_NIGHT",
    "fishWeight": {
      "30": 300,
      "1030": 20,
      "35": 300,
      "1035": 20,
      "31": 300,
      "1031": 20
    }
  },
  {
    "id": 50021,
    "type": "FISH_STOCK_TYPE_DAY",
    "fishWeight": {
      "33": 300,
      "1033": 20,
      "30": 300,
      "1030": 20,
      "32": 300,
      "1032": 20
    }
  },
  {
    "id": 50022,
    "type": "FISH_STOCK_TYPE_NIGHT",
    "fishWeight": {
      "33": 300,
      "1033": 20,
      "30": 300,
      "1030": 20,
      "31": 300,
      "1031": 20
    }
  },
  {
    "id": 50031,
    "type": "FISH_STOCK_TYPE_DAY",
    "fishWeight": {
      "1": 300,
      "1001": 10,
      "34": 300,
      "1034": 20,
      "32": 300,
      "1032": 20
    }
  },
  {
    "id": 50032,
    "type": "FISH_STOCK_TYPE_NIGHT",
    "fishWeight": {
      "1": 300,
      "1001": 10,
      "31": 300,
      "1031": 20,
      "36": 3200,
      "1036": 240
    }
  },
  {
    "id": 50041,
    "type": "FISH_STOCK_TYPE_DAY",
    "fishWeight": {
      "33": 300,
      "1033": 20,
      "30": 300,
      "1030": 20,
      "32": 300,
      "1032": 20
    }
  },
  {
    "id": 50042,
    "type": "FISH_STOCK_TYPE_NIGHT",
    "fishWeight": {
      "33": 300,
      "1033": 20,
      "30": 300,
      "1030": 20,
      "35": 300,
      "1035": 20
    }
  },
  {
    "id": 50051,
    "type": "FISH_STOCK_TYPE_DAY",
    "fishWeight": {
      "30": 300,
      "1030": 20,
      "34": 300,
      "1034": 20,
      "32": 300,
      "1032": 20
    }
  },
  {
    "id": 50052,
    "type": "FISH_STOCK_TYPE_NIGHT",
    "fishWeight": {
      "30": 300,
      "1030": 20,
      "35": 300,
      "1035": 20,
      "31": 300,
      "1031": 20
    }
  },
  {
    "id": 50061,
    "type": "FISH_STOCK_TYPE_DAY",
    "fishWeight": {
      "33": 300,
      "1033": 20,
      "30": 300,
      "1030": 20,
      "32": 300,
      "1032": 20
    }
  },
  {
    "id": 50062,
    "type": "FISH_STOCK_TYPE_NIGHT",
    "fishWeight": {
      "33": 300,
      "1033": 20,
      "30": 300,
      "1030": 20,
      "31": 300,
      "1031": 20
    }
  },
  {
    "id": 50071,
    "type": "FISH_STOCK_TYPE_DAY",
    "fishWeight": {
      "1": 300,
      "1001": 10,
      "30": 300,
      "1030": 20,
      "34": 300,
      "1034": 20
    }
  },
  {
    "id": 50072,
    "type": "FISH_STOCK_TYPE_NIGHT",
    "fishWeight": {
      "1": 300,
      "1001": 10,
      "30": 300,
      "1030": 20,
      "35": 300,
      "1035": 20
    }
  },
  {
    "id": 50081,
    "type": "FISH_STOCK_TYPE_DAY",
    "fishWeight": {
      "33": 300,
      "1033": 20,
      "34": 300,
      "1034": 20,
      "26": 300,
      "1026": 20
    }
  },
  {
    "id": 50082,
    "type": "FISH_STOCK_TYPE_NIGHT",
    "fishWeight": {
      "33": 300,
      "1033": 20,
      "35": 300,
      "1035": 20,
      "31": 300,
      "1031": 20
    }
  },
  {
    "id": 50091,
    "type": "FISH_STOCK_TYPE_DAY",
    "fishWeight": {
      "1": 300,
      "1001": 10,
      "33": 300,
      "1033": 20,
      "30": 300,
      "1030": 20,
      "34": 300,
      "1034": 20
    }
  },
  {
    "id": 50092,
    "type": "FISH_STOCK_TYPE_NIGHT",
    "fishWeight": {
      "1": 300,
      "1001": 10,
      "33": 300,
      "1033": 20,
      "30": 300,
      "1030": 20,
      "31": 300,
      "1031": 20
    }
  },
  {
    "id": 50101,
    "type": "FISH_STOCK_TYPE_DAY",
    "fishWeight": {
      "33": 300,
      "1033": 20,
      "30": 300,
      "1030": 20,
      "32": 300,
      "1032": 20
    }
  },
  {
    "id": 50102,
    "type": "FISH_STOCK_TYPE_NIGHT",
    "fishWeight": {
      "33": 300,
      "1033": 20,
      "30": 300,
      "1030": 20,
      "35": 300,
      "1035": 20
    }
  },
  {
    "id": 50111,
    "type": "FISH_STOCK_TYPE_DAY",
    "fishWeight": {
      "1": 300,
      "1001": 10,
      "37": 300,
      "1037": 20,
      "32": 300,
      "1032": 20
    }
  },
  {
    "id": 50112,
    "type": "FISH_STOCK_TYPE_NIGHT",
    "fishWeight": {
      "1": 300,
      "1001": 10,
      "37": 300,
      "1037": 20,
      "35": 300,
      "1035": 20,
      "31": 300,
      "1031": 20
    }
  },
  {
    "id": 50121,
    "type": "FISH_STOCK_TYPE_DAY",
    "fishWeight": {
      "37": 300,
      "1037": 20,
      "30": 300,
      "1030": 20,
      "34": 300,
      "1034": 20,
      "32": 300,
      "1032": 20
    }
  },
  {
    "id": 50122,
    "type": "FISH_STOCK_TYPE_NIGHT",
    "fishWeight": {
      "37": 300,
      "1037": 20,
      "30": 300,
      "1030": 20,
      "35": 300,
      "1035": 20
    }
  },
  {
    "id": 50131,
    "type": "FISH_STOCK_TYPE_DAY",
    "fishWeight": {
      "1": 300,
      "1001": 10,
      "37": 300,
      "1037": 20,
      "34": 300,
      "1034": 20,
      "32": 300,
      "1032": 20
    }
  },
  {
    "id": 50132,
    "type": "FISH_STOCK_TYPE_NIGHT",
    "fishWeight": {
      "1": 300,
      "1001": 10,
      "37": 300,
      "1037": 20,
      "35": 300,
      "1035": 20,
      "31": 300,
      "1031": 20
    }
  },
  {
    "id": 50141,
    "type": "FISH_STOCK_TYPE_DAY",
    "fishWeight": {
      "37": 300,
      "1037": 20,
      "30": 300,
      "1030": 20,
      "34": 300,
      "1034": 20
    }
  },
  {
    "id": 50142,
    "type": "FISH_STOCK_TYPE_NIGHT",
    "fishWeight": {
      "37": 300,
      "1037": 20,
      "30": 300,
      "1030": 20,
      "31": 300,
      "1031": 20
    }
  },
  {
    "id": 50151,
    "type": "FISH_STOCK_TYPE_DAY",
    "fishWeight": {
      "33": 300,
      "1033": 20,
      "37": 300,
      "1037": 20,
      "30": 300,
      "1030": 20,
      "34": 300,
      "1034": 20,
      "32": 300,
      "1032": 20
    }
  },
  {
    "id": 50152,
    "type": "FISH_STOCK_TYPE_NIGHT",
    "fishWeight": {
      "33": 300,
      "1033": 20,
      "37": 300,
      "1037": 20,
      "30": 300,
      "1030": 20,
      "35": 300,
      "1035": 20,
      "31": 300,
      "1031": 20
    }
  },
  {
    "id": 60011,
    "type": "FISH_STOCK_TYPE_DAY",
    "fishWeight": {
      "41": 300,
      "1041": 20,
      "44": 300,
      "1044": 20
    }
  },
  {
    "id": 60012,
    "type": "FISH_STOCK_TYPE_NIGHT",
    "fishWeight": {
      "41": 300,
      "1041": 20,
      "44": 300,
      "1044": 20
    }
  },
  {
    "id": 60021,
    "type": "FISH_STOCK_TYPE_DAY",
    "fishWeight": {
      "41": 300,
      "1041": 20,
      "44": 300,
      "1044": 20
    }
  },
  {
    "id": 60022,
    "type": "FISH_STOCK_TYPE_NIGHT",
    "fishWeight": {
      "41": 300,
      "1041": 20,
      "44": 300,
      "1044": 20
    }
  },
  {
    "id": 60031,
    "type": "FISH_STOCK_TYPE_DAY",
    "fishWeight": {
      "41": 300,
      "1041": 20,
      "44": 300,
      "1044": 20
    }
  },
  {
    "id": 60032,
    "type": "FISH_STOCK_TYPE_NIGHT",
    "fishWeight": {
      "41": 300,
      "1041": 20,
      "44": 300,
      "1044": 20
    }
  },
  {
    "id": 60041,
    "type": "FISH_STOCK_TYPE_DAY",
    "fishWeight": {
      "1": 300,
      "1001": 10,
      "45": 300,
      "1045": 20,
      "40": 900,
      "1040": 60
    }
  },
  {
    "id": 60042,
    "type": "FISH_STOCK_TYPE_NIGHT",
    "fishWeight": {
      "1": 300,
      "1001": 10,
      "45": 300,
      "1045": 20,
      "43": 900,
      "1043": 60
    }
  },
  {
    "id": 60051,
    "type": "FISH_STOCK_TYPE_DAY",
    "fishWeight": {
      "45": 300,
      "1045": 20,
      "42": 900,
      "1042": 60
    }
  },
  {
    "id": 60052,
    "type": "FISH_STOCK_TYPE_NIGHT",
    "fishWeight": {
      "45": 300,
      "1045": 20,
      "39": 900,
      "1039": 60
    }
  },
  {
    "id": 60061,
    "type": "FISH_STOCK_TYPE_DAY",
    "fishWeight": {
      "1": 300,
      "1001": 10,
      "45": 300,
      "1045": 20,
      "42": 900,
      "1042": 60
    }
  },
  {
    "id": 60062,
    "type": "FISH_STOCK_TYPE_NIGHT",
    "fishWeight": {
      "1": 300,
      "1001": 10,
      "45": 300,
      "1045": 20,
      "43": 900,
      "1043": 60
    }
  },
  {
    "id": 60071,
    "type": "FISH_STOCK_TYPE_DAY",
    "fishWeight": {
      "45": 300,
      "1045": 20,
      "40": 900,
      "1040": 60
    }
  },
  {
    "id": 60072,
    "type": "FISH_STOCK_TYPE_NIGHT",
    "fishWeight": {
      "45": 300,
      "1045": 20,
      "39": 900,
      "1039": 60
    }
  },
  {
    "id": 60081,
    "type": "FISH_STOCK_TYPE_DAY",
    "fishWeight": {
      "1": 300,
      "1001": 10,
      "40": 900,
      "1040": 60,
      "42": 900,
      "1042": 60
    }
  },
  {
    "id": 60082,
    "type": "FISH_STOCK_TYPE_NIGHT",
    "fishWeight": {
      "1": 300,
      "1001": 10,
      "39": 900,
      "1039": 60,
      "43": 900,
      "1043": 60
    }
  },
  {
    "id": 60091,
    "type": "FISH_STOCK_TYPE_DAY",
    "fishWeight": {
      "1": 300,
      "1001": 10,
      "45": 300,
      "1045": 20,
      "40": 900,
      "1040": 60,
      "42": 900,
      "1042": 60
    }
  },
  {
    "id": 60092,
    "type": "FISH_STOCK_TYPE_NIGHT",
    "fishWeight": {
      "1": 300,
      "1001": 10,
      "45": 300,
      "1045": 20,
      "39": 900,
      "1039": 60,
      "43": 900,
      "1043": 60
    }
  },
  {
    "id": 60101,
    "type": "FISH_STOCK_TYPE_DAY",
    "fishWeight": {
      "45": 300,
      "1045": 20,
      "40": 900,
      "1040": 60
    }
  },
  {
    "id": 60102,
    "type": "FISH_STOCK_TYPE_NIGHT",
    "fishWeight": {
      "45": 300,
      "1045": 20,
      "43": 900,
      "1043": 60
    }
  },
  {
    "id": 60111,
    "type": "FISH_STOCK_TYPE_DAY",
    "fishWeight": {
      "1": 300,
      "1001": 10,
      "45": 300,
      "1045": 20,
      "40": 900,
      "1040": 60
    }
  },
  {
    "id": 60112,
    "type": "FISH_STOCK_TYPE_NIGHT",
    "fishWeight": {
      "1": 300,
      "1001": 10,
      "45": 300,
      "1045": 20,
      "39": 900,
      "1039": 60,
      "43": 900,
      "1043": 60
    }
  },
  {
    "id": 1000011,
    "type": "FISH_STOCK_TYPE_DAY",
    "fishWeight": {
      "1": 100,
      "3": 50,
      "13": 50,
      "14": 300
    }
  },
  {
    "id": 1000012,
    "type": "FISH_STOCK_TYPE_NIGHT",
    "fishWeight": {
      "1": 150,
      "3": 150,
      "13": 50,
      "8": 150
    }
  },
  {
    "id": 1000021,
    "type": "FISH_STOCK_TYPE_DAY",
    "fishWeight": {
      "1": 200,
      "3": 200,
      "12": 100,
      "6": 100
    }
  },
  {
    "id": 1000022,
    "type": "FISH_STOCK_TYPE_NIGHT",
    "fishWeight": {
      "1": 200,
      "3": 200,
      "12": 100,
      "5": 100
    }
  },
  {
    "id": 1000031,
    "type": "FISH_STOCK_TYPE_DAY",
    "fishWeight": {
      "1": 100,
      "4": 50,
      "21": 50,
      "16": 300
    }
  },
  {
    "id": 1000032,
    "type": "FISH_STOCK_TYPE_NIGHT",
    "fishWeight": {
      "1": 150,
      "4": 150,
      "21": 50,
      "9": 150
    }
  },
  {
    "id": 1000041,
    "type": "FISH_STOCK_TYPE_DAY",
    "fishWeight": {
      "1": 200,
      "2": 200,
      "20": 100,
      "6": 100
    }
  },
  {
    "id": 1000042,
    "type": "FISH_STOCK_TYPE_NIGHT",
    "fishWeight": {
      "1": 200,
      "2": 200,
      "20": 100,
      "5": 100
    }
  },
  {
    "id": 1000051,
    "type": "FISH_STOCK_TYPE_DAY",
    "fishWeight": {
      "15": 300,
      "6": 100
    }
  },
  {
    "id": 1000052,
    "type": "FISH_STOCK_TYPE_NIGHT",
    "fishWeight": {
      "7": 300,
      "5": 100,
      "1019": 100
    }
  },
  {
    "id": 1000023,
    "type": "FISH_STOCK_TYPE_ANY",
    "fishWeight": {
      "3": 150
    }
  },
  {
    "id": 1000043,
    "type": "FISH_STOCK_TYPE_ANY",
    "fishWeight": {
      "2": 150
    }
  },
  {
    "id": 1000053,
    "type": "FISH_STOCK_TYPE_NIGHT",
    "fishWeight": {
      "1019": 100
    }
  },
  {
    "id": 11,
    "type": "FISH_STOCK_TYPE_ANY",
    "fishWeight": {
      "1": 100
    }
  },
  {
    "id": 21,
    "type": "FISH_STOCK_TYPE_ANY",
    "fishWeight": {
      "2": 100
    }
  },
  {
    "id": 31,
    "type": "FISH_STOCK_TYPE_ANY",
    "fishWeight": {
      "3": 100
    }
  },
  {
    "id": 41,
    "type": "FISH_STOCK_TYPE_ANY",
    "fishWeight": {
      "4": 100
    }
  },
  {
    "id": 51,
    "type": "FISH_STOCK_TYPE_ANY",
    "fishWeight": {
      "5": 100
    }
  },
  {
    "id": 61,
    "type": "FISH_STOCK_TYPE_ANY",
    "fishWeight": {
      "6": 100
    }
  },
  {
    "id": 71,
    "type": "FISH_STOCK_TYPE_ANY",
    "fishWeight": {
      "7": 100
    }
  },
  {
    "id": 81,
    "type": "FISH_STOCK_TYPE_ANY",
    "fishWeight": {
      "8": 100
    }
  },
  {
    "id": 91,
    "type": "FISH_STOCK_TYPE_ANY",
    "fishWeight": {
      "9": 100
    }
  },
  {
    "id": 101,
    "type": "FISH_STOCK_TYPE_ANY",
    "fishWeight": {
      "10": 100
    }
  },
  {
    "id": 111,
    "type": "FISH_STOCK_TYPE_ANY",
    "fishWeight": {
      "11": 100
    }
  },
  {
    "id": 121,
    "type": "FISH_STOCK_TYPE_ANY",
    "fishWeight": {
      "12": 100
    }
  },
  {
    "id": 131,
    "type": "FISH_STOCK_TYPE_ANY",
    "fishWeight": {
      "13": 100
    }
  },
  {
    "id": 141,
    "type": "FISH_STOCK_TYPE_ANY",
    "fishWeight": {
      "14": 100
    }
  },
  {
    "id": 151,
    "type": "FISH_STOCK_TYPE_ANY",
    "fishWeight": {
      "15": 100
    }
  },
  {
    "id": 161,
    "type": "FISH_STOCK_TYPE_ANY",
    "fishWeight": {
      "16": 100
    }
  },
  {
    "id": 171,
    "type": "FISH_STOCK_TYPE_ANY",
    "fishWeight": {
      "17": 100
    }
  },
  {
    "id": 181,
    "type": "FISH_STOCK_TYPE_ANY",
    "fishWeight": {
      "18": 100
    }
  },
  {
    "id": 201,
    "type": "FISH_STOCK_TYPE_ANY",
    "fishWeight": {
      "20": 100
    }
  },
  {
    "id": 211,
    "type": "FISH_STOCK_TYPE_ANY",
    "fishWeight": {
      "21": 100
    }
  },
  {
    "id": 221,
    "type": "FISH_STOCK_TYPE_ANY",
    "fishWeight": {
      "22": 100
    }
  },
  {
    "id": 231,
    "type": "FISH_STOCK_TYPE_ANY",
    "fishWeight": {
      "23": 100
    }
  },
  {
    "id": 241,
    "type": "FISH_STOCK_TYPE_ANY",
    "fishWeight": {
      "24": 100
    }
  },
  {
    "id": 251,
    "type": "FISH_STOCK_TYPE_ANY",
    "fishWeight": {
      "25": 100
    }
  },
  {
    "id": 261,
    "type": "FISH_STOCK_TYPE_ANY",
    "fishWeight": {
      "26": 100
    }
  },
  {
    "id": 271,
    "type": "FISH_STOCK_TYPE_ANY",
    "fishWeight": {
      "27": 100
    }
  },
  {
    "id": 281,
    "type": "FISH_STOCK_TYPE_ANY",
    "fishWeight": {
      "28": 100
    }
  },
  {
    "id": 291,
    "type": "FISH_STOCK_TYPE_ANY",
    "fishWeight": {
      "29": 100
    }
  },
  {
    "id": 301,
    "type": "FISH_STOCK_TYPE_ANY",
    "fishWeight": {
      "30": 100
    }
  },
  {
    "id": 311,
    "type": "FISH_STOCK_TYPE_ANY",
    "fishWeight": {
      "31": 100
    }
  },
  {
    "id": 321,
    "type": "FISH_STOCK_TYPE_ANY",
    "fishWeight": {
      "32": 100
    }
  },
  {
    "id": 331,
    "type": "FISH_STOCK_TYPE_ANY",
    "fishWeight": {
      "33": 100
    }
  },
  {
    "id": 341,
    "type": "FISH_STOCK_TYPE_ANY",
    "fishWeight": {
      "34": 100
    }
  },
  {
    "id": 351,
    "type": "FISH_STOCK_TYPE_ANY",
    "fishWeight": {
      "35": 100
    }
  },
  {
    "id": 361,
    "type": "FISH_STOCK_TYPE_ANY",
    "fishWeight": {
      "36": 100
    }
  },
  {
    "id": 13,
    "type": "FISH_STOCK_TYPE_ANY",
    "fishWeight": {
      "1001": 100
    }
  },
  {
    "id": 23,
    "type": "FISH_STOCK_TYPE_ANY",
    "fishWeight": {
      "1002": 100
    }
  },
  {
    "id": 33,
    "type": "FISH_STOCK_TYPE_ANY",
    "fishWeight": {
      "1003": 100
    }
  },
  {
    "id": 43,
    "type": "FISH_STOCK_TYPE_ANY",
    "fishWeight": {
      "1004": 100
    }
  },
  {
    "id": 53,
    "type": "FISH_STOCK_TYPE_ANY",
    "fishWeight": {
      "1005": 100
    }
  },
  {
    "id": 63,
    "type": "FISH_STOCK_TYPE_ANY",
    "fishWeight": {
      "1006": 100
    }
  },
  {
    "id": 73,
    "type": "FISH_STOCK_TYPE_ANY",
    "fishWeight": {
      "1007": 100
    }
  },
  {
    "id": 83,
    "type": "FISH_STOCK_TYPE_ANY",
    "fishWeight": {
      "1008": 100
    }
  },
  {
    "id": 93,
    "type": "FISH_STOCK_TYPE_ANY",
    "fishWeight": {
      "1009": 100
    }
  },
  {
    "id": 103,
    "type": "FISH_STOCK_TYPE_ANY",
    "fishWeight": {
      "1010": 100
    }
  },
  {
    "id": 113,
    "type": "FISH_STOCK_TYPE_ANY",
    "fishWeight": {
      "1011": 100
    }
  },
  {
    "id": 123,
    "type": "FISH_STOCK_TYPE_ANY",
    "fishWeight": {
      "1012": 100
    }
  },
  {
    "id": 133,
    "type": "FISH_STOCK_TYPE_ANY",
    "fishWeight": {
      "1013": 100
    }
  },
  {
    "id": 143,
    "type": "FISH_STOCK_TYPE_ANY",
    "fishWeight": {
      "1014": 100
    }
  },
  {
    "id": 153,
    "type": "FISH_STOCK_TYPE_ANY",
    "fishWeight": {
      "1015": 100
    }
  },
  {
    "id": 163,
    "type": "FISH_STOCK_TYPE_ANY",
    "fishWeight": {
      "1016": 100
    }
  },
  {
    "id": 173,
    "type": "FISH_STOCK_TYPE_ANY",
    "fishWeight": {
      "1017": 100
    }
  },
  {
    "id": 183,
    "type": "FISH_STOCK_TYPE_ANY",
    "fishWeight": {
      "1018": 100
    }
  },
  {
    "id": 193,
    "type": "FISH_STOCK_TYPE_ANY",
    "fishWeight": {
      "1019": 100
    }
  },
  {
    "id": 203,
    "type": "FISH_STOCK_TYPE_ANY",
    "fishWeight": {
      "1020": 100
    }
  },
  {
    "id": 213,
    "type": "FISH_STOCK_TYPE_ANY",
    "fishWeight": {
      "1021": 100
    }
  },
  {
    "id": 223,
    "type": "FISH_STOCK_TYPE_ANY",
    "fishWeight": {
      "1022": 100
    }
  },
  {
    "id": 233,
    "type": "FISH_STOCK_TYPE_ANY",
    "fishWeight": {
      "1023": 100
    }
  },
  {
    "id": 243,
    "type": "FISH_STOCK_TYPE_ANY",
    "fishWeight": {
      "1024": 100
    }
  },
  {
    "id": 253,
    "type": "FISH_STOCK_TYPE_ANY",
    "fishWeight": {
      "1025": 100
    }
  },
  {
    "id": 263,
    "type": "FISH_STOCK_TYPE_ANY",
    "fishWeight": {
      "1026": 100
    }
  },
  {
    "id": 273,
    "type": "FISH_STOCK_TYPE_ANY",
    "fishWeight": {
      "1027": 100
    }
  },
  {
    "id": 283,
    "type": "FISH_STOCK_TYPE_ANY",
    "fishWeight": {
      "1028": 100
    }
  },
  {
    "id": 293,
    "type": "FISH_STOCK_TYPE_ANY",
    "fishWeight": {
      "1029": 100
    }
  },
  {
    "id": 303,
    "type": "FISH_STOCK_TYPE_ANY",
    "fishWeight": {
      "1024": 100
    }
  },
  {
    "id": 313,
    "type": "FISH_STOCK_TYPE_ANY",
    "fishWeight": {
      "1025": 100
    }
  },
  {
    "id": 323,
    "type": "FISH_STOCK_TYPE_ANY",
    "fishWeight": {
      "1026": 100
    }
  },
  {
    "id": 333,
    "type": "FISH_STOCK_TYPE_ANY",
    "fishWeight": {
      "1027": 100
    }
  },
  {
    "id": 343,
    "type": "FISH_STOCK_TYPE_ANY",
    "fishWeight": {
      "1028": 100
    }
  },
  {
    "id": 353,
    "type": "FISH_STOCK_TYPE_ANY",
    "fishWeight": {
      "1029": 100
    }
  },
  {
    "id": 363,
    "type": "FISH_STOCK_TYPE_ANY",
    "fishWeight": {
      "1029": 100
    }
  }
]