[
  {
    "id": 1001,
    "gear": [
      {
        "num": 4,
        "inSpeed": 2,
        "outSpeed": 5
      },
      {
        "num": 8,
        "inSpeed": 5,
        "outSpeed": 8
      },
      {
        "num": 16,
        "inSpeed": 10,
        "outSpeed": 15
      }
    ]
  }
]