[
  {
    "id": 10001,
    "stockList": [
      1,
      3
    ],
    "stockGuarantee": {},
    "stockLimitList": [
      {
        "NCAHEHAHFLK": "FISH_STOCK_TYPE_DAY",
        "BFGJHPIAPOE": 5,
        "EKFMOEFJFHH": 7
      },
      {
        "NCAHEHAHFLK": "FISH_STOCK_TYPE_NIGHT",
        "BFGJHPIAPOE": 5,
        "EKFMOEFJFHH": 7
      }
    ],
    "maxNum": 6,
    "poolNameTextMapHash": 3331586185,
    "poolDescTextMapHash": 1096443717,
    "abilityGroup": "Avatar_Fishing",
    "teamAbilityGroup": "Avatar_Fishing_OnTeam",
    "dropIdList": [],
    "excludeFish": []
  },
  {
    "id": 10002,
    "stockList": [
      4
    ],
    "stockGuarantee": {},
    "stockLimitList": [
      {
        "NCAHEHAHFLK": "FISH_STOCK_TYPE_ANY",
        "BFGJHPIAPOE": 100,
        "EKFMOEFJFHH": 110
      },
      {}
    ],
    "maxNum": 10,
    "poolNameTextMapHash": 1836453081,
    "poolDescTextMapHash": 3442338213,
    "abilityGroup": "Avatar_Fishing",
    "teamAbilityGroup": "Avatar_Fishing_OnTeam",
    "dropIdList": [],
    "excludeFish": []
  },
  {
    "id": 10003,
    "stockList": [
      1000011,
      1000012
    ],
    "stockGuarantee": {},
    "stockLimitList": [
      {
        "NCAHEHAHFLK": "FISH_STOCK_TYPE_DAY"
      },
      {
        "NCAHEHAHFLK": "FISH_STOCK_TYPE_NIGHT"
      }
    ],
    "maxNum": 5,
    "poolNameTextMapHash": 3722962353,
    "poolDescTextMapHash": 1020945101,
    "abilityGroup": "Avatar_Fishing",
    "teamAbilityGroup": "Avatar_Fishing_OnTeam",
    "dropIdList": [],
    "dailyLimitNum": 50,
    "excludeFish": []
  },
  {
    "id": 10004,
    "stockList": [
      1000021,
      1000022
    ],
    "stockGuarantee": {
      "1000023": 2
    },
    "stockLimitList": [
      {
        "NCAHEHAHFLK": "FISH_STOCK_TYPE_DAY"
      },
      {
        "NCAHEHAHFLK": "FISH_STOCK_TYPE_NIGHT"
      }
    ],
    "maxNum": 5,
    "poolNameTextMapHash": 662554113,
    "poolDescTextMapHash": 46773349,
    "abilityGroup": "Avatar_Fishing",
    "teamAbilityGroup": "Avatar_Fishing_OnTeam",
    "dropIdList": [],
    "dailyLimitNum": 50,
    "excludeFish": []
  },
  {
    "id": 10005,
    "stockList": [
      1000031,
      1000032
    ],
    "stockGuarantee": {},
    "stockLimitList": [
      {
        "NCAHEHAHFLK": "FISH_STOCK_TYPE_DAY"
      },
      {
        "NCAHEHAHFLK": "FISH_STOCK_TYPE_NIGHT"
      }
    ],
    "maxNum": 5,
    "poolNameTextMapHash": 3417726033,
    "poolDescTextMapHash": 2078436261,
    "abilityGroup": "Avatar_Fishing",
    "teamAbilityGroup": "Avatar_Fishing_OnTeam",
    "dropIdList": [],
    "dailyLimitNum": 50,
    "excludeFish": []
  },
  {
    "id": 10006,
    "stockList": [
      1000041,
      1000042
    ],
    "stockGuarantee": {
      "1000043": 2
    },
    "stockLimitList": [
      {
        "NCAHEHAHFLK": "FISH_STOCK_TYPE_DAY"
      },
      {
        "NCAHEHAHFLK": "FISH_STOCK_TYPE_NIGHT"
      }
    ],
    "maxNum": 5,
    "poolNameTextMapHash": 2305442849,
    "poolDescTextMapHash": 3404900421,
    "abilityGroup": "Avatar_Fishing",
    "teamAbilityGroup": "Avatar_Fishing_OnTeam",
    "dropIdList": [
      21600001
    ],
    "dailyLimitNum": 50,
    "excludeFish": []
  },
  {
    "id": 10007,
    "stockList": [
      1000051,
      1000052
    ],
    "stockGuarantee": {
      "1000053": 3
    },
    "stockLimitList": [
      {
        "NCAHEHAHFLK": "FISH_STOCK_TYPE_DAY"
      },
      {
        "NCAHEHAHFLK": "FISH_STOCK_TYPE_NIGHT"
      }
    ],
    "maxNum": 5,
    "poolNameTextMapHash": 2020162065,
    "poolDescTextMapHash": 1647433885,
    "abilityGroup": "Avatar_Fishing",
    "teamAbilityGroup": "Avatar_Fishing_OnTeam",
    "dropIdList": [],
    "dailyLimitNum": 50,
    "excludeFish": [
      1019
    ]
  },
  {
    "id": 10008,
    "stockList": [
      1000051,
      1000052
    ],
    "stockGuarantee": {
      "1000053": 3
    },
    "stockLimitList": [
      {
        "NCAHEHAHFLK": "FISH_STOCK_TYPE_DAY"
      },
      {
        "NCAHEHAHFLK": "FISH_STOCK_TYPE_NIGHT"
      }
    ],
    "maxNum": 5,
    "poolNameTextMapHash": 1175742001,
    "poolDescTextMapHash": 3303842237,
    "abilityGroup": "Avatar_Fishing",
    "teamAbilityGroup": "Avatar_Fishing_OnTeam",
    "dropIdList": [],
    "dailyLimitNum": 50,
    "excludeFish": [
      1019
    ]
  },
  {
    "id": 101,
    "stockList": [
      1011
    ],
    "stockGuarantee": {},
    "stockLimitList": [
      {
        "NCAHEHAHFLK": "FISH_STOCK_TYPE_ANY",
        "BFGJHPIAPOE": 4,
        "EKFMOEFJFHH": 4
      },
      {}
    ],
    "maxNum": 4,
    "poolNameTextMapHash": 219258849,
    "poolDescTextMapHash": 3125325461,
    "abilityGroup": "Avatar_Fishing",
    "teamAbilityGroup": "Avatar_Fishing_OnTeam",
    "dropIdList": [],
    "excludeFish": []
  },
  {
    "id": 102,
    "stockList": [
      1012
    ],
    "stockGuarantee": {},
    "stockLimitList": [
      {
        "NCAHEHAHFLK": "FISH_STOCK_TYPE_ANY",
        "BFGJHPIAPOE": 3,
        "EKFMOEFJFHH": 3
      },
      {}
    ],
    "maxNum": 4,
    "poolNameTextMapHash": 1827963865,
    "poolDescTextMapHash": 1217276573,
    "abilityGroup": "Avatar_Fishing",
    "teamAbilityGroup": "Avatar_Fishing_OnTeam",
    "dropIdList": [],
    "excludeFish": []
  },
  {
    "id": 1001,
    "stockList": [
      10011,
      10012
    ],
    "stockGuarantee": {},
    "stockLimitList": [
      {
        "NCAHEHAHFLK": "FISH_STOCK_TYPE_DAY",
        "BFGJHPIAPOE": 3,
        "EKFMOEFJFHH": 5
      },
      {
        "NCAHEHAHFLK": "FISH_STOCK_TYPE_NIGHT",
        "BFGJHPIAPOE": 3,
        "EKFMOEFJFHH": 5
      }
    ],
    "maxNum": 4,
    "poolNameTextMapHash": 3342040361,
    "poolDescTextMapHash": 1417297237,
    "abilityGroup": "Avatar_Fishing",
    "teamAbilityGroup": "Avatar_Fishing_OnTeam",
    "dropIdList": [],
    "excludeFish": [],
    "cityId": 1
  },
  {
    "id": 1002,
    "stockList": [
      10021,
      10022
    ],
    "stockGuarantee": {},
    "stockLimitList": [
      {
        "NCAHEHAHFLK": "FISH_STOCK_TYPE_DAY",
        "BFGJHPIAPOE": 2,
        "EKFMOEFJFHH": 4
      },
      {
        "NCAHEHAHFLK": "FISH_STOCK_TYPE_NIGHT",
        "BFGJHPIAPOE": 2,
        "EKFMOEFJFHH": 4
      }
    ],
    "maxNum": 4,
    "poolNameTextMapHash": 548761561,
    "poolDescTextMapHash": 4035342509,
    "abilityGroup": "Avatar_Fishing",
    "teamAbilityGroup": "Avatar_Fishing_OnTeam",
    "dropIdList": [],
    "excludeFish": [],
    "cityId": 1
  },
  {
    "id": 1003,
    "stockList": [
      10031,
      10032
    ],
    "stockGuarantee": {},
    "stockLimitList": [
      {
        "NCAHEHAHFLK": "FISH_STOCK_TYPE_DAY",
        "BFGJHPIAPOE": 3,
        "EKFMOEFJFHH": 5
      },
      {
        "NCAHEHAHFLK": "FISH_STOCK_TYPE_NIGHT",
        "BFGJHPIAPOE": 3,
        "EKFMOEFJFHH": 5
      }
    ],
    "maxNum": 4,
    "poolNameTextMapHash": 2156735633,
    "poolDescTextMapHash": 1470615917,
    "abilityGroup": "Avatar_Fishing",
    "teamAbilityGroup": "Avatar_Fishing_OnTeam",
    "dropIdList": [],
    "excludeFish": [],
    "cityId": 1
  },
  {
    "id": 1004,
    "stockList": [
      10041,
      10042
    ],
    "stockGuarantee": {},
    "stockLimitList": [
      {
        "NCAHEHAHFLK": "FISH_STOCK_TYPE_DAY",
        "BFGJHPIAPOE": 2,
        "EKFMOEFJFHH": 4
      },
      {
        "NCAHEHAHFLK": "FISH_STOCK_TYPE_NIGHT",
        "BFGJHPIAPOE": 2,
        "EKFMOEFJFHH": 4
      }
    ],
    "maxNum": 4,
    "poolNameTextMapHash": 1791008929,
    "poolDescTextMapHash": 2158448837,
    "abilityGroup": "Avatar_Fishing",
    "teamAbilityGroup": "Avatar_Fishing_OnTeam",
    "dropIdList": [],
    "excludeFish": [],
    "cityId": 1
  },
  {
    "id": 1005,
    "stockList": [
      10051,
      10052
    ],
    "stockGuarantee": {},
    "stockLimitList": [
      {
        "NCAHEHAHFLK": "FISH_STOCK_TYPE_DAY",
        "BFGJHPIAPOE": 3,
        "EKFMOEFJFHH": 5
      },
      {
        "NCAHEHAHFLK": "FISH_STOCK_TYPE_NIGHT",
        "BFGJHPIAPOE": 3,
        "EKFMOEFJFHH": 5
      }
    ],
    "maxNum": 4,
    "poolNameTextMapHash": 95226361,
    "poolDescTextMapHash": 654311853,
    "abilityGroup": "Avatar_Fishing",
    "teamAbilityGroup": "Avatar_Fishing_OnTeam",
    "dropIdList": [],
    "excludeFish": [],
    "cityId": 1
  },
  {
    "id": 1006,
    "stockList": [
      10061,
      10062
    ],
    "stockGuarantee": {},
    "stockLimitList": [
      {
        "NCAHEHAHFLK": "FISH_STOCK_TYPE_DAY",
        "BFGJHPIAPOE": 4,
        "EKFMOEFJFHH": 6
      },
      {
        "NCAHEHAHFLK": "FISH_STOCK_TYPE_NIGHT",
        "BFGJHPIAPOE": 4,
        "EKFMOEFJFHH": 6
      }
    ],
    "maxNum": 5,
    "poolNameTextMapHash": 156828481,
    "poolDescTextMapHash": 2737805165,
    "abilityGroup": "Avatar_Fishing",
    "teamAbilityGroup": "Avatar_Fishing_OnTeam",
    "dropIdList": [],
    "excludeFish": [],
    "cityId": 1
  },
  {
    "id": 1007,
    "stockList": [
      10071,
      10072
    ],
    "stockGuarantee": {},
    "stockLimitList": [
      {
        "NCAHEHAHFLK": "FISH_STOCK_TYPE_DAY",
        "BFGJHPIAPOE": 2,
        "EKFMOEFJFHH": 4
      },
      {
        "NCAHEHAHFLK": "FISH_STOCK_TYPE_NIGHT",
        "BFGJHPIAPOE": 2,
        "EKFMOEFJFHH": 4
      }
    ],
    "maxNum": 4,
    "poolNameTextMapHash": 7749449,
    "poolDescTextMapHash": 1273677845,
    "abilityGroup": "Avatar_Fishing",
    "teamAbilityGroup": "Avatar_Fishing_OnTeam",
    "dropIdList": [],
    "excludeFish": [],
    "cityId": 1
  },
  {
    "id": 1008,
    "stockList": [
      10081,
      10082
    ],
    "stockGuarantee": {},
    "stockLimitList": [
      {
        "NCAHEHAHFLK": "FISH_STOCK_TYPE_DAY",
        "BFGJHPIAPOE": 4,
        "EKFMOEFJFHH": 6
      },
      {
        "NCAHEHAHFLK": "FISH_STOCK_TYPE_NIGHT",
        "BFGJHPIAPOE": 4,
        "EKFMOEFJFHH": 6
      }
    ],
    "maxNum": 5,
    "poolNameTextMapHash": 131863465,
    "poolDescTextMapHash": 3496049021,
    "abilityGroup": "Avatar_Fishing",
    "teamAbilityGroup": "Avatar_Fishing_OnTeam",
    "dropIdList": [],
    "excludeFish": [],
    "cityId": 1
  },
  {
    "id": 1009,
    "stockList": [
      10091,
      10092
    ],
    "stockGuarantee": {},
    "stockLimitList": [
      {
        "NCAHEHAHFLK": "FISH_STOCK_TYPE_DAY",
        "BFGJHPIAPOE": 4,
        "EKFMOEFJFHH": 6
      },
      {
        "NCAHEHAHFLK": "FISH_STOCK_TYPE_NIGHT",
        "BFGJHPIAPOE": 4,
        "EKFMOEFJFHH": 6
      }
    ],
    "maxNum": 5,
    "poolNameTextMapHash": 3162537337,
    "poolDescTextMapHash": 308243133,
    "abilityGroup": "Avatar_Fishing",
    "teamAbilityGroup": "Avatar_Fishing_OnTeam",
    "dropIdList": [],
    "excludeFish": []
  },
  {
    "id": 1010,
    "stockList": [
      10101,
      10102
    ],
    "stockGuarantee": {},
    "stockLimitList": [
      {
        "NCAHEHAHFLK": "FISH_STOCK_TYPE_DAY",
        "BFGJHPIAPOE": 3,
        "EKFMOEFJFHH": 5
      },
      {
        "NCAHEHAHFLK": "FISH_STOCK_TYPE_NIGHT",
        "BFGJHPIAPOE": 3,
        "EKFMOEFJFHH": 5
      }
    ],
    "maxNum": 4,
    "poolNameTextMapHash": 659369017,
    "poolDescTextMapHash": 4029599493,
    "abilityGroup": "Avatar_Fishing",
    "teamAbilityGroup": "Avatar_Fishing_OnTeam",
    "dropIdList": [],
    "excludeFish": []
  },
  {
    "id": 1011,
    "stockList": [
      10111,
      10112
    ],
    "stockGuarantee": {},
    "stockLimitList": [
      {
        "NCAHEHAHFLK": "FISH_STOCK_TYPE_DAY",
        "BFGJHPIAPOE": 4,
        "EKFMOEFJFHH": 6
      },
      {
        "NCAHEHAHFLK": "FISH_STOCK_TYPE_NIGHT",
        "BFGJHPIAPOE": 4,
        "EKFMOEFJFHH": 6
      }
    ],
    "maxNum": 5,
    "poolNameTextMapHash": 3404730449,
    "poolDescTextMapHash": 3768900685,
    "abilityGroup": "Avatar_Fishing",
    "teamAbilityGroup": "Avatar_Fishing_OnTeam",
    "dropIdList": [],
    "excludeFish": []
  },
  {
    "id": 1012,
    "stockList": [
      10121,
      10122
    ],
    "stockGuarantee": {},
    "stockLimitList": [
      {
        "NCAHEHAHFLK": "FISH_STOCK_TYPE_DAY",
        "BFGJHPIAPOE": 4,
        "EKFMOEFJFHH": 6
      },
      {
        "NCAHEHAHFLK": "FISH_STOCK_TYPE_NIGHT",
        "BFGJHPIAPOE": 4,
        "EKFMOEFJFHH": 6
      }
    ],
    "maxNum": 5,
    "poolNameTextMapHash": 3736410297,
    "poolDescTextMapHash": 71021637,
    "abilityGroup": "Avatar_Fishing",
    "teamAbilityGroup": "Avatar_Fishing_OnTeam",
    "dropIdList": [],
    "excludeFish": []
  },
  {
    "id": 1013,
    "stockList": [
      10131,
      10132
    ],
    "stockGuarantee": {},
    "stockLimitList": [
      {
        "NCAHEHAHFLK": "FISH_STOCK_TYPE_DAY",
        "BFGJHPIAPOE": 3,
        "EKFMOEFJFHH": 5
      },
      {
        "NCAHEHAHFLK": "FISH_STOCK_TYPE_NIGHT",
        "BFGJHPIAPOE": 3,
        "EKFMOEFJFHH": 5
      }
    ],
    "maxNum": 4,
    "poolNameTextMapHash": 1890588241,
    "poolDescTextMapHash": 2216747653,
    "abilityGroup": "Avatar_Fishing",
    "teamAbilityGroup": "Avatar_Fishing_OnTeam",
    "dropIdList": [],
    "excludeFish": []
  },
  {
    "id": 1014,
    "stockList": [
      10141,
      10142
    ],
    "stockGuarantee": {},
    "stockLimitList": [
      {
        "NCAHEHAHFLK": "FISH_STOCK_TYPE_DAY",
        "BFGJHPIAPOE": 3,
        "EKFMOEFJFHH": 5
      },
      {
        "NCAHEHAHFLK": "FISH_STOCK_TYPE_NIGHT",
        "BFGJHPIAPOE": 3,
        "EKFMOEFJFHH": 5
      }
    ],
    "maxNum": 4,
    "poolNameTextMapHash": 3395997169,
    "poolDescTextMapHash": 1711028413,
    "abilityGroup": "Avatar_Fishing",
    "teamAbilityGroup": "Avatar_Fishing_OnTeam",
    "dropIdList": [],
    "excludeFish": []
  },
  {
    "id": 2001,
    "stockList": [
      20011,
      20012
    ],
    "stockGuarantee": {},
    "stockLimitList": [
      {
        "NCAHEHAHFLK": "FISH_STOCK_TYPE_DAY",
        "BFGJHPIAPOE": 3,
        "EKFMOEFJFHH": 5
      },
      {
        "NCAHEHAHFLK": "FISH_STOCK_TYPE_NIGHT",
        "BFGJHPIAPOE": 3,
        "EKFMOEFJFHH": 5
      }
    ],
    "maxNum": 4,
    "poolNameTextMapHash": 1869212865,
    "poolDescTextMapHash": 914640269,
    "abilityGroup": "Avatar_Fishing",
    "teamAbilityGroup": "Avatar_Fishing_OnTeam",
    "dropIdList": [],
    "excludeFish": [],
    "cityId": 2
  },
  {
    "id": 2002,
    "stockList": [
      20021,
      20022
    ],
    "stockGuarantee": {},
    "stockLimitList": [
      {
        "NCAHEHAHFLK": "FISH_STOCK_TYPE_DAY",
        "BFGJHPIAPOE": 2,
        "EKFMOEFJFHH": 4
      },
      {
        "NCAHEHAHFLK": "FISH_STOCK_TYPE_NIGHT",
        "BFGJHPIAPOE": 2,
        "EKFMOEFJFHH": 4
      }
    ],
    "maxNum": 4,
    "poolNameTextMapHash": 3838674321,
    "poolDescTextMapHash": 3136502613,
    "abilityGroup": "Avatar_Fishing",
    "teamAbilityGroup": "Avatar_Fishing_OnTeam",
    "dropIdList": [],
    "excludeFish": [],
    "cityId": 2
  },
  {
    "id": 2003,
    "stockList": [
      20031,
      20032
    ],
    "stockGuarantee": {},
    "stockLimitList": [
      {
        "NCAHEHAHFLK": "FISH_STOCK_TYPE_DAY",
        "BFGJHPIAPOE": 2,
        "EKFMOEFJFHH": 4
      },
      {
        "NCAHEHAHFLK": "FISH_STOCK_TYPE_NIGHT",
        "BFGJHPIAPOE": 2,
        "EKFMOEFJFHH": 4
      }
    ],
    "maxNum": 4,
    "poolNameTextMapHash": 1318422081,
    "poolDescTextMapHash": 327664917,
    "abilityGroup": "Avatar_Fishing",
    "teamAbilityGroup": "Avatar_Fishing_OnTeam",
    "dropIdList": [],
    "excludeFish": [],
    "cityId": 2
  },
  {
    "id": 2004,
    "stockList": [
      20041,
      20042
    ],
    "stockGuarantee": {},
    "stockLimitList": [
      {
        "NCAHEHAHFLK": "FISH_STOCK_TYPE_DAY",
        "BFGJHPIAPOE": 3,
        "EKFMOEFJFHH": 5
      },
      {
        "NCAHEHAHFLK": "FISH_STOCK_TYPE_NIGHT",
        "BFGJHPIAPOE": 3,
        "EKFMOEFJFHH": 5
      }
    ],
    "maxNum": 4,
    "poolNameTextMapHash": 2743453081,
    "poolDescTextMapHash": 506905245,
    "abilityGroup": "Avatar_Fishing",
    "teamAbilityGroup": "Avatar_Fishing_OnTeam",
    "dropIdList": [],
    "excludeFish": [],
    "cityId": 2
  },
  {
    "id": 2005,
    "stockList": [
      20051,
      20052
    ],
    "stockGuarantee": {},
    "stockLimitList": [
      {
        "NCAHEHAHFLK": "FISH_STOCK_TYPE_DAY",
        "BFGJHPIAPOE": 4,
        "EKFMOEFJFHH": 6
      },
      {
        "NCAHEHAHFLK": "FISH_STOCK_TYPE_NIGHT",
        "BFGJHPIAPOE": 4,
        "EKFMOEFJFHH": 6
      }
    ],
    "maxNum": 5,
    "poolNameTextMapHash": 1412692689,
    "poolDescTextMapHash": 896004245,
    "abilityGroup": "Avatar_Fishing",
    "teamAbilityGroup": "Avatar_Fishing_OnTeam",
    "dropIdList": [],
    "excludeFish": [],
    "cityId": 2
  },
  {
    "id": 2006,
    "stockList": [
      20061,
      20062
    ],
    "stockGuarantee": {},
    "stockLimitList": [
      {
        "NCAHEHAHFLK": "FISH_STOCK_TYPE_DAY",
        "BFGJHPIAPOE": 3,
        "EKFMOEFJFHH": 5
      },
      {
        "NCAHEHAHFLK": "FISH_STOCK_TYPE_NIGHT",
        "BFGJHPIAPOE": 3,
        "EKFMOEFJFHH": 5
      }
    ],
    "maxNum": 4,
    "poolNameTextMapHash": 163403081,
    "poolDescTextMapHash": 967328013,
    "abilityGroup": "Avatar_Fishing",
    "teamAbilityGroup": "Avatar_Fishing_OnTeam",
    "dropIdList": [],
    "excludeFish": [],
    "cityId": 2
  },
  {
    "id": 2007,
    "stockList": [
      20071,
      20072
    ],
    "stockGuarantee": {},
    "stockLimitList": [
      {
        "NCAHEHAHFLK": "FISH_STOCK_TYPE_DAY",
        "BFGJHPIAPOE": 3,
        "EKFMOEFJFHH": 5
      },
      {
        "NCAHEHAHFLK": "FISH_STOCK_TYPE_NIGHT",
        "BFGJHPIAPOE": 3,
        "EKFMOEFJFHH": 5
      }
    ],
    "maxNum": 4,
    "poolNameTextMapHash": 1201958257,
    "poolDescTextMapHash": 3816562301,
    "abilityGroup": "Avatar_Fishing",
    "teamAbilityGroup": "Avatar_Fishing_OnTeam",
    "dropIdList": [],
    "excludeFish": [],
    "cityId": 2
  },
  {
    "id": 2008,
    "stockList": [
      20081,
      20082
    ],
    "stockGuarantee": {},
    "stockLimitList": [
      {
        "NCAHEHAHFLK": "FISH_STOCK_TYPE_DAY",
        "BFGJHPIAPOE": 4,
        "EKFMOEFJFHH": 6
      },
      {
        "NCAHEHAHFLK": "FISH_STOCK_TYPE_NIGHT",
        "BFGJHPIAPOE": 4,
        "EKFMOEFJFHH": 6
      }
    ],
    "maxNum": 5,
    "poolNameTextMapHash": 4122393009,
    "poolDescTextMapHash": 832440845,
    "abilityGroup": "Avatar_Fishing",
    "teamAbilityGroup": "Avatar_Fishing_OnTeam",
    "dropIdList": [],
    "excludeFish": [],
    "cityId": 2
  },
  {
    "id": 2009,
    "stockList": [
      20091,
      20092
    ],
    "stockGuarantee": {},
    "stockLimitList": [
      {
        "NCAHEHAHFLK": "FISH_STOCK_TYPE_DAY",
        "BFGJHPIAPOE": 4,
        "EKFMOEFJFHH": 6
      },
      {
        "NCAHEHAHFLK": "FISH_STOCK_TYPE_NIGHT",
        "BFGJHPIAPOE": 4,
        "EKFMOEFJFHH": 6
      }
    ],
    "maxNum": 5,
    "poolNameTextMapHash": 4269271857,
    "poolDescTextMapHash": 1475919381,
    "abilityGroup": "Avatar_Fishing",
    "teamAbilityGroup": "Avatar_Fishing_OnTeam",
    "dropIdList": [],
    "excludeFish": [],
    "cityId": 2
  },
  {
    "id": 2010,
    "stockList": [
      20101,
      20102
    ],
    "stockGuarantee": {},
    "stockLimitList": [
      {
        "NCAHEHAHFLK": "FISH_STOCK_TYPE_DAY",
        "BFGJHPIAPOE": 3,
        "EKFMOEFJFHH": 5
      },
      {
        "NCAHEHAHFLK": "FISH_STOCK_TYPE_NIGHT",
        "BFGJHPIAPOE": 3,
        "EKFMOEFJFHH": 5
      }
    ],
    "maxNum": 4,
    "poolNameTextMapHash": 3050169465,
    "poolDescTextMapHash": 442337109,
    "abilityGroup": "Avatar_Fishing",
    "teamAbilityGroup": "Avatar_Fishing_OnTeam",
    "dropIdList": [],
    "excludeFish": [],
    "cityId": 2
  },
  {
    "id": 2011,
    "stockList": [
      20111,
      20112
    ],
    "stockGuarantee": {},
    "stockLimitList": [
      {
        "NCAHEHAHFLK": "FISH_STOCK_TYPE_DAY",
        "BFGJHPIAPOE": 3,
        "EKFMOEFJFHH": 5
      },
      {
        "NCAHEHAHFLK": "FISH_STOCK_TYPE_NIGHT",
        "BFGJHPIAPOE": 3,
        "EKFMOEFJFHH": 5
      }
    ],
    "maxNum": 4,
    "poolNameTextMapHash": 1340056393,
    "poolDescTextMapHash": 2964893101,
    "abilityGroup": "Avatar_Fishing",
    "teamAbilityGroup": "Avatar_Fishing_OnTeam",
    "dropIdList": [],
    "excludeFish": [],
    "cityId": 2
  },
  {
    "id": 2012,
    "stockList": [
      20121,
      20122
    ],
    "stockGuarantee": {},
    "stockLimitList": [
      {
        "NCAHEHAHFLK": "FISH_STOCK_TYPE_DAY",
        "BFGJHPIAPOE": 2,
        "EKFMOEFJFHH": 4
      },
      {
        "NCAHEHAHFLK": "FISH_STOCK_TYPE_NIGHT",
        "BFGJHPIAPOE": 2,
        "EKFMOEFJFHH": 4
      }
    ],
    "maxNum": 4,
    "poolNameTextMapHash": 1264251329,
    "poolDescTextMapHash": 306648181,
    "abilityGroup": "Avatar_Fishing",
    "teamAbilityGroup": "Avatar_Fishing_OnTeam",
    "dropIdList": [],
    "excludeFish": [],
    "cityId": 2
  },
  {
    "id": 2013,
    "stockList": [
      20131,
      20132
    ],
    "stockGuarantee": {},
    "stockLimitList": [
      {
        "NCAHEHAHFLK": "FISH_STOCK_TYPE_DAY",
        "BFGJHPIAPOE": 2,
        "EKFMOEFJFHH": 4
      },
      {
        "NCAHEHAHFLK": "FISH_STOCK_TYPE_NIGHT",
        "BFGJHPIAPOE": 2,
        "EKFMOEFJFHH": 4
      }
    ],
    "maxNum": 4,
    "poolNameTextMapHash": 3982121001,
    "poolDescTextMapHash": 10416413,
    "abilityGroup": "Avatar_Fishing",
    "teamAbilityGroup": "Avatar_Fishing_OnTeam",
    "dropIdList": [],
    "excludeFish": [],
    "cityId": 2
  },
  {
    "id": 2014,
    "stockList": [
      20141,
      20142
    ],
    "stockGuarantee": {},
    "stockLimitList": [
      {
        "NCAHEHAHFLK": "FISH_STOCK_TYPE_DAY",
        "BFGJHPIAPOE": 4,
        "EKFMOEFJFHH": 6
      },
      {
        "NCAHEHAHFLK": "FISH_STOCK_TYPE_NIGHT",
        "BFGJHPIAPOE": 4,
        "EKFMOEFJFHH": 6
      }
    ],
    "maxNum": 5,
    "poolNameTextMapHash": 513196849,
    "poolDescTextMapHash": 2533882461,
    "abilityGroup": "Avatar_Fishing",
    "teamAbilityGroup": "Avatar_Fishing_OnTeam",
    "dropIdList": [],
    "excludeFish": [],
    "cityId": 2
  },
  {
    "id": 2015,
    "stockList": [
      20151,
      20152
    ],
    "stockGuarantee": {},
    "stockLimitList": [
      {
        "NCAHEHAHFLK": "FISH_STOCK_TYPE_DAY",
        "BFGJHPIAPOE": 4,
        "EKFMOEFJFHH": 6
      },
      {
        "NCAHEHAHFLK": "FISH_STOCK_TYPE_NIGHT",
        "BFGJHPIAPOE": 4,
        "EKFMOEFJFHH": 6
      }
    ],
    "maxNum": 5,
    "poolNameTextMapHash": 331987249,
    "poolDescTextMapHash": 2642887117,
    "abilityGroup": "Avatar_Fishing",
    "teamAbilityGroup": "Avatar_Fishing_OnTeam",
    "dropIdList": [],
    "excludeFish": [],
    "cityId": 2
  },
  {
    "id": 2016,
    "stockList": [
      20161,
      20162
    ],
    "stockGuarantee": {},
    "stockLimitList": [
      {
        "NCAHEHAHFLK": "FISH_STOCK_TYPE_DAY",
        "BFGJHPIAPOE": 3,
        "EKFMOEFJFHH": 5
      },
      {
        "NCAHEHAHFLK": "FISH_STOCK_TYPE_NIGHT",
        "BFGJHPIAPOE": 3,
        "EKFMOEFJFHH": 5
      }
    ],
    "maxNum": 4,
    "poolNameTextMapHash": 2595732137,
    "poolDescTextMapHash": 2409644221,
    "abilityGroup": "Avatar_Fishing",
    "teamAbilityGroup": "Avatar_Fishing_OnTeam",
    "dropIdList": [],
    "excludeFish": [],
    "cityId": 2
  },
  {
    "id": 3001,
    "stockList": [
      30012
    ],
    "stockGuarantee": {},
    "stockLimitList": [
      {
        "NCAHEHAHFLK": "FISH_STOCK_TYPE_NIGHT",
        "BFGJHPIAPOE": 3,
        "EKFMOEFJFHH": 5
      },
      {}
    ],
    "maxNum": 4,
    "poolNameTextMapHash": 1154005441,
    "poolDescTextMapHash": 523547405,
    "abilityGroup": "Avatar_Fishing",
    "teamAbilityGroup": "Avatar_Fishing_OnTeam",
    "dropIdList": [
      21700001
    ],
    "excludeFish": [],
    "cityId": 3
  },
  {
    "id": 3002,
    "stockList": [
      30021,
      30022
    ],
    "stockGuarantee": {},
    "stockLimitList": [
      {
        "NCAHEHAHFLK": "FISH_STOCK_TYPE_DAY",
        "BFGJHPIAPOE": 4,
        "EKFMOEFJFHH": 6
      },
      {
        "NCAHEHAHFLK": "FISH_STOCK_TYPE_NIGHT",
        "BFGJHPIAPOE": 4,
        "EKFMOEFJFHH": 6
      }
    ],
    "maxNum": 5,
    "poolNameTextMapHash": 322132817,
    "poolDescTextMapHash": 1344942381,
    "abilityGroup": "Avatar_Fishing",
    "teamAbilityGroup": "Avatar_Fishing_OnTeam",
    "dropIdList": [
      21700001
    ],
    "excludeFish": [],
    "cityId": 3
  },
  {
    "id": 3003,
    "stockList": [
      30031,
      30032
    ],
    "stockGuarantee": {},
    "stockLimitList": [
      {
        "NCAHEHAHFLK": "FISH_STOCK_TYPE_DAY",
        "BFGJHPIAPOE": 4,
        "EKFMOEFJFHH": 6
      },
      {
        "NCAHEHAHFLK": "FISH_STOCK_TYPE_NIGHT",
        "BFGJHPIAPOE": 4,
        "EKFMOEFJFHH": 6
      }
    ],
    "maxNum": 5,
    "poolNameTextMapHash": 3526211569,
    "poolDescTextMapHash": 3295462373,
    "abilityGroup": "Avatar_Fishing",
    "teamAbilityGroup": "Avatar_Fishing_OnTeam",
    "dropIdList": [
      21700001
    ],
    "excludeFish": [],
    "cityId": 3
  },
  {
    "id": 3004,
    "stockList": [
      30041,
      30042
    ],
    "stockGuarantee": {},
    "stockLimitList": [
      {
        "NCAHEHAHFLK": "FISH_STOCK_TYPE_DAY",
        "BFGJHPIAPOE": 2,
        "EKFMOEFJFHH": 4
      },
      {
        "NCAHEHAHFLK": "FISH_STOCK_TYPE_NIGHT",
        "BFGJHPIAPOE": 2,
        "EKFMOEFJFHH": 4
      }
    ],
    "maxNum": 4,
    "poolNameTextMapHash": 963741953,
    "poolDescTextMapHash": 88743837,
    "abilityGroup": "Avatar_Fishing",
    "teamAbilityGroup": "Avatar_Fishing_OnTeam",
    "dropIdList": [
      21700001
    ],
    "excludeFish": [],
    "cityId": 3
  },
  {
    "id": 3005,
    "stockList": [
      30051,
      30052
    ],
    "stockGuarantee": {},
    "stockLimitList": [
      {
        "NCAHEHAHFLK": "FISH_STOCK_TYPE_DAY",
        "BFGJHPIAPOE": 4,
        "EKFMOEFJFHH": 6
      },
      {
        "NCAHEHAHFLK": "FISH_STOCK_TYPE_NIGHT",
        "BFGJHPIAPOE": 4,
        "EKFMOEFJFHH": 6
      }
    ],
    "maxNum": 5,
    "poolNameTextMapHash": 2192079009,
    "poolDescTextMapHash": 3790378469,
    "abilityGroup": "Avatar_Fishing",
    "teamAbilityGroup": "Avatar_Fishing_OnTeam",
    "dropIdList": [
      21700001
    ],
    "excludeFish": [],
    "cityId": 3
  },
  {
    "id": 3006,
    "stockList": [
      30061,
      30062
    ],
    "stockGuarantee": {},
    "stockLimitList": [
      {
        "NCAHEHAHFLK": "FISH_STOCK_TYPE_DAY",
        "BFGJHPIAPOE": 3,
        "EKFMOEFJFHH": 5
      },
      {
        "NCAHEHAHFLK": "FISH_STOCK_TYPE_NIGHT",
        "BFGJHPIAPOE": 3,
        "EKFMOEFJFHH": 5
      }
    ],
    "maxNum": 4,
    "poolNameTextMapHash": 1159456737,
    "poolDescTextMapHash": 2176944277,
    "abilityGroup": "Avatar_Fishing",
    "teamAbilityGroup": "Avatar_Fishing_OnTeam",
    "dropIdList": [
      21700001
    ],
    "excludeFish": [],
    "cityId": 3
  },
  {
    "id": 3007,
    "stockList": [
      30071,
      30072
    ],
    "stockGuarantee": {},
    "stockLimitList": [
      {
        "NCAHEHAHFLK": "FISH_STOCK_TYPE_DAY",
        "BFGJHPIAPOE": 3,
        "EKFMOEFJFHH": 5
      },
      {
        "NCAHEHAHFLK": "FISH_STOCK_TYPE_NIGHT",
        "BFGJHPIAPOE": 3,
        "EKFMOEFJFHH": 5
      }
    ],
    "maxNum": 4,
    "poolNameTextMapHash": 3058843233,
    "poolDescTextMapHash": 3057860661,
    "abilityGroup": "Avatar_Fishing",
    "teamAbilityGroup": "Avatar_Fishing_OnTeam",
    "dropIdList": [
      21700001
    ],
    "excludeFish": [],
    "cityId": 3
  },
  {
    "id": 3008,
    "stockList": [
      30081,
      30082
    ],
    "stockGuarantee": {},
    "stockLimitList": [
      {
        "NCAHEHAHFLK": "FISH_STOCK_TYPE_DAY",
        "BFGJHPIAPOE": 3,
        "EKFMOEFJFHH": 5
      },
      {
        "NCAHEHAHFLK": "FISH_STOCK_TYPE_NIGHT",
        "BFGJHPIAPOE": 3,
        "EKFMOEFJFHH": 5
      }
    ],
    "maxNum": 4,
    "poolNameTextMapHash": 874742609,
    "poolDescTextMapHash": 749103717,
    "abilityGroup": "Avatar_Fishing",
    "teamAbilityGroup": "Avatar_Fishing_OnTeam",
    "dropIdList": [
      21700001
    ],
    "excludeFish": [],
    "cityId": 3
  },
  {
    "id": 3009,
    "stockList": [
      30091,
      30092
    ],
    "stockGuarantee": {},
    "stockLimitList": [
      {
        "NCAHEHAHFLK": "FISH_STOCK_TYPE_DAY",
        "BFGJHPIAPOE": 2,
        "EKFMOEFJFHH": 4
      },
      {
        "NCAHEHAHFLK": "FISH_STOCK_TYPE_NIGHT",
        "BFGJHPIAPOE": 2,
        "EKFMOEFJFHH": 4
      }
    ],
    "maxNum": 4,
    "poolNameTextMapHash": 3472034417,
    "poolDescTextMapHash": 2908311157,
    "abilityGroup": "Avatar_Fishing",
    "teamAbilityGroup": "Avatar_Fishing_OnTeam",
    "dropIdList": [
      21700001
    ],
    "excludeFish": [],
    "cityId": 3
  },
  {
    "id": 3010,
    "stockList": [
      30101,
      30102
    ],
    "stockGuarantee": {},
    "stockLimitList": [
      {
        "NCAHEHAHFLK": "FISH_STOCK_TYPE_DAY",
        "BFGJHPIAPOE": 2,
        "EKFMOEFJFHH": 4
      },
      {
        "NCAHEHAHFLK": "FISH_STOCK_TYPE_NIGHT",
        "BFGJHPIAPOE": 2,
        "EKFMOEFJFHH": 4
      }
    ],
    "maxNum": 4,
    "poolNameTextMapHash": 346207929,
    "poolDescTextMapHash": 2025834893,
    "abilityGroup": "Avatar_Fishing",
    "teamAbilityGroup": "Avatar_Fishing_OnTeam",
    "dropIdList": [
      21700001,
      21600010
    ],
    "excludeFish": [],
    "cityId": 3
  },
  {
    "id": 3011,
    "stockList": [
      30111,
      30112
    ],
    "stockGuarantee": {},
    "stockLimitList": [
      {
        "NCAHEHAHFLK": "FISH_STOCK_TYPE_DAY",
        "BFGJHPIAPOE": 4,
        "EKFMOEFJFHH": 6
      },
      {
        "NCAHEHAHFLK": "FISH_STOCK_TYPE_NIGHT",
        "BFGJHPIAPOE": 4,
        "EKFMOEFJFHH": 6
      }
    ],
    "maxNum": 5,
    "poolNameTextMapHash": 1123925777,
    "poolDescTextMapHash": 842763709,
    "abilityGroup": "Avatar_Fishing",
    "teamAbilityGroup": "Avatar_Fishing_OnTeam",
    "dropIdList": [
      21700001
    ],
    "excludeFish": [],
    "cityId": 3
  },
  {
    "id": 3012,
    "stockList": [
      30121,
      30122
    ],
    "stockGuarantee": {},
    "stockLimitList": [
      {
        "NCAHEHAHFLK": "FISH_STOCK_TYPE_DAY",
        "BFGJHPIAPOE": 3,
        "EKFMOEFJFHH": 5
      },
      {
        "NCAHEHAHFLK": "FISH_STOCK_TYPE_NIGHT",
        "BFGJHPIAPOE": 3,
        "EKFMOEFJFHH": 5
      }
    ],
    "maxNum": 4,
    "poolNameTextMapHash": 3118069457,
    "poolDescTextMapHash": 697653461,
    "abilityGroup": "Avatar_Fishing",
    "teamAbilityGroup": "Avatar_Fishing_OnTeam",
    "dropIdList": [
      21700001
    ],
    "excludeFish": [],
    "cityId": 3
  },
  {
    "id": 3013,
    "stockList": [
      30131,
      30132
    ],
    "stockGuarantee": {},
    "stockLimitList": [
      {
        "NCAHEHAHFLK": "FISH_STOCK_TYPE_DAY",
        "BFGJHPIAPOE": 2,
        "EKFMOEFJFHH": 4
      },
      {
        "NCAHEHAHFLK": "FISH_STOCK_TYPE_NIGHT",
        "BFGJHPIAPOE": 2,
        "EKFMOEFJFHH": 4
      }
    ],
    "maxNum": 4,
    "poolNameTextMapHash": 4226150345,
    "poolDescTextMapHash": 2649153981,
    "abilityGroup": "Avatar_Fishing",
    "teamAbilityGroup": "Avatar_Fishing_OnTeam",
    "dropIdList": [
      21700001
    ],
    "excludeFish": [],
    "cityId": 3
  },
  {
    "id": 3014,
    "stockList": [
      30141,
      30142
    ],
    "stockGuarantee": {},
    "stockLimitList": [
      {
        "NCAHEHAHFLK": "FISH_STOCK_TYPE_DAY",
        "BFGJHPIAPOE": 4,
        "EKFMOEFJFHH": 6
      },
      {
        "NCAHEHAHFLK": "FISH_STOCK_TYPE_NIGHT",
        "BFGJHPIAPOE": 4,
        "EKFMOEFJFHH": 6
      }
    ],
    "maxNum": 5,
    "poolNameTextMapHash": 3902738337,
    "poolDescTextMapHash": 866381309,
    "abilityGroup": "Avatar_Fishing",
    "teamAbilityGroup": "Avatar_Fishing_OnTeam",
    "dropIdList": [],
    "excludeFish": []
  },
  {
    "id": 3015,
    "stockList": [
      30151,
      30152
    ],
    "stockGuarantee": {},
    "stockLimitList": [
      {
        "NCAHEHAHFLK": "FISH_STOCK_TYPE_DAY",
        "BFGJHPIAPOE": 4,
        "EKFMOEFJFHH": 6
      },
      {
        "NCAHEHAHFLK": "FISH_STOCK_TYPE_NIGHT",
        "BFGJHPIAPOE": 4,
        "EKFMOEFJFHH": 6
      }
    ],
    "maxNum": 5,
    "poolNameTextMapHash": 3961550337,
    "poolDescTextMapHash": 3245334621,
    "abilityGroup": "Avatar_Fishing",
    "teamAbilityGroup": "Avatar_Fishing_OnTeam",
    "dropIdList": [],
    "excludeFish": []
  },
  {
    "id": 4001,
    "stockList": [
      40011,
      40012
    ],
    "stockGuarantee": {},
    "stockLimitList": [
      {
        "NCAHEHAHFLK": "FISH_STOCK_TYPE_DAY",
        "BFGJHPIAPOE": 4,
        "EKFMOEFJFHH": 5
      },
      {
        "NCAHEHAHFLK": "FISH_STOCK_TYPE_NIGHT",
        "BFGJHPIAPOE": 4,
        "EKFMOEFJFHH": 5
      }
    ],
    "maxNum": 4,
    "poolNameTextMapHash": 237707457,
    "poolDescTextMapHash": 1663944045,
    "abilityGroup": "Avatar_Fishing",
    "teamAbilityGroup": "Avatar_Fishing_OnTeam",
    "dropIdList": [],
    "excludeFish": [],
    "cityId": 4
  },
  {
    "id": 4002,
    "stockList": [
      40021,
      40022
    ],
    "stockGuarantee": {},
    "stockLimitList": [
      {
        "NCAHEHAHFLK": "FISH_STOCK_TYPE_DAY",
        "BFGJHPIAPOE": 5,
        "EKFMOEFJFHH": 6
      },
      {
        "NCAHEHAHFLK": "FISH_STOCK_TYPE_NIGHT",
        "BFGJHPIAPOE": 5,
        "EKFMOEFJFHH": 6
      }
    ],
    "maxNum": 4,
    "poolNameTextMapHash": 4159213633,
    "poolDescTextMapHash": 3509821485,
    "abilityGroup": "Avatar_Fishing",
    "teamAbilityGroup": "Avatar_Fishing_OnTeam",
    "dropIdList": [],
    "excludeFish": [],
    "cityId": 4
  },
  {
    "id": 4003,
    "stockList": [
      40031,
      40032
    ],
    "stockGuarantee": {},
    "stockLimitList": [
      {
        "NCAHEHAHFLK": "FISH_STOCK_TYPE_DAY",
        "BFGJHPIAPOE": 5,
        "EKFMOEFJFHH": 6
      },
      {
        "NCAHEHAHFLK": "FISH_STOCK_TYPE_NIGHT",
        "BFGJHPIAPOE": 5,
        "EKFMOEFJFHH": 6
      }
    ],
    "maxNum": 4,
    "poolNameTextMapHash": 3051841833,
    "poolDescTextMapHash": 1451768869,
    "abilityGroup": "Avatar_Fishing",
    "teamAbilityGroup": "Avatar_Fishing_OnTeam",
    "dropIdList": [],
    "excludeFish": [],
    "cityId": 4
  },
  {
    "id": 4004,
    "stockList": [
      40041,
      40042
    ],
    "stockGuarantee": {},
    "stockLimitList": [
      {
        "NCAHEHAHFLK": "FISH_STOCK_TYPE_DAY",
        "BFGJHPIAPOE": 6,
        "EKFMOEFJFHH": 7
      },
      {
        "NCAHEHAHFLK": "FISH_STOCK_TYPE_NIGHT",
        "BFGJHPIAPOE": 6,
        "EKFMOEFJFHH": 7
      }
    ],
    "maxNum": 5,
    "poolNameTextMapHash": 242048281,
    "poolDescTextMapHash": 2626298541,
    "abilityGroup": "Avatar_Fishing",
    "teamAbilityGroup": "Avatar_Fishing_OnTeam",
    "dropIdList": [],
    "excludeFish": [],
    "cityId": 4
  },
  {
    "id": 4005,
    "stockList": [
      40051,
      40052
    ],
    "stockGuarantee": {},
    "stockLimitList": [
      {
        "NCAHEHAHFLK": "FISH_STOCK_TYPE_DAY",
        "BFGJHPIAPOE": 4,
        "EKFMOEFJFHH": 5
      },
      {
        "NCAHEHAHFLK": "FISH_STOCK_TYPE_NIGHT",
        "BFGJHPIAPOE": 4,
        "EKFMOEFJFHH": 5
      }
    ],
    "maxNum": 4,
    "poolNameTextMapHash": 2674481193,
    "poolDescTextMapHash": 2555996869,
    "abilityGroup": "Avatar_Fishing",
    "teamAbilityGroup": "Avatar_Fishing_OnTeam",
    "dropIdList": [],
    "excludeFish": [],
    "cityId": 4
  },
  {
    "id": 4006,
    "stockList": [
      40061,
      40062
    ],
    "stockGuarantee": {},
    "stockLimitList": [
      {
        "NCAHEHAHFLK": "FISH_STOCK_TYPE_DAY",
        "BFGJHPIAPOE": 6,
        "EKFMOEFJFHH": 7
      },
      {
        "NCAHEHAHFLK": "FISH_STOCK_TYPE_NIGHT",
        "BFGJHPIAPOE": 6,
        "EKFMOEFJFHH": 7
      }
    ],
    "maxNum": 5,
    "poolNameTextMapHash": 2364689849,
    "poolDescTextMapHash": 3968743349,
    "abilityGroup": "Avatar_Fishing",
    "teamAbilityGroup": "Avatar_Fishing_OnTeam",
    "dropIdList": [],
    "excludeFish": [],
    "cityId": 4
  },
  {
    "id": 4007,
    "stockList": [
      40071,
      40072
    ],
    "stockGuarantee": {},
    "stockLimitList": [
      {
        "NCAHEHAHFLK": "FISH_STOCK_TYPE_DAY",
        "BFGJHPIAPOE": 5,
        "EKFMOEFJFHH": 6
      },
      {
        "NCAHEHAHFLK": "FISH_STOCK_TYPE_NIGHT",
        "BFGJHPIAPOE": 5,
        "EKFMOEFJFHH": 6
      }
    ],
    "maxNum": 4,
    "poolNameTextMapHash": 1527785241,
    "poolDescTextMapHash": 344373485,
    "abilityGroup": "Avatar_Fishing",
    "teamAbilityGroup": "Avatar_Fishing_OnTeam",
    "dropIdList": [],
    "excludeFish": [],
    "cityId": 4
  },
  {
    "id": 4008,
    "stockList": [
      40081,
      40082
    ],
    "stockGuarantee": {},
    "stockLimitList": [
      {
        "NCAHEHAHFLK": "FISH_STOCK_TYPE_DAY",
        "BFGJHPIAPOE": 6,
        "EKFMOEFJFHH": 7
      },
      {
        "NCAHEHAHFLK": "FISH_STOCK_TYPE_NIGHT",
        "BFGJHPIAPOE": 6,
        "EKFMOEFJFHH": 7
      }
    ],
    "maxNum": 5,
    "poolNameTextMapHash": 3092027577,
    "poolDescTextMapHash": 1383598669,
    "abilityGroup": "Avatar_Fishing",
    "teamAbilityGroup": "Avatar_Fishing_OnTeam",
    "dropIdList": [],
    "excludeFish": [],
    "cityId": 4
  },
  {
    "id": 4009,
    "stockList": [
      40091,
      40092
    ],
    "stockGuarantee": {},
    "stockLimitList": [
      {
        "NCAHEHAHFLK": "FISH_STOCK_TYPE_DAY",
        "BFGJHPIAPOE": 4,
        "EKFMOEFJFHH": 5
      },
      {
        "NCAHEHAHFLK": "FISH_STOCK_TYPE_NIGHT",
        "BFGJHPIAPOE": 4,
        "EKFMOEFJFHH": 5
      }
    ],
    "maxNum": 4,
    "poolNameTextMapHash": 4046216225,
    "poolDescTextMapHash": 1466013085,
    "abilityGroup": "Avatar_Fishing",
    "teamAbilityGroup": "Avatar_Fishing_OnTeam",
    "dropIdList": [],
    "excludeFish": [],
    "cityId": 4
  },
  {
    "id": 4010,
    "stockList": [
      40101,
      40102
    ],
    "stockGuarantee": {},
    "stockLimitList": [
      {
        "NCAHEHAHFLK": "FISH_STOCK_TYPE_DAY",
        "BFGJHPIAPOE": 4,
        "EKFMOEFJFHH": 5
      },
      {
        "NCAHEHAHFLK": "FISH_STOCK_TYPE_NIGHT",
        "BFGJHPIAPOE": 4,
        "EKFMOEFJFHH": 5
      }
    ],
    "maxNum": 4,
    "poolNameTextMapHash": 963293185,
    "poolDescTextMapHash": 3027517829,
    "abilityGroup": "Avatar_Fishing",
    "teamAbilityGroup": "Avatar_Fishing_OnTeam",
    "dropIdList": [],
    "excludeFish": [],
    "cityId": 4
  },
  {
    "id": 4011,
    "stockList": [
      40111,
      40112
    ],
    "stockGuarantee": {},
    "stockLimitList": [
      {
        "NCAHEHAHFLK": "FISH_STOCK_TYPE_DAY",
        "BFGJHPIAPOE": 5,
        "EKFMOEFJFHH": 6
      },
      {
        "NCAHEHAHFLK": "FISH_STOCK_TYPE_NIGHT",
        "BFGJHPIAPOE": 5,
        "EKFMOEFJFHH": 6
      }
    ],
    "maxNum": 4,
    "poolNameTextMapHash": 3064588129,
    "poolDescTextMapHash": 3421300101,
    "abilityGroup": "Avatar_Fishing",
    "teamAbilityGroup": "Avatar_Fishing_OnTeam",
    "dropIdList": [],
    "excludeFish": [],
    "cityId": 4
  },
  {
    "id": 4012,
    "stockList": [
      40121,
      40122
    ],
    "stockGuarantee": {},
    "stockLimitList": [
      {
        "NCAHEHAHFLK": "FISH_STOCK_TYPE_DAY",
        "BFGJHPIAPOE": 5,
        "EKFMOEFJFHH": 6
      },
      {
        "NCAHEHAHFLK": "FISH_STOCK_TYPE_NIGHT",
        "BFGJHPIAPOE": 5,
        "EKFMOEFJFHH": 6
      }
    ],
    "maxNum": 4,
    "poolNameTextMapHash": 3511669337,
    "poolDescTextMapHash": 3264688749,
    "abilityGroup": "Avatar_Fishing",
    "teamAbilityGroup": "Avatar_Fishing_OnTeam",
    "dropIdList": [],
    "excludeFish": [],
    "cityId": 4
  },
  {
    "id": 4013,
    "stockList": [
      40131,
      40132
    ],
    "stockGuarantee": {},
    "stockLimitList": [
      {
        "NCAHEHAHFLK": "FISH_STOCK_TYPE_DAY",
        "BFGJHPIAPOE": 4,
        "EKFMOEFJFHH": 5
      },
      {
        "NCAHEHAHFLK": "FISH_STOCK_TYPE_NIGHT",
        "BFGJHPIAPOE": 4,
        "EKFMOEFJFHH": 5
      }
    ],
    "maxNum": 4,
    "poolNameTextMapHash": 3689778841,
    "poolDescTextMapHash": 2800183053,
    "abilityGroup": "Avatar_Fishing",
    "teamAbilityGroup": "Avatar_Fishing_OnTeam",
    "dropIdList": [],
    "excludeFish": [],
    "cityId": 4
  },
  {
    "id": 5001,
    "stockList": [
      50011,
      50012
    ],
    "stockGuarantee": {},
    "stockLimitList": [
      {
        "NCAHEHAHFLK": "FISH_STOCK_TYPE_DAY",
        "BFGJHPIAPOE": 4,
        "EKFMOEFJFHH": 5
      },
      {
        "NCAHEHAHFLK": "FISH_STOCK_TYPE_NIGHT",
        "BFGJHPIAPOE": 4,
        "EKFMOEFJFHH": 5
      }
    ],
    "maxNum": 4,
    "poolNameTextMapHash": 3294631513,
    "poolDescTextMapHash": 1246963853,
    "abilityGroup": "Avatar_Fishing",
    "teamAbilityGroup": "Avatar_Fishing_OnTeam",
    "dropIdList": [],
    "excludeFish": [],
    "cityId": 5
  },
  {
    "id": 5002,
    "stockList": [
      50021,
      50022
    ],
    "stockGuarantee": {},
    "stockLimitList": [
      {
        "NCAHEHAHFLK": "FISH_STOCK_TYPE_DAY",
        "BFGJHPIAPOE": 6,
        "EKFMOEFJFHH": 7
      },
      {
        "NCAHEHAHFLK": "FISH_STOCK_TYPE_NIGHT",
        "BFGJHPIAPOE": 6,
        "EKFMOEFJFHH": 7
      }
    ],
    "maxNum": 5,
    "poolNameTextMapHash": 2551777161,
    "poolDescTextMapHash": 2750249373,
    "abilityGroup": "Avatar_Fishing",
    "teamAbilityGroup": "Avatar_Fishing_OnTeam",
    "dropIdList": [],
    "excludeFish": [],
    "cityId": 5
  },
  {
    "id": 5003,
    "stockList": [
      50031,
      50032
    ],
    "stockGuarantee": {},
    "stockLimitList": [
      {
        "NCAHEHAHFLK": "FISH_STOCK_TYPE_DAY",
        "BFGJHPIAPOE": 6,
        "EKFMOEFJFHH": 7
      },
      {
        "NCAHEHAHFLK": "FISH_STOCK_TYPE_NIGHT",
        "BFGJHPIAPOE": 6,
        "EKFMOEFJFHH": 7
      }
    ],
    "maxNum": 5,
    "poolNameTextMapHash": 968706585,
    "poolDescTextMapHash": 1168248461,
    "abilityGroup": "Avatar_Fishing",
    "teamAbilityGroup": "Avatar_Fishing_OnTeam",
    "dropIdList": [],
    "excludeFish": [],
    "cityId": 5
  },
  {
    "id": 5004,
    "stockList": [
      50041,
      50042
    ],
    "stockGuarantee": {},
    "stockLimitList": [
      {
        "NCAHEHAHFLK": "FISH_STOCK_TYPE_DAY",
        "BFGJHPIAPOE": 4,
        "EKFMOEFJFHH": 5
      },
      {
        "NCAHEHAHFLK": "FISH_STOCK_TYPE_NIGHT",
        "BFGJHPIAPOE": 4,
        "EKFMOEFJFHH": 5
      }
    ],
    "maxNum": 4,
    "poolNameTextMapHash": 967348329,
    "poolDescTextMapHash": 2276199373,
    "abilityGroup": "Avatar_Fishing",
    "teamAbilityGroup": "Avatar_Fishing_OnTeam",
    "dropIdList": [],
    "excludeFish": [],
    "cityId": 5
  },
  {
    "id": 5005,
    "stockList": [
      50051,
      50052
    ],
    "stockGuarantee": {},
    "stockLimitList": [
      {
        "NCAHEHAHFLK": "FISH_STOCK_TYPE_DAY",
        "BFGJHPIAPOE": 6,
        "EKFMOEFJFHH": 7
      },
      {
        "NCAHEHAHFLK": "FISH_STOCK_TYPE_NIGHT",
        "BFGJHPIAPOE": 6,
        "EKFMOEFJFHH": 7
      }
    ],
    "maxNum": 5,
    "poolNameTextMapHash": 201235497,
    "poolDescTextMapHash": 1695061773,
    "abilityGroup": "Avatar_Fishing",
    "teamAbilityGroup": "Avatar_Fishing_OnTeam",
    "dropIdList": [],
    "excludeFish": [],
    "cityId": 5
  },
  {
    "id": 5006,
    "stockList": [
      50061,
      50062
    ],
    "stockGuarantee": {},
    "stockLimitList": [
      {
        "NCAHEHAHFLK": "FISH_STOCK_TYPE_DAY",
        "BFGJHPIAPOE": 4,
        "EKFMOEFJFHH": 5
      },
      {
        "NCAHEHAHFLK": "FISH_STOCK_TYPE_NIGHT",
        "BFGJHPIAPOE": 4,
        "EKFMOEFJFHH": 5
      }
    ],
    "maxNum": 4,
    "poolNameTextMapHash": 3700018809,
    "poolDescTextMapHash": 2895214997,
    "abilityGroup": "Avatar_Fishing",
    "teamAbilityGroup": "Avatar_Fishing_OnTeam",
    "dropIdList": [],
    "excludeFish": [],
    "cityId": 5
  },
  {
    "id": 5007,
    "stockList": [
      50071,
      50072
    ],
    "stockGuarantee": {},
    "stockLimitList": [
      {
        "NCAHEHAHFLK": "FISH_STOCK_TYPE_DAY",
        "BFGJHPIAPOE": 6,
        "EKFMOEFJFHH": 7
      },
      {
        "NCAHEHAHFLK": "FISH_STOCK_TYPE_NIGHT",
        "BFGJHPIAPOE": 6,
        "EKFMOEFJFHH": 7
      }
    ],
    "maxNum": 5,
    "poolNameTextMapHash": 728454937,
    "poolDescTextMapHash": 4174156045,
    "abilityGroup": "Avatar_Fishing",
    "teamAbilityGroup": "Avatar_Fishing_OnTeam",
    "dropIdList": [],
    "excludeFish": [],
    "cityId": 5
  },
  {
    "id": 5008,
    "stockList": [
      50081,
      50082
    ],
    "stockGuarantee": {},
    "stockLimitList": [
      {
        "NCAHEHAHFLK": "FISH_STOCK_TYPE_DAY",
        "BFGJHPIAPOE": 6,
        "EKFMOEFJFHH": 7
      },
      {
        "NCAHEHAHFLK": "FISH_STOCK_TYPE_NIGHT",
        "BFGJHPIAPOE": 6,
        "EKFMOEFJFHH": 7
      }
    ],
    "maxNum": 5,
    "poolNameTextMapHash": 1631455497,
    "poolDescTextMapHash": 4115450669,
    "abilityGroup": "Avatar_Fishing",
    "teamAbilityGroup": "Avatar_Fishing_OnTeam",
    "dropIdList": [],
    "excludeFish": [],
    "cityId": 5
  },
  {
    "id": 5009,
    "stockList": [
      50091,
      50092
    ],
    "stockGuarantee": {},
    "stockLimitList": [
      {
        "NCAHEHAHFLK": "FISH_STOCK_TYPE_DAY",
        "BFGJHPIAPOE": 6,
        "EKFMOEFJFHH": 7
      },
      {
        "NCAHEHAHFLK": "FISH_STOCK_TYPE_NIGHT",
        "BFGJHPIAPOE": 6,
        "EKFMOEFJFHH": 7
      }
    ],
    "maxNum": 5,
    "poolNameTextMapHash": 3519195545,
    "poolDescTextMapHash": 1395074877,
    "abilityGroup": "Avatar_Fishing",
    "teamAbilityGroup": "Avatar_Fishing_OnTeam",
    "dropIdList": [],
    "excludeFish": [],
    "cityId": 5
  },
  {
    "id": 5010,
    "stockList": [
      50101,
      50102
    ],
    "stockGuarantee": {},
    "stockLimitList": [
      {
        "NCAHEHAHFLK": "FISH_STOCK_TYPE_DAY",
        "BFGJHPIAPOE": 6,
        "EKFMOEFJFHH": 7
      },
      {
        "NCAHEHAHFLK": "FISH_STOCK_TYPE_NIGHT",
        "BFGJHPIAPOE": 6,
        "EKFMOEFJFHH": 7
      }
    ],
    "maxNum": 5,
    "poolNameTextMapHash": 3163965153,
    "poolDescTextMapHash": 3653485293,
    "abilityGroup": "Avatar_Fishing",
    "teamAbilityGroup": "Avatar_Fishing_OnTeam",
    "dropIdList": [],
    "excludeFish": [],
    "cityId": 5
  },
  {
    "id": 5011,
    "stockList": [
      50111,
      50112
    ],
    "stockGuarantee": {},
    "stockLimitList": [
      {
        "NCAHEHAHFLK": "FISH_STOCK_TYPE_DAY",
        "BFGJHPIAPOE": 6,
        "EKFMOEFJFHH": 7
      },
      {
        "NCAHEHAHFLK": "FISH_STOCK_TYPE_NIGHT",
        "BFGJHPIAPOE": 6,
        "EKFMOEFJFHH": 7
      }
    ],
    "maxNum": 5,
    "poolNameTextMapHash": 1903340673,
    "poolDescTextMapHash": 4201973693,
    "abilityGroup": "Avatar_Fishing",
    "teamAbilityGroup": "Avatar_Fishing_OnTeam",
    "dropIdList": [],
    "excludeFish": [],
    "cityId": 5
  },
  {
    "id": 5012,
    "stockList": [
      50121,
      50122
    ],
    "stockGuarantee": {},
    "stockLimitList": [
      {
        "NCAHEHAHFLK": "FISH_STOCK_TYPE_DAY",
        "BFGJHPIAPOE": 6,
        "EKFMOEFJFHH": 7
      },
      {
        "NCAHEHAHFLK": "FISH_STOCK_TYPE_NIGHT",
        "BFGJHPIAPOE": 6,
        "EKFMOEFJFHH": 7
      }
    ],
    "maxNum": 5,
    "poolNameTextMapHash": 1319072137,
    "poolDescTextMapHash": 3984020709,
    "abilityGroup": "Avatar_Fishing",
    "teamAbilityGroup": "Avatar_Fishing_OnTeam",
    "dropIdList": [],
    "excludeFish": [],
    "cityId": 5
  },
  {
    "id": 5013,
    "stockList": [
      50131,
      50132
    ],
    "stockGuarantee": {},
    "stockLimitList": [
      {
        "NCAHEHAHFLK": "FISH_STOCK_TYPE_DAY",
        "BFGJHPIAPOE": 6,
        "EKFMOEFJFHH": 7
      },
      {
        "NCAHEHAHFLK": "FISH_STOCK_TYPE_NIGHT",
        "BFGJHPIAPOE": 6,
        "EKFMOEFJFHH": 7
      }
    ],
    "maxNum": 5,
    "poolNameTextMapHash": 3126576481,
    "poolDescTextMapHash": 2054226133,
    "abilityGroup": "Avatar_Fishing",
    "teamAbilityGroup": "Avatar_Fishing_OnTeam",
    "dropIdList": [],
    "excludeFish": [],
    "cityId": 5
  },
  {
    "id": 5014,
    "stockList": [
      50141,
      50142
    ],
    "stockGuarantee": {},
    "stockLimitList": [
      {
        "NCAHEHAHFLK": "FISH_STOCK_TYPE_DAY",
        "BFGJHPIAPOE": 3,
        "EKFMOEFJFHH": 4
      },
      {
        "NCAHEHAHFLK": "FISH_STOCK_TYPE_NIGHT",
        "BFGJHPIAPOE": 3,
        "EKFMOEFJFHH": 4
      }
    ],
    "maxNum": 4,
    "poolNameTextMapHash": 3980285505,
    "poolDescTextMapHash": 2702370349,
    "abilityGroup": "Avatar_Fishing",
    "teamAbilityGroup": "Avatar_Fishing_OnTeam",
    "dropIdList": [],
    "excludeFish": [],
    "cityId": 5
  },
  {
    "id": 5015,
    "stockList": [
      50151,
      50152
    ],
    "stockGuarantee": {},
    "stockLimitList": [
      {
        "NCAHEHAHFLK": "FISH_STOCK_TYPE_DAY",
        "BFGJHPIAPOE": 6,
        "EKFMOEFJFHH": 7
      },
      {
        "NCAHEHAHFLK": "FISH_STOCK_TYPE_NIGHT",
        "BFGJHPIAPOE": 6,
        "EKFMOEFJFHH": 7
      }
    ],
    "maxNum": 5,
    "poolNameTextMapHash": 3469355905,
    "poolDescTextMapHash": 642042381,
    "abilityGroup": "Avatar_Fishing",
    "teamAbilityGroup": "Avatar_Fishing_OnTeam",
    "dropIdList": [],
    "excludeFish": [],
    "cityId": 5
  },
  {
    "id": 6001,
    "stockList": [
      60011,
      60012
    ],
    "stockGuarantee": {},
    "stockLimitList": [
      {
        "NCAHEHAHFLK": "FISH_STOCK_TYPE_DAY",
        "BFGJHPIAPOE": 6,
        "EKFMOEFJFHH": 7
      },
      {
        "NCAHEHAHFLK": "FISH_STOCK_TYPE_NIGHT",
        "BFGJHPIAPOE": 6,
        "EKFMOEFJFHH": 7
      }
    ],
    "maxNum": 5,
    "poolNameTextMapHash": 2893513057,
    "poolDescTextMapHash": 3645552733,
    "abilityGroup": "Avatar_Fishing",
    "teamAbilityGroup": "Avatar_Fishing_OnTeam",
    "dropIdList": [],
    "excludeFish": [],
    "cityId": 6
  },
  {
    "id": 6002,
    "stockList": [
      60021,
      60022
    ],
    "stockGuarantee": {},
    "stockLimitList": [
      {
        "NCAHEHAHFLK": "FISH_STOCK_TYPE_DAY",
        "BFGJHPIAPOE": 6,
        "EKFMOEFJFHH": 7
      },
      {
        "NCAHEHAHFLK": "FISH_STOCK_TYPE_NIGHT",
        "BFGJHPIAPOE": 6,
        "EKFMOEFJFHH": 7
      }
    ],
    "maxNum": 5,
    "poolNameTextMapHash": 2971279953,
    "poolDescTextMapHash": 2358686845,
    "abilityGroup": "Avatar_Fishing",
    "teamAbilityGroup": "Avatar_Fishing_OnTeam",
    "dropIdList": [],
    "excludeFish": [],
    "cityId": 6
  },
  {
    "id": 6003,
    "stockList": [
      60031,
      60032
    ],
    "stockGuarantee": {},
    "stockLimitList": [
      {
        "NCAHEHAHFLK": "FISH_STOCK_TYPE_DAY",
        "BFGJHPIAPOE": 6,
        "EKFMOEFJFHH": 7
      },
      {
        "NCAHEHAHFLK": "FISH_STOCK_TYPE_NIGHT",
        "BFGJHPIAPOE": 6,
        "EKFMOEFJFHH": 7
      }
    ],
    "maxNum": 5,
    "poolNameTextMapHash": 2320350249,
    "poolDescTextMapHash": 3469053005,
    "abilityGroup": "Avatar_Fishing",
    "teamAbilityGroup": "Avatar_Fishing_OnTeam",
    "dropIdList": [],
    "excludeFish": [],
    "cityId": 6
  },
  {
    "id": 6004,
    "stockList": [
      60041,
      60042
    ],
    "stockGuarantee": {},
    "stockLimitList": [
      {
        "NCAHEHAHFLK": "FISH_STOCK_TYPE_DAY",
        "BFGJHPIAPOE": 6,
        "EKFMOEFJFHH": 7
      },
      {
        "NCAHEHAHFLK": "FISH_STOCK_TYPE_NIGHT",
        "BFGJHPIAPOE": 6,
        "EKFMOEFJFHH": 7
      }
    ],
    "maxNum": 5,
    "poolNameTextMapHash": 3095241961,
    "poolDescTextMapHash": 415110869,
    "abilityGroup": "Avatar_Fishing",
    "teamAbilityGroup": "Avatar_Fishing_OnTeam",
    "dropIdList": [],
    "excludeFish": [],
    "cityId": 6
  },
  {
    "id": 6005,
    "stockList": [
      60051,
      60052
    ],
    "stockGuarantee": {},
    "stockLimitList": [
      {
        "NCAHEHAHFLK": "FISH_STOCK_TYPE_DAY",
        "BFGJHPIAPOE": 6,
        "EKFMOEFJFHH": 7
      },
      {
        "NCAHEHAHFLK": "FISH_STOCK_TYPE_NIGHT",
        "BFGJHPIAPOE": 6,
        "EKFMOEFJFHH": 7
      }
    ],
    "maxNum": 5,
    "poolNameTextMapHash": 2942501641,
    "poolDescTextMapHash": 2954440909,
    "abilityGroup": "Avatar_Fishing",
    "teamAbilityGroup": "Avatar_Fishing_OnTeam",
    "dropIdList": [],
    "excludeFish": [],
    "cityId": 6
  },
  {
    "id": 6006,
    "stockList": [
      60061,
      60062
    ],
    "stockGuarantee": {},
    "stockLimitList": [
      {
        "NCAHEHAHFLK": "FISH_STOCK_TYPE_DAY",
        "BFGJHPIAPOE": 6,
        "EKFMOEFJFHH": 7
      },
      {
        "NCAHEHAHFLK": "FISH_STOCK_TYPE_NIGHT",
        "BFGJHPIAPOE": 6,
        "EKFMOEFJFHH": 7
      }
    ],
    "maxNum": 5,
    "poolNameTextMapHash": 3906645305,
    "poolDescTextMapHash": 1571577797,
    "abilityGroup": "Avatar_Fishing",
    "teamAbilityGroup": "Avatar_Fishing_OnTeam",
    "dropIdList": [],
    "excludeFish": [],
    "cityId": 6
  },
  {
    "id": 6007,
    "stockList": [
      60071,
      60072
    ],
    "stockGuarantee": {},
    "stockLimitList": [
      {
        "NCAHEHAHFLK": "FISH_STOCK_TYPE_DAY",
        "BFGJHPIAPOE": 6,
        "EKFMOEFJFHH": 7
      },
      {
        "NCAHEHAHFLK": "FISH_STOCK_TYPE_NIGHT",
        "BFGJHPIAPOE": 6,
        "EKFMOEFJFHH": 7
      }
    ],
    "maxNum": 5,
    "poolNameTextMapHash": 2833088001,
    "poolDescTextMapHash": 489524989,
    "abilityGroup": "Avatar_Fishing",
    "teamAbilityGroup": "Avatar_Fishing_OnTeam",
    "dropIdList": [],
    "excludeFish": [],
    "cityId": 6
  },
  {
    "id": 6008,
    "stockList": [
      60081,
      60082
    ],
    "stockGuarantee": {},
    "stockLimitList": [
      {
        "NCAHEHAHFLK": "FISH_STOCK_TYPE_DAY",
        "BFGJHPIAPOE": 6,
        "EKFMOEFJFHH": 7
      },
      {
        "NCAHEHAHFLK": "FISH_STOCK_TYPE_NIGHT",
        "BFGJHPIAPOE": 6,
        "EKFMOEFJFHH": 7
      }
    ],
    "maxNum": 5,
    "poolNameTextMapHash": 3035749753,
    "poolDescTextMapHash": 2388587869,
    "abilityGroup": "Avatar_Fishing",
    "teamAbilityGroup": "Avatar_Fishing_OnTeam",
    "dropIdList": [],
    "excludeFish": [],
    "cityId": 6
  },
  {
    "id": 6009,
    "stockList": [
      60091,
      60092
    ],
    "stockGuarantee": {},
    "stockLimitList": [
      {
        "NCAHEHAHFLK": "FISH_STOCK_TYPE_DAY",
        "BFGJHPIAPOE": 6,
        "EKFMOEFJFHH": 7
      },
      {
        "NCAHEHAHFLK": "FISH_STOCK_TYPE_NIGHT",
        "BFGJHPIAPOE": 6,
        "EKFMOEFJFHH": 7
      }
    ],
    "maxNum": 5,
    "poolNameTextMapHash": 1834224337,
    "poolDescTextMapHash": 4073655397,
    "abilityGroup": "Avatar_Fishing",
    "teamAbilityGroup": "Avatar_Fishing_OnTeam",
    "dropIdList": [],
    "excludeFish": [],
    "cityId": 6
  },
  {
    "id": 6010,
    "stockList": [
      60101,
      60102
    ],
    "stockGuarantee": {},
    "stockLimitList": [
      {
        "NCAHEHAHFLK": "FISH_STOCK_TYPE_DAY",
        "BFGJHPIAPOE": 6,
        "EKFMOEFJFHH": 7
      },
      {
        "NCAHEHAHFLK": "FISH_STOCK_TYPE_NIGHT",
        "BFGJHPIAPOE": 6,
        "EKFMOEFJFHH": 7
      }
    ],
    "maxNum": 5,
    "poolNameTextMapHash": 2494578697,
    "poolDescTextMapHash": 854581205,
    "abilityGroup": "Avatar_Fishing",
    "teamAbilityGroup": "Avatar_Fishing_OnTeam",
    "dropIdList": [],
    "excludeFish": [],
    "cityId": 6
  },
  {
    "id": 6011,
    "stockList": [
      60111,
      60112
    ],
    "stockGuarantee": {},
    "stockLimitList": [
      {
        "NCAHEHAHFLK": "FISH_STOCK_TYPE_DAY",
        "BFGJHPIAPOE": 6,
        "EKFMOEFJFHH": 7
      },
      {
        "NCAHEHAHFLK": "FISH_STOCK_TYPE_NIGHT",
        "BFGJHPIAPOE": 6,
        "EKFMOEFJFHH": 7
      }
    ],
    "maxNum": 5,
    "poolNameTextMapHash": 1677760609,
    "poolDescTextMapHash": 2985421029,
    "abilityGroup": "Avatar_Fishing",
    "teamAbilityGroup": "Avatar_Fishing_OnTeam",
    "dropIdList": [],
    "excludeFish": [],
    "cityId": 6
  },
  {
    "id": 1,
    "stockList": [
      11
    ],
    "stockGuarantee": {
      "13": 3
    },
    "stockLimitList": [
      {
        "NCAHEHAHFLK": "FISH_STOCK_TYPE_ANY"
      },
      {}
    ],
    "maxNum": 6,
    "poolNameTextMapHash": 3025072729,
    "poolDescTextMapHash": 1697518909,
    "abilityGroup": "Avatar_Fishing",
    "teamAbilityGroup": "Avatar_Fishing_OnTeam",
    "dropIdList": [],
    "excludeFish": []
  },
  {
    "id": 2,
    "stockList": [
      21
    ],
    "stockGuarantee": {
      "23": 3
    },
    "stockLimitList": [
      {
        "NCAHEHAHFLK": "FISH_STOCK_TYPE_ANY"
      },
      {}
    ],
    "maxNum": 6,
    "poolNameTextMapHash": 492932553,
    "poolDescTextMapHash": 2888547813,
    "abilityGroup": "Avatar_Fishing",
    "teamAbilityGroup": "Avatar_Fishing_OnTeam",
    "dropIdList": [],
    "excludeFish": []
  },
  {
    "id": 3,
    "stockList": [
      31
    ],
    "stockGuarantee": {
      "33": 3
    },
    "stockLimitList": [
      {
        "NCAHEHAHFLK": "FISH_STOCK_TYPE_ANY"
      },
      {}
    ],
    "maxNum": 6,
    "poolNameTextMapHash": 1702542081,
    "poolDescTextMapHash": 3666778269,
    "abilityGroup": "Avatar_Fishing",
    "teamAbilityGroup": "Avatar_Fishing_OnTeam",
    "dropIdList": [],
    "excludeFish": []
  },
  {
    "id": 4,
    "stockList": [
      41
    ],
    "stockGuarantee": {
      "43": 3
    },
    "stockLimitList": [
      {
        "NCAHEHAHFLK": "FISH_STOCK_TYPE_ANY"
      },
      {}
    ],
    "maxNum": 6,
    "poolNameTextMapHash": 3231902873,
    "poolDescTextMapHash": 4190832629,
    "abilityGroup": "Avatar_Fishing",
    "teamAbilityGroup": "Avatar_Fishing_OnTeam",
    "dropIdList": [],
    "excludeFish": []
  },
  {
    "id": 5,
    "stockList": [
      51
    ],
    "stockGuarantee": {
      "53": 3
    },
    "stockLimitList": [
      {
        "NCAHEHAHFLK": "FISH_STOCK_TYPE_ANY"
      },
      {}
    ],
    "maxNum": 6,
    "poolNameTextMapHash": 1748476313,
    "poolDescTextMapHash": 2406756085,
    "abilityGroup": "Avatar_Fishing",
    "teamAbilityGroup": "Avatar_Fishing_OnTeam",
    "dropIdList": [],
    "excludeFish": []
  },
  {
    "id": 6,
    "stockList": [
      61
    ],
    "stockGuarantee": {
      "63": 3
    },
    "stockLimitList": [
      {
        "NCAHEHAHFLK": "FISH_STOCK_TYPE_ANY"
      },
      {}
    ],
    "maxNum": 6,
    "poolNameTextMapHash": 3850628425,
    "poolDescTextMapHash": 1953183357,
    "abilityGroup": "Avatar_Fishing",
    "teamAbilityGroup": "Avatar_Fishing_OnTeam",
    "dropIdList": [],
    "excludeFish": []
  },
  {
    "id": 7,
    "stockList": [
      71
    ],
    "stockGuarantee": {
      "73": 3
    },
    "stockLimitList": [
      {
        "NCAHEHAHFLK": "FISH_STOCK_TYPE_ANY"
      },
      {}
    ],
    "maxNum": 6,
    "poolNameTextMapHash": 2293075809,
    "poolDescTextMapHash": 3539485253,
    "abilityGroup": "Avatar_Fishing",
    "teamAbilityGroup": "Avatar_Fishing_OnTeam",
    "dropIdList": [],
    "excludeFish": []
  },
  {
    "id": 8,
    "stockList": [
      81
    ],
    "stockGuarantee": {
      "83": 3
    },
    "stockLimitList": [
      {
        "NCAHEHAHFLK": "FISH_STOCK_TYPE_ANY"
      },
      {}
    ],
    "maxNum": 6,
    "poolNameTextMapHash": 2279685673,
    "poolDescTextMapHash": 1811847925,
    "abilityGroup": "Avatar_Fishing",
    "teamAbilityGroup": "Avatar_Fishing_OnTeam",
    "dropIdList": [],
    "excludeFish": []
  },
  {
    "id": 9,
    "stockList": [
      91
    ],
    "stockGuarantee": {
      "93": 3
    },
    "stockLimitList": [
      {
        "NCAHEHAHFLK": "FISH_STOCK_TYPE_ANY"
      },
      {}
    ],
    "maxNum": 6,
    "poolNameTextMapHash": 1616572289,
    "poolDescTextMapHash": 4002467285,
    "abilityGroup": "Avatar_Fishing",
    "teamAbilityGroup": "Avatar_Fishing_OnTeam",
    "dropIdList": [],
    "excludeFish": []
  },
  {
    "id": 10,
    "stockList": [
      101
    ],
    "stockGuarantee": {
      "103": 3
    },
    "stockLimitList": [
      {
        "NCAHEHAHFLK": "FISH_STOCK_TYPE_ANY"
      },
      {}
    ],
    "maxNum": 6,
    "poolNameTextMapHash": 3988151961,
    "poolDescTextMapHash": 214058269,
    "abilityGroup": "Avatar_Fishing",
    "teamAbilityGroup": "Avatar_Fishing_OnTeam",
    "dropIdList": [],
    "excludeFish": []
  },
  {
    "id": 11,
    "stockList": [
      111
    ],
    "stockGuarantee": {
      "113": 3
    },
    "stockLimitList": [
      {
        "NCAHEHAHFLK": "FISH_STOCK_TYPE_ANY"
      },
      {}
    ],
    "maxNum": 6,
    "poolNameTextMapHash": 423063097,
    "poolDescTextMapHash": 1271163341,
    "abilityGroup": "Avatar_Fishing",
    "teamAbilityGroup": "Avatar_Fishing_OnTeam",
    "dropIdList": [],
    "excludeFish": []
  },
  {
    "id": 12,
    "stockList": [
      121
    ],
    "stockGuarantee": {
      "123": 3
    },
    "stockLimitList": [
      {
        "NCAHEHAHFLK": "FISH_STOCK_TYPE_ANY"
      },
      {}
    ],
    "maxNum": 6,
    "poolNameTextMapHash": 2929561369,
    "poolDescTextMapHash": 654688925,
    "abilityGroup": "Avatar_Fishing",
    "teamAbilityGroup": "Avatar_Fishing_OnTeam",
    "dropIdList": [],
    "excludeFish": []
  },
  {
    "id": 13,
    "stockList": [
      131
    ],
    "stockGuarantee": {
      "133": 3
    },
    "stockLimitList": [
      {
        "NCAHEHAHFLK": "FISH_STOCK_TYPE_ANY"
      },
      {}
    ],
    "maxNum": 6,
    "poolNameTextMapHash": 205973905,
    "poolDescTextMapHash": 2683502653,
    "abilityGroup": "Avatar_Fishing",
    "teamAbilityGroup": "Avatar_Fishing_OnTeam",
    "dropIdList": [],
    "excludeFish": []
  },
  {
    "id": 14,
    "stockList": [
      141
    ],
    "stockGuarantee": {
      "143": 3
    },
    "stockLimitList": [
      {
        "NCAHEHAHFLK": "FISH_STOCK_TYPE_ANY"
      },
      {}
    ],
    "maxNum": 6,
    "poolNameTextMapHash": 3265812385,
    "poolDescTextMapHash": 3078107437,
    "abilityGroup": "Avatar_Fishing",
    "teamAbilityGroup": "Avatar_Fishing_OnTeam",
    "dropIdList": [],
    "excludeFish": []
  },
  {
    "id": 15,
    "stockList": [
      151
    ],
    "stockGuarantee": {
      "153": 3
    },
    "stockLimitList": [
      {
        "NCAHEHAHFLK": "FISH_STOCK_TYPE_ANY"
      },
      {}
    ],
    "maxNum": 6,
    "poolNameTextMapHash": 1843533801,
    "poolDescTextMapHash": 3924943253,
    "abilityGroup": "Avatar_Fishing",
    "teamAbilityGroup": "Avatar_Fishing_OnTeam",
    "dropIdList": [],
    "excludeFish": []
  },
  {
    "id": 16,
    "stockList": [
      161
    ],
    "stockGuarantee": {
      "163": 3
    },
    "stockLimitList": [
      {
        "NCAHEHAHFLK": "FISH_STOCK_TYPE_ANY"
      },
      {}
    ],
    "maxNum": 6,
    "poolNameTextMapHash": 3116108577,
    "poolDescTextMapHash": 1566125837,
    "abilityGroup": "Avatar_Fishing",
    "teamAbilityGroup": "Avatar_Fishing_OnTeam",
    "dropIdList": [],
    "excludeFish": []
  },
  {
    "id": 17,
    "stockList": [
      171
    ],
    "stockGuarantee": {
      "173": 3
    },
    "stockLimitList": [
      {
        "NCAHEHAHFLK": "FISH_STOCK_TYPE_ANY"
      },
      {}
    ],
    "maxNum": 6,
    "poolNameTextMapHash": 1686299441,
    "poolDescTextMapHash": 191181,
    "abilityGroup": "Avatar_Fishing",
    "teamAbilityGroup": "Avatar_Fishing_OnTeam",
    "dropIdList": [],
    "excludeFish": []
  },
  {
    "id": 18,
    "stockList": [
      181
    ],
    "stockGuarantee": {
      "183": 3
    },
    "stockLimitList": [
      {
        "NCAHEHAHFLK": "FISH_STOCK_TYPE_ANY"
      },
      {}
    ],
    "maxNum": 6,
    "poolNameTextMapHash": 2659129041,
    "poolDescTextMapHash": 3988621621,
    "abilityGroup": "Avatar_Fishing",
    "teamAbilityGroup": "Avatar_Fishing_OnTeam",
    "dropIdList": [],
    "excludeFish": []
  },
  {
    "id": 19,
    "stockList": [
      193
    ],
    "stockGuarantee": {
      "193": 3
    },
    "stockLimitList": [
      {
        "NCAHEHAHFLK": "FISH_STOCK_TYPE_ANY"
      },
      {}
    ],
    "maxNum": 6,
    "poolNameTextMapHash": 3537131825,
    "poolDescTextMapHash": 1604998773,
    "abilityGroup": "Avatar_Fishing",
    "teamAbilityGroup": "Avatar_Fishing_OnTeam",
    "dropIdList": [],
    "excludeFish": []
  },
  {
    "id": 20,
    "stockList": [
      201
    ],
    "stockGuarantee": {
      "203": 3
    },
    "stockLimitList": [
      {
        "NCAHEHAHFLK": "FISH_STOCK_TYPE_ANY"
      },
      {}
    ],
    "maxNum": 6,
    "poolNameTextMapHash": 1972719585,
    "poolDescTextMapHash": 1421847373,
    "abilityGroup": "Avatar_Fishing",
    "teamAbilityGroup": "Avatar_Fishing_OnTeam",
    "dropIdList": [],
    "excludeFish": []
  },
  {
    "id": 21,
    "stockList": [
      211
    ],
    "stockGuarantee": {
      "213": 3
    },
    "stockLimitList": [
      {
        "NCAHEHAHFLK": "FISH_STOCK_TYPE_ANY"
      },
      {}
    ],
    "maxNum": 6,
    "poolNameTextMapHash": 2906039777,
    "poolDescTextMapHash": 1904117837,
    "abilityGroup": "Avatar_Fishing",
    "teamAbilityGroup": "Avatar_Fishing_OnTeam",
    "dropIdList": [],
    "excludeFish": []
  },
  {
    "id": 22,
    "stockList": [
      221
    ],
    "stockGuarantee": {
      "223": 3
    },
    "stockLimitList": [
      {
        "NCAHEHAHFLK": "FISH_STOCK_TYPE_ANY"
      },
      {}
    ],
    "maxNum": 6,
    "poolNameTextMapHash": 67751833,
    "poolDescTextMapHash": 2877513157,
    "abilityGroup": "Avatar_Fishing",
    "teamAbilityGroup": "Avatar_Fishing_OnTeam",
    "dropIdList": [],
    "excludeFish": []
  },
  {
    "id": 23,
    "stockList": [
      231
    ],
    "stockGuarantee": {
      "233": 3
    },
    "stockLimitList": [
      {
        "NCAHEHAHFLK": "FISH_STOCK_TYPE_ANY"
      },
      {}
    ],
    "maxNum": 6,
    "poolNameTextMapHash": 1533539305,
    "poolDescTextMapHash": 1002944573,
    "abilityGroup": "Avatar_Fishing",
    "teamAbilityGroup": "Avatar_Fishing_OnTeam",
    "dropIdList": [],
    "excludeFish": []
  },
  {
    "id": 24,
    "stockList": [
      241
    ],
    "stockGuarantee": {
      "243": 3
    },
    "stockLimitList": [
      {
        "NCAHEHAHFLK": "FISH_STOCK_TYPE_ANY"
      },
      {}
    ],
    "maxNum": 6,
    "poolNameTextMapHash": 3686189177,
    "poolDescTextMapHash": 2144518109,
    "abilityGroup": "Avatar_Fishing",
    "teamAbilityGroup": "Avatar_Fishing_OnTeam",
    "dropIdList": [],
    "excludeFish": []
  },
  {
    "id": 25,
    "stockList": [
      251
    ],
    "stockGuarantee": {
      "253": 3
    },
    "stockLimitList": [
      {
        "NCAHEHAHFLK": "FISH_STOCK_TYPE_ANY"
      },
      {}
    ],
    "maxNum": 6,
    "poolNameTextMapHash": 538160985,
    "poolDescTextMapHash": 2992475717,
    "abilityGroup": "Avatar_Fishing",
    "teamAbilityGroup": "Avatar_Fishing_OnTeam",
    "dropIdList": [],
    "excludeFish": []
  },
  {
    "id": 26,
    "stockList": [
      261
    ],
    "stockGuarantee": {
      "263": 3
    },
    "stockLimitList": [
      {
        "NCAHEHAHFLK": "FISH_STOCK_TYPE_ANY"
      },
      {}
    ],
    "maxNum": 6,
    "poolNameTextMapHash": 730204881,
    "poolDescTextMapHash": 1749621909,
    "abilityGroup": "Avatar_Fishing",
    "teamAbilityGroup": "Avatar_Fishing_OnTeam",
    "dropIdList": [],
    "excludeFish": []
  },
  {
    "id": 27,
    "stockList": [
      271
    ],
    "stockGuarantee": {
      "273": 3
    },
    "stockLimitList": [
      {
        "NCAHEHAHFLK": "FISH_STOCK_TYPE_ANY"
      },
      {}
    ],
    "maxNum": 6,
    "poolNameTextMapHash": 1462548337,
    "poolDescTextMapHash": 2062519005,
    "abilityGroup": "Avatar_Fishing",
    "teamAbilityGroup": "Avatar_Fishing_OnTeam",
    "dropIdList": [],
    "excludeFish": []
  },
  {
    "id": 28,
    "stockList": [
      281
    ],
    "stockGuarantee": {
      "283": 3
    },
    "stockLimitList": [
      {
        "NCAHEHAHFLK": "FISH_STOCK_TYPE_ANY"
      },
      {}
    ],
    "maxNum": 6,
    "poolNameTextMapHash": 1013994937,
    "poolDescTextMapHash": 2318774309,
    "abilityGroup": "Avatar_Fishing",
    "teamAbilityGroup": "Avatar_Fishing_OnTeam",
    "dropIdList": [],
    "excludeFish": []
  },
  {
    "id": 29,
    "stockList": [
      291
    ],
    "stockGuarantee": {
      "293": 3
    },
    "stockLimitList": [
      {
        "NCAHEHAHFLK": "FISH_STOCK_TYPE_ANY"
      },
      {}
    ],
    "maxNum": 6,
    "poolNameTextMapHash": 973982513,
    "poolDescTextMapHash": 1255694645,
    "abilityGroup": "Avatar_Fishing",
    "teamAbilityGroup": "Avatar_Fishing_OnTeam",
    "dropIdList": [],
    "excludeFish": []
  },
  {
    "id": 30,
    "stockList": [
      301
    ],
    "stockGuarantee": {
      "303": 3
    },
    "stockLimitList": [
      {
        "NCAHEHAHFLK": "FISH_STOCK_TYPE_ANY"
      },
      {}
    ],
    "maxNum": 6,
    "poolNameTextMapHash": 3300969409,
    "poolDescTextMapHash": 3740570461,
    "abilityGroup": "Avatar_Fishing",
    "teamAbilityGroup": "Avatar_Fishing_OnTeam",
    "dropIdList": [],
    "excludeFish": []
  },
  {
    "id": 31,
    "stockList": [
      311
    ],
    "stockGuarantee": {
      "313": 3
    },
    "stockLimitList": [
      {
        "NCAHEHAHFLK": "FISH_STOCK_TYPE_ANY"
      },
      {}
    ],
    "maxNum": 6,
    "poolNameTextMapHash": 1289954225,
    "poolDescTextMapHash": 3888367725,
    "abilityGroup": "Avatar_Fishing",
    "teamAbilityGroup": "Avatar_Fishing_OnTeam",
    "dropIdList": [],
    "excludeFish": []
  },
  {
    "id": 32,
    "stockList": [
      321
    ],
    "stockGuarantee": {
      "323": 3
    },
    "stockLimitList": [
      {
        "NCAHEHAHFLK": "FISH_STOCK_TYPE_ANY"
      },
      {}
    ],
    "maxNum": 6,
    "poolNameTextMapHash": 714430665,
    "poolDescTextMapHash": 770816693,
    "abilityGroup": "Avatar_Fishing",
    "teamAbilityGroup": "Avatar_Fishing_OnTeam",
    "dropIdList": [],
    "excludeFish": []
  },
  {
    "id": 33,
    "stockList": [
      331
    ],
    "stockGuarantee": {
      "333": 3
    },
    "stockLimitList": [
      {
        "NCAHEHAHFLK": "FISH_STOCK_TYPE_ANY"
      },
      {}
    ],
    "maxNum": 6,
    "poolNameTextMapHash": 843272849,
    "poolDescTextMapHash": 2525516749,
    "abilityGroup": "Avatar_Fishing",
    "teamAbilityGroup": "Avatar_Fishing_OnTeam",
    "dropIdList": [],
    "excludeFish": []
  },
  {
    "id": 34,
    "stockList": [
      341
    ],
    "stockGuarantee": {
      "343": 3
    },
    "stockLimitList": [
      {
        "NCAHEHAHFLK": "FISH_STOCK_TYPE_ANY"
      },
      {}
    ],
    "maxNum": 6,
    "poolNameTextMapHash": 4211109993,
    "poolDescTextMapHash": 3449485461,
    "abilityGroup": "Avatar_Fishing",
    "teamAbilityGroup": "Avatar_Fishing_OnTeam",
    "dropIdList": [],
    "excludeFish": []
  },
  {
    "id": 35,
    "stockList": [
      351
    ],
    "stockGuarantee": {
      "353": 3
    },
    "stockLimitList": [
      {
        "NCAHEHAHFLK": "FISH_STOCK_TYPE_ANY"
      },
      {}
    ],
    "maxNum": 6,
    "poolNameTextMapHash": 3391074329,
    "poolDescTextMapHash": 1861217613,
    "abilityGroup": "Avatar_Fishing",
    "teamAbilityGroup": "Avatar_Fishing_OnTeam",
    "dropIdList": [],
    "excludeFish": []
  },
  {
    "id": 36,
    "stockList": [
      361
    ],
    "stockGuarantee": {
      "363": 3
    },
    "stockLimitList": [
      {
        "NCAHEHAHFLK": "FISH_STOCK_TYPE_ANY"
      },
      {}
    ],
    "maxNum": 6,
    "poolNameTextMapHash": 1382628345,
    "poolDescTextMapHash": 1162590669,
    "abilityGroup": "Avatar_Fishing",
    "teamAbilityGroup": "Avatar_Fishing_OnTeam",
    "dropIdList": [],
    "excludeFish": []
  }
]