[
  {
    "id": 1,
    "unlockDay": 1,
    "BHDOFFNLEAN": 5160011,
    "JPHKBHIFEOP": "Fishblaster_Level_01",
    "CCDPGOLJEFP": 6,
    "OCGAAMIEPNH": 3,
    "DJKEBOBLJMM": [
      2001,
      2002,
      3001
    ],
    "OBMJPDOAMAG": 40,
    "descTextMapHash": 3370940977,
    "EJNDEOFNOAG": "UI_Img_Fishblaster_Dudukepic_01",
    "tipsTextMapHash": 301391806,
    "LMMKANPLLMH": "UI_Img_Fishblaster_Level_01",
    "watcherList": [
      15160011,
      15160012,
      15160013
    ],
    "tutorialID": 1619,
    "OKJGKFPDANH": 13212
  },
  {
    "id": 2,
    "unlockDay": 2,
    "JBBNJLELBKG": 1,
    "BHDOFFNLEAN": 5160012,
    "JPHKBHIFEOP": "Fishblaster_Level_02",
    "CCDPGOLJEFP": 6,
    "DPMLHODAEAN": 2,
    "DJKEBOBLJMM": [
      2001,
      2002,
      3001
    ],
    "OBMJPDOAMAG": 39,
    "descTextMapHash": 4037705385,
    "EJNDEOFNOAG": "UI_Img_Fishblaster_Dudukepic_02",
    "tipsTextMapHash": 1343106254,
    "LMMKANPLLMH": "UI_Img_Fishblaster_Level_02",
    "watcherList": [
      15160021,
      15160022,
      15160023
    ]
  },
  {
    "id": 3,
    "unlockDay": 3,
    "JBBNJLELBKG": 2,
    "BHDOFFNLEAN": 5160013,
    "JPHKBHIFEOP": "Fishblaster_Level_03",
    "CCDPGOLJEFP": 7,
    "OCGAAMIEPNH": 2,
    "IOGEKCNNPJD": 2,
    "DJKEBOBLJMM": [
      2001,
      2002,
      3002,
      3001
    ],
    "OBMJPDOAMAG": 43,
    "descTextMapHash": 4212180289,
    "EJNDEOFNOAG": "UI_Img_Fishblaster_Dudukepic_03",
    "tipsTextMapHash": 4093430158,
    "LMMKANPLLMH": "UI_Img_Fishblaster_Level_03",
    "watcherList": [
      15160031,
      15160032,
      15160033
    ],
    "tutorialID": 1620,
    "OKJGKFPDANH": 13213
  },
  {
    "id": 4,
    "unlockDay": 4,
    "JBBNJLELBKG": 3,
    "BHDOFFNLEAN": 5160014,
    "JPHKBHIFEOP": "Fishblaster_Level_04",
    "CCDPGOLJEFP": 3,
    "OCGAAMIEPNH": 3,
    "DJKEBOBLJMM": [
      2001,
      2002,
      4001,
      3002,
      3001
    ],
    "OBMJPDOAMAG": 57,
    "descTextMapHash": 1600046777,
    "EJNDEOFNOAG": "UI_Img_Fishblaster_Dudukepic_04",
    "tipsTextMapHash": 2658576798,
    "LMMKANPLLMH": "UI_Img_Fishblaster_Level_04",
    "watcherList": [
      15160041,
      15160042,
      15160043
    ],
    "tutorialID": 1621,
    "OKJGKFPDANH": 13214
  },
  {
    "id": 5,
    "unlockDay": 5,
    "JBBNJLELBKG": 4,
    "BHDOFFNLEAN": 5160015,
    "JPHKBHIFEOP": "Fishblaster_Level_05",
    "CCDPGOLJEFP": 3,
    "OCGAAMIEPNH": 1,
    "IOGEKCNNPJD": 1,
    "DJKEBOBLJMM": [
      2001,
      2002,
      4001,
      3002,
      3001
    ],
    "OBMJPDOAMAG": 55,
    "descTextMapHash": 136010713,
    "EJNDEOFNOAG": "UI_Img_Fishblaster_Dudukepic_05",
    "tipsTextMapHash": 2678631358,
    "LMMKANPLLMH": "UI_Img_Fishblaster_Level_05",
    "watcherList": [
      15160051,
      15160052,
      15160053
    ],
    "tutorialID": 1622,
    "OKJGKFPDANH": 13215
  },
  {
    "id": 6,
    "unlockDay": 6,
    "JBBNJLELBKG": 5,
    "BHDOFFNLEAN": 5160016,
    "JPHKBHIFEOP": "Fishblaster_Level_06",
    "CCDPGOLJEFP": 2,
    "OCGAAMIEPNH": 3,
    "DPMLHODAEAN": 1,
    "DJKEBOBLJMM": [
      2001,
      2002,
      4001,
      3002,
      3001
    ],
    "OBMJPDOAMAG": 55,
    "descTextMapHash": 935963529,
    "EJNDEOFNOAG": "UI_Img_Fishblaster_Dudukepic_06",
    "tipsTextMapHash": 2343581006,
    "LMMKANPLLMH": "UI_Img_Fishblaster_Level_06",
    "watcherList": [
      15160061,
      15160062,
      15160063
    ]
  }
]