[
  {
    "id": 1,
    "levelList": [
      1
    ],
    "levelNameTextMapHash": 848544102,
    "levelDescTextMapHash": 738935915,
    "iconPath": "ART/UI/Atlas/Activity/FishingJoy/UI_Icon_FishingJoy_Teamwork"
  },
  {
    "id": 2,
    "levelList": [
      2,
      3,
      4
    ],
    "levelNameTextMapHash": 819383894,
    "levelDescTextMapHash": 440147163,
    "iconPath": "ART/UI/Atlas/Activity/FishingJoy/UI_Icon_FishingJoy_Sports"
  }
]