[
  {
    "id": 1,
    "picPath": "UI_Img_FishingJoy_Theme_01",
    "IDCADJMJAEE": 1043164562,
    "NENDDEHGACB": 1113294341,
    "MGJOEMDLIIC": 4178528652
  },
  {
    "id": 2,
    "picPath": "UI_Img_FishingJoy_Theme_02",
    "IDCADJMJAEE": 1804238434,
    "NENDDEHGACB": 1183189029,
    "MGJOEMDLIIC": 127417252
  },
  {
    "id": 3,
    "picPath": "UI_Img_FishingJoy_Theme_03",
    "IDCADJMJAEE": 2941541634,
    "NENDDEHGACB": 3701738669,
    "MGJOEMDLIIC": 3576874780
  }
]