[
  {
    "suiteID": 1,
    "jsonName": "Home_Suite_Camp_01",
    "suiteNameTextMapHash": 1843362898,
    "suiteDescTextMapHash": 3463086408,
    "favoriteNpcExcelIdVec": [],
    "transStr": "",
    "furnType": [
      771,
      0
    ],
    "itemIcon": "UI_Home_Suite_Camp_01",
    "mapIcon": ""
  },
  {
    "suiteID": 2,
    "jsonName": "Home_Suite_Exterior_03",
    "suiteNameTextMapHash": 1146281754,
    "suiteDescTextMapHash": 3162362208,
    "favoriteNpcExcelIdVec": [],
    "transStr": "",
    "furnType": [
      771,
      0
    ],
    "itemIcon": "UI_Home_Suite_Exterior_03",
    "mapIcon": ""
  },
  {
    "suiteID": 3,
    "jsonName": "Home_Suite_Exterior_08",
    "suiteNameTextMapHash": 2830689802,
    "suiteDescTextMapHash": 1468093384,
    "favoriteNpcExcelIdVec": [],
    "transStr": "",
    "furnType": [
      771,
      0
    ],
    "itemIcon": "UI_Home_Suite_Exterior_08",
    "mapIcon": ""
  },
  {
    "suiteID": 4,
    "jsonName": "Home_Suite_Interior_Liyue_Bedroom_01",
    "suiteNameTextMapHash": 458906242,
    "suiteDescTextMapHash": 2490415584,
    "favoriteNpcExcelIdVec": [],
    "transStr": "",
    "furnType": [
      671,
      0
    ],
    "itemIcon": "UI_Home_Suite_Interior_Liyue_Bedroom_01",
    "mapIcon": ""
  },
  {
    "suiteID": 5,
    "jsonName": "Home_Suite_Interior_Liyue_Diningroom_01",
    "suiteNameTextMapHash": 2851359402,
    "suiteDescTextMapHash": 3515236560,
    "favoriteNpcExcelIdVec": [],
    "transStr": "",
    "furnType": [
      671,
      0
    ],
    "itemIcon": "UI_Home_Suite_Interior_Liyue_Diningroom_01",
    "mapIcon": ""
  },
  {
    "suiteID": 6,
    "jsonName": "Home_Suite_Exterior_12",
    "suiteNameTextMapHash": 2106922,
    "suiteDescTextMapHash": 1240942944,
    "favoriteNpcExcelIdVec": [],
    "transStr": "",
    "furnType": [
      771,
      0
    ],
    "itemIcon": "UI_Home_Suite_Exterior_12",
    "mapIcon": ""
  },
  {
    "suiteID": 7,
    "jsonName": "Home_Suite_Interior_Liyue_Diningroom_02",
    "suiteNameTextMapHash": 3767531090,
    "suiteDescTextMapHash": 3367314000,
    "favoriteNpcExcelIdVec": [],
    "transStr": "",
    "furnType": [
      671,
      0
    ],
    "itemIcon": "UI_Home_Suite_Interior_Liyue_Diningroom_02",
    "mapIcon": ""
  },
  {
    "suiteID": 8,
    "jsonName": "Home_Suite_Interior_Liyue_Kitchen_01",
    "suiteNameTextMapHash": 1321354570,
    "suiteDescTextMapHash": 2775417216,
    "favoriteNpcExcelIdVec": [],
    "transStr": "",
    "furnType": [
      671,
      0
    ],
    "itemIcon": "UI_Home_Suite_Interior_Liyue_Kitchen_01",
    "mapIcon": ""
  },
  {
    "suiteID": 9,
    "jsonName": "Home_Suite_Interior_Liyue_Livingroom_01",
    "suiteNameTextMapHash": 3233880186,
    "suiteDescTextMapHash": 914689760,
    "favoriteNpcExcelIdVec": [],
    "transStr": "",
    "furnType": [
      671,
      0
    ],
    "itemIcon": "UI_Home_Suite_Interior_Liyue_Livingroom_01",
    "mapIcon": ""
  },
  {
    "suiteID": 10,
    "jsonName": "Home_Suite_Interior_Liyue_Study_01",
    "suiteNameTextMapHash": 749116938,
    "suiteDescTextMapHash": 2418512872,
    "favoriteNpcExcelIdVec": [],
    "transStr": "",
    "furnType": [
      671,
      0
    ],
    "itemIcon": "UI_Home_Suite_Interior_Liyue_Study_01",
    "mapIcon": ""
  },
  {
    "suiteID": 11,
    "jsonName": "Home_Suite_Interior_Mond_Bedroom_01",
    "suiteNameTextMapHash": 3798465610,
    "suiteDescTextMapHash": 3306481024,
    "favoriteNpcExcelIdVec": [],
    "transStr": "",
    "furnType": [
      671,
      0
    ],
    "itemIcon": "UI_Home_Suite_Interior_Mond_Bedroom_01",
    "mapIcon": ""
  },
  {
    "suiteID": 12,
    "jsonName": "Home_Suite_Interior_Mond_Diningroom_01",
    "suiteNameTextMapHash": 2909268938,
    "suiteDescTextMapHash": 3540865088,
    "favoriteNpcExcelIdVec": [],
    "transStr": "",
    "furnType": [
      671,
      0
    ],
    "itemIcon": "UI_Home_Suite_Interior_Mond_Diningroom_01",
    "mapIcon": ""
  },
  {
    "suiteID": 13,
    "jsonName": "Home_Suite_Interior_Mond_Diningroom_02",
    "suiteNameTextMapHash": 1384007594,
    "suiteDescTextMapHash": 3677318208,
    "favoriteNpcExcelIdVec": [],
    "transStr": "",
    "furnType": [
      671,
      0
    ],
    "itemIcon": "UI_Home_Suite_Interior_Mond_Diningroom_02",
    "mapIcon": ""
  },
  {
    "suiteID": 14,
    "jsonName": "Home_Suite_Interior_Mond_Kitchen_01",
    "suiteNameTextMapHash": 2515685266,
    "suiteDescTextMapHash": 1709318008,
    "favoriteNpcExcelIdVec": [],
    "transStr": "",
    "furnType": [
      671,
      0
    ],
    "itemIcon": "UI_Home_Suite_Interior_Mond_Kitchen_01",
    "mapIcon": ""
  },
  {
    "suiteID": 15,
    "jsonName": "Home_Suite_Interior_Mond_Livingroom_01",
    "suiteNameTextMapHash": 1938380906,
    "suiteDescTextMapHash": 755897648,
    "favoriteNpcExcelIdVec": [],
    "transStr": "",
    "furnType": [
      671,
      0
    ],
    "itemIcon": "UI_Home_Suite_Interior_Mond_Livingroom_01",
    "mapIcon": ""
  },
  {
    "suiteID": 16,
    "jsonName": "Home_Suite_Interior_Mond_Study_01",
    "suiteNameTextMapHash": 1375350274,
    "suiteDescTextMapHash": 2762578704,
    "favoriteNpcExcelIdVec": [],
    "transStr": "",
    "furnType": [
      671,
      0
    ],
    "itemIcon": "UI_Home_Suite_Interior_Mond_Study_01",
    "mapIcon": ""
  },
  {
    "suiteID": 17,
    "jsonName": "Home_Suite_Liyue_Folkhouse_01",
    "suiteNameTextMapHash": 1054541666,
    "suiteDescTextMapHash": 1776694736,
    "favoriteNpcExcelIdVec": [],
    "transStr": "",
    "furnType": [
      771,
      0
    ],
    "itemIcon": "UI_Home_Suite_Liyue_Folkhouse_01",
    "mapIcon": ""
  },
  {
    "suiteID": 18,
    "jsonName": "Home_Suite_Mond_Folkhouse_01",
    "suiteNameTextMapHash": 4105063002,
    "suiteDescTextMapHash": 1246809648,
    "favoriteNpcExcelIdVec": [],
    "transStr": "",
    "furnType": [
      771,
      0
    ],
    "itemIcon": "UI_Home_Suite_Mond_Folkhouse_01",
    "mapIcon": ""
  },
  {
    "suiteID": 19,
    "jsonName": "Home_Suite_Props_01",
    "suiteNameTextMapHash": 3955997706,
    "suiteDescTextMapHash": 3696911184,
    "favoriteNpcExcelIdVec": [],
    "transStr": "",
    "furnType": [
      771,
      0
    ],
    "itemIcon": "UI_Home_Suite_Props_01",
    "mapIcon": ""
  },
  {
    "suiteID": 20,
    "jsonName": "Home_Suite_Props_02",
    "suiteNameTextMapHash": 2256267522,
    "suiteDescTextMapHash": 1646794264,
    "favoriteNpcExcelIdVec": [],
    "transStr": "",
    "furnType": [
      771,
      0
    ],
    "itemIcon": "UI_Home_Suite_Props_02",
    "mapIcon": ""
  },
  {
    "suiteID": 21,
    "jsonName": "Home_Suite_Props_03",
    "suiteNameTextMapHash": 3221462570,
    "suiteDescTextMapHash": 750803736,
    "favoriteNpcExcelIdVec": [],
    "transStr": "",
    "furnType": [
      771,
      0
    ],
    "itemIcon": "UI_Home_Suite_Props_03",
    "mapIcon": ""
  },
  {
    "suiteID": 22,
    "jsonName": "Home_Suite_Props_04",
    "suiteNameTextMapHash": 1729468786,
    "suiteDescTextMapHash": 290649664,
    "favoriteNpcExcelIdVec": [],
    "transStr": "",
    "furnType": [
      771,
      0
    ],
    "itemIcon": "UI_Home_Suite_Props_04",
    "mapIcon": ""
  },
  {
    "suiteID": 23,
    "jsonName": "Home_Suite_Props_05",
    "suiteNameTextMapHash": 715902034,
    "suiteDescTextMapHash": 1040670656,
    "favoriteNpcExcelIdVec": [],
    "transStr": "",
    "furnType": [
      771,
      0
    ],
    "itemIcon": "UI_Home_Suite_Props_05",
    "mapIcon": ""
  },
  {
    "suiteID": 24,
    "jsonName": "Home_Suite_Props_06",
    "suiteNameTextMapHash": 1417850394,
    "suiteDescTextMapHash": 3904100912,
    "favoriteNpcExcelIdVec": [],
    "transStr": "",
    "furnType": [
      771,
      0
    ],
    "itemIcon": "UI_Home_Suite_Props_06",
    "mapIcon": ""
  },
  {
    "suiteID": 25,
    "jsonName": "Home_Suite_Props_07",
    "suiteNameTextMapHash": 1338335706,
    "suiteDescTextMapHash": 3354555328,
    "favoriteNpcExcelIdVec": [],
    "transStr": "",
    "furnType": [
      771,
      0
    ],
    "itemIcon": "UI_Home_Suite_Props_07",
    "mapIcon": ""
  },
  {
    "suiteID": 26,
    "jsonName": "Home_Suite_Props_08",
    "suiteNameTextMapHash": 2751991778,
    "suiteDescTextMapHash": 2400083392,
    "favoriteNpcExcelIdVec": [],
    "transStr": "",
    "furnType": [
      771,
      0
    ],
    "itemIcon": "UI_Home_Suite_Props_08",
    "mapIcon": ""
  },
  {
    "suiteID": 27,
    "jsonName": "Home_Suite_Wild_01",
    "suiteNameTextMapHash": 2722706834,
    "suiteDescTextMapHash": 915508920,
    "favoriteNpcExcelIdVec": [],
    "transStr": "",
    "furnType": [
      771,
      0
    ],
    "itemIcon": "UI_Home_Suite_Wild_01",
    "mapIcon": ""
  },
  {
    "suiteID": 28,
    "jsonName": "Home_Suite_Wild_02",
    "suiteNameTextMapHash": 2653271090,
    "suiteDescTextMapHash": 4037126568,
    "favoriteNpcExcelIdVec": [],
    "transStr": "",
    "furnType": [
      771,
      0
    ],
    "itemIcon": "UI_Home_Suite_Wild_02",
    "mapIcon": ""
  },
  {
    "suiteID": 29,
    "jsonName": "Home_Suite_Wild_03",
    "suiteNameTextMapHash": 2238911858,
    "suiteDescTextMapHash": 2099763640,
    "favoriteNpcExcelIdVec": [],
    "transStr": "",
    "furnType": [
      771,
      0
    ],
    "itemIcon": "UI_Home_Suite_Wild_03",
    "mapIcon": ""
  },
  {
    "suiteID": 30,
    "jsonName": "Home_Suite_Wild_05",
    "suiteNameTextMapHash": 3958273594,
    "suiteDescTextMapHash": 375177560,
    "favoriteNpcExcelIdVec": [],
    "transStr": "",
    "furnType": [
      771,
      0
    ],
    "itemIcon": "UI_Home_Suite_Wild_05",
    "mapIcon": ""
  },
  {
    "suiteID": 31,
    "jsonName": "Home_Suite_Wild_05",
    "suiteNameTextMapHash": 3852092194,
    "suiteDescTextMapHash": 1536217968,
    "favoriteNpcExcelIdVec": [
      10000003,
      10000020
    ],
    "transStr": "1,1,90;2,2,70;10,10,180",
    "furnType": [
      0,
      0
    ],
    "itemIcon": "UI_Home_Suite_Wild_05",
    "mapIcon": ""
  },
  {
    "suiteID": 32,
    "jsonName": "Home_Suite_Wild_05",
    "suiteNameTextMapHash": 518938410,
    "suiteDescTextMapHash": 3887432560,
    "favoriteNpcExcelIdVec": [
      10000003,
      10000020,
      10000043,
      10000044,
      10000045
    ],
    "transStr": "1,1,90;2,2,70;10,10,180",
    "furnType": [
      0,
      0
    ],
    "itemIcon": "UI_Home_Suite_Wild_05",
    "mapIcon": ""
  },
  {
    "suiteID": 33,
    "jsonName": "Home_Suite_Interior_Mond_Room_of_Recollection",
    "suiteNameTextMapHash": 1533841658,
    "suiteDescTextMapHash": 3191370808,
    "favoriteNpcExcelIdVec": [
      10000003,
      10000006,
      10000031,
      10000041,
      10000051
    ],
    "transStr": "2.07,-3.36,0;3.13,3.25,220;-1.69,2.09,-180;1.92,0.48,-90;-1.57,-3.36,0",
    "furnType": [
      672,
      0
    ],
    "itemIcon": "UI_Home_Suite_Interior_Mond_Room_Of_Recollection",
    "mapIcon": "UI_MarkPoint_Homeworld_Suit",
    "interRatio": 0.3
  },
  {
    "suiteID": 34,
    "jsonName": "Home_Suite_Interior_Mond_Room_of_Whispers",
    "suiteNameTextMapHash": 1215465386,
    "suiteDescTextMapHash": 327979704,
    "favoriteNpcExcelIdVec": [
      10000014,
      10000051,
      10000034
    ],
    "transStr": "0.85,-3.36,0;3.13,3.25,220;-2.71,0,90;0.29,2.31,-180;3.12,1.32,-90",
    "furnType": [
      672,
      0
    ],
    "itemIcon": "UI_Home_Suite_Interior_Mond_Room_Of_Whispers",
    "mapIcon": "UI_MarkPoint_Homeworld_Suit",
    "interRatio": 0.3
  },
  {
    "suiteID": 35,
    "jsonName": "Home_Suite_Interior_Liyue_Room_of_Clouds",
    "suiteNameTextMapHash": 4215822922,
    "suiteDescTextMapHash": 1918892928,
    "favoriteNpcExcelIdVec": [
      10000025,
      10000030,
      10000027,
      10000064,
      10000082,
      10000108
    ],
    "transStr": "0.9,-3.075,0;1.85,3.09,180;-1.57,3.09,180;-1.57,0.75,90;1.87,-0.75,-90;1.87,1.2,-90",
    "furnType": [
      672,
      0
    ],
    "itemIcon": "UI_Home_Suite_Interior_Liyue_Room_Of_Clouds",
    "mapIcon": "UI_MarkPoint_Homeworld_Suit",
    "interRatio": 0.3
  },
  {
    "suiteID": 36,
    "jsonName": "Home_Suite_Interior_Liyue_Room_of_Dreams",
    "suiteNameTextMapHash": 1530502722,
    "suiteDescTextMapHash": 1868417336,
    "favoriteNpcExcelIdVec": [
      10000046,
      10000048,
      10000037,
      10000042,
      10000036,
      10000092
    ],
    "transStr": "1.94,3.02,220;0.83,-1.38,0;-0.92,1.75,-180;1.92,0.48,-90;-1.92,0.02,90",
    "furnType": [
      672,
      0
    ],
    "itemIcon": "UI_Home_Suite_Interior_Liyue_Room_Of_Dreams",
    "mapIcon": "UI_MarkPoint_Homeworld_Suit",
    "interRatio": 0.3
  },
  {
    "suiteID": 37,
    "jsonName": "Home_Suite_Interior_Common_Arcane_Laboratory",
    "suiteNameTextMapHash": 1471988114,
    "suiteDescTextMapHash": 681595632,
    "favoriteNpcExcelIdVec": [
      10000029,
      10000043,
      10000038,
      10000006
    ],
    "transStr": "-1.92,0.02,90;1.92,0.49,-90;0.54,2.82,-180;3.13,3.25,220;2.05,-3.46,0",
    "furnType": [
      672,
      0
    ],
    "itemIcon": "UI_Home_Suite_Interior_Common_Arcane_Laboratory",
    "mapIcon": "UI_MarkPoint_Homeworld_Suit",
    "interRatio": 0.3
  },
  {
    "suiteID": 38,
    "jsonName": "Home_Suite_Interior_Common_Scented_Kitchen",
    "suiteNameTextMapHash": 6616922,
    "suiteDescTextMapHash": 1888997072,
    "favoriteNpcExcelIdVec": [
      10000033,
      10000041,
      10000026,
      10000023,
      10000020,
      10000077,
      10000080,
      10000082
    ],
    "transStr": "0.47,-3.03,0;2.44,2.73,220;0.319,2.085,-180;1.58,-0.23,-90;-1.65,0.589,90",
    "furnType": [
      672,
      0
    ],
    "itemIcon": "UI_Home_Suite_Interior_Common_Scented_Kitchen",
    "mapIcon": "UI_MarkPoint_Homeworld_Suit",
    "interRatio": 0.3
  },
  {
    "suiteID": 39,
    "jsonName": "Home_Suite_Exterior_Common_Blacksmith_Shop",
    "suiteNameTextMapHash": 2842511714,
    "suiteDescTextMapHash": 3780605480,
    "favoriteNpcExcelIdVec": [
      10000034,
      10000032,
      10000016,
      10000039
    ],
    "transStr": "-2,9.63,-90;-7.28,-1.2,-90;-6.12,-9.35,-90;-4.71,5.92,-30;-7.35,-4.68,-90",
    "furnType": [
      772,
      0
    ],
    "itemIcon": "UI_Home_Suite_Exterior_Common_Blacksmith_Shop",
    "mapIcon": "UI_MarkPoint_Homeworld_Suit",
    "interRatio": 0.5
  },
  {
    "suiteID": 40,
    "jsonName": "Home_Suite_Exterior_Mond_Pastoral_Village",
    "suiteNameTextMapHash": 1486392186,
    "suiteDescTextMapHash": 2486353328,
    "favoriteNpcExcelIdVec": [
      10000039,
      10000021,
      10000020
    ],
    "transStr": "-3.8,-13,0;-7.2,-7.86,90;-5.6,6.36,130;0.6,-16,0;5,5.86,180",
    "furnType": [
      772,
      0
    ],
    "itemIcon": "UI_Home_Suite_Exterior_Mond_Pastoral_Village",
    "mapIcon": "UI_MarkPoint_Homeworld_Suit",
    "interRatio": 0.5
  },
  {
    "suiteID": 41,
    "jsonName": "Home_Suite_Exterior_Mond_Floral_Garden",
    "suiteNameTextMapHash": 1581560834,
    "suiteDescTextMapHash": 3953998576,
    "favoriteNpcExcelIdVec": [
      10000022,
      10000045,
      10000014,
      10000003,
      10000015
    ],
    "transStr": "7.5,-6.9,-45;0.55,-8.68,0;-9.4,0.3,90;0,9,-180;10.75,6.87,-120",
    "furnType": [
      772,
      0
    ],
    "itemIcon": "UI_Home_Suite_Exterior_Mond_Floral_Garden",
    "mapIcon": "UI_MarkPoint_Homeworld_Suit",
    "interRatio": 0.6
  },
  {
    "suiteID": 42,
    "jsonName": "Home_Suite_Exterior_Liyue_All_Delicacy",
    "suiteNameTextMapHash": 2696428114,
    "suiteDescTextMapHash": 3204710648,
    "favoriteNpcExcelIdVec": [
      10000024,
      10000023,
      10000037,
      10000044,
      10000033,
      10000060,
      10000092,
      10000093
    ],
    "transStr": "2.361,5.347,180;-12,5.347,-12,-3.96,0;11,-4,0;14,4.67,180",
    "furnType": [
      772,
      0
    ],
    "itemIcon": "UI_Home_Suite_Exterior_Liyue_All_Delicacy",
    "mapIcon": "UI_MarkPoint_Homeworld_Suit",
    "interRatio": 0.4
  },
  {
    "suiteID": 43,
    "jsonName": "Home_Suite_Exterior_Liyue_Shopping_Street",
    "suiteNameTextMapHash": 4267659626,
    "suiteDescTextMapHash": 1737131192,
    "favoriteNpcExcelIdVec": [
      10000027,
      10000042,
      10000048,
      10000025,
      10000030,
      10000063,
      10000064,
      10000108
    ],
    "transStr": "11.8,-6.57,0;-11.4,-6.57,0;2.5,5.48,180;16.18,5.48,180;-15.55,5.48,180",
    "furnType": [
      772,
      0
    ],
    "itemIcon": "UI_Home_Suite_Exterior_Liyue_Shopping_Street",
    "mapIcon": "UI_MarkPoint_Homeworld_Suit",
    "interRatio": 0.4
  },
  {
    "suiteID": 44,
    "jsonName": "Home_Suite_Exterior_Liyue_Qingce_Village",
    "suiteNameTextMapHash": 535839330,
    "suiteDescTextMapHash": 3884593840,
    "favoriteNpcExcelIdVec": [
      10000044,
      10000026,
      10000046,
      10000035,
      10000063,
      10000060,
      10000077,
      10000093
    ],
    "transStr": "-3.9,8.65,140;7.88,7.27,-90;-5.72,1.94,90;-6.15,-8.56,90;7.26,-7.43,-90",
    "furnType": [
      772,
      0
    ],
    "itemIcon": "UI_Home_Suite_Exterior_Liyue_Qingce_Village",
    "mapIcon": "UI_MarkPoint_Homeworld_Suit",
    "interRatio": 0.4
  },
  {
    "suiteID": 45,
    "jsonName": "Home_Suite_Exterior_Common_Domu_Camp",
    "suiteNameTextMapHash": 1387997314,
    "suiteDescTextMapHash": 4132105304,
    "favoriteNpcExcelIdVec": [
      10000021,
      10000043,
      10000029,
      10000024,
      10000062
    ],
    "transStr": "14,12.5,-90;-15,0.8,30;-2.5,3.6,0;-4.44,14.76,0;9.17,0.81,-30",
    "furnType": [
      772,
      0
    ],
    "itemIcon": "UI_Home_Suite_Exterior_Common_Domu_Camp",
    "mapIcon": "UI_MarkPoint_Homeworld_Suit",
    "interRatio": 0.6
  },
  {
    "suiteID": 46,
    "jsonName": "Home_Suite_Exterior_Common_Journey_of_abyss",
    "suiteNameTextMapHash": 3239092562,
    "suiteDescTextMapHash": 2807885832,
    "favoriteNpcExcelIdVec": [
      10000032,
      10000035,
      10000036,
      10000031,
      10000038,
      10000062,
      10000080
    ],
    "transStr": "-10,-2.33,140;-1.15,-9.77,-35;-2.5,-2.5,-130;-3.5,-12.5,0;-5,2,-180",
    "furnType": [
      772,
      0
    ],
    "itemIcon": "UI_Home_Suite_Exterior_Common_Journey_Of_Abyss",
    "mapIcon": "UI_MarkPoint_Homeworld_Suit",
    "interRatio": 0.5
  },
  {
    "suiteID": 47,
    "jsonName": "Home_Suite_Exterior_Common_Dawn_Orchard",
    "suiteNameTextMapHash": 756619754,
    "suiteDescTextMapHash": 2416587472,
    "favoriteNpcExcelIdVec": [
      10000016,
      10000015,
      10000022,
      10000045
    ],
    "transStr": "8.12,4.23,-90;7.29,8.92,-140;3,10.56,-180;0,2.24,0;-5.29,4.05,90",
    "furnType": [
      772,
      0
    ],
    "itemIcon": "UI_Home_Suite_Exterior_Common_Dawn_Orchard",
    "mapIcon": "UI_MarkPoint_Homeworld_Suit",
    "interRatio": 0.4
  },
  {
    "suiteID": 48,
    "jsonName": "Home_Suite_Exterior_Dq_Build_Courtyard",
    "suiteNameTextMapHash": 1665015626,
    "suiteDescTextMapHash": 1027985496,
    "favoriteNpcExcelIdVec": [
      10000056,
      10000066
    ],
    "transStr": "10,-6,0;8,-20,0;32,6.4,180;23.54,6.75,270;10.63,18.72,180",
    "furnType": [
      772,
      0
    ],
    "itemIcon": "UI_Home_Suite_Exterior_Dq_Build_Courtyard",
    "mapIcon": "UI_MarkPoint_Homeworld_Suit",
    "interRatio": 0.4
  },
  {
    "suiteID": 49,
    "jsonName": "Home_Suite_Exterior_Dq_Build_Hotspring",
    "suiteNameTextMapHash": 2784826778,
    "suiteDescTextMapHash": 4001739768,
    "favoriteNpcExcelIdVec": [
      10000049,
      10000055,
      10000058,
      10000059,
      10000094,
      10000109
    ],
    "transStr": "4.93,-11.63,0;8.19,-11.78,-15;11.78,-9.65,-90;10.17,-2.07,-180;-6.86,-9.3,-270",
    "furnType": [
      772,
      0
    ],
    "itemIcon": "UI_Home_Suite_Exterior_Dq_Build_Hotspring",
    "mapIcon": "UI_MarkPoint_Homeworld_Suit",
    "interRatio": 0.4
  },
  {
    "suiteID": 50,
    "jsonName": "Home_Suite_Exterior_Dq_Build_Village",
    "suiteNameTextMapHash": 2493136722,
    "suiteDescTextMapHash": 1927030088,
    "favoriteNpcExcelIdVec": [
      10000053,
      10000055
    ],
    "transStr": "4.34,-2.07,-270;4.64,-9.51,-360;16.8,-4.19,-360;12.83,3.76,-105;4.363,6.847,-180",
    "furnType": [
      772,
      0
    ],
    "itemIcon": "UI_Home_Suite_Exterior_Dq_Build_Village",
    "mapIcon": "UI_MarkPoint_Homeworld_Suit",
    "interRatio": 0.4
  },
  {
    "suiteID": 51,
    "jsonName": "Home_Suite_Exterior_Dq_Field_Shrine",
    "suiteNameTextMapHash": 2583543618,
    "suiteDescTextMapHash": 958004104,
    "favoriteNpcExcelIdVec": [
      10000052,
      10000058
    ],
    "transStr": "8.4,4.85,-180;1.37,6.56,-210;17.27,5.26,-120;9.94,-8.89,0;4.85,-8.18,0",
    "furnType": [
      772,
      0
    ],
    "itemIcon": "UI_Home_Suite_Exterior_Dq_Field_Shrine",
    "mapIcon": "UI_MarkPoint_Homeworld_Suit",
    "interRatio": 0.4
  },
  {
    "suiteID": 52,
    "jsonName": "Home_Suite_Exterior_Dq_Field_Weapon",
    "suiteNameTextMapHash": 60344970,
    "suiteDescTextMapHash": 272778352,
    "favoriteNpcExcelIdVec": [
      10000056
    ],
    "transStr": "-4.43,-10.35,90;-4.43,8.72,90;7.13,11.28,180;17.8,10.61,240;15.85,-7.57,270",
    "furnType": [
      772,
      0
    ],
    "itemIcon": "UI_Home_Suite_Exterior_Dq_Field_Weapon",
    "mapIcon": "UI_MarkPoint_Homeworld_Suit",
    "interRatio": 0.4
  },
  {
    "suiteID": 53,
    "jsonName": "Home_Suite_Exterior_Dq_Mountain_Outdoor",
    "suiteNameTextMapHash": 1461610482,
    "suiteDescTextMapHash": 3281818048,
    "favoriteNpcExcelIdVec": [
      10000047,
      10000057
    ],
    "transStr": "13.1,-5.83,360;5.89,-4.84,360;1.3,-5.09,450;11.15,-0.08,180;8.4,0.51,180",
    "furnType": [
      772,
      0
    ],
    "itemIcon": "UI_Home_Suite_Exterior_Dq_Mountain_Outdoor",
    "mapIcon": "UI_MarkPoint_Homeworld_Suit",
    "interRatio": 0.4
  },
  {
    "suiteID": 54,
    "jsonName": "Home_Suite_Exterior_Dq_Street_Fete",
    "suiteNameTextMapHash": 3276043194,
    "suiteDescTextMapHash": 1203899144,
    "favoriteNpcExcelIdVec": [
      10000002,
      10000057,
      10000066
    ],
    "transStr": "11.17,2.34,-90;11.17,-0.23,-90;10.221,14.074,-135;0.66,14.54,-270;0.66,-9.561,-270",
    "furnType": [
      772,
      0
    ],
    "itemIcon": "UI_Home_Suite_Exterior_Dq_Street_Fete",
    "mapIcon": "UI_MarkPoint_Homeworld_Suit",
    "interRatio": 0.4
  },
  {
    "suiteID": 55,
    "jsonName": "Home_Suite_Exterior_Dq_Street_Shopping",
    "suiteNameTextMapHash": 1894876490,
    "suiteDescTextMapHash": 3730152512,
    "favoriteNpcExcelIdVec": [
      10000049,
      10000050,
      10000065,
      10000061
    ],
    "transStr": "9.22,-13.46,-90;9.18,-8.17,-90;9.18,0.46,-90;11.45,6.94,-90;11.29,11.2,-90",
    "furnType": [
      772,
      0
    ],
    "itemIcon": "UI_Home_Suite_Exterior_Dq_Street_Shopping",
    "mapIcon": "UI_MarkPoint_Homeworld_Suit",
    "interRatio": 0.4
  },
  {
    "suiteID": 56,
    "jsonName": "Home_Suite_Interior_Dq_Room_of_Bedroom",
    "suiteNameTextMapHash": 1783821162,
    "suiteDescTextMapHash": 4174447704,
    "favoriteNpcExcelIdVec": [
      10000053,
      10000054,
      10000059
    ],
    "transStr": "2.27,1.68,225;3.22,-0.18,270;0.01,2.88,180;3,-2.93,315;-1.69,-2.02,405",
    "furnType": [
      672,
      0
    ],
    "itemIcon": "UI_Home_Suite_Interior_Dq_Room_of_Bedroom",
    "mapIcon": "UI_MarkPoint_Homeworld_Suit",
    "interRatio": 0.3
  },
  {
    "suiteID": 57,
    "jsonName": "Home_Suite_Interior_Dq_Room_of_Ground",
    "suiteNameTextMapHash": 3657365146,
    "suiteDescTextMapHash": 2506173144,
    "favoriteNpcExcelIdVec": [
      10000052,
      10000002
    ],
    "transStr": "-1.53,-2.57,405;2.56,-2.57,315;2.88,1.31,270;1.31,2.73,180;-1.74,2,150",
    "furnType": [
      672,
      0
    ],
    "itemIcon": "UI_Home_Suite_Interior_Dq_Room_of_Ground",
    "mapIcon": "UI_MarkPoint_Homeworld_Suit",
    "interRatio": 0.3
  },
  {
    "suiteID": 58,
    "jsonName": "Home_Suite_Interior_Dq_Room_of_Study",
    "suiteNameTextMapHash": 2841697962,
    "suiteDescTextMapHash": 1701541728,
    "favoriteNpcExcelIdVec": [
      10000054,
      10000065
    ],
    "transStr": "-2.39,-1.48,90;1.6,-2.27,0;2.98,-0.67,-90;-0.93,2.54,-180;1.89,2.48,-165",
    "furnType": [
      672,
      0
    ],
    "itemIcon": "UI_Home_Suite_Interior_Dq_Room_of_Study",
    "mapIcon": "UI_MarkPoint_Homeworld_Suit",
    "interRatio": 0.3
  },
  {
    "suiteID": 59,
    "jsonName": "Home_Suite_Interior_Dq_Room_of_Teahouse",
    "suiteNameTextMapHash": 309189314,
    "suiteDescTextMapHash": 3910984632,
    "favoriteNpcExcelIdVec": [
      10000050,
      10000047,
      10000109
    ],
    "transStr": "2.29,3.07,-150;0.8,3.03,-180;-2.98,2.1,-225;-0.37,-2.88,-300;3.51,0.28,-90",
    "furnType": [
      672,
      0
    ],
    "itemIcon": "UI_Home_Suite_Interior_Dq_Room_of_Teahouse",
    "mapIcon": "UI_MarkPoint_Homeworld_Suit",
    "interRatio": 0.3
  },
  {
    "suiteID": 60,
    "jsonName": "Home_Suite_Interior_Xm_Room_of_Forest",
    "suiteNameTextMapHash": 3601161146,
    "suiteDescTextMapHash": 90323240,
    "favoriteNpcExcelIdVec": [
      10000069,
      10000067
    ],
    "transStr": "-2.71,0.28,96;1.73,-2.04,320;2.58,-0.87,289;2.55,0.58,257;-2.05,-0.91,66",
    "furnType": [
      672,
      0
    ],
    "itemIcon": "UI_Home_Suite_Interior_Xm_Room_Of_Forest",
    "mapIcon": "UI_MarkPoint_Homeworld_Suit",
    "interRatio": 0.3
  },
  {
    "suiteID": 61,
    "jsonName": "Home_Suite_Interior_Xm_Room_of_Jewelry",
    "suiteNameTextMapHash": 2305723162,
    "suiteDescTextMapHash": 1744298632,
    "favoriteNpcExcelIdVec": [
      10000068,
      10000070
    ],
    "transStr": "-3.76,-1.33,71;-0.74,-4.01,10;-3.99,0.05,91;-0.12,4,178;-3.83,1.44,111",
    "furnType": [
      672,
      0
    ],
    "itemIcon": "UI_Home_Suite_Interior_Xm_Room_Of_Jewelry",
    "mapIcon": "UI_MarkPoint_Homeworld_Suit",
    "interRatio": 0.3
  },
  {
    "suiteID": 62,
    "jsonName": "Home_Suite_Interior_Xm_Room_of_Barbecue",
    "suiteNameTextMapHash": 2139827274,
    "suiteDescTextMapHash": 3541673552,
    "favoriteNpcExcelIdVec": [
      10000078,
      10000079,
      10000097
    ],
    "transStr": "4.8,2.49,243;4.9,0.59,263;3.24,-3.74,319;0.72,2.9,181;4.81,-2.36,296",
    "furnType": [
      672,
      0
    ],
    "itemIcon": "UI_Home_Suite_Interior_Xm_Room_Of_Barbecue",
    "mapIcon": "UI_MarkPoint_Homeworld_Suit",
    "interRatio": 0.3
  },
  {
    "suiteID": 63,
    "jsonName": "Home_Suite_Interior_Xm_Room_of_Library",
    "suiteNameTextMapHash": 2966806226,
    "suiteDescTextMapHash": 4049082976,
    "favoriteNpcExcelIdVec": [
      10000071,
      10000076,
      10000078
    ],
    "transStr": "-0.86,2.26,159;2.47,2.26,228;0.76,2.87,195;-0.3,-3.47,5;1.36,-3.27,337",
    "furnType": [
      672,
      0
    ],
    "itemIcon": "UI_Home_Suite_Interior_Xm_Room_Of_Library",
    "mapIcon": "UI_MarkPoint_Homeworld_Suit",
    "interRatio": 0.3
  },
  {
    "suiteID": 64,
    "jsonName": "Home_Suite_Interior_Xm_Room_of_Sleep",
    "suiteNameTextMapHash": 3653138874,
    "suiteDescTextMapHash": 3353784792,
    "favoriteNpcExcelIdVec": [
      10000073,
      10000074
    ],
    "transStr": "-0.47,-3.22,8;-3.24,-3.22,45;-3.04,-0.34,84;-4.87,-1.72,71;-5.02,0.58,97",
    "furnType": [
      672,
      0
    ],
    "itemIcon": "UI_Home_Suite_Interior_Xm_Room_Of_Sleep",
    "mapIcon": "UI_MarkPoint_Homeworld_Suit",
    "interRatio": 0.3
  },
  {
    "suiteID": 65,
    "jsonName": "Home_Suite_Interior_Xm_Room_of_Village",
    "suiteNameTextMapHash": 3817281698,
    "suiteDescTextMapHash": 3951556904,
    "favoriteNpcExcelIdVec": [
      10000072
    ],
    "transStr": "-1.53,2.94,152;2.24,2.99,217;-3.1,1.93,122;0.22,3.17,184;-1.62,1.02,122",
    "furnType": [
      672,
      0
    ],
    "itemIcon": "UI_Home_Suite_Interior_Xm_Room_Of_Village",
    "mapIcon": "UI_MarkPoint_Homeworld_Suit",
    "interRatio": 0.3
  },
  {
    "suiteID": 66,
    "jsonName": "Home_Suite_Exterior_Xm_Street_Bazaar",
    "suiteNameTextMapHash": 1725777722,
    "suiteDescTextMapHash": 338262904,
    "favoriteNpcExcelIdVec": [
      10000068,
      10000076,
      10000097
    ],
    "transStr": "-19.85,1.67,95;-14.93,4.43,107;-5.4,-3.52,52;-14.87,-0.93,86;-3.61,4.59,142",
    "furnType": [
      772,
      0
    ],
    "itemIcon": "UI_Home_Suite_Exterior_Xm_Street_Bazaar",
    "mapIcon": "UI_MarkPoint_Homeworld_Suit",
    "interRatio": 0.4
  },
  {
    "suiteID": 67,
    "jsonName": "Home_Suite_Exterior_Xm_Forest_Village",
    "suiteNameTextMapHash": 1476845818,
    "suiteDescTextMapHash": 2676978880,
    "favoriteNpcExcelIdVec": [
      10000067,
      10000071
    ],
    "transStr": "8.05,5.08,238;8.23,-6.78,309;14.19,9.78,235;9.8,-16.94,330;6.2,11.16,209",
    "furnType": [
      772,
      0
    ],
    "itemIcon": "UI_Home_Suite_Exterior_Xm_Forest_Village",
    "mapIcon": "UI_MarkPoint_Homeworld_Suit",
    "interRatio": 0.4
  },
  {
    "suiteID": 68,
    "jsonName": "Home_Suite_Exterior_Xm_Build_Theater",
    "suiteNameTextMapHash": 1976251826,
    "suiteDescTextMapHash": 3138366992,
    "favoriteNpcExcelIdVec": [
      10000070,
      10000081
    ],
    "transStr": "13.51,6.8,211;-13.47,9.65,126;-14.08,18.07,144;-6.8,8.85,142;12.62,18.09,209",
    "furnType": [
      772,
      0
    ],
    "itemIcon": "UI_Home_Suite_Exterior_Xm_Build_Theater",
    "mapIcon": "UI_MarkPoint_Homeworld_Suit",
    "interRatio": 0.4
  },
  {
    "suiteID": 69,
    "jsonName": "Home_Suite_Exterior_Xm_Street_Fish",
    "suiteNameTextMapHash": 3808946930,
    "suiteDescTextMapHash": 4255483960,
    "favoriteNpcExcelIdVec": [
      10000075
    ],
    "transStr": "14.1,6.76,244;16.79,-6.78,292;10.48,-2.34,283;15.48,0.29,269;9.9,2.24,257",
    "furnType": [
      772,
      0
    ],
    "itemIcon": "UI_Home_Suite_Exterior_Xm_Street_Fish",
    "mapIcon": "UI_MarkPoint_Homeworld_Suit",
    "interRatio": 0.4
  },
  {
    "suiteID": 70,
    "jsonName": "Home_Suite_Exterior_Xm_Build_Village",
    "suiteNameTextMapHash": 1349475178,
    "suiteDescTextMapHash": 1091996088,
    "favoriteNpcExcelIdVec": [
      10000072,
      10000074
    ],
    "transStr": "2.21,13.33,189;7.13,19.42,200;-1.06,19.79,177;-1.2,7.04,170;3.32,-2.77,310",
    "furnType": [
      772,
      0
    ],
    "itemIcon": "UI_Home_Suite_Exterior_Xm_Build_Village",
    "mapIcon": "UI_MarkPoint_Homeworld_Suit",
    "interRatio": 0.4
  },
  {
    "suiteID": 71,
    "jsonName": "Home_Suite_Exterior_Xm_Build_Camp",
    "suiteNameTextMapHash": 2438369226,
    "suiteDescTextMapHash": 949104616,
    "favoriteNpcExcelIdVec": [
      10000079
    ],
    "transStr": "12.67,0.29,269;3.89,-16.14,346;6.25,-9.92,328;7.86,-5.03,303;0.43,-9.37,357",
    "furnType": [
      772,
      0
    ],
    "itemIcon": "UI_Home_Suite_Exterior_Xm_Build_Camp",
    "mapIcon": "UI_MarkPoint_Homeworld_Suit",
    "interRatio": 0.4
  },
  {
    "suiteID": 72,
    "jsonName": "Home_Suite_Exterior_Xm_Build_Garden",
    "suiteNameTextMapHash": 3407163162,
    "suiteDescTextMapHash": 632621496,
    "favoriteNpcExcelIdVec": [
      10000073,
      10000081,
      10000061
    ],
    "transStr": "-3.88,-19.9,11;-0.98,-16.53,3;-2.69,7.02,358;-10.17,-6.87,3;5.19,-7.77,355",
    "furnType": [
      772,
      0
    ],
    "itemIcon": "UI_Home_Suite_Exterior_Xm_Build_Garden",
    "mapIcon": "UI_MarkPoint_Homeworld_Suit",
    "interRatio": 0.4
  },
  {
    "suiteID": 73,
    "jsonName": "Home_Suite_Exterior_Xm_Field_Vegetation",
    "suiteNameTextMapHash": 2242912994,
    "suiteDescTextMapHash": 731533440,
    "favoriteNpcExcelIdVec": [
      10000069,
      10000075
    ],
    "transStr": "-2.93,-11.48,14;0,-11.17,0;-7.51,-8.86,40;6.03,-9.36,327;3.63,-9.98,340",
    "furnType": [
      772,
      0
    ],
    "itemIcon": "UI_Home_Suite_Exterior_Xm_Field_Vegetation",
    "mapIcon": "UI_MarkPoint_Homeworld_Suit",
    "interRatio": 0.4
  },
  {
    "suiteID": 74,
    "jsonName": "Home_Suite_Interior_Fd_Room_of_Houses",
    "suiteNameTextMapHash": 2549732058,
    "suiteDescTextMapHash": 559132576,
    "favoriteNpcExcelIdVec": [
      10000088,
      10000090
    ],
    "transStr": "2.66,-2.23,311;2.3,0.58,216;0.81,-1.16,53;-2.16,0.4,136;0.74,-3.55,308",
    "furnType": [
      672,
      0
    ],
    "itemIcon": "UI_Home_Suite_Interior_Fd_Room_Houses",
    "mapIcon": "UI_MarkPoint_Homeworld_Suit",
    "interRatio": 0.3
  },
  {
    "suiteID": 75,
    "jsonName": "Home_Suite_Interior_Fd_Room_of_Office",
    "suiteNameTextMapHash": 812777818,
    "suiteDescTextMapHash": 4222509040,
    "favoriteNpcExcelIdVec": [
      10000087,
      10000098
    ],
    "transStr": "-4.71,2.12,60;-0.62,-1.66,293;1.3,2.03,239;2.16,-2.14,221;-4.44,-0.2,91",
    "furnType": [
      672,
      0
    ],
    "itemIcon": "UI_Home_Suite_Interior_Fd_Room_Office",
    "mapIcon": "UI_MarkPoint_Homeworld_Suit",
    "interRatio": 0.3
  },
  {
    "suiteID": 76,
    "jsonName": "Home_Suite_Interior_Fd_Room_of_Hotel",
    "suiteNameTextMapHash": 4141406754,
    "suiteDescTextMapHash": 2357882128,
    "favoriteNpcExcelIdVec": [
      10000089,
      10000091
    ],
    "transStr": "5.18,1.97,233;0.17,3,191;1.28,-2.72,306;-5.56,1.92,134;-4.61,-1.64,56",
    "furnType": [
      672,
      0
    ],
    "itemIcon": "UI_Home_Suite_Interior_Fd_Room_Hotel",
    "mapIcon": "UI_MarkPoint_Homeworld_Suit",
    "interRatio": 0.3
  },
  {
    "suiteID": 77,
    "jsonName": "Home_Suite_Interior_Fd_Room_of_Stage",
    "suiteNameTextMapHash": 905441522,
    "suiteDescTextMapHash": 4239560992,
    "favoriteNpcExcelIdVec": [
      10000083,
      10000084,
      10000096
    ],
    "transStr": "3.99,-2.93,246;3.41,-1.23,49;1.61,-3.3,349;-3.32,-0.76,124;-4.79,-2.27,68",
    "furnType": [
      672,
      0
    ],
    "itemIcon": "UI_Home_Suite_Interior_Fd_Room_Stage",
    "mapIcon": "UI_MarkPoint_Homeworld_Suit",
    "interRatio": 0.3
  },
  {
    "suiteID": 78,
    "jsonName": "Home_Suite_Interior_Fd_Room_of_Machinery",
    "suiteNameTextMapHash": 3335846050,
    "suiteDescTextMapHash": 1757205224,
    "favoriteNpcExcelIdVec": [
      10000085
    ],
    "transStr": "-1.75,3.18,177;1.6,2.22,133;-1.57,-1.25,203;0.8,-1.25,85;1.82,-2.29,321",
    "furnType": [
      672,
      0
    ],
    "itemIcon": "UI_Home_Suite_Interior_Fd_Room_Machinery",
    "mapIcon": "UI_MarkPoint_Homeworld_Suit",
    "interRatio": 0.3
  },
  {
    "suiteID": 79,
    "jsonName": "Home_Suite_Interior_Fd_Room_of_Meropide",
    "suiteNameTextMapHash": 2463140826,
    "suiteDescTextMapHash": 562603232,
    "favoriteNpcExcelIdVec": [
      10000086
    ],
    "transStr": "-0.85,-1.29,76;0.59,-2.15,163;-2.98,0.74,95;-3.61,-2.12,76;-0.31,2.88,229",
    "furnType": [
      672,
      0
    ],
    "itemIcon": "UI_Home_Suite_Interior_Fd_Room_Meropide",
    "mapIcon": "UI_MarkPoint_Homeworld_Suit",
    "interRatio": 0.3
  },
  {
    "suiteID": 80,
    "jsonName": "Home_Suite_Exterior_Fd_Build_Residential",
    "suiteNameTextMapHash": 726473322,
    "suiteDescTextMapHash": 1587569064,
    "favoriteNpcExcelIdVec": [
      10000088,
      10000096
    ],
    "transStr": "-14.37,0.95,113;5.77,-15.56,197;2.44,-23.49,21;11.14,6.38,328;6.32,5.7,165",
    "furnType": [
      772,
      0
    ],
    "itemIcon": "UI_Home_Suite_Exterior_Fd_Build_Residential",
    "mapIcon": "UI_MarkPoint_Homeworld_Suit",
    "interRatio": 0.4
  },
  {
    "suiteID": 81,
    "jsonName": "Home_Suite_Exterior_Fd_Street_Commercial",
    "suiteNameTextMapHash": 1759840482,
    "suiteDescTextMapHash": 189723688,
    "favoriteNpcExcelIdVec": [
      10000083,
      10000084,
      10000094
    ],
    "transStr": "0.92,21.36,133;4.82,4.89,115;-18.25,-10.75,40;-6.95,6.72,287;6.3,12.53,252",
    "furnType": [
      772,
      0
    ],
    "itemIcon": "UI_Home_Suite_Exterior_Fd_Street_Commercial",
    "mapIcon": "UI_MarkPoint_Homeworld_Suit",
    "interRatio": 0.4
  },
  {
    "suiteID": 82,
    "jsonName": "Home_Suite_Exterior_Fd_Build_Square",
    "suiteNameTextMapHash": 1027125210,
    "suiteDescTextMapHash": 1985409168,
    "favoriteNpcExcelIdVec": [
      10000087,
      10000089,
      10000099
    ],
    "transStr": "-4.23,-17.44,15;-5.86,7.64,347;10.04,6.72,138;-25.13,-13.51,0;11.76,4.78,244",
    "furnType": [
      772,
      0
    ],
    "itemIcon": "UI_Home_Suite_Exterior_Fd_Build_Square",
    "mapIcon": "UI_MarkPoint_Homeworld_Suit",
    "interRatio": 0.4
  },
  {
    "suiteID": 83,
    "jsonName": "Home_Suite_Exterior_Fd_Build_Town",
    "suiteNameTextMapHash": 337250826,
    "suiteDescTextMapHash": 1168619552,
    "favoriteNpcExcelIdVec": [
      10000091
    ],
    "transStr": "-6.47,19.07,162;-11.07,-8.18,228;19.11,-3.07,214;0.4,5.78,68;-21.03,-7.39,126",
    "furnType": [
      772,
      0
    ],
    "itemIcon": "UI_Home_Suite_Exterior_Fd_Build_Town",
    "mapIcon": "UI_MarkPoint_Homeworld_Suit",
    "interRatio": 0.4
  },
  {
    "suiteID": 84,
    "jsonName": "Home_Suite_Exterior_Fd_Build_Village",
    "suiteNameTextMapHash": 1522389506,
    "suiteDescTextMapHash": 3661741960,
    "favoriteNpcExcelIdVec": [
      10000085,
      10000095
    ],
    "transStr": "10.61,15.5,262;-7.32,-6.56,178;-6.45,7.4,13;4.2,6.14,197;-1.25,2.14,46",
    "furnType": [
      772,
      0
    ],
    "itemIcon": "UI_Home_Suite_Exterior_Fd_Build_Village",
    "mapIcon": "UI_MarkPoint_Homeworld_Suit",
    "interRatio": 0.4
  },
  {
    "suiteID": 85,
    "jsonName": "Home_Suite_Exterior_Fd_Fortress_Meropide",
    "suiteNameTextMapHash": 3152718610,
    "suiteDescTextMapHash": 2679238168,
    "favoriteNpcExcelIdVec": [
      10000086,
      10000090,
      10000095
    ],
    "transStr": "-1.35,-17.94,10;-14.21,11.9,164;-18.51,-10.01,335;7.52,-16.08,302;19.51,-7.4,0",
    "furnType": [
      772,
      0
    ],
    "itemIcon": "UI_Home_Suite_Exterior_Fd_Fortress_Meropide",
    "mapIcon": "UI_MarkPoint_Homeworld_Suit",
    "interRatio": 0.4
  },
  {
    "suiteID": 86,
    "jsonName": "Home_Suite_Exterior_Fd_Field_Vegetation",
    "suiteNameTextMapHash": 2986113506,
    "suiteDescTextMapHash": 1037323264,
    "favoriteNpcExcelIdVec": [
      10000098,
      10000099
    ],
    "transStr": "-14.65,7.56,109;-17.7,-10.65,92;-11.14,-7.51,0;-0.32,14.42,193;-8.08,-2.83,56",
    "furnType": [
      772,
      0
    ],
    "itemIcon": "UI_Home_Suite_Exterior_Fd_Field_Vegetation",
    "mapIcon": "UI_MarkPoint_Homeworld_Suit",
    "interRatio": 0.4
  },
  {
    "suiteID": 87,
    "jsonName": "Home_Suite_Interior_Nt_Room_Office",
    "suiteNameTextMapHash": 2504564298,
    "suiteDescTextMapHash": 3751533936,
    "favoriteNpcExcelIdVec": [
      10000104,
      10000106
    ],
    "transStr": "0,-2.24,0;2.92,2.96,-152.53;-3.12,2.46,152.97;2.95,0,-75.52;-2.51,-0.96,38.08",
    "furnType": [
      672,
      0
    ],
    "itemIcon": "UI_Home_Suite_Interior_Nt_Room_Office",
    "mapIcon": "UI_MarkPoint_Homeworld_Suit",
    "interRatio": 0.3
  },
  {
    "suiteID": 88,
    "jsonName": "Home_Suite_Interior_Nt_Room_Hotel",
    "suiteNameTextMapHash": 3361336890,
    "suiteDescTextMapHash": 594315896,
    "favoriteNpcExcelIdVec": [
      10000106
    ],
    "transStr": "2.8,0.57,-116.82;1.15,-3.81,-14.34;-3.45,0,94.18;-3.32,1.94,122.97;-0.83,3.23,177.04",
    "furnType": [
      672,
      0
    ],
    "itemIcon": "UI_Home_Suite_Interior_Nt_Room_Hotel",
    "mapIcon": "UI_MarkPoint_Homeworld_Suit",
    "interRatio": 0.3
  },
  {
    "suiteID": 89,
    "jsonName": "Home_Suite_Interior_Nt_Room_Universal",
    "suiteNameTextMapHash": 1090471170,
    "suiteDescTextMapHash": 1658285008,
    "favoriteNpcExcelIdVec": [
      10000100,
      10000107
    ],
    "transStr": "1.59,1.84,-89.9;-2.46,3.58,-236.74;2.65,-2.7,0;-2.89,-2.98,0;-3.15,0.23,77.26",
    "furnType": [
      672,
      0
    ],
    "itemIcon": "UI_Home_Suite_Interior_Nt_Room_Universal",
    "mapIcon": "UI_MarkPoint_Homeworld_Suit",
    "interRatio": 0.3
  },
  {
    "suiteID": 90,
    "jsonName": "Home_Suite_Exterior_Nt_Build_Market",
    "suiteNameTextMapHash": 2118164722,
    "suiteDescTextMapHash": 1014933712,
    "favoriteNpcExcelIdVec": [
      10000102
    ],
    "transStr": "3.15,-3.67,0;-2.27,-2.49,0;-3.34,4.72,90;6.15,7.47,-90;4.58,1.82,-90",
    "furnType": [
      772,
      0
    ],
    "itemIcon": "UI_Home_Suite_Exterior_Nt_Build_Market",
    "mapIcon": "UI_MarkPoint_Homeworld_Suit",
    "interRatio": 0.4
  },
  {
    "suiteID": 91,
    "jsonName": "Home_Suite_Exterior_Nt_Build_Mine",
    "suiteNameTextMapHash": 2507166866,
    "suiteDescTextMapHash": 3223582624,
    "favoriteNpcExcelIdVec": [
      10000103
    ],
    "transStr": "-0.4,1.76,170;-6.58,-7.01,80.2;7.6,-8.82,-90;-1.72,-12.31,20.9;-5.55,1.55,141.15",
    "furnType": [
      772,
      0
    ],
    "itemIcon": "UI_Home_Suite_Exterior_Nt_Build_Mine",
    "mapIcon": "UI_MarkPoint_Homeworld_Suit",
    "interRatio": 0.4
  },
  {
    "suiteID": 92,
    "jsonName": "Home_Suite_Exterior_Nt_Field_Nature",
    "suiteNameTextMapHash": 76690282,
    "suiteDescTextMapHash": 2626415304,
    "favoriteNpcExcelIdVec": [
      10000101,
      10000105
    ],
    "transStr": "8.21,4.18,208.54;14.54,-7.18,-90;-0.28,8.41,180;-7.33,-2.31,90;1.25,-12.64,0",
    "furnType": [
      772,
      0
    ],
    "itemIcon": "UI_Home_Suite_Exterior_Nt_Field_Nature",
    "mapIcon": "UI_MarkPoint_Homeworld_Suit",
    "interRatio": 0.4
  },
  {
    "suiteID": 93,
    "jsonName": "Home_Suite_Exterior_Nt_Build_Tepetlisaurus",
    "suiteNameTextMapHash": 1578495282,
    "suiteDescTextMapHash": 1224555800,
    "favoriteNpcExcelIdVec": [
      10000100,
      10000103
    ],
    "transStr": "11.22,0,-151.47;12.4,-24,-90;-16.9,-38.02,80.6;-10.91,-5.04,86.44;-8.7,-19.84,90",
    "furnType": [
      772,
      0
    ],
    "itemIcon": "UI_Home_Suite_Exterior_Nt_Build_Tepetlisaurus",
    "mapIcon": "UI_MarkPoint_Homeworld_Suit",
    "interRatio": 0.4
  },
  {
    "suiteID": 94,
    "jsonName": "Home_Suite_Exterior_Nt_Build_Koholasaurus",
    "suiteNameTextMapHash": 3249810130,
    "suiteDescTextMapHash": 1579213320,
    "favoriteNpcExcelIdVec": [
      10000102
    ],
    "transStr": "-3.93,-5.66,90;-3.47,-12.45,56.8;6.97,1.19,-135.05;2.8,-13.1,-5.59;6.84,-10.84,-46.16",
    "furnType": [
      772,
      0
    ],
    "itemIcon": "UI_Home_Suite_Exterior_Nt_Build_Koholasaurus",
    "mapIcon": "UI_MarkPoint_Homeworld_Suit",
    "interRatio": 0.4
  },
  {
    "suiteID": 95,
    "jsonName": "Home_Suite_Exterior_Nt_Build_Yumkasaurus",
    "suiteNameTextMapHash": 2154142938,
    "suiteDescTextMapHash": 3576486920,
    "favoriteNpcExcelIdVec": [
      10000101
    ],
    "transStr": "4.4,4.89,-157.43;14.61,-1.14,-81.58;5.31,-12.68,-22.03;-10.77,-4.36,68;-8.77,6.04,151.51",
    "furnType": [
      772,
      0
    ],
    "itemIcon": "UI_Home_Suite_Exterior_Nt_Build_Yumkasaurus",
    "mapIcon": "UI_MarkPoint_Homeworld_Suit",
    "interRatio": 0.4
  },
  {
    "suiteID": 96,
    "jsonName": "Home_Suite_Exterior_Nt_Build_Qucusaurus",
    "suiteNameTextMapHash": 803801930,
    "suiteDescTextMapHash": 754090592,
    "favoriteNpcExcelIdVec": [
      10000104
    ],
    "transStr": "-7.29,7.34,167.42;12.8,0.2,-112.98;8.98,-11.02,-35.99;-5.1,-14.16,0;1.8,-13.48,-12",
    "furnType": [
      772,
      0
    ],
    "itemIcon": "UI_Home_Suite_Exterior_Nt_Build_Qucusaurus",
    "mapIcon": "UI_MarkPoint_Homeworld_Suit",
    "interRatio": 0.4
  },
  {
    "suiteID": 97,
    "jsonName": "Home_Suite_Exterior_Nt_Build_Iktomisaurus",
    "suiteNameTextMapHash": 3556794650,
    "suiteDescTextMapHash": 820142360,
    "favoriteNpcExcelIdVec": [
      10000105,
      10000107
    ],
    "transStr": "-24.13,16.8,127.5;-9.5,-2.63,65.8;-5.1,13.59,-190.95;15.77,-19.9,80.8;12.98,5,163.68",
    "furnType": [
      772,
      0
    ],
    "itemIcon": "UI_Home_Suite_Exterior_Nt_Build_Iktomisaurus",
    "mapIcon": "UI_MarkPoint_Homeworld_Suit",
    "interRatio": 0.4
  }
]