[
  {
    "buffID": 11,
    "KCHGDDGFPPD": "UI_Activity_CrystalLink_Buff_Energy",
    "buffDescTextMapHash": 2054677688
  },
  {
    "buffID": 12,
    "KCHGDDGFPPD": "UI_Icon_JourneyDice_Buff_02",
    "buffDescTextMapHash": 3272852512
  },
  {
    "buffID": 13,
    "KCHGDDGFPPD": "UI_Icon_MultiCharacter_12",
    "buffDescTextMapHash": 1321699328
  },
  {
    "buffID": 14,
    "KCHGDDGFPPD": "UI_Activity_Common_Buff_019",
    "buffDescTextMapHash": 2631242712
  },
  {
    "buffID": 21,
    "KCHGDDGFPPD": "UI_Activity_Common_Buff_046",
    "buffDescTextMapHash": 962943216
  },
  {
    "buffID": 22,
    "KCHGDDGFPPD": "UI_Activity_Common_Buff_048",
    "buffDescTextMapHash": 2061115760
  },
  {
    "buffID": 23,
    "KCHGDDGFPPD": "UI_Activity_GainBuff_Buff_01",
    "buffDescTextMapHash": 1044963144
  },
  {
    "buffID": 24,
    "KCHGDDGFPPD": "UI_Icon_JourneyDice_Buff_02",
    "buffDescTextMapHash": 3237061584
  },
  {
    "buffID": 31,
    "KCHGDDGFPPD": "UI_Activity_CrystalLink_Buff_Defense",
    "buffDescTextMapHash": 976696456
  },
  {
    "buffID": 32,
    "KCHGDDGFPPD": "UI_Activity_InstableSpray_Buff_19",
    "buffDescTextMapHash": 759118944
  },
  {
    "buffID": 33,
    "KCHGDDGFPPD": "UI_Activity_GainBuff_Buff_02",
    "buffDescTextMapHash": 2870866368
  },
  {
    "buffID": 34,
    "KCHGDDGFPPD": "UI_Activity_Common_Buff_007",
    "buffDescTextMapHash": 2433437816
  },
  {
    "buffID": 41,
    "KCHGDDGFPPD": "UI_Activity_Common_Buff_011",
    "buffDescTextMapHash": 2904770536
  },
  {
    "buffID": 42,
    "KCHGDDGFPPD": "UI_Icon_JourneyDice_Buff_05",
    "buffDescTextMapHash": 3310771768
  },
  {
    "buffID": 43,
    "KCHGDDGFPPD": "UI_Activity_GainBuff_Buff_03",
    "buffDescTextMapHash": 874590688
  },
  {
    "buffID": 44,
    "KCHGDDGFPPD": "UI_Activity_GainBuff_Buff_04",
    "buffDescTextMapHash": 1070731616
  },
  {
    "buffID": 51,
    "KCHGDDGFPPD": "UI_Activity_GainBuff_Buff_05",
    "buffDescTextMapHash": 4129797712
  },
  {
    "buffID": 52,
    "KCHGDDGFPPD": "UI_Activity_Common_Buff_019",
    "buffDescTextMapHash": 3406744056
  },
  {
    "buffID": 53,
    "KCHGDDGFPPD": "UI_Activity_GainBuff_Buff_06",
    "buffDescTextMapHash": 3124605472
  },
  {
    "buffID": 54,
    "KCHGDDGFPPD": "UI_Activity_GainBuff_Buff_07",
    "buffDescTextMapHash": 2246804504
  }
]