[
  {
    "OGEHKPNNPNB": "ART/UI/Atlas/GCG/GcgArena/UI_Img_GcgArena_Cat_00",
    "CDMMLEMKEOH": ""
  },
  {
    "GHCNKHCIKCE": 1,
    "rank": 1,
    "OGEHKPNNPNB": "ART/UI/Atlas/GCG/GcgArena/UI_Img_GcgArena_Cat_01",
    "CDMMLEMKEOH": ""
  },
  {
    "GHCNKHCIKCE": 2,
    "rank": 2,
    "OGEHKPNNPNB": "ART/UI/Atlas/GCG/GcgArena/UI_Img_GcgArena_Cat_02",
    "CDMMLEMKEOH": ""
  },
  {
    "GHCNKHCIKCE": 3,
    "rank": 3,
    "OGEHKPNNPNB": "ART/UI/Atlas/GCG/GcgArena/UI_Img_GcgArena_Cat_03",
    "CDMMLEMKEOH": ""
  },
  {
    "GHCNKHCIKCE": 4,
    "rank": 4,
    "OGEHKPNNPNB": "ART/UI/Atlas/GCG/GcgArena/UI_Img_GcgArena_Cat_04",
    "CDMMLEMKEOH": ""
  },
  {
    "GHCNKHCIKCE": 5,
    "rank": 5,
    "OGEHKPNNPNB": "ART/UI/Atlas/GCG/GcgArena/UI_Img_GcgArena_Cat_05",
    "CDMMLEMKEOH": ""
  }
]