[
  {
    "id": 1,
    "type": "GCG_CHALLENGE_WIN",
    "paramList": [
      "",
      "",
      "",
      ""
    ],
    "progressShow": 1,
    "progress": 1
  },
  {
    "id": 2,
    "type": "GCG_CHALLENGE_DEAD_CHARACTER_NUM",
    "paramList": [
      "",
      "",
      "",
      ""
    ],
    "isAchieveFail": true,
    "progressShow": 1,
    "progress": 1
  },
  {
    "id": 3,
    "type": "GCG_CHALLENGE_DEAD_CHARACTER_NUM",
    "paramList": [
      "",
      "",
      "",
      ""
    ],
    "isAchieveFail": true,
    "progressShow": 2,
    "progress": 2
  },
  {
    "id": 13,
    "type": "GCG_CHALLENGE_ROUND_NUM",
    "paramList": [
      "",
      "",
      "",
      ""
    ],
    "isAchieveFail": true,
    "progressShow": 3,
    "progress": 4
  },
  {
    "id": 14,
    "type": "GCG_CHALLENGE_ROUND_NUM",
    "paramList": [
      "",
      "",
      "",
      ""
    ],
    "isAchieveFail": true,
    "progressShow": 4,
    "progress": 5
  },
  {
    "id": 15,
    "type": "GCG_CHALLENGE_ROUND_NUM",
    "paramList": [
      "",
      "",
      "",
      ""
    ],
    "isAchieveFail": true,
    "progressShow": 5,
    "progress": 6
  },
  {
    "id": 16,
    "type": "GCG_CHALLENGE_ROUND_NUM",
    "paramList": [
      "",
      "",
      "",
      ""
    ],
    "isAchieveFail": true,
    "progressShow": 6,
    "progress": 7
  },
  {
    "id": 17,
    "type": "GCG_CHALLENGE_ROUND_NUM",
    "paramList": [
      "",
      "",
      "",
      ""
    ],
    "isAchieveFail": true,
    "progressShow": 7,
    "progress": 8
  },
  {
    "id": 101,
    "type": "GCG_CHALLENGE_PLAY_CARD_WITH_TAG_AND_TYPE_TIMES",
    "paramList": [
      "GCG_TAG_WEAPON",
      "GCG_CARD_MODIFY",
      "",
      ""
    ],
    "progressShow": 1,
    "progress": 1
  },
  {
    "id": 102,
    "type": "GCG_CHALLENGE_PLAY_CARD_WITH_TAG_AND_TYPE_TIMES",
    "paramList": [
      "GCG_TAG_ARTIFACT",
      "GCG_CARD_MODIFY",
      "",
      ""
    ],
    "progressShow": 1,
    "progress": 1
  },
  {
    "id": 103,
    "type": "GCG_CHALLENGE_PLAY_CARD_WITH_TAG_AND_TYPE_TIMES",
    "paramList": [
      "GCG_TAG_PLACE",
      "GCG_CARD_ASSIST",
      "",
      ""
    ],
    "progressShow": 1,
    "progress": 1
  },
  {
    "id": 104,
    "type": "GCG_CHALLENGE_PLAY_CARD_WITH_TAG_AND_TYPE_TIMES",
    "paramList": [
      "GCG_TAG_FOOD",
      "GCG_CARD_EVENT",
      "",
      ""
    ],
    "progressShow": 1,
    "progress": 1
  },
  {
    "id": 105,
    "type": "GCG_CHALLENGE_PLAY_CARD_WITH_TAG_AND_TYPE_TIMES",
    "paramList": [
      "",
      "GCG_CARD_EVENT",
      "",
      ""
    ],
    "progressShow": 2,
    "progress": 2
  },
  {
    "id": 106,
    "type": "GCG_CHALLENGE_PLAY_CARD_TIMES",
    "paramList": [
      "",
      "",
      "",
      ""
    ],
    "progressShow": 3,
    "progress": 3
  },
  {
    "id": 201,
    "type": "GCG_CHALLENGE_SKILL_TAG_Q_TIMES",
    "paramList": [
      "",
      "",
      "",
      ""
    ],
    "progressShow": 1,
    "progress": 1
  },
  {
    "id": 202,
    "type": "GCG_CHALLENGE_SKILL_TAG_Q_TIMES",
    "paramList": [
      "",
      "",
      "",
      ""
    ],
    "progressShow": 2,
    "progress": 2
  },
  {
    "id": 203,
    "type": "GCG_CHALLENGE_SKILL_TAG_Q_TIMES",
    "paramList": [
      "",
      "",
      "",
      ""
    ],
    "progressShow": 3,
    "progress": 3
  },
  {
    "id": 211,
    "type": "GCG_CHALLENGE_ELEMENT_REACTION_TIMES",
    "paramList": [
      "",
      "",
      "",
      ""
    ],
    "progressShow": 1,
    "progress": 1
  },
  {
    "id": 212,
    "type": "GCG_CHALLENGE_ELEMENT_REACTION_TIMES",
    "paramList": [
      "",
      "",
      "",
      ""
    ],
    "progressShow": 2,
    "progress": 2
  },
  {
    "id": 213,
    "type": "GCG_CHALLENGE_ELEMENT_REACTION_TIMES",
    "paramList": [
      "",
      "",
      "",
      ""
    ],
    "progressShow": 3,
    "progress": 3
  },
  {
    "id": 901,
    "type": "GCG_CHALLENGE_ELEMENT_REACTION_TIMES",
    "paramList": [
      "",
      "",
      "",
      ""
    ],
    "progressShow": 1,
    "progress": 1
  },
  {
    "id": 902,
    "type": "GCG_CHALLENGE_ONE_HIT_DAMAGE_TIMES",
    "paramList": [
      "8",
      "",
      "",
      ""
    ],
    "progressShow": 1,
    "progress": 1
  },
  {
    "id": 903,
    "type": "GCG_CHALLENGE_PLAY_CARD_TIMES",
    "paramList": [
      "",
      "",
      "",
      ""
    ],
    "progressShow": 1,
    "progress": 1
  },
  {
    "id": 904,
    "type": "GCG_CHALLENGE_SUMMON_TIMES",
    "paramList": [
      "",
      "",
      "",
      ""
    ],
    "progressShow": 1,
    "progress": 1
  },
  {
    "id": 905,
    "type": "GCG_CHALLENGE_SETTLE_WITH_SKILL_TAG_Q_TIMES",
    "paramList": [
      "3",
      "",
      "",
      ""
    ],
    "progressShow": 1,
    "progress": 1
  },
  {
    "id": 906,
    "type": "GCG_CHALLENGE_BEING_HEAL_SUM",
    "paramList": [
      "",
      "",
      "",
      ""
    ],
    "progressShow": 1,
    "progress": 1
  },
  {
    "id": 907,
    "type": "GCG_CHALLENGE_SHIELD_REDUCE_SUM",
    "paramList": [
      "",
      "",
      "",
      ""
    ],
    "progressShow": 1,
    "progress": 1
  },
  {
    "id": 908,
    "type": "GCG_CHALLENGE_ONE_OPERATION_KILL_COUNT_TIMES",
    "paramList": [
      "2",
      "",
      "",
      ""
    ],
    "progressShow": 1,
    "progress": 1
  },
  {
    "id": 909,
    "type": "GCG_CHALLENGE_ONE_OPERATION_DAMAGE_SUM_TIMES",
    "paramList": [
      "8",
      "",
      "",
      ""
    ],
    "progressShow": 1,
    "progress": 1
  }
]