[
  {
    "itemId": 339000,
    "prefabName": "Gcg_CardBack_01",
    "nameTextMapHash": 676923036,
    "descTextMapHash": 353954381,
    "unlockCondTextTextMapHash": 907024502,
    "order": 1,
    "staticImageHash": 5955048444008668827,
    "historyStaticImageHash": 17137945794185388821
  },
  {
    "id": 101,
    "itemId": 339001,
    "prefabName": "Gcg_CardBack_Mengde",
    "nameTextMapHash": 224657260,
    "descTextMapHash": 3046963981,
    "unlockCondTextTextMapHash": 2711962022,
    "order": 2,
    "staticImageHash": 8400781260855660634,
    "historyStaticImageHash": 12934817420903946015
  },
  {
    "id": 102,
    "itemId": 339002,
    "prefabName": "Gcg_CardBack_Liyue",
    "nameTextMapHash": 227656852,
    "descTextMapHash": 3099182813,
    "unlockCondTextTextMapHash": 2950676230,
    "order": 3,
    "staticImageHash": 2162461715491897557,
    "historyStaticImageHash": 946521606882035825
  },
  {
    "id": 103,
    "itemId": 339003,
    "prefabName": "Gcg_CardBack_Inazuma",
    "nameTextMapHash": 3154003388,
    "descTextMapHash": 3705895181,
    "unlockCondTextTextMapHash": 3615340158,
    "order": 4,
    "staticImageHash": 7741974315803207026,
    "historyStaticImageHash": 7543895705586279157
  },
  {
    "id": 104,
    "itemId": 339004,
    "prefabName": "Gcg_CardBack_Sumeru",
    "nameTextMapHash": 175694524,
    "descTextMapHash": 2496909349,
    "unlockCondTextTextMapHash": 3414498742,
    "order": 5,
    "staticImageHash": 13086920283368280245,
    "historyStaticImageHash": 4271844482978085241
  },
  {
    "id": 109,
    "itemId": 339009,
    "prefabName": "Gcg_CardBack_LevelReward",
    "nameTextMapHash": 1303503172,
    "descTextMapHash": 1003684749,
    "unlockCondTextTextMapHash": 2100138046,
    "order": 10,
    "staticImageHash": 12529666304738467772,
    "historyStaticImageHash": 16291427696082876402
  },
  {
    "id": 110,
    "itemId": 339010,
    "prefabName": "Gcg_CardBack_HandbookReward",
    "nameTextMapHash": 109851876,
    "descTextMapHash": 3234695645,
    "unlockCondTextTextMapHash": 3134801854,
    "order": 11,
    "staticImageHash": 5414235285501997935,
    "historyStaticImageHash": 456922116975439242
  },
  {
    "id": 111,
    "itemId": 339011,
    "prefabName": "Gcg_CardBack_CrystalChunk",
    "nameTextMapHash": 3885169068,
    "descTextMapHash": 1779428085,
    "unlockCondTextTextMapHash": 3807053326,
    "order": 101,
    "staticImageHash": 728510257260810500,
    "historyStaticImageHash": 10330911359376665631
  },
  {
    "id": 112,
    "itemId": 339012,
    "prefabName": "Gcg_CardBack_MagicalCrystalChunk",
    "nameTextMapHash": 1269391412,
    "descTextMapHash": 930269213,
    "unlockCondTextTextMapHash": 3798046198,
    "order": 102,
    "staticImageHash": 7978520093627840327,
    "historyStaticImageHash": 18067219207634859760
  },
  {
    "id": 113,
    "itemId": 339013,
    "prefabName": "Gcg_CardBack_AmethystLump",
    "nameTextMapHash": 3084691172,
    "descTextMapHash": 2011411341,
    "unlockCondTextTextMapHash": 2626177846,
    "order": 103,
    "staticImageHash": 4065480724821063734,
    "historyStaticImageHash": 11461293823358058568
  },
  {
    "id": 114,
    "itemId": 339014,
    "prefabName": "Gcg_CardBack_FlamingFlowerStamen",
    "nameTextMapHash": 1082255468,
    "descTextMapHash": 2948085421,
    "unlockCondTextTextMapHash": 3235168350,
    "order": 104,
    "staticImageHash": 5355399110285537242,
    "historyStaticImageHash": 7156094550485655906
  },
  {
    "id": 115,
    "itemId": 339015,
    "prefabName": "Gcg_CardBack_MistFlowerCorolla",
    "nameTextMapHash": 2745316188,
    "descTextMapHash": 3905600909,
    "unlockCondTextTextMapHash": 2639877110,
    "order": 105,
    "staticImageHash": 7955234963937979997,
    "historyStaticImageHash": 17551227748477288777
  },
  {
    "id": 116,
    "itemId": 339016,
    "prefabName": "Gcg_CardBack_ElectroCrystal",
    "nameTextMapHash": 3797431100,
    "descTextMapHash": 1816489677,
    "unlockCondTextTextMapHash": 86614022,
    "order": 106,
    "staticImageHash": 7015149431546231814,
    "historyStaticImageHash": 350713544469908220
  },
  {
    "id": 117,
    "itemId": 339017,
    "prefabName": "Gcg_CardBack_DandelionSeed",
    "nameTextMapHash": 856244868,
    "descTextMapHash": 388291885,
    "unlockCondTextTextMapHash": 1748351190,
    "order": 107,
    "staticImageHash": 3907336587166315354,
    "historyStaticImageHash": 17904172385502980206
  },
  {
    "id": 118,
    "itemId": 339018,
    "prefabName": "Gcg_CardBack_Cecilia",
    "nameTextMapHash": 1506195860,
    "descTextMapHash": 388552781,
    "unlockCondTextTextMapHash": 3637100366,
    "order": 108,
    "staticImageHash": 9329051223372775342,
    "historyStaticImageHash": 16765756899808728928
  },
  {
    "id": 119,
    "itemId": 339019,
    "prefabName": "Gcg_CardBack_GlazeLily",
    "nameTextMapHash": 432382212,
    "descTextMapHash": 2053528661,
    "unlockCondTextTextMapHash": 154721118,
    "order": 109,
    "staticImageHash": 13839908362556897712,
    "historyStaticImageHash": 13476174288848302462
  },
  {
    "id": 120,
    "itemId": 339020,
    "prefabName": "Gcg_CardBack_Dendrobium",
    "nameTextMapHash": 454618260,
    "descTextMapHash": 3270400653,
    "unlockCondTextTextMapHash": 52960310,
    "order": 110,
    "staticImageHash": 8666691502161323654,
    "historyStaticImageHash": 2946787137023744804
  },
  {
    "id": 121,
    "itemId": 339021,
    "prefabName": "Gcg_CardBack_Dvalin",
    "nameTextMapHash": 2768624492,
    "descTextMapHash": 376179413,
    "unlockCondTextTextMapHash": 3221107606,
    "hideWhenLocked": true,
    "order": 201,
    "staticImageHash": 13403849367134704728,
    "historyStaticImageHash": 3371523125816103683
  },
  {
    "id": 122,
    "itemId": 339022,
    "prefabName": "Gcg_CardBack_Thoarder",
    "nameTextMapHash": 2462869756,
    "descTextMapHash": 1856340277,
    "unlockCondTextTextMapHash": 2412729182,
    "hideWhenLocked": true,
    "order": 202,
    "staticImageHash": 17414896989251163585,
    "historyStaticImageHash": 225369868162578912
  },
  {
    "id": 123,
    "itemId": 339023,
    "prefabName": "Gcg_CardBack_Fontaine",
    "nameTextMapHash": 2592254052,
    "descTextMapHash": 3457047261,
    "unlockCondTextTextMapHash": 4020864222,
    "order": 6,
    "staticImageHash": 2337039438965580455,
    "historyStaticImageHash": 15383762291191630834
  },
  {
    "id": 124,
    "itemId": 339024,
    "prefabName": "Gcg_CardBack_Prison",
    "nameTextMapHash": 3561113556,
    "descTextMapHash": 4104359333,
    "unlockCondTextTextMapHash": 3873456462,
    "order": 203,
    "staticImageHash": 7812859076748041000,
    "historyStaticImageHash": 8908602606797929314
  },
  {
    "id": 125,
    "itemId": 339025,
    "prefabName": "Gcg_CardBack_Championship_01",
    "nameTextMapHash": 21731308,
    "descTextMapHash": 2445299357,
    "unlockCondTextTextMapHash": 517919766,
    "hideWhenLocked": true,
    "order": 301,
    "staticImageHash": 4192150080130856002,
    "historyStaticImageHash": 1459658239833098882
  },
  {
    "id": 126,
    "itemId": 339026,
    "prefabName": "Gcg_CardBack_Championship_02",
    "nameTextMapHash": 3344290628,
    "descTextMapHash": 1252013693,
    "unlockCondTextTextMapHash": 1870400198,
    "hideWhenLocked": true,
    "order": 302,
    "staticImageHash": 8342407098219168417,
    "historyStaticImageHash": 8015680469319258347
  },
  {
    "id": 127,
    "itemId": 339027,
    "prefabName": "Gcg_CardBack_Championship_03",
    "nameTextMapHash": 1516867884,
    "descTextMapHash": 1737367869,
    "unlockCondTextTextMapHash": 2799091150,
    "hideWhenLocked": true,
    "order": 303,
    "staticImageHash": 1730319403976818297,
    "historyStaticImageHash": 15756302694979914000
  },
  {
    "id": 128,
    "itemId": 339028,
    "prefabName": "Gcg_CardBack_Championship_04",
    "nameTextMapHash": 4233261612,
    "descTextMapHash": 4214769437,
    "unlockCondTextTextMapHash": 1354594494,
    "hideWhenLocked": true,
    "order": 304,
    "staticImageHash": 11682104949681847680,
    "historyStaticImageHash": 451701715477949879
  },
  {
    "id": 129,
    "itemId": 339029,
    "prefabName": "Gcg_CardBack_Fonta",
    "nameTextMapHash": 2000724164,
    "descTextMapHash": 4025224261,
    "unlockCondTextTextMapHash": 2216664606,
    "hideWhenLocked": true,
    "order": 204,
    "staticImageHash": 3696871712889801798,
    "historyStaticImageHash": 8331570051454820243
  },
  {
    "id": 130,
    "itemId": 339030,
    "prefabName": "Gcg_CardBack_Championship_05",
    "nameTextMapHash": 1469660156,
    "descTextMapHash": 1578061629,
    "unlockCondTextTextMapHash": 3509113686,
    "hideWhenLocked": true,
    "order": 305,
    "staticImageHash": 747322508229353444,
    "historyStaticImageHash": 1691026323229025574
  },
  {
    "id": 131,
    "itemId": 339031,
    "prefabName": "Gcg_CardBack_Natlan",
    "nameTextMapHash": 2291656236,
    "descTextMapHash": 2503273725,
    "unlockCondTextTextMapHash": 3557182078,
    "order": 7,
    "staticImageHash": 11900479132082632338,
    "historyStaticImageHash": 12382593898914345959
  },
  {
    "id": 132,
    "itemId": 339032,
    "prefabName": "Gcg_CardBack_Championship_06",
    "nameTextMapHash": 3837979316,
    "descTextMapHash": 1282822645,
    "unlockCondTextTextMapHash": 3557354886,
    "hideWhenLocked": true,
    "order": 306,
    "staticImageHash": 873047310915698202,
    "historyStaticImageHash": 14127770056215972046
  },
  {
    "id": 133,
    "itemId": 339033,
    "prefabName": "Gcg_CardBack_Championship_07",
    "nameTextMapHash": 2551304108,
    "descTextMapHash": 3675943821,
    "unlockCondTextTextMapHash": 2315244286,
    "hideWhenLocked": true,
    "order": 307,
    "staticImageHash": 6833846382106602549,
    "historyStaticImageHash": 14675799569330025411
  },
  {
    "id": 134,
    "itemId": 339034,
    "prefabName": "Gcg_CardBack_Fonta_02",
    "nameTextMapHash": 532834020,
    "descTextMapHash": 553482125,
    "unlockCondTextTextMapHash": 2930748950,
    "hideWhenLocked": true,
    "order": 306,
    "staticImageHash": 12227751984200736343,
    "historyStaticImageHash": 12975093045809788405
  }
]