[
  {
    "id": 1,
    "MIJEINGNILO": 1,
    "dungeonId": 9109,
    "trialAvatarList": [
      6075
    ],
    "openDay": 1,
    "ANDANFIIHCC": [
      15172001,
      15172002,
      15172003,
      15172101
    ],
    "buffId": 2,
    "levelTitleTextMapHash": 3679307927,
    "levelDescTextMapHash": 3043717715,
    "AHHBBKPIGEH": 2743379052,
    "ACLLBBCIBLO": 2343565554,
    "AAJENBCFAIJ": [
      3,
      4
    ],
    "PFFKBFPJLPF": 15172101
  },
  {
    "id": 2,
    "MIJEINGNILO": 1,
    "dungeonId": 9110,
    "trialAvatarList": [
      6076
    ],
    "openDay": 2,
    "ANDANFIIHCC": [
      15172004,
      15172005,
      15172006,
      15172102
    ],
    "buffId": 3,
    "levelTitleTextMapHash": 2881139439,
    "levelDescTextMapHash": 2809309099,
    "AHHBBKPIGEH": 2681216540,
    "ACLLBBCIBLO": 3249493354,
    "AAJENBCFAIJ": [
      5,
      6
    ],
    "PFFKBFPJLPF": 15172102
  },
  {
    "id": 3,
    "MIJEINGNILO": 1,
    "dungeonId": 9112,
    "trialAvatarList": [
      6072
    ],
    "openDay": 3,
    "ANDANFIIHCC": [
      15172007,
      15172008,
      15172009,
      15172103
    ],
    "buffId": 5,
    "levelTitleTextMapHash": 1627186175,
    "levelDescTextMapHash": 2642646827,
    "AHHBBKPIGEH": 64535524,
    "ACLLBBCIBLO": 4051182842,
    "AAJENBCFAIJ": [
      9,
      10
    ],
    "PFFKBFPJLPF": 15172103
  },
  {
    "id": 4,
    "MIJEINGNILO": 1,
    "dungeonId": 9108,
    "trialAvatarList": [
      6074
    ],
    "openDay": 4,
    "ANDANFIIHCC": [
      15172010,
      15172011,
      15172012,
      15172104
    ],
    "buffId": 1,
    "levelTitleTextMapHash": 2360884471,
    "levelDescTextMapHash": 3512129451,
    "AHHBBKPIGEH": 16325396,
    "ACLLBBCIBLO": 4236060586,
    "AAJENBCFAIJ": [
      1,
      2
    ],
    "PFFKBFPJLPF": 15172104
  },
  {
    "id": 5,
    "MIJEINGNILO": 1,
    "dungeonId": 9111,
    "trialAvatarList": [
      6065
    ],
    "openDay": 5,
    "ANDANFIIHCC": [
      15172013,
      15172014,
      15172015,
      15172105
    ],
    "buffId": 4,
    "levelTitleTextMapHash": 2230313855,
    "levelDescTextMapHash": 1036514955,
    "AHHBBKPIGEH": 1379243348,
    "ACLLBBCIBLO": 3356996546,
    "AAJENBCFAIJ": [
      7,
      8
    ],
    "PFFKBFPJLPF": 15172105
  }
]