[
  {
    "guideID": 101,
    "typeID": 2,
    "labelTextMapHash": 1747657480,
    "chapterID": 2003,
    "questType": "LQ",
    "order": 1,
    "icon": "ART/UI/Atlas/HandbookGuideIcon/UI_GuideIcon_LegendQuest",
    "showLabelTip": true,
    "showConds": [
      {
        "param": []
      },
      {
        "param": []
      },
      {
        "param": []
      }
    ]
  },
  {
    "guideID": 102,
    "typeID": 2,
    "labelTextMapHash": 3616459088,
    "chapterID": 2005,
    "questType": "LQ",
    "order": 2,
    "icon": "ART/UI/Atlas/HandbookGuideIcon/UI_GuideIcon_LegendQuest",
    "showLabelTip": true,
    "showConds": [
      {
        "param": []
      },
      {
        "param": []
      },
      {
        "param": []
      }
    ]
  },
  {
    "guideID": 103,
    "typeID": 2,
    "labelTextMapHash": 2059728408,
    "chapterID": 1105,
    "questType": "WQ",
    "order": 3,
    "icon": "ART/UI/Atlas/HandbookGuideIcon/UI_GuideIcon_MainQuest",
    "showConds": [
      {
        "param": []
      },
      {
        "param": []
      },
      {
        "param": []
      }
    ]
  },
  {
    "guideID": 104,
    "typeID": 2,
    "labelTextMapHash": 2859609408,
    "chapterID": 2021,
    "questType": "LQ",
    "order": 4,
    "icon": "ART/UI/Atlas/HandbookGuideIcon/UI_GuideIcon_LegendQuest",
    "showLabelTip": true,
    "showConds": [
      {
        "param": []
      },
      {
        "param": []
      },
      {
        "param": []
      }
    ]
  },
  {
    "guideID": 105,
    "typeID": 2,
    "labelTextMapHash": 3758934712,
    "chapterID": 2022,
    "questType": "LQ",
    "order": 5,
    "icon": "ART/UI/Atlas/HandbookGuideIcon/UI_GuideIcon_LegendQuest",
    "showLabelTip": true,
    "showConds": [
      {
        "param": []
      },
      {
        "param": []
      },
      {
        "param": []
      }
    ]
  },
  {
    "guideID": 106,
    "typeID": 2,
    "labelTextMapHash": 3723944144,
    "mainQuestID": 25001,
    "questType": "WQ",
    "order": 10,
    "icon": "ART/UI/Atlas/HandbookGuideIcon/UI_GuideIcon_MainQuest",
    "showConds": [
      {
        "param": []
      },
      {
        "param": []
      },
      {
        "param": []
      }
    ]
  },
  {
    "guideID": 107,
    "typeID": 2,
    "labelTextMapHash": 1174066328,
    "mainQuestID": 25005,
    "questType": "WQ",
    "order": 11,
    "icon": "ART/UI/Atlas/HandbookGuideIcon/UI_GuideIcon_MainQuest",
    "showConds": [
      {
        "param": []
      },
      {
        "param": []
      },
      {
        "param": []
      }
    ]
  },
  {
    "guideID": 108,
    "typeID": 2,
    "labelTextMapHash": 1979504208,
    "mainQuestID": 25009,
    "questType": "WQ",
    "order": 12,
    "icon": "ART/UI/Atlas/HandbookGuideIcon/UI_GuideIcon_MainQuest",
    "showConds": [
      {
        "param": []
      },
      {
        "param": []
      },
      {
        "param": []
      }
    ]
  },
  {
    "guideID": 109,
    "typeID": 2,
    "labelTextMapHash": 43979664,
    "mainQuestID": 25011,
    "questType": "WQ",
    "order": 13,
    "icon": "ART/UI/Atlas/HandbookGuideIcon/UI_GuideIcon_MainQuest",
    "showConds": [
      {
        "param": []
      },
      {
        "param": []
      },
      {
        "param": []
      }
    ]
  },
  {
    "guideID": 110,
    "typeID": 2,
    "labelTextMapHash": 517754488,
    "mainQuestID": 25015,
    "questType": "WQ",
    "order": 14,
    "icon": "ART/UI/Atlas/HandbookGuideIcon/UI_GuideIcon_MainQuest",
    "showConds": [
      {
        "param": []
      },
      {
        "param": []
      },
      {
        "param": []
      }
    ]
  },
  {
    "guideID": 201,
    "typeID": 3,
    "labelTextMapHash": 233466424,
    "mainQuestID": 20031,
    "questType": "WQ",
    "order": 1,
    "icon": "ART/UI/Atlas/HandbookGuideIcon/UI_GuideIcon_PlayMethod",
    "showConds": [
      {
        "param": []
      },
      {
        "param": []
      },
      {
        "param": []
      }
    ]
  },
  {
    "guideID": 202,
    "typeID": 3,
    "labelTextMapHash": 2180042976,
    "mainQuestID": 20505,
    "questType": "WQ",
    "order": 2,
    "icon": "ART/UI/Atlas/HandbookGuideIcon/UI_GuideIcon_PlayMethod",
    "showConds": [
      {
        "param": []
      },
      {
        "param": []
      },
      {
        "param": []
      }
    ]
  },
  {
    "guideID": 203,
    "typeID": 3,
    "labelTextMapHash": 2061937392,
    "mainQuestID": 20506,
    "questType": "WQ",
    "order": 3,
    "icon": "ART/UI/Atlas/HandbookGuideIcon/UI_GuideIcon_PlayMethod",
    "showConds": [
      {
        "param": []
      },
      {
        "param": []
      },
      {
        "param": []
      }
    ]
  },
  {
    "guideID": 204,
    "typeID": 3,
    "labelTextMapHash": 997823744,
    "mainQuestID": 70650,
    "questType": "WQ",
    "order": 4,
    "icon": "ART/UI/Atlas/HandbookGuideIcon/UI_GuideIcon_PlayMethod",
    "showConds": [
      {
        "param": []
      },
      {
        "param": []
      },
      {
        "param": []
      }
    ]
  },
  {
    "guideID": 205,
    "typeID": 3,
    "labelTextMapHash": 690014752,
    "mainQuestID": 70651,
    "questType": "WQ",
    "order": 5,
    "icon": "ART/UI/Atlas/HandbookGuideIcon/UI_GuideIcon_PlayMethod",
    "showConds": [
      {
        "param": []
      },
      {
        "param": []
      },
      {
        "param": []
      }
    ]
  },
  {
    "guideID": 206,
    "typeID": 3,
    "labelTextMapHash": 1850820280,
    "mainQuestID": 22111,
    "questType": "WQ",
    "order": 6,
    "icon": "ART/UI/Atlas/HandbookGuideIcon/UI_GuideIcon_PlayMethod",
    "showConds": [
      {
        "param": []
      },
      {
        "param": []
      },
      {
        "param": []
      }
    ]
  },
  {
    "guideID": 207,
    "typeID": 3,
    "labelTextMapHash": 3085984704,
    "mainQuestID": 71650,
    "questType": "WQ",
    "order": 7,
    "icon": "ART/UI/Atlas/HandbookGuideIcon/UI_GuideIcon_PlayMethod",
    "showConds": [
      {
        "param": []
      },
      {
        "param": []
      },
      {
        "param": []
      }
    ]
  },
  {
    "guideID": 208,
    "typeID": 3,
    "labelTextMapHash": 4147047056,
    "mainQuestID": 11008,
    "questType": "WQ",
    "order": 8,
    "icon": "ART/UI/Atlas/HandbookGuideIcon/UI_GuideIcon_PlayMethod",
    "showConds": [
      {
        "param": []
      },
      {
        "param": []
      },
      {
        "param": []
      }
    ]
  },
  {
    "guideID": 209,
    "typeID": 3,
    "labelTextMapHash": 2701120632,
    "mainQuestID": 70676,
    "questType": "WQ",
    "order": 9,
    "icon": "ART/UI/Atlas/HandbookGuideIcon/UI_GuideIcon_PlayMethod",
    "showConds": [
      {
        "param": []
      },
      {
        "param": []
      },
      {
        "param": []
      }
    ]
  },
  {
    "guideID": 210,
    "typeID": 3,
    "labelTextMapHash": 648933816,
    "mainQuestID": 70677,
    "questType": "WQ",
    "order": 10,
    "icon": "ART/UI/Atlas/HandbookGuideIcon/UI_GuideIcon_PlayMethod",
    "showConds": [
      {
        "param": []
      },
      {
        "param": []
      },
      {
        "param": []
      }
    ]
  },
  {
    "guideID": 211,
    "typeID": 3,
    "labelTextMapHash": 3792386480,
    "mainQuestID": 70678,
    "questType": "WQ",
    "order": 11,
    "icon": "ART/UI/Atlas/HandbookGuideIcon/UI_GuideIcon_PlayMethod",
    "showConds": [
      {
        "param": []
      },
      {
        "param": []
      },
      {
        "param": []
      }
    ]
  },
  {
    "guideID": 212,
    "typeID": 3,
    "labelTextMapHash": 2315234072,
    "mainQuestID": 70665,
    "questType": "WQ",
    "order": 12,
    "icon": "ART/UI/Atlas/HandbookGuideIcon/UI_GuideIcon_PlayMethod",
    "showConds": [
      {
        "param": []
      },
      {
        "param": []
      },
      {
        "param": []
      }
    ]
  },
  {
    "guideID": 213,
    "typeID": 3,
    "labelTextMapHash": 3769036264,
    "mainQuestID": 70661,
    "questType": "WQ",
    "order": 13,
    "icon": "ART/UI/Atlas/HandbookGuideIcon/UI_GuideIcon_PlayMethod",
    "showConds": [
      {
        "param": []
      },
      {
        "param": []
      },
      {
        "param": []
      }
    ]
  },
  {
    "guideID": 214,
    "typeID": 3,
    "labelTextMapHash": 1286155216,
    "mainQuestID": 70684,
    "questType": "WQ",
    "order": 14,
    "icon": "ART/UI/Atlas/HandbookGuideIcon/UI_GuideIcon_PlayMethod",
    "showConds": [
      {
        "param": []
      },
      {
        "param": []
      },
      {
        "param": []
      }
    ]
  },
  {
    "guideID": 215,
    "typeID": 3,
    "labelTextMapHash": 1996126856,
    "mainQuestID": 72657,
    "questType": "WQ",
    "order": 15,
    "icon": "ART/UI/Atlas/HandbookGuideIcon/UI_GuideIcon_PlayMethod",
    "showConds": [
      {
        "param": []
      },
      {
        "param": []
      },
      {
        "param": []
      }
    ]
  },
  {
    "guideID": 216,
    "typeID": 3,
    "labelTextMapHash": 471605776,
    "mainQuestID": 71654,
    "questType": "WQ",
    "order": 16,
    "icon": "ART/UI/Atlas/HandbookGuideIcon/UI_GuideIcon_PlayMethod",
    "showConds": [
      {
        "param": []
      },
      {
        "param": []
      },
      {
        "param": []
      }
    ]
  },
  {
    "guideID": 217,
    "typeID": 3,
    "labelTextMapHash": 1714575088,
    "mainQuestID": 71655,
    "questType": "WQ",
    "order": 17,
    "icon": "ART/UI/Atlas/HandbookGuideIcon/UI_GuideIcon_PlayMethod",
    "showConds": [
      {
        "param": []
      },
      {
        "param": []
      },
      {
        "param": []
      }
    ]
  },
  {
    "guideID": 218,
    "typeID": 3,
    "labelTextMapHash": 1796873248,
    "mainQuestID": 72183,
    "questType": "WQ",
    "order": 18,
    "icon": "ART/UI/Atlas/HandbookGuideIcon/UI_GuideIcon_PlayMethod",
    "showConds": [
      {
        "param": []
      },
      {
        "param": []
      },
      {
        "param": []
      }
    ]
  },
  {
    "guideID": 219,
    "typeID": 3,
    "labelTextMapHash": 2829374752,
    "mainQuestID": 73802,
    "questType": "WQ",
    "order": 19,
    "icon": "ART/UI/Atlas/HandbookGuideIcon/UI_GuideIcon_PlayMethod",
    "showConds": [
      {
        "param": []
      },
      {
        "param": []
      },
      {
        "param": []
      }
    ]
  },
  {
    "guideID": 220,
    "typeID": 3,
    "labelTextMapHash": 2671529184,
    "mainQuestID": 73673,
    "questType": "WQ",
    "order": 20,
    "icon": "ART/UI/Atlas/HandbookGuideIcon/UI_GuideIcon_PlayMethod",
    "showConds": [
      {
        "param": []
      },
      {
        "param": []
      },
      {
        "param": []
      }
    ]
  },
  {
    "guideID": 221,
    "typeID": 3,
    "labelTextMapHash": 2900204912,
    "mainQuestID": 74670,
    "questType": "WQ",
    "order": 21,
    "icon": "ART/UI/Atlas/HandbookGuideIcon/UI_GuideIcon_PlayMethod",
    "showConds": [
      {
        "param": []
      },
      {
        "param": []
      },
      {
        "param": []
      }
    ]
  },
  {
    "guideID": 222,
    "typeID": 3,
    "labelTextMapHash": 3146990120,
    "mainQuestID": 74667,
    "questType": "WQ",
    "order": 22,
    "icon": "ART/UI/Atlas/HandbookGuideIcon/UI_GuideIcon_PlayMethod",
    "showConds": [
      {
        "param": []
      },
      {
        "param": []
      },
      {
        "param": []
      }
    ]
  },
  {
    "guideID": 223,
    "typeID": 3,
    "labelTextMapHash": 1416504144,
    "mainQuestID": 74650,
    "questType": "WQ",
    "order": 23,
    "icon": "ART/UI/Atlas/HandbookGuideIcon/UI_GuideIcon_PlayMethod",
    "showConds": [
      {
        "param": []
      },
      {
        "param": []
      },
      {
        "param": []
      }
    ]
  },
  {
    "guideID": 224,
    "typeID": 3,
    "labelTextMapHash": 1445437824,
    "mainQuestID": 75650,
    "questType": "WQ",
    "order": 24,
    "icon": "ART/UI/Atlas/HandbookGuideIcon/UI_GuideIcon_PlayMethod",
    "showConds": [
      {
        "param": []
      },
      {
        "param": []
      },
      {
        "param": []
      }
    ]
  },
  {
    "guideID": 301,
    "typeID": 4,
    "labelTextMapHash": 3707884344,
    "mainQuestID": 72233,
    "questType": "WQ",
    "order": 1,
    "icon": "ART/UI/Atlas/HandbookGuideIcon/UI_GuideIcon_PlotUnlock",
    "showConds": [
      {
        "param": []
      },
      {
        "param": []
      },
      {
        "param": []
      }
    ]
  },
  {
    "guideID": 302,
    "typeID": 4,
    "labelTextMapHash": 2186158360,
    "chapterID": 10051,
    "questType": "WQ",
    "order": 2,
    "icon": "ART/UI/Atlas/HandbookGuideIcon/UI_GuideIcon_PlotUnlock",
    "showConds": [
      {
        "param": []
      },
      {
        "param": []
      },
      {
        "param": []
      }
    ]
  },
  {
    "guideID": 401,
    "typeID": 5,
    "labelTextMapHash": 1587719344,
    "chapterID": 2020,
    "questType": "LQ",
    "order": 1,
    "icon": "ART/UI/Atlas/HandbookGuideIcon/UI_GuideIcon_LegendQuest",
    "showLabelTip": true,
    "showConds": [
      {
        "type": "QUEST_GUIDE_SHOW_COND_LEVEL_GT_OR_EQ",
        "param": [
          40
        ]
      },
      {
        "type": "QUEST_GUIDE_SHOW_COND_PREQUEST_FINISHED",
        "param": [
          1102402
        ]
      },
      {
        "param": []
      }
    ]
  },
  {
    "guideID": 402,
    "typeID": 5,
    "labelTextMapHash": 2732947960,
    "chapterID": 2027,
    "questType": "LQ",
    "order": 2,
    "icon": "ART/UI/Atlas/HandbookGuideIcon/UI_GuideIcon_LegendQuest",
    "showLabelTip": true,
    "showConds": [
      {
        "type": "QUEST_GUIDE_SHOW_COND_LEVEL_GT_OR_EQ",
        "param": [
          40
        ]
      },
      {
        "type": "QUEST_GUIDE_SHOW_COND_PREQUEST_FINISHED",
        "param": [
          1201812
        ]
      },
      {
        "param": []
      }
    ]
  },
  {
    "guideID": 403,
    "typeID": 5,
    "labelTextMapHash": 1878951928,
    "chapterID": 2039,
    "questType": "LQ",
    "order": 3,
    "icon": "ART/UI/Atlas/HandbookGuideIcon/UI_GuideIcon_LegendQuest",
    "showLabelTip": true,
    "showConds": [
      {
        "type": "QUEST_GUIDE_SHOW_COND_LEVEL_GT_OR_EQ",
        "param": [
          40
        ]
      },
      {
        "type": "QUEST_GUIDE_SHOW_COND_PREQUEST_FINISHED",
        "param": [
          1301504
        ]
      },
      {
        "param": []
      }
    ]
  },
  {
    "guideID": 501,
    "typeID": 6,
    "labelTextMapHash": 3736630616,
    "chapterID": 2055,
    "questType": "LQ",
    "order": 1,
    "icon": "ART/UI/Atlas/HandbookGuideIcon/UI_GuideIcon_LegendQuest",
    "specialGuideID": 3,
    "showConds": [
      {
        "type": "QUEST_GUIDE_SHOW_COND_PREQUEST_FINISHED",
        "param": [
          500119
        ]
      },
      {
        "param": []
      },
      {
        "param": []
      }
    ]
  },
  {
    "guideID": 502,
    "typeID": 6,
    "labelTextMapHash": 1766709280,
    "chapterID": 2056,
    "questType": "LQ",
    "order": 2,
    "icon": "ART/UI/Atlas/HandbookGuideIcon/UI_GuideIcon_LegendQuest",
    "specialGuideID": 3,
    "showConds": [
      {
        "type": "QUEST_GUIDE_SHOW_COND_PREQUEST_FINISHED",
        "param": [
          500119
        ]
      },
      {
        "param": []
      },
      {
        "param": []
      }
    ]
  },
  {
    "guideID": 503,
    "typeID": 6,
    "labelTextMapHash": 177027240,
    "chapterID": 2057,
    "questType": "LQ",
    "order": 3,
    "icon": "ART/UI/Atlas/HandbookGuideIcon/UI_GuideIcon_LegendQuest",
    "specialGuideID": 3,
    "showConds": [
      {
        "type": "QUEST_GUIDE_SHOW_COND_PREQUEST_FINISHED",
        "param": [
          500119
        ]
      },
      {
        "param": []
      },
      {
        "param": []
      }
    ]
  },
  {
    "guideID": 504,
    "typeID": 6,
    "labelTextMapHash": 2355845800,
    "chapterID": 2052,
    "questType": "LQ",
    "order": 4,
    "icon": "ART/UI/Atlas/HandbookGuideIcon/UI_GuideIcon_LegendQuest",
    "specialGuideID": 3,
    "showConds": [
      {
        "type": "QUEST_GUIDE_SHOW_COND_PREQUEST_FINISHED",
        "param": [
          500119
        ]
      },
      {
        "param": []
      },
      {
        "param": []
      }
    ]
  },
  {
    "guideID": 505,
    "typeID": 6,
    "labelTextMapHash": 3916843856,
    "chapterID": 2053,
    "questType": "LQ",
    "order": 5,
    "icon": "ART/UI/Atlas/HandbookGuideIcon/UI_GuideIcon_LegendQuest",
    "specialGuideID": 3,
    "showConds": [
      {
        "type": "QUEST_GUIDE_SHOW_COND_PREQUEST_FINISHED",
        "param": [
          500119
        ]
      },
      {
        "param": []
      },
      {
        "param": []
      }
    ]
  },
  {
    "guideID": 506,
    "typeID": 6,
    "labelTextMapHash": 2474582432,
    "chapterID": 2054,
    "questType": "LQ",
    "order": 6,
    "icon": "ART/UI/Atlas/HandbookGuideIcon/UI_GuideIcon_LegendQuest",
    "specialGuideID": 3,
    "showConds": [
      {
        "type": "QUEST_GUIDE_SHOW_COND_PREQUEST_FINISHED",
        "param": [
          500119
        ]
      },
      {
        "param": []
      },
      {
        "param": []
      }
    ]
  },
  {
    "guideID": 507,
    "typeID": 6,
    "labelTextMapHash": 3992392928,
    "chapterID": 2058,
    "questType": "LQ",
    "order": 7,
    "icon": "ART/UI/Atlas/HandbookGuideIcon/UI_GuideIcon_LegendQuest",
    "specialGuideID": 3,
    "showConds": [
      {
        "type": "QUEST_GUIDE_SHOW_COND_PREQUEST_FINISHED",
        "param": [
          500119
        ]
      },
      {
        "param": []
      },
      {
        "param": []
      }
    ]
  },
  {
    "guideID": 508,
    "typeID": 6,
    "labelTextMapHash": 878568840,
    "chapterID": 2059,
    "questType": "LQ",
    "order": 8,
    "icon": "ART/UI/Atlas/HandbookGuideIcon/UI_GuideIcon_LegendQuest",
    "specialGuideID": 3,
    "showConds": [
      {
        "type": "QUEST_GUIDE_SHOW_COND_PREQUEST_FINISHED",
        "param": [
          500119
        ]
      },
      {
        "param": []
      },
      {
        "param": []
      }
    ]
  },
  {
    "guideID": 509,
    "typeID": 6,
    "labelTextMapHash": 3571669080,
    "chapterID": 2060,
    "questType": "LQ",
    "order": 9,
    "icon": "ART/UI/Atlas/HandbookGuideIcon/UI_GuideIcon_LegendQuest",
    "specialGuideID": 3,
    "showConds": [
      {
        "type": "QUEST_GUIDE_SHOW_COND_PREQUEST_FINISHED",
        "param": [
          500119
        ]
      },
      {
        "param": []
      },
      {
        "param": []
      }
    ]
  },
  {
    "guideID": 510,
    "typeID": 6,
    "labelTextMapHash": 1229832528,
    "chapterID": 2061,
    "questType": "LQ",
    "order": 10,
    "icon": "ART/UI/Atlas/HandbookGuideIcon/UI_GuideIcon_LegendQuest",
    "specialGuideID": 3,
    "showConds": [
      {
        "type": "QUEST_GUIDE_SHOW_COND_PREQUEST_FINISHED",
        "param": [
          500119
        ]
      },
      {
        "param": []
      },
      {
        "param": []
      }
    ]
  },
  {
    "guideID": 511,
    "typeID": 6,
    "labelTextMapHash": 3066475864,
    "chapterID": 2062,
    "questType": "LQ",
    "order": 11,
    "icon": "ART/UI/Atlas/HandbookGuideIcon/UI_GuideIcon_LegendQuest",
    "specialGuideID": 3,
    "showConds": [
      {
        "type": "QUEST_GUIDE_SHOW_COND_PREQUEST_FINISHED",
        "param": [
          500119
        ]
      },
      {
        "param": []
      },
      {
        "param": []
      }
    ]
  },
  {
    "guideID": 512,
    "typeID": 6,
    "labelTextMapHash": 4138980784,
    "chapterID": 2063,
    "questType": "LQ",
    "order": 12,
    "icon": "ART/UI/Atlas/HandbookGuideIcon/UI_GuideIcon_LegendQuest",
    "specialGuideID": 3,
    "showConds": [
      {
        "type": "QUEST_GUIDE_SHOW_COND_PREQUEST_FINISHED",
        "param": [
          500119
        ]
      },
      {
        "param": []
      },
      {
        "param": []
      }
    ]
  },
  {
    "guideID": 513,
    "typeID": 6,
    "labelTextMapHash": 3254422616,
    "chapterID": 2064,
    "questType": "LQ",
    "order": 13,
    "icon": "ART/UI/Atlas/HandbookGuideIcon/UI_GuideIcon_LegendQuest",
    "specialGuideID": 3,
    "showConds": [
      {
        "type": "QUEST_GUIDE_SHOW_COND_PREQUEST_FINISHED",
        "param": [
          500119
        ]
      },
      {
        "param": []
      },
      {
        "param": []
      }
    ]
  },
  {
    "guideID": 514,
    "typeID": 6,
    "labelTextMapHash": 2900732752,
    "chapterID": 2065,
    "questType": "LQ",
    "order": 14,
    "icon": "ART/UI/Atlas/HandbookGuideIcon/UI_GuideIcon_LegendQuest",
    "specialGuideID": 3,
    "showConds": [
      {
        "type": "QUEST_GUIDE_SHOW_COND_PREQUEST_FINISHED",
        "param": [
          500119
        ]
      },
      {
        "param": []
      },
      {
        "param": []
      }
    ]
  },
  {
    "guideID": 515,
    "typeID": 6,
    "labelTextMapHash": 753871176,
    "chapterID": 2066,
    "questType": "LQ",
    "order": 15,
    "icon": "ART/UI/Atlas/HandbookGuideIcon/UI_GuideIcon_LegendQuest",
    "specialGuideID": 3,
    "showConds": [
      {
        "type": "QUEST_GUIDE_SHOW_COND_PREQUEST_FINISHED",
        "param": [
          500119
        ]
      },
      {
        "param": []
      },
      {
        "param": []
      }
    ]
  },
  {
    "guideID": 1001,
    "typeID": 7,
    "labelTextMapHash": 2780383232,
    "chapterID": 2013,
    "questType": "LQ",
    "order": 1,
    "icon": "ART/UI/Atlas/HandbookGuideIcon/UI_GuideIcon_LegendQuest",
    "specialGuideID": 1,
    "showConds": [
      {
        "type": "QUEST_GUIDE_SHOW_COND_LEVEL_GT_OR_EQ",
        "param": [
          26
        ]
      },
      {
        "param": []
      },
      {
        "param": []
      }
    ]
  },
  {
    "guideID": 1002,
    "typeID": 7,
    "labelTextMapHash": 2104601472,
    "chapterID": 2014,
    "questType": "LQ",
    "order": 2,
    "icon": "ART/UI/Atlas/HandbookGuideIcon/UI_GuideIcon_LegendQuest",
    "specialGuideID": 1,
    "showConds": [
      {
        "type": "QUEST_GUIDE_SHOW_COND_LEVEL_GT_OR_EQ",
        "param": [
          26
        ]
      },
      {
        "param": []
      },
      {
        "param": []
      }
    ]
  },
  {
    "guideID": 1003,
    "typeID": 7,
    "labelTextMapHash": 948752456,
    "chapterID": 2023,
    "questType": "LQ",
    "order": 3,
    "icon": "ART/UI/Atlas/HandbookGuideIcon/UI_GuideIcon_LegendQuest",
    "specialGuideID": 1,
    "showConds": [
      {
        "type": "QUEST_GUIDE_SHOW_COND_LEVEL_GT_OR_EQ",
        "param": [
          26
        ]
      },
      {
        "param": []
      },
      {
        "param": []
      }
    ]
  },
  {
    "guideID": 1004,
    "typeID": 7,
    "labelTextMapHash": 4087657160,
    "chapterID": 2001,
    "questType": "LQ",
    "order": 4,
    "icon": "ART/UI/Atlas/HandbookGuideIcon/UI_GuideIcon_LegendQuest",
    "specialGuideID": 1,
    "showConds": [
      {
        "param": []
      },
      {
        "param": []
      },
      {
        "param": []
      }
    ]
  },
  {
    "guideID": 1005,
    "typeID": 7,
    "labelTextMapHash": 880366856,
    "chapterID": 2002,
    "questType": "LQ",
    "order": 5,
    "icon": "ART/UI/Atlas/HandbookGuideIcon/UI_GuideIcon_LegendQuest",
    "specialGuideID": 1,
    "showConds": [
      {
        "param": []
      },
      {
        "param": []
      },
      {
        "param": []
      }
    ]
  },
  {
    "guideID": 1006,
    "typeID": 7,
    "labelTextMapHash": 1600019712,
    "chapterID": 2004,
    "questType": "LQ",
    "order": 6,
    "icon": "ART/UI/Atlas/HandbookGuideIcon/UI_GuideIcon_LegendQuest",
    "specialGuideID": 1,
    "showConds": [
      {
        "param": []
      },
      {
        "param": []
      },
      {
        "param": []
      }
    ]
  },
  {
    "guideID": 1007,
    "typeID": 7,
    "labelTextMapHash": 485062280,
    "chapterID": 2006,
    "questType": "LQ",
    "order": 7,
    "icon": "ART/UI/Atlas/HandbookGuideIcon/UI_GuideIcon_LegendQuest",
    "specialGuideID": 1,
    "showConds": [
      {
        "type": "QUEST_GUIDE_SHOW_COND_LEVEL_GT_OR_EQ",
        "param": [
          26
        ]
      },
      {
        "param": []
      },
      {
        "param": []
      }
    ]
  },
  {
    "guideID": 1008,
    "typeID": 7,
    "labelTextMapHash": 3069021024,
    "chapterID": 2007,
    "questType": "LQ",
    "order": 8,
    "icon": "ART/UI/Atlas/HandbookGuideIcon/UI_GuideIcon_LegendQuest",
    "specialGuideID": 1,
    "showConds": [
      {
        "param": []
      },
      {
        "param": []
      },
      {
        "param": []
      }
    ]
  },
  {
    "guideID": 1009,
    "typeID": 7,
    "labelTextMapHash": 3506250824,
    "chapterID": 2008,
    "questType": "LQ",
    "order": 9,
    "icon": "ART/UI/Atlas/HandbookGuideIcon/UI_GuideIcon_LegendQuest",
    "specialGuideID": 1,
    "showConds": [
      {
        "param": []
      },
      {
        "param": []
      },
      {
        "param": []
      }
    ]
  },
  {
    "guideID": 1010,
    "typeID": 7,
    "labelTextMapHash": 1551834200,
    "chapterID": 2009,
    "questType": "LQ",
    "order": 10,
    "icon": "ART/UI/Atlas/HandbookGuideIcon/UI_GuideIcon_LegendQuest",
    "specialGuideID": 1,
    "showConds": [
      {
        "type": "QUEST_GUIDE_SHOW_COND_LEVEL_GT_OR_EQ",
        "param": [
          26
        ]
      },
      {
        "param": []
      },
      {
        "param": []
      }
    ]
  },
  {
    "guideID": 1011,
    "typeID": 7,
    "labelTextMapHash": 482320560,
    "chapterID": 2010,
    "questType": "LQ",
    "order": 11,
    "icon": "ART/UI/Atlas/HandbookGuideIcon/UI_GuideIcon_LegendQuest",
    "specialGuideID": 1,
    "showConds": [
      {
        "type": "QUEST_GUIDE_SHOW_COND_LEVEL_GT_OR_EQ",
        "param": [
          26
        ]
      },
      {
        "param": []
      },
      {
        "param": []
      }
    ]
  },
  {
    "guideID": 1012,
    "typeID": 7,
    "labelTextMapHash": 3500617856,
    "chapterID": 2011,
    "questType": "LQ",
    "order": 12,
    "icon": "ART/UI/Atlas/HandbookGuideIcon/UI_GuideIcon_LegendQuest",
    "specialGuideID": 1,
    "showConds": [
      {
        "type": "QUEST_GUIDE_SHOW_COND_LEVEL_GT_OR_EQ",
        "param": [
          26
        ]
      },
      {
        "param": []
      },
      {
        "param": []
      }
    ]
  },
  {
    "guideID": 1013,
    "typeID": 7,
    "labelTextMapHash": 1913880424,
    "chapterID": 2012,
    "questType": "LQ",
    "order": 13,
    "icon": "ART/UI/Atlas/HandbookGuideIcon/UI_GuideIcon_LegendQuest",
    "specialGuideID": 1,
    "showConds": [
      {
        "type": "QUEST_GUIDE_SHOW_COND_LEVEL_GT_OR_EQ",
        "param": [
          26
        ]
      },
      {
        "param": []
      },
      {
        "param": []
      }
    ]
  },
  {
    "guideID": 1014,
    "typeID": 7,
    "labelTextMapHash": 2732529408,
    "chapterID": 2016,
    "questType": "LQ",
    "order": 14,
    "icon": "ART/UI/Atlas/HandbookGuideIcon/UI_GuideIcon_LegendQuest",
    "specialGuideID": 1,
    "showConds": [
      {
        "type": "QUEST_GUIDE_SHOW_COND_LEVEL_GT_OR_EQ",
        "param": [
          26
        ]
      },
      {
        "param": []
      },
      {
        "param": []
      }
    ]
  },
  {
    "guideID": 1015,
    "typeID": 7,
    "labelTextMapHash": 1435863440,
    "chapterID": 2017,
    "questType": "LQ",
    "order": 15,
    "icon": "ART/UI/Atlas/HandbookGuideIcon/UI_GuideIcon_LegendQuest",
    "specialGuideID": 1,
    "showConds": [
      {
        "type": "QUEST_GUIDE_SHOW_COND_LEVEL_GT_OR_EQ",
        "param": [
          26
        ]
      },
      {
        "param": []
      },
      {
        "param": []
      }
    ]
  },
  {
    "guideID": 1016,
    "typeID": 7,
    "labelTextMapHash": 3581214816,
    "chapterID": 2018,
    "questType": "LQ",
    "order": 16,
    "icon": "ART/UI/Atlas/HandbookGuideIcon/UI_GuideIcon_LegendQuest",
    "specialGuideID": 1,
    "showConds": [
      {
        "type": "QUEST_GUIDE_SHOW_COND_LEVEL_GT_OR_EQ",
        "param": [
          26
        ]
      },
      {
        "param": []
      },
      {
        "param": []
      }
    ]
  },
  {
    "guideID": 1017,
    "typeID": 7,
    "labelTextMapHash": 2129734024,
    "chapterID": 2019,
    "questType": "LQ",
    "order": 17,
    "icon": "ART/UI/Atlas/HandbookGuideIcon/UI_GuideIcon_LegendQuest",
    "specialGuideID": 1,
    "showConds": [
      {
        "type": "QUEST_GUIDE_SHOW_COND_LEVEL_GT_OR_EQ",
        "param": [
          26
        ]
      },
      {
        "param": []
      },
      {
        "param": []
      }
    ]
  },
  {
    "guideID": 1018,
    "typeID": 7,
    "labelTextMapHash": 79086736,
    "chapterID": 2024,
    "questType": "LQ",
    "order": 18,
    "icon": "ART/UI/Atlas/HandbookGuideIcon/UI_GuideIcon_LegendQuest",
    "specialGuideID": 1,
    "showConds": [
      {
        "type": "QUEST_GUIDE_SHOW_COND_LEVEL_GT_OR_EQ",
        "param": [
          26
        ]
      },
      {
        "param": []
      },
      {
        "param": []
      }
    ]
  },
  {
    "guideID": 1019,
    "typeID": 7,
    "labelTextMapHash": 3380543784,
    "chapterID": 2025,
    "questType": "LQ",
    "order": 19,
    "icon": "ART/UI/Atlas/HandbookGuideIcon/UI_GuideIcon_LegendQuest",
    "specialGuideID": 1,
    "showConds": [
      {
        "type": "QUEST_GUIDE_SHOW_COND_LEVEL_GT_OR_EQ",
        "param": [
          26
        ]
      },
      {
        "param": []
      },
      {
        "param": []
      }
    ]
  },
  {
    "guideID": 1020,
    "typeID": 7,
    "labelTextMapHash": 1581534360,
    "chapterID": 2026,
    "questType": "LQ",
    "order": 20,
    "icon": "ART/UI/Atlas/HandbookGuideIcon/UI_GuideIcon_LegendQuest",
    "specialGuideID": 1,
    "showConds": [
      {
        "type": "QUEST_GUIDE_SHOW_COND_LEVEL_GT_OR_EQ",
        "param": [
          26
        ]
      },
      {
        "param": []
      },
      {
        "param": []
      }
    ]
  },
  {
    "guideID": 1021,
    "typeID": 7,
    "labelTextMapHash": 535625144,
    "chapterID": 2028,
    "questType": "LQ",
    "order": 21,
    "icon": "ART/UI/Atlas/HandbookGuideIcon/UI_GuideIcon_LegendQuest",
    "specialGuideID": 1,
    "showConds": [
      {
        "type": "QUEST_GUIDE_SHOW_COND_LEVEL_GT_OR_EQ",
        "param": [
          26
        ]
      },
      {
        "param": []
      },
      {
        "param": []
      }
    ]
  },
  {
    "guideID": 1022,
    "typeID": 7,
    "labelTextMapHash": 2358923168,
    "chapterID": 2029,
    "questType": "LQ",
    "order": 22,
    "icon": "ART/UI/Atlas/HandbookGuideIcon/UI_GuideIcon_LegendQuest",
    "specialGuideID": 1,
    "showConds": [
      {
        "type": "QUEST_GUIDE_SHOW_COND_LEVEL_GT_OR_EQ",
        "param": [
          26
        ]
      },
      {
        "param": []
      },
      {
        "param": []
      }
    ]
  },
  {
    "guideID": 1023,
    "typeID": 7,
    "labelTextMapHash": 2424671528,
    "chapterID": 2031,
    "questType": "LQ",
    "order": 23,
    "icon": "ART/UI/Atlas/HandbookGuideIcon/UI_GuideIcon_LegendQuest",
    "specialGuideID": 1,
    "showConds": [
      {
        "type": "QUEST_GUIDE_SHOW_COND_LEVEL_GT_OR_EQ",
        "param": [
          26
        ]
      },
      {
        "param": []
      },
      {
        "param": []
      }
    ]
  },
  {
    "guideID": 1024,
    "typeID": 7,
    "labelTextMapHash": 427267448,
    "chapterID": 2030,
    "questType": "LQ",
    "order": 24,
    "icon": "ART/UI/Atlas/HandbookGuideIcon/UI_GuideIcon_LegendQuest",
    "specialGuideID": 1,
    "showConds": [
      {
        "type": "QUEST_GUIDE_SHOW_COND_LEVEL_GT_OR_EQ",
        "param": [
          26
        ]
      },
      {
        "param": []
      },
      {
        "param": []
      }
    ]
  },
  {
    "guideID": 1025,
    "typeID": 7,
    "labelTextMapHash": 2314083832,
    "chapterID": 2032,
    "questType": "LQ",
    "order": 25,
    "icon": "ART/UI/Atlas/HandbookGuideIcon/UI_GuideIcon_LegendQuest",
    "specialGuideID": 1,
    "showConds": [
      {
        "type": "QUEST_GUIDE_SHOW_COND_LEVEL_GT_OR_EQ",
        "param": [
          26
        ]
      },
      {
        "param": []
      },
      {
        "param": []
      }
    ]
  },
  {
    "guideID": 1026,
    "typeID": 7,
    "labelTextMapHash": 2676190336,
    "chapterID": 2033,
    "questType": "LQ",
    "order": 26,
    "icon": "ART/UI/Atlas/HandbookGuideIcon/UI_GuideIcon_LegendQuest",
    "specialGuideID": 1,
    "showConds": [
      {
        "type": "QUEST_GUIDE_SHOW_COND_LEVEL_GT_OR_EQ",
        "param": [
          26
        ]
      },
      {
        "param": []
      },
      {
        "param": []
      }
    ]
  },
  {
    "guideID": 1027,
    "typeID": 7,
    "labelTextMapHash": 3463390520,
    "chapterID": 2034,
    "questType": "LQ",
    "order": 27,
    "icon": "ART/UI/Atlas/HandbookGuideIcon/UI_GuideIcon_LegendQuest",
    "specialGuideID": 1,
    "showConds": [
      {
        "type": "QUEST_GUIDE_SHOW_COND_LEVEL_GT_OR_EQ",
        "param": [
          26
        ]
      },
      {
        "param": []
      },
      {
        "param": []
      }
    ]
  },
  {
    "guideID": 1028,
    "typeID": 7,
    "labelTextMapHash": 2804970480,
    "chapterID": 2035,
    "questType": "LQ",
    "order": 28,
    "icon": "ART/UI/Atlas/HandbookGuideIcon/UI_GuideIcon_LegendQuest",
    "specialGuideID": 1,
    "showConds": [
      {
        "type": "QUEST_GUIDE_SHOW_COND_LEVEL_GT_OR_EQ",
        "param": [
          26
        ]
      },
      {
        "param": []
      },
      {
        "param": []
      }
    ]
  },
  {
    "guideID": 1029,
    "typeID": 7,
    "labelTextMapHash": 2445699184,
    "chapterID": 2036,
    "questType": "LQ",
    "order": 29,
    "icon": "ART/UI/Atlas/HandbookGuideIcon/UI_GuideIcon_LegendQuest",
    "specialGuideID": 1,
    "showConds": [
      {
        "type": "QUEST_GUIDE_SHOW_COND_LEVEL_GT_OR_EQ",
        "param": [
          26
        ]
      },
      {
        "param": []
      },
      {
        "param": []
      }
    ]
  },
  {
    "guideID": 1030,
    "typeID": 7,
    "labelTextMapHash": 2093325568,
    "chapterID": 2037,
    "questType": "LQ",
    "order": 30,
    "icon": "ART/UI/Atlas/HandbookGuideIcon/UI_GuideIcon_LegendQuest",
    "specialGuideID": 1,
    "showConds": [
      {
        "type": "QUEST_GUIDE_SHOW_COND_LEVEL_GT_OR_EQ",
        "param": [
          26
        ]
      },
      {
        "param": []
      },
      {
        "param": []
      }
    ]
  },
  {
    "guideID": 1031,
    "typeID": 7,
    "labelTextMapHash": 3938791136,
    "chapterID": 2038,
    "questType": "LQ",
    "order": 31,
    "icon": "ART/UI/Atlas/HandbookGuideIcon/UI_GuideIcon_LegendQuest",
    "specialGuideID": 1,
    "showConds": [
      {
        "type": "QUEST_GUIDE_SHOW_COND_LEVEL_GT_OR_EQ",
        "param": [
          26
        ]
      },
      {
        "type": "QUEST_GUIDE_SHOW_COND_PREQUEST_FINISHED",
        "param": [
          1201309
        ]
      },
      {
        "param": []
      }
    ]
  },
  {
    "guideID": 1032,
    "typeID": 7,
    "labelTextMapHash": 589756408,
    "chapterID": 2040,
    "questType": "LQ",
    "order": 32,
    "icon": "ART/UI/Atlas/HandbookGuideIcon/UI_GuideIcon_LegendQuest",
    "specialGuideID": 1,
    "showConds": [
      {
        "type": "QUEST_GUIDE_SHOW_COND_LEVEL_GT_OR_EQ",
        "param": [
          26
        ]
      },
      {
        "param": []
      },
      {
        "param": []
      }
    ]
  },
  {
    "guideID": 1033,
    "typeID": 7,
    "labelTextMapHash": 1192265368,
    "chapterID": 2041,
    "questType": "LQ",
    "order": 33,
    "icon": "ART/UI/Atlas/HandbookGuideIcon/UI_GuideIcon_LegendQuest",
    "specialGuideID": 1,
    "showConds": [
      {
        "type": "QUEST_GUIDE_SHOW_COND_LEVEL_GT_OR_EQ",
        "param": [
          26
        ]
      },
      {
        "param": []
      },
      {
        "param": []
      }
    ]
  },
  {
    "guideID": 1034,
    "typeID": 7,
    "labelTextMapHash": 905614040,
    "chapterID": 2042,
    "questType": "LQ",
    "order": 34,
    "icon": "ART/UI/Atlas/HandbookGuideIcon/UI_GuideIcon_LegendQuest",
    "specialGuideID": 1,
    "showConds": [
      {
        "type": "QUEST_GUIDE_SHOW_COND_LEVEL_GT_OR_EQ",
        "param": [
          26
        ]
      },
      {
        "param": []
      },
      {
        "param": []
      }
    ]
  },
  {
    "guideID": 1035,
    "typeID": 7,
    "labelTextMapHash": 992638472,
    "chapterID": 2043,
    "questType": "LQ",
    "order": 35,
    "icon": "ART/UI/Atlas/HandbookGuideIcon/UI_GuideIcon_LegendQuest",
    "specialGuideID": 1,
    "showConds": [
      {
        "type": "QUEST_GUIDE_SHOW_COND_LEVEL_GT_OR_EQ",
        "param": [
          26
        ]
      },
      {
        "param": []
      },
      {
        "param": []
      }
    ]
  },
  {
    "guideID": 1036,
    "typeID": 7,
    "labelTextMapHash": 1254059008,
    "chapterID": 2044,
    "questType": "LQ",
    "order": 36,
    "icon": "ART/UI/Atlas/HandbookGuideIcon/UI_GuideIcon_LegendQuest",
    "specialGuideID": 1,
    "showConds": [
      {
        "type": "QUEST_GUIDE_SHOW_COND_LEVEL_GT_OR_EQ",
        "param": [
          26
        ]
      },
      {
        "param": []
      },
      {
        "param": []
      }
    ]
  },
  {
    "guideID": 1037,
    "typeID": 7,
    "labelTextMapHash": 771577768,
    "chapterID": 2045,
    "questType": "LQ",
    "order": 37,
    "icon": "ART/UI/Atlas/HandbookGuideIcon/UI_GuideIcon_LegendQuest",
    "specialGuideID": 1,
    "showConds": [
      {
        "type": "QUEST_GUIDE_SHOW_COND_LEVEL_GT_OR_EQ",
        "param": [
          26
        ]
      },
      {
        "param": []
      },
      {
        "param": []
      }
    ]
  },
  {
    "guideID": 1038,
    "typeID": 7,
    "labelTextMapHash": 57256144,
    "chapterID": 2046,
    "questType": "LQ",
    "order": 38,
    "icon": "ART/UI/Atlas/HandbookGuideIcon/UI_GuideIcon_LegendQuest",
    "specialGuideID": 1,
    "showConds": [
      {
        "type": "QUEST_GUIDE_SHOW_COND_LEVEL_GT_OR_EQ",
        "param": [
          26
        ]
      },
      {
        "param": []
      },
      {
        "param": []
      }
    ]
  },
  {
    "guideID": 1039,
    "typeID": 7,
    "labelTextMapHash": 1384344168,
    "chapterID": 2047,
    "questType": "LQ",
    "order": 39,
    "icon": "ART/UI/Atlas/HandbookGuideIcon/UI_GuideIcon_LegendQuest",
    "specialGuideID": 1,
    "showConds": [
      {
        "type": "QUEST_GUIDE_SHOW_COND_LEVEL_GT_OR_EQ",
        "param": [
          26
        ]
      },
      {
        "param": []
      },
      {
        "param": []
      }
    ]
  },
  {
    "guideID": 1040,
    "typeID": 7,
    "labelTextMapHash": 3864530144,
    "chapterID": 2049,
    "questType": "LQ",
    "order": 40,
    "icon": "ART/UI/Atlas/HandbookGuideIcon/UI_GuideIcon_LegendQuest",
    "specialGuideID": 1,
    "showConds": [
      {
        "type": "QUEST_GUIDE_SHOW_COND_LEVEL_GT_OR_EQ",
        "param": [
          26
        ]
      },
      {
        "type": "QUEST_GUIDE_SHOW_COND_PREQUEST_FINISHED",
        "param": [
          1301118
        ]
      },
      {
        "param": []
      }
    ]
  },
  {
    "guideID": 1041,
    "typeID": 7,
    "labelTextMapHash": 709221096,
    "chapterID": 2048,
    "questType": "LQ",
    "order": 41,
    "icon": "ART/UI/Atlas/HandbookGuideIcon/UI_GuideIcon_LegendQuest",
    "specialGuideID": 1,
    "showConds": [
      {
        "type": "QUEST_GUIDE_SHOW_COND_LEVEL_GT_OR_EQ",
        "param": [
          26
        ]
      },
      {
        "param": []
      },
      {
        "param": []
      }
    ]
  },
  {
    "guideID": 1042,
    "typeID": 7,
    "labelTextMapHash": 3974560008,
    "chapterID": 2050,
    "questType": "LQ",
    "order": 42,
    "icon": "ART/UI/Atlas/HandbookGuideIcon/UI_GuideIcon_LegendQuest",
    "specialGuideID": 1,
    "showConds": [
      {
        "type": "QUEST_GUIDE_SHOW_COND_LEVEL_GT_OR_EQ",
        "param": [
          26
        ]
      },
      {
        "param": []
      },
      {
        "param": []
      }
    ]
  },
  {
    "guideID": 1043,
    "typeID": 7,
    "labelTextMapHash": 415346928,
    "chapterID": 2051,
    "questType": "LQ",
    "order": 43,
    "icon": "ART/UI/Atlas/HandbookGuideIcon/UI_GuideIcon_LegendQuest",
    "specialGuideID": 1,
    "showConds": [
      {
        "type": "QUEST_GUIDE_SHOW_COND_LEVEL_GT_OR_EQ",
        "param": [
          26
        ]
      },
      {
        "param": []
      },
      {
        "param": []
      }
    ]
  },
  {
    "guideID": 1044,
    "typeID": 7,
    "labelTextMapHash": 2444956888,
    "chapterID": 2067,
    "questType": "LQ",
    "order": 44,
    "icon": "ART/UI/Atlas/HandbookGuideIcon/UI_GuideIcon_LegendQuest",
    "specialGuideID": 1,
    "showConds": [
      {
        "type": "QUEST_GUIDE_SHOW_COND_LEVEL_GT_OR_EQ",
        "param": [
          26
        ]
      },
      {
        "param": []
      },
      {
        "param": []
      }
    ]
  },
  {
    "guideID": 1045,
    "typeID": 7,
    "labelTextMapHash": 3894878680,
    "chapterID": 2069,
    "questType": "LQ",
    "order": 45,
    "icon": "ART/UI/Atlas/HandbookGuideIcon/UI_GuideIcon_LegendQuest",
    "specialGuideID": 1,
    "showConds": [
      {
        "type": "QUEST_GUIDE_SHOW_COND_LEVEL_GT_OR_EQ",
        "param": [
          26
        ]
      },
      {
        "param": []
      },
      {
        "param": []
      }
    ]
  },
  {
    "guideID": 601,
    "typeID": 8,
    "labelTextMapHash": 3234990168,
    "mainQuestID": 71811,
    "questType": "WQ",
    "order": 1,
    "icon": "ART/UI/Atlas/HandbookGuideIcon/UI_GuideIcon_Packet",
    "showConds": [
      {
        "param": []
      },
      {
        "param": []
      },
      {
        "param": []
      }
    ]
  },
  {
    "guideID": 602,
    "typeID": 8,
    "labelTextMapHash": 4167154128,
    "mainQuestID": 71812,
    "questType": "WQ",
    "order": 2,
    "icon": "ART/UI/Atlas/HandbookGuideIcon/UI_GuideIcon_Packet",
    "showConds": [
      {
        "param": []
      },
      {
        "param": []
      },
      {
        "param": []
      }
    ]
  },
  {
    "guideID": 603,
    "typeID": 8,
    "labelTextMapHash": 1019903048,
    "mainQuestID": 72672,
    "questType": "WQ",
    "order": 3,
    "icon": "ART/UI/Atlas/HandbookGuideIcon/UI_GuideIcon_Packet",
    "showConds": [
      {
        "param": []
      },
      {
        "param": []
      },
      {
        "param": []
      }
    ]
  },
  {
    "guideID": 604,
    "typeID": 8,
    "labelTextMapHash": 1974733232,
    "mainQuestID": 41402,
    "questType": "WQ",
    "order": 4,
    "icon": "ART/UI/Atlas/HandbookGuideIcon/UI_GuideIcon_Packet",
    "showConds": [
      {
        "param": []
      },
      {
        "param": []
      },
      {
        "param": []
      }
    ]
  },
  {
    "guideID": 2001,
    "typeID": 9,
    "labelTextMapHash": 3366635480,
    "mainQuestID": 70141,
    "questType": "WQ",
    "order": 1,
    "icon": "ART/UI/Atlas/HandbookGuideIcon/UI_GuideIcon_Explore",
    "showConds": [
      {
        "param": []
      },
      {
        "param": []
      },
      {
        "param": []
      }
    ]
  },
  {
    "guideID": 2002,
    "typeID": 9,
    "labelTextMapHash": 272036984,
    "chapterID": 10061,
    "questType": "WQ",
    "order": 2,
    "icon": "ART/UI/Atlas/HandbookGuideIcon/UI_GuideIcon_Explore",
    "showConds": [
      {
        "param": []
      },
      {
        "param": []
      },
      {
        "param": []
      }
    ]
  },
  {
    "guideID": 2003,
    "typeID": 9,
    "labelTextMapHash": 75187200,
    "chapterID": 10031,
    "questType": "WQ",
    "order": 3,
    "icon": "ART/UI/Atlas/HandbookGuideIcon/UI_GuideIcon_Explore",
    "showConds": [
      {
        "param": []
      },
      {
        "param": []
      },
      {
        "param": []
      }
    ]
  },
  {
    "guideID": 2004,
    "typeID": 9,
    "labelTextMapHash": 1274117152,
    "chapterID": 10032,
    "questType": "WQ",
    "order": 4,
    "icon": "ART/UI/Atlas/HandbookGuideIcon/UI_GuideIcon_Explore",
    "showConds": [
      {
        "param": []
      },
      {
        "param": []
      },
      {
        "param": []
      }
    ]
  },
  {
    "guideID": 2005,
    "typeID": 9,
    "labelTextMapHash": 2346366880,
    "chapterID": 10055,
    "questType": "WQ",
    "order": 5,
    "icon": "ART/UI/Atlas/HandbookGuideIcon/UI_GuideIcon_Explore",
    "showConds": [
      {
        "param": []
      },
      {
        "param": []
      },
      {
        "param": []
      }
    ]
  },
  {
    "guideID": 2006,
    "typeID": 9,
    "labelTextMapHash": 675226672,
    "chapterID": 10025,
    "questType": "WQ",
    "order": 6,
    "icon": "ART/UI/Atlas/HandbookGuideIcon/UI_GuideIcon_Explore",
    "showConds": [
      {
        "param": []
      },
      {
        "param": []
      },
      {
        "param": []
      }
    ]
  },
  {
    "guideID": 2007,
    "typeID": 9,
    "labelTextMapHash": 3304342896,
    "chapterID": 10036,
    "questType": "WQ",
    "order": 7,
    "icon": "ART/UI/Atlas/HandbookGuideIcon/UI_GuideIcon_Explore",
    "showConds": [
      {
        "param": []
      },
      {
        "param": []
      },
      {
        "param": []
      }
    ]
  },
  {
    "guideID": 2008,
    "typeID": 9,
    "labelTextMapHash": 3362660088,
    "chapterID": 10037,
    "questType": "WQ",
    "order": 8,
    "icon": "ART/UI/Atlas/HandbookGuideIcon/UI_GuideIcon_Explore",
    "showConds": [
      {
        "param": []
      },
      {
        "param": []
      },
      {
        "param": []
      }
    ]
  },
  {
    "guideID": 2009,
    "typeID": 9,
    "labelTextMapHash": 3421747368,
    "chapterID": 10044,
    "questType": "WQ",
    "order": 9,
    "icon": "ART/UI/Atlas/HandbookGuideIcon/UI_GuideIcon_Explore",
    "showConds": [
      {
        "param": []
      },
      {
        "param": []
      },
      {
        "param": []
      }
    ]
  },
  {
    "guideID": 2010,
    "typeID": 9,
    "labelTextMapHash": 749700696,
    "chapterID": 10073,
    "questType": "WQ",
    "order": 10,
    "icon": "ART/UI/Atlas/HandbookGuideIcon/UI_GuideIcon_Explore",
    "showConds": [
      {
        "param": []
      },
      {
        "param": []
      },
      {
        "param": []
      }
    ]
  },
  {
    "guideID": 2011,
    "typeID": 9,
    "labelTextMapHash": 1791364576,
    "chapterID": 10076,
    "questType": "WQ",
    "order": 11,
    "icon": "ART/UI/Atlas/HandbookGuideIcon/UI_GuideIcon_Explore",
    "showConds": [
      {
        "param": []
      },
      {
        "param": []
      },
      {
        "param": []
      }
    ]
  },
  {
    "guideID": 2012,
    "typeID": 9,
    "labelTextMapHash": 3664178016,
    "chapterID": 10069,
    "questType": "WQ",
    "order": 12,
    "icon": "ART/UI/Atlas/HandbookGuideIcon/UI_GuideIcon_Explore",
    "showConds": [
      {
        "param": []
      },
      {
        "param": []
      },
      {
        "param": []
      }
    ]
  },
  {
    "guideID": 2013,
    "typeID": 9,
    "labelTextMapHash": 2844479848,
    "chapterID": 10083,
    "questType": "WQ",
    "order": 13,
    "icon": "ART/UI/Atlas/HandbookGuideIcon/UI_GuideIcon_Explore",
    "showConds": [
      {
        "param": []
      },
      {
        "param": []
      },
      {
        "param": []
      }
    ]
  },
  {
    "guideID": 2014,
    "typeID": 9,
    "labelTextMapHash": 2076089416,
    "chapterID": 10072,
    "questType": "WQ",
    "order": 14,
    "icon": "ART/UI/Atlas/HandbookGuideIcon/UI_GuideIcon_Explore",
    "showConds": [
      {
        "param": []
      },
      {
        "param": []
      },
      {
        "param": []
      }
    ]
  },
  {
    "guideID": 2015,
    "typeID": 9,
    "labelTextMapHash": 113810608,
    "chapterID": 10070,
    "questType": "WQ",
    "order": 15,
    "icon": "ART/UI/Atlas/HandbookGuideIcon/UI_GuideIcon_Explore",
    "showConds": [
      {
        "param": []
      },
      {
        "param": []
      },
      {
        "param": []
      }
    ]
  },
  {
    "guideID": 2016,
    "typeID": 9,
    "labelTextMapHash": 2782262832,
    "chapterID": 10079,
    "questType": "WQ",
    "order": 16,
    "icon": "ART/UI/Atlas/HandbookGuideIcon/UI_GuideIcon_Explore",
    "showConds": [
      {
        "param": []
      },
      {
        "param": []
      },
      {
        "param": []
      }
    ]
  },
  {
    "guideID": 2017,
    "typeID": 9,
    "labelTextMapHash": 1410369920,
    "chapterID": 10087,
    "questType": "WQ",
    "order": 17,
    "icon": "ART/UI/Atlas/HandbookGuideIcon/UI_GuideIcon_Explore",
    "showConds": [
      {
        "param": []
      },
      {
        "param": []
      },
      {
        "param": []
      }
    ]
  },
  {
    "guideID": 2018,
    "typeID": 9,
    "labelTextMapHash": 30372936,
    "chapterID": 10130,
    "questType": "WQ",
    "order": 18,
    "icon": "ART/UI/Atlas/HandbookGuideIcon/UI_GuideIcon_Explore",
    "showConds": [
      {
        "param": []
      },
      {
        "param": []
      },
      {
        "param": []
      }
    ]
  },
  {
    "guideID": 2019,
    "typeID": 9,
    "labelTextMapHash": 2263542144,
    "chapterID": 10121,
    "questType": "WQ",
    "order": 19,
    "icon": "ART/UI/Atlas/HandbookGuideIcon/UI_GuideIcon_Explore",
    "showConds": [
      {
        "param": []
      },
      {
        "param": []
      },
      {
        "param": []
      }
    ]
  },
  {
    "guideID": 2020,
    "typeID": 9,
    "labelTextMapHash": 3791758040,
    "mainQuestID": 74008,
    "questType": "WQ",
    "order": 20,
    "icon": "ART/UI/Atlas/HandbookGuideIcon/UI_GuideIcon_Explore",
    "showConds": [
      {
        "param": []
      },
      {
        "param": []
      },
      {
        "param": []
      }
    ]
  },
  {
    "guideID": 2021,
    "typeID": 9,
    "labelTextMapHash": 3810804544,
    "chapterID": 10142,
    "questType": "WQ",
    "order": 21,
    "icon": "ART/UI/Atlas/HandbookGuideIcon/UI_GuideIcon_Explore",
    "showConds": [
      {
        "param": []
      },
      {
        "param": []
      },
      {
        "param": []
      }
    ]
  },
  {
    "guideID": 2022,
    "typeID": 9,
    "labelTextMapHash": 2824214024,
    "chapterID": 10150,
    "questType": "WQ",
    "order": 22,
    "icon": "ART/UI/Atlas/HandbookGuideIcon/UI_GuideIcon_Explore",
    "showConds": [
      {
        "param": []
      },
      {
        "param": []
      },
      {
        "param": []
      }
    ]
  },
  {
    "guideID": 2023,
    "typeID": 9,
    "labelTextMapHash": 1677300328,
    "chapterID": 10151,
    "questType": "WQ",
    "order": 23,
    "icon": "ART/UI/Atlas/HandbookGuideIcon/UI_GuideIcon_Explore",
    "showConds": [
      {
        "param": []
      },
      {
        "param": []
      },
      {
        "param": []
      }
    ]
  },
  {
    "guideID": 2024,
    "typeID": 9,
    "labelTextMapHash": 1285311608,
    "chapterID": 10146,
    "questType": "WQ",
    "order": 24,
    "icon": "ART/UI/Atlas/HandbookGuideIcon/UI_GuideIcon_Explore",
    "showConds": [
      {
        "param": []
      },
      {
        "param": []
      },
      {
        "param": []
      }
    ]
  },
  {
    "guideID": 2025,
    "typeID": 9,
    "labelTextMapHash": 1354348024,
    "chapterID": 10148,
    "questType": "WQ",
    "order": 25,
    "icon": "ART/UI/Atlas/HandbookGuideIcon/UI_GuideIcon_Explore",
    "showConds": [
      {
        "param": []
      },
      {
        "param": []
      },
      {
        "param": []
      }
    ]
  },
  {
    "guideID": 2026,
    "typeID": 9,
    "labelTextMapHash": 1864041816,
    "chapterID": 10149,
    "questType": "WQ",
    "order": 26,
    "icon": "ART/UI/Atlas/HandbookGuideIcon/UI_GuideIcon_Explore",
    "showConds": [
      {
        "param": []
      },
      {
        "param": []
      },
      {
        "param": []
      }
    ]
  },
  {
    "guideID": 2027,
    "typeID": 9,
    "labelTextMapHash": 1438251096,
    "chapterID": 10143,
    "questType": "WQ",
    "order": 27,
    "icon": "ART/UI/Atlas/HandbookGuideIcon/UI_GuideIcon_Explore",
    "showConds": [
      {
        "param": []
      },
      {
        "param": []
      },
      {
        "param": []
      }
    ]
  },
  {
    "guideID": 2028,
    "typeID": 9,
    "labelTextMapHash": 2114246360,
    "chapterID": 10145,
    "questType": "WQ",
    "order": 28,
    "icon": "ART/UI/Atlas/HandbookGuideIcon/UI_GuideIcon_Explore",
    "showConds": [
      {
        "param": []
      },
      {
        "param": []
      },
      {
        "param": []
      }
    ]
  },
  {
    "guideID": 2029,
    "typeID": 9,
    "labelTextMapHash": 3963076512,
    "chapterID": 10147,
    "questType": "WQ",
    "order": 29,
    "icon": "ART/UI/Atlas/HandbookGuideIcon/UI_GuideIcon_Explore",
    "showConds": [
      {
        "param": []
      },
      {
        "param": []
      },
      {
        "param": []
      }
    ]
  },
  {
    "guideID": 2030,
    "typeID": 9,
    "labelTextMapHash": 2375097536,
    "chapterID": 10152,
    "questType": "WQ",
    "order": 30,
    "icon": "ART/UI/Atlas/HandbookGuideIcon/UI_GuideIcon_Explore",
    "showConds": [
      {
        "param": []
      },
      {
        "param": []
      },
      {
        "param": []
      }
    ]
  },
  {
    "guideID": 2031,
    "typeID": 9,
    "labelTextMapHash": 2836236960,
    "chapterID": 10153,
    "questType": "WQ",
    "order": 31,
    "icon": "ART/UI/Atlas/HandbookGuideIcon/UI_GuideIcon_Explore",
    "showConds": [
      {
        "param": []
      },
      {
        "param": []
      },
      {
        "param": []
      }
    ]
  },
  {
    "guideID": 2032,
    "typeID": 9,
    "labelTextMapHash": 2837153720,
    "chapterID": 10154,
    "questType": "WQ",
    "order": 32,
    "icon": "ART/UI/Atlas/HandbookGuideIcon/UI_GuideIcon_Explore",
    "showConds": [
      {
        "param": []
      },
      {
        "param": []
      },
      {
        "param": []
      }
    ]
  },
  {
    "guideID": 2033,
    "typeID": 9,
    "labelTextMapHash": 3870417752,
    "chapterID": 10155,
    "questType": "WQ",
    "order": 33,
    "icon": "ART/UI/Atlas/HandbookGuideIcon/UI_GuideIcon_Explore",
    "showConds": [
      {
        "param": []
      },
      {
        "param": []
      },
      {
        "param": []
      }
    ]
  },
  {
    "guideID": 2034,
    "typeID": 9,
    "labelTextMapHash": 1259214168,
    "chapterID": 10168,
    "questType": "WQ",
    "order": 34,
    "icon": "ART/UI/Atlas/HandbookGuideIcon/UI_GuideIcon_Explore",
    "showConds": [
      {
        "param": []
      },
      {
        "param": []
      },
      {
        "param": []
      }
    ]
  },
  {
    "guideID": 2035,
    "typeID": 9,
    "labelTextMapHash": 3446743288,
    "chapterID": 10181,
    "questType": "WQ",
    "order": 35,
    "icon": "ART/UI/Atlas/HandbookGuideIcon/UI_GuideIcon_Explore",
    "showConds": [
      {
        "param": []
      },
      {
        "param": []
      },
      {
        "param": []
      }
    ]
  },
  {
    "guideID": 2036,
    "typeID": 9,
    "labelTextMapHash": 4120256728,
    "chapterID": 10182,
    "questType": "WQ",
    "order": 36,
    "icon": "ART/UI/Atlas/HandbookGuideIcon/UI_GuideIcon_Explore",
    "showConds": [
      {
        "param": []
      },
      {
        "param": []
      },
      {
        "param": []
      }
    ]
  },
  {
    "guideID": 2037,
    "typeID": 9,
    "labelTextMapHash": 457532880,
    "chapterID": 10183,
    "questType": "WQ",
    "order": 37,
    "icon": "ART/UI/Atlas/HandbookGuideIcon/UI_GuideIcon_Explore",
    "showConds": [
      {
        "param": []
      },
      {
        "param": []
      },
      {
        "param": []
      }
    ]
  },
  {
    "guideID": 2038,
    "typeID": 9,
    "labelTextMapHash": 2620826368,
    "chapterID": 10184,
    "questType": "WQ",
    "order": 38,
    "icon": "ART/UI/Atlas/HandbookGuideIcon/UI_GuideIcon_Explore",
    "showConds": [
      {
        "param": []
      },
      {
        "param": []
      },
      {
        "param": []
      }
    ]
  },
  {
    "guideID": 2039,
    "typeID": 9,
    "labelTextMapHash": 3085160016,
    "chapterID": 10185,
    "questType": "WQ",
    "order": 39,
    "icon": "ART/UI/Atlas/HandbookGuideIcon/UI_GuideIcon_Explore",
    "showConds": [
      {
        "param": []
      },
      {
        "param": []
      },
      {
        "param": []
      }
    ]
  },
  {
    "guideID": 2040,
    "typeID": 9,
    "labelTextMapHash": 1889434176,
    "mainQuestID": 75001,
    "questType": "WQ",
    "order": 40,
    "icon": "ART/UI/Atlas/HandbookGuideIcon/UI_GuideIcon_Explore",
    "showConds": [
      {
        "param": []
      },
      {
        "param": []
      },
      {
        "param": []
      }
    ]
  },
  {
    "guideID": 2041,
    "typeID": 9,
    "labelTextMapHash": 1104596216,
    "mainQuestID": 75004,
    "questType": "WQ",
    "order": 41,
    "icon": "ART/UI/Atlas/HandbookGuideIcon/UI_GuideIcon_Explore",
    "showConds": [
      {
        "param": []
      },
      {
        "param": []
      },
      {
        "param": []
      }
    ]
  },
  {
    "guideID": 2042,
    "typeID": 9,
    "labelTextMapHash": 4090621576,
    "mainQuestID": 75006,
    "questType": "WQ",
    "order": 42,
    "icon": "ART/UI/Atlas/HandbookGuideIcon/UI_GuideIcon_Explore",
    "showConds": [
      {
        "param": []
      },
      {
        "param": []
      },
      {
        "param": []
      }
    ]
  },
  {
    "guideID": 2043,
    "typeID": 9,
    "labelTextMapHash": 4019309896,
    "mainQuestID": 75011,
    "questType": "WQ",
    "order": 43,
    "icon": "ART/UI/Atlas/HandbookGuideIcon/UI_GuideIcon_Explore",
    "showConds": [
      {
        "param": []
      },
      {
        "param": []
      },
      {
        "param": []
      }
    ]
  },
  {
    "guideID": 2044,
    "typeID": 9,
    "labelTextMapHash": 2658783744,
    "mainQuestID": 75019,
    "questType": "WQ",
    "order": 44,
    "icon": "ART/UI/Atlas/HandbookGuideIcon/UI_GuideIcon_Explore",
    "showConds": [
      {
        "param": []
      },
      {
        "param": []
      },
      {
        "param": []
      }
    ]
  },
  {
    "guideID": 2045,
    "typeID": 9,
    "labelTextMapHash": 202165192,
    "mainQuestID": 75002,
    "questType": "WQ",
    "order": 45,
    "icon": "ART/UI/Atlas/HandbookGuideIcon/UI_GuideIcon_Explore",
    "showConds": [
      {
        "param": []
      },
      {
        "param": []
      },
      {
        "param": []
      }
    ]
  },
  {
    "guideID": 2046,
    "typeID": 9,
    "labelTextMapHash": 3406504088,
    "chapterID": 10213,
    "questType": "WQ",
    "order": 46,
    "icon": "ART/UI/Atlas/HandbookGuideIcon/UI_GuideIcon_Explore",
    "showConds": [
      {
        "param": []
      },
      {
        "param": []
      },
      {
        "param": []
      }
    ]
  },
  {
    "guideID": 2047,
    "typeID": 9,
    "labelTextMapHash": 4285093232,
    "chapterID": 10215,
    "questType": "WQ",
    "order": 47,
    "icon": "ART/UI/Atlas/HandbookGuideIcon/UI_GuideIcon_Explore",
    "showConds": [
      {
        "param": []
      },
      {
        "param": []
      },
      {
        "param": []
      }
    ]
  },
  {
    "guideID": 2048,
    "typeID": 9,
    "labelTextMapHash": 3577555736,
    "chapterID": 10216,
    "questType": "WQ",
    "order": 48,
    "icon": "ART/UI/Atlas/HandbookGuideIcon/UI_GuideIcon_Explore",
    "showConds": [
      {
        "param": []
      },
      {
        "param": []
      },
      {
        "param": []
      }
    ]
  },
  {
    "guideID": 2049,
    "typeID": 9,
    "labelTextMapHash": 106838872,
    "chapterID": 10217,
    "questType": "WQ",
    "order": 49,
    "icon": "ART/UI/Atlas/HandbookGuideIcon/UI_GuideIcon_Explore",
    "showConds": [
      {
        "param": []
      },
      {
        "param": []
      },
      {
        "param": []
      }
    ]
  },
  {
    "guideID": 3001,
    "typeID": 10,
    "labelTextMapHash": 2860863840,
    "chapterID": 101401,
    "questType": "LQ",
    "order": 1,
    "icon": "ART/UI/Atlas/HandbookGuideIcon/UI_GuideIcon_Coop",
    "specialGuideID": 2,
    "showConds": [
      {
        "type": "QUEST_GUIDE_SHOW_COND_LEVEL_GT_OR_EQ",
        "param": [
          26
        ]
      },
      {
        "param": []
      },
      {
        "param": []
      }
    ]
  },
  {
    "guideID": 3002,
    "typeID": 10,
    "labelTextMapHash": 3484394640,
    "chapterID": 103401,
    "questType": "LQ",
    "order": 2,
    "icon": "ART/UI/Atlas/HandbookGuideIcon/UI_GuideIcon_Coop",
    "specialGuideID": 2,
    "showConds": [
      {
        "type": "QUEST_GUIDE_SHOW_COND_LEVEL_GT_OR_EQ",
        "param": [
          26
        ]
      },
      {
        "param": []
      },
      {
        "param": []
      }
    ]
  },
  {
    "guideID": 3003,
    "typeID": 10,
    "labelTextMapHash": 3129989408,
    "chapterID": 103601,
    "questType": "LQ",
    "order": 3,
    "icon": "ART/UI/Atlas/HandbookGuideIcon/UI_GuideIcon_Coop",
    "specialGuideID": 2,
    "showConds": [
      {
        "type": "QUEST_GUIDE_SHOW_COND_LEVEL_GT_OR_EQ",
        "param": [
          26
        ]
      },
      {
        "param": []
      },
      {
        "param": []
      }
    ]
  },
  {
    "guideID": 3004,
    "typeID": 10,
    "labelTextMapHash": 3777631368,
    "chapterID": 103201,
    "questType": "LQ",
    "order": 4,
    "icon": "ART/UI/Atlas/HandbookGuideIcon/UI_GuideIcon_Coop",
    "specialGuideID": 2,
    "showConds": [
      {
        "type": "QUEST_GUIDE_SHOW_COND_LEVEL_GT_OR_EQ",
        "param": [
          26
        ]
      },
      {
        "param": []
      },
      {
        "param": []
      }
    ]
  },
  {
    "guideID": 3005,
    "typeID": 10,
    "labelTextMapHash": 891441816,
    "chapterID": 103402,
    "questType": "LQ",
    "order": 5,
    "icon": "ART/UI/Atlas/HandbookGuideIcon/UI_GuideIcon_Coop",
    "specialGuideID": 2,
    "showConds": [
      {
        "type": "QUEST_GUIDE_SHOW_COND_LEVEL_GT_OR_EQ",
        "param": [
          26
        ]
      },
      {
        "param": []
      },
      {
        "param": []
      }
    ]
  },
  {
    "guideID": 3006,
    "typeID": 10,
    "labelTextMapHash": 3470230792,
    "chapterID": 103901,
    "questType": "LQ",
    "order": 6,
    "icon": "ART/UI/Atlas/HandbookGuideIcon/UI_GuideIcon_Coop",
    "specialGuideID": 2,
    "showConds": [
      {
        "type": "QUEST_GUIDE_SHOW_COND_LEVEL_GT_OR_EQ",
        "param": [
          26
        ]
      },
      {
        "param": []
      },
      {
        "param": []
      }
    ]
  },
  {
    "guideID": 3007,
    "typeID": 10,
    "labelTextMapHash": 4292343616,
    "chapterID": 102401,
    "questType": "LQ",
    "order": 7,
    "icon": "ART/UI/Atlas/HandbookGuideIcon/UI_GuideIcon_Coop",
    "specialGuideID": 2,
    "showConds": [
      {
        "type": "QUEST_GUIDE_SHOW_COND_LEVEL_GT_OR_EQ",
        "param": [
          26
        ]
      },
      {
        "param": []
      },
      {
        "param": []
      }
    ]
  },
  {
    "guideID": 3008,
    "typeID": 10,
    "labelTextMapHash": 2422496952,
    "chapterID": 105001,
    "questType": "LQ",
    "order": 8,
    "icon": "ART/UI/Atlas/HandbookGuideIcon/UI_GuideIcon_Coop",
    "specialGuideID": 2,
    "showConds": [
      {
        "type": "QUEST_GUIDE_SHOW_COND_LEVEL_GT_OR_EQ",
        "param": [
          26
        ]
      },
      {
        "param": []
      },
      {
        "param": []
      }
    ]
  },
  {
    "guideID": 3009,
    "typeID": 10,
    "labelTextMapHash": 1464945344,
    "chapterID": 105301,
    "questType": "LQ",
    "order": 9,
    "icon": "ART/UI/Atlas/HandbookGuideIcon/UI_GuideIcon_Coop",
    "specialGuideID": 2,
    "showConds": [
      {
        "type": "QUEST_GUIDE_SHOW_COND_LEVEL_GT_OR_EQ",
        "param": [
          26
        ]
      },
      {
        "param": []
      },
      {
        "param": []
      }
    ]
  },
  {
    "guideID": 3010,
    "typeID": 10,
    "labelTextMapHash": 2062950752,
    "chapterID": 105501,
    "questType": "LQ",
    "order": 10,
    "icon": "ART/UI/Atlas/HandbookGuideIcon/UI_GuideIcon_Coop",
    "specialGuideID": 2,
    "showConds": [
      {
        "type": "QUEST_GUIDE_SHOW_COND_LEVEL_GT_OR_EQ",
        "param": [
          26
        ]
      },
      {
        "param": []
      },
      {
        "param": []
      }
    ]
  },
  {
    "guideID": 3011,
    "typeID": 10,
    "labelTextMapHash": 907543008,
    "chapterID": 106401,
    "questType": "LQ",
    "order": 11,
    "icon": "ART/UI/Atlas/HandbookGuideIcon/UI_GuideIcon_Coop",
    "specialGuideID": 2,
    "showConds": [
      {
        "type": "QUEST_GUIDE_SHOW_COND_LEVEL_GT_OR_EQ",
        "param": [
          26
        ]
      },
      {
        "param": []
      },
      {
        "param": []
      }
    ]
  },
  {
    "guideID": 3012,
    "typeID": 10,
    "labelTextMapHash": 1189060192,
    "chapterID": 102701,
    "questType": "LQ",
    "order": 12,
    "icon": "ART/UI/Atlas/HandbookGuideIcon/UI_GuideIcon_Coop",
    "specialGuideID": 2,
    "showConds": [
      {
        "type": "QUEST_GUIDE_SHOW_COND_LEVEL_GT_OR_EQ",
        "param": [
          26
        ]
      },
      {
        "param": []
      },
      {
        "param": []
      }
    ]
  },
  {
    "guideID": 3013,
    "typeID": 10,
    "labelTextMapHash": 2479764048,
    "chapterID": 106501,
    "questType": "LQ",
    "order": 13,
    "icon": "ART/UI/Atlas/HandbookGuideIcon/UI_GuideIcon_Coop",
    "specialGuideID": 2,
    "showConds": [
      {
        "type": "QUEST_GUIDE_SHOW_COND_LEVEL_GT_OR_EQ",
        "param": [
          26
        ]
      },
      {
        "param": []
      },
      {
        "param": []
      }
    ]
  },
  {
    "guideID": 3014,
    "typeID": 10,
    "labelTextMapHash": 2679319656,
    "chapterID": 105901,
    "questType": "LQ",
    "order": 14,
    "icon": "ART/UI/Atlas/HandbookGuideIcon/UI_GuideIcon_Coop",
    "specialGuideID": 2,
    "showConds": [
      {
        "type": "QUEST_GUIDE_SHOW_COND_LEVEL_GT_OR_EQ",
        "param": [
          26
        ]
      },
      {
        "param": []
      },
      {
        "param": []
      }
    ]
  },
  {
    "guideID": 3015,
    "typeID": 10,
    "labelTextMapHash": 1293163440,
    "chapterID": 107601,
    "questType": "LQ",
    "order": 15,
    "icon": "ART/UI/Atlas/HandbookGuideIcon/UI_GuideIcon_Coop",
    "specialGuideID": 2,
    "showConds": [
      {
        "type": "QUEST_GUIDE_SHOW_COND_LEVEL_GT_OR_EQ",
        "param": [
          26
        ]
      },
      {
        "param": []
      },
      {
        "param": []
      }
    ]
  },
  {
    "guideID": 3016,
    "typeID": 10,
    "labelTextMapHash": 2487173400,
    "chapterID": 107401,
    "questType": "LQ",
    "order": 16,
    "icon": "ART/UI/Atlas/HandbookGuideIcon/UI_GuideIcon_Coop",
    "specialGuideID": 2,
    "showConds": [
      {
        "type": "QUEST_GUIDE_SHOW_COND_LEVEL_GT_OR_EQ",
        "param": [
          26
        ]
      },
      {
        "param": []
      },
      {
        "param": []
      }
    ]
  },
  {
    "guideID": 3017,
    "typeID": 10,
    "labelTextMapHash": 358083648,
    "chapterID": 108101,
    "questType": "LQ",
    "order": 17,
    "icon": "ART/UI/Atlas/HandbookGuideIcon/UI_GuideIcon_Coop",
    "specialGuideID": 2,
    "showConds": [
      {
        "type": "QUEST_GUIDE_SHOW_COND_LEVEL_GT_OR_EQ",
        "param": [
          26
        ]
      },
      {
        "param": []
      },
      {
        "param": []
      }
    ]
  },
  {
    "guideID": 3018,
    "typeID": 10,
    "labelTextMapHash": 837801656,
    "chapterID": 101501,
    "questType": "LQ",
    "order": 18,
    "icon": "ART/UI/Atlas/HandbookGuideIcon/UI_GuideIcon_Coop",
    "specialGuideID": 2,
    "showConds": [
      {
        "type": "QUEST_GUIDE_SHOW_COND_LEVEL_GT_OR_EQ",
        "param": [
          26
        ]
      },
      {
        "param": []
      },
      {
        "param": []
      }
    ]
  },
  {
    "guideID": 3019,
    "typeID": 10,
    "labelTextMapHash": 2351653280,
    "chapterID": 108301,
    "questType": "LQ",
    "order": 19,
    "icon": "ART/UI/Atlas/HandbookGuideIcon/UI_GuideIcon_Coop",
    "specialGuideID": 2,
    "showConds": [
      {
        "type": "QUEST_GUIDE_SHOW_COND_LEVEL_GT_OR_EQ",
        "param": [
          26
        ]
      },
      {
        "param": []
      },
      {
        "param": []
      }
    ]
  }
]