[
  {
    "typeID": 1001,
    "typeCategoryID": 1,
    "typeNameTextMapHash": 1747164567,
    "typeName2TextMapHash": 10916579,
    "tabIcon": "UI_HomeWorldTabIcon_2_Wall",
    "isShowInBag": true,
    "FBNDAKHJPJL": 1010
  },
  {
    "typeID": 1002,
    "typeCategoryID": 1,
    "typeNameTextMapHash": 843130895,
    "typeName2TextMapHash": 2523373883,
    "tabIcon": "UI_HomeWorldTabIcon_2_Floor",
    "isShowInBag": true,
    "FBNDAKHJPJL": 1020
  },
  {
    "typeID": 1003,
    "typeCategoryID": 1,
    "typeNameTextMapHash": 4247725943,
    "typeName2TextMapHash": 1505774019,
    "tabIcon": "UI_HomeWorldTabIcon_2_Ceiling",
    "isShowInBag": true,
    "FBNDAKHJPJL": 1030
  },
  {
    "typeID": 1004,
    "typeCategoryID": 1,
    "typeNameTextMapHash": 3527280743,
    "typeName2TextMapHash": 2693615859,
    "tabIcon": "UI_HomeWorldTabIcon_2_Droplight",
    "isShowInBag": true,
    "FBNDAKHJPJL": 1040
  },
  {
    "typeID": 1005,
    "typeCategoryID": 1,
    "typeNameTextMapHash": 1236062887,
    "typeName2TextMapHash": 291785211,
    "tabIcon": "UI_HomeWorldTabIcon_2_Door",
    "isShowInBag": true,
    "FBNDAKHJPJL": 1050
  },
  {
    "typeID": 1006,
    "typeCategoryID": 1,
    "typeNameTextMapHash": 2445576727,
    "typeName2TextMapHash": 793029603,
    "tabIcon": "UI_HomeWorldTabIcon_2_Stair",
    "isShowInBag": true,
    "FBNDAKHJPJL": 1060
  },
  {
    "typeID": 3001,
    "typeCategoryID": 2,
    "typeNameTextMapHash": 1031490255,
    "typeName2TextMapHash": 241692731,
    "tabIcon": "UI_HomeWorldTabIcon_2_Cabinet",
    "isShowInBag": true,
    "FBNDAKHJPJL": 2010
  },
  {
    "typeID": 3002,
    "typeCategoryID": 2,
    "typeNameTextMapHash": 1347000647,
    "typeName2TextMapHash": 2432567291,
    "tabIcon": "UI_HomeWorldTabIcon_2_Bookcase",
    "isShowInBag": true,
    "FBNDAKHJPJL": 2020
  },
  {
    "typeID": 3003,
    "typeCategoryID": 2,
    "typeNameTextMapHash": 870250087,
    "typeName2TextMapHash": 922944195,
    "tabIcon": "UI_HomeWorldTabIcon_2_Table",
    "isShowInBag": true,
    "FBNDAKHJPJL": 2030
  },
  {
    "typeID": 3005,
    "typeCategoryID": 2,
    "typeNameTextMapHash": 2499730927,
    "typeName2TextMapHash": 3806375211,
    "tabIcon": "UI_HomeWorldTabIcon_2_Counter",
    "isShowInBag": true,
    "FBNDAKHJPJL": 2040
  },
  {
    "typeID": 3006,
    "typeCategoryID": 2,
    "typeNameTextMapHash": 2309016527,
    "typeName2TextMapHash": 1000389059,
    "tabIcon": "UI_HomeWorldTabIcon_2_Bed",
    "isShowInBag": true,
    "FBNDAKHJPJL": 2050
  },
  {
    "typeID": 3007,
    "typeCategoryID": 2,
    "typeNameTextMapHash": 2504383023,
    "typeName2TextMapHash": 393483835,
    "tabIcon": "UI_HomeWorldTabIcon_2_Fishtank",
    "isShowInBag": true,
    "FBNDAKHJPJL": 2060
  },
  {
    "typeID": 4001,
    "typeCategoryID": 3,
    "typeNameTextMapHash": 3515206943,
    "typeName2TextMapHash": 4114669899,
    "tabIcon": "UI_HomeWorldTabIcon_2_Chair",
    "isShowInBag": true,
    "FBNDAKHJPJL": 3010
  },
  {
    "typeID": 4002,
    "typeCategoryID": 3,
    "typeNameTextMapHash": 1833205511,
    "typeName2TextMapHash": 2454104499,
    "tabIcon": "UI_HomeWorldTabIcon_2_Decorate",
    "isShowInBag": true,
    "FBNDAKHJPJL": 3020
  },
  {
    "typeID": 4003,
    "typeCategoryID": 3,
    "typeNameTextMapHash": 3455997679,
    "typeName2TextMapHash": 321564459,
    "tabIcon": "UI_HomeWorldTabIcon_2_Crafts",
    "isShowInBag": true,
    "FBNDAKHJPJL": 3030
  },
  {
    "typeID": 4004,
    "typeCategoryID": 3,
    "typeNameTextMapHash": 2334825399,
    "typeName2TextMapHash": 2532685155,
    "tabIcon": "UI_HomeWorldTabIcon_2_Carpet",
    "isShowInBag": true,
    "FBNDAKHJPJL": 3040
  },
  {
    "typeID": 11003,
    "typeCategoryID": 4,
    "typeNameTextMapHash": 2802965799,
    "typeName2TextMapHash": 1466665259,
    "tabIcon": "UI_HomeWorldTabIcon_2_Lamp",
    "isShowInBag": true,
    "FBNDAKHJPJL": 4010
  },
  {
    "typeID": 11001,
    "typeCategoryID": 4,
    "typeNameTextMapHash": 2722298863,
    "typeName2TextMapHash": 1002108859,
    "tabIcon": "UI_HomeWorldTabIcon_2_Plants",
    "isShowInBag": true,
    "FBNDAKHJPJL": 4020
  },
  {
    "typeID": 11002,
    "typeCategoryID": 4,
    "typeNameTextMapHash": 4245343967,
    "typeName2TextMapHash": 3439424635,
    "tabIcon": "UI_HomeWorldTabIcon_2_Tabletop",
    "isShowInBag": true,
    "FBNDAKHJPJL": 4030
  },
  {
    "typeID": 11004,
    "typeCategoryID": 4,
    "typeNameTextMapHash": 2377284319,
    "typeName2TextMapHash": 4174178635,
    "tabIcon": "UI_HomeWorldTabIcon_2_Accessories",
    "isShowInBag": true,
    "FBNDAKHJPJL": 4040
  },
  {
    "typeID": 5003,
    "typeCategoryID": 5,
    "typeNameTextMapHash": 2504978935,
    "typeName2TextMapHash": 69468203,
    "tabIcon": "UI_HomeWorldTabIcon_2_Paintings",
    "isShowInBag": true,
    "FBNDAKHJPJL": 5010
  },
  {
    "typeID": 5005,
    "typeCategoryID": 5,
    "typeNameTextMapHash": 1799163975,
    "typeName2TextMapHash": 4168383467,
    "tabIcon": "UI_HomeWorldTabIcon_2_Hangings",
    "isShowInBag": true,
    "FBNDAKHJPJL": 5020
  },
  {
    "typeID": 5006,
    "typeCategoryID": 5,
    "typeNameTextMapHash": 832533887,
    "typeName2TextMapHash": 2744097163,
    "tabIcon": "UI_HomeWorldTabIcon_2_Photo",
    "isShowInBag": true,
    "FBNDAKHJPJL": 5030
  },
  {
    "typeID": 6002,
    "typeCategoryID": 6,
    "typeNameTextMapHash": 4095736343,
    "typeName2TextMapHash": 2430048163,
    "tabIcon": "UI_HomeWorldTabIcon_2_Wall",
    "sceneType": "Exterior",
    "isShowInBag": true,
    "FBNDAKHJPJL": 6010
  },
  {
    "typeID": 6003,
    "typeCategoryID": 6,
    "typeNameTextMapHash": 1981825551,
    "typeName2TextMapHash": 638786971,
    "tabIcon": "UI_HomeWorldTabIcon_2_Largedecoration",
    "sceneType": "Exterior",
    "isShowInBag": true,
    "FBNDAKHJPJL": 6020
  },
  {
    "typeID": 13002,
    "typeCategoryID": 7,
    "typeNameTextMapHash": 2287558023,
    "typeName2TextMapHash": 2889771011,
    "tabIcon": "UI_HomeWorldTabIcon_2_Europeanhouse",
    "sceneType": "Exterior",
    "isShowInBag": true,
    "FBNDAKHJPJL": 7010
  },
  {
    "typeID": 13001,
    "typeCategoryID": 7,
    "typeNameTextMapHash": 4072141127,
    "typeName2TextMapHash": 2601522931,
    "tabIcon": "UI_HomeWorldTabIcon_2_Chinesehouse",
    "sceneType": "Exterior",
    "isShowInBag": true,
    "FBNDAKHJPJL": 7020
  },
  {
    "typeID": 13004,
    "typeCategoryID": 7,
    "typeNameTextMapHash": 540413951,
    "typeName2TextMapHash": 3105435395,
    "tabIcon": "UI_HomeWorldTabIcon_2_Daoqi",
    "sceneType": "Exterior",
    "isShowInBag": true,
    "FBNDAKHJPJL": 7030
  },
  {
    "typeID": 13005,
    "typeCategoryID": 7,
    "typeNameTextMapHash": 2502124039,
    "typeName2TextMapHash": 4195219939,
    "tabIcon": "UI_HomeWorldTabIcon_2_Xumi",
    "sceneType": "Exterior",
    "isShowInBag": true,
    "FBNDAKHJPJL": 7040
  },
  {
    "typeID": 13006,
    "typeCategoryID": 7,
    "typeNameTextMapHash": 4251053287,
    "typeName2TextMapHash": 116596507,
    "tabIcon": "UI_HomeWorldTabIcon_2_Fengdan",
    "sceneType": "Exterior",
    "isShowInBag": true,
    "FBNDAKHJPJL": 7050
  },
  {
    "typeID": 13007,
    "typeCategoryID": 7,
    "typeNameTextMapHash": 2373752727,
    "typeName2TextMapHash": 3111820435,
    "tabIcon": "UI_HomeWorldTabIcon_2_Natlan",
    "sceneType": "Exterior",
    "isShowInBag": true,
    "FBNDAKHJPJL": 7060
  },
  {
    "typeID": 13003,
    "typeCategoryID": 7,
    "typeNameTextMapHash": 1102039095,
    "typeName2TextMapHash": 2417025883,
    "tabIcon": "UI_HomeWorldTabIcon_2_Monsterhouse",
    "sceneType": "Exterior",
    "isShowInBag": true,
    "FBNDAKHJPJL": 7210
  },
  {
    "typeID": 6005,
    "typeCategoryID": 7,
    "typeNameTextMapHash": 3490730703,
    "typeName2TextMapHash": 2395742523,
    "tabIcon": "UI_HomeWorldTabIcon_2_Store",
    "sceneType": "Exterior",
    "isShowInBag": true,
    "FBNDAKHJPJL": 7220
  },
  {
    "typeID": 6006,
    "typeCategoryID": 7,
    "typeNameTextMapHash": 1770645095,
    "typeName2TextMapHash": 2690148859,
    "tabIcon": "UI_HomeWorldTabIcon_2_Stall",
    "sceneType": "Exterior",
    "isShowInBag": true,
    "FBNDAKHJPJL": 7230
  },
  {
    "typeID": 10001,
    "typeCategoryID": 8,
    "typeNameTextMapHash": 1891287631,
    "typeName2TextMapHash": 2405127419,
    "tabIcon": "UI_HomeWorldTabIcon_2_Mountain",
    "sceneType": "Exterior",
    "isShowInBag": true,
    "FBNDAKHJPJL": 8010
  },
  {
    "typeID": 10002,
    "typeCategoryID": 8,
    "typeNameTextMapHash": 4042420927,
    "typeName2TextMapHash": 1021081683,
    "tabIcon": "UI_HomeWorldTabIcon_2_Stone",
    "sceneType": "Exterior",
    "isShowInBag": true,
    "FBNDAKHJPJL": 8020
  },
  {
    "typeID": 10003,
    "typeCategoryID": 8,
    "typeNameTextMapHash": 2563291127,
    "typeName2TextMapHash": 683785043,
    "tabIcon": "UI_HomeWorldTabIcon_2_Tree",
    "sceneType": "Exterior",
    "isShowInBag": true,
    "FBNDAKHJPJL": 8030
  },
  {
    "typeID": 10004,
    "typeCategoryID": 8,
    "typeNameTextMapHash": 1956512495,
    "typeName2TextMapHash": 2884651995,
    "tabIcon": "UI_HomeWorldTabIcon_2_Shrub",
    "sceneType": "Exterior",
    "isShowInBag": true,
    "FBNDAKHJPJL": 8040
  },
  {
    "typeID": 10007,
    "typeCategoryID": 8,
    "typeNameTextMapHash": 2433471583,
    "typeName2TextMapHash": 3626553379,
    "tabIcon": "UI_HomeWorldTabIcon_2_Smashrub",
    "sceneType": "Exterior",
    "isShowInBag": true,
    "FBNDAKHJPJL": 8050
  },
  {
    "typeID": 10005,
    "typeCategoryID": 8,
    "typeNameTextMapHash": 342948655,
    "typeName2TextMapHash": 4215798507,
    "tabIcon": "UI_HomeWorldTabIcon_2_Field",
    "sceneType": "Exterior",
    "isShowInBag": true,
    "FBNDAKHJPJL": 8060
  },
  {
    "typeID": 10006,
    "typeCategoryID": 8,
    "typeNameTextMapHash": 381129695,
    "typeName2TextMapHash": 1737660763,
    "tabIcon": "UI_HomeWorldTabIcon_2_StoneSky",
    "sceneType": "Exterior",
    "isShowInBag": true,
    "FBNDAKHJPJL": 8070
  },
  {
    "typeID": 7014,
    "typeCategoryID": 9,
    "typeNameTextMapHash": 125049655,
    "typeName2TextMapHash": 3039369659,
    "tabIcon": "UI_HomeWorldTabIcon_2_Bigitems",
    "sceneType": "Exterior",
    "isShowInBag": true,
    "FBNDAKHJPJL": 9010
  },
  {
    "typeID": 7001,
    "typeCategoryID": 9,
    "typeNameTextMapHash": 1311955111,
    "typeName2TextMapHash": 98766091,
    "tabIcon": "UI_HomeWorldTabIcon_2_Items",
    "sceneType": "Exterior",
    "isShowInBag": true,
    "FBNDAKHJPJL": 9020
  },
  {
    "typeID": 7003,
    "typeCategoryID": 9,
    "typeNameTextMapHash": 3476370455,
    "typeName2TextMapHash": 3375554067,
    "tabIcon": "UI_HomeWorldTabIcon_2_Flowerbed",
    "sceneType": "Exterior",
    "isShowInBag": true,
    "FBNDAKHJPJL": 9030
  },
  {
    "typeID": 7005,
    "typeCategoryID": 9,
    "typeNameTextMapHash": 674369311,
    "typeName2TextMapHash": 2767914627,
    "tabIcon": "UI_HomeWorldTabIcon_2_Decorate",
    "sceneType": "Exterior",
    "isShowInBag": true,
    "FBNDAKHJPJL": 9040
  },
  {
    "typeID": 7015,
    "typeCategoryID": 9,
    "typeNameTextMapHash": 1060803239,
    "typeName2TextMapHash": 1446507267,
    "tabIcon": "UI_HomeWorldTabIcon_2_Special",
    "sceneType": "Exterior",
    "isShowInBag": true,
    "FBNDAKHJPJL": 9050
  },
  {
    "typeID": 7016,
    "typeCategoryID": 9,
    "typeNameTextMapHash": 4227749959,
    "typeName2TextMapHash": 3688145243,
    "tabIcon": "UI_HomeWorldTabIcon_2_Organ",
    "sceneType": "Exterior",
    "isShowInBag": true,
    "FBNDAKHJPJL": 9060
  },
  {
    "typeID": 7008,
    "typeCategoryID": 9,
    "typeNameTextMapHash": 1123300903,
    "typeName2TextMapHash": 3979419155,
    "tabIcon": "UI_HomeWorldTabIcon_2_Streetlight",
    "sceneType": "Exterior",
    "isShowInBag": true,
    "FBNDAKHJPJL": 9070
  },
  {
    "typeID": 7011,
    "typeCategoryID": 9,
    "typeNameTextMapHash": 500363415,
    "typeName2TextMapHash": 3580408195,
    "tabIcon": "UI_HomeWorldTabIcon_2_Group",
    "sceneType": "Exterior",
    "isShowInBag": true,
    "FBNDAKHJPJL": 9080
  },
  {
    "typeID": 8001,
    "typeCategoryID": 10,
    "typeNameTextMapHash": 2987021175,
    "typeName2TextMapHash": 3550142059,
    "tabIcon": "UI_HomeWorldTabIcon_2_Character",
    "sceneType": "Exterior",
    "FBNDAKHJPJL": 10010
  },
  {
    "typeID": 8002,
    "typeCategoryID": 10,
    "typeNameTextMapHash": 2936971639,
    "typeName2TextMapHash": 2179156995,
    "tabIcon": "UI_HomeWorldTabIcon_2_Character",
    "FBNDAKHJPJL": 10010
  },
  {
    "typeID": 8003,
    "typeCategoryID": 10,
    "typeNameTextMapHash": 2449615719,
    "typeName2TextMapHash": 960441443,
    "tabIcon": "UI_HomeWorldTabIcon_2_Paimon",
    "sceneType": "Exterior",
    "FBNDAKHJPJL": 10020
  },
  {
    "typeID": 8004,
    "typeCategoryID": 10,
    "typeNameTextMapHash": 2752064391,
    "typeName2TextMapHash": 1642568195,
    "tabIcon": "UI_HomeWorldTabIcon_2_Paimon",
    "FBNDAKHJPJL": 10020
  },
  {
    "typeID": 9001,
    "typeCategoryID": 16,
    "typeNameTextMapHash": 3637192023,
    "typeName2TextMapHash": 2252842307,
    "tabIcon": "UI_HomeWorldTabIcon_2_Animals",
    "isShowInBag": true,
    "FBNDAKHJPJL": 11010
  },
  {
    "typeID": 9002,
    "typeCategoryID": 11,
    "typeNameTextMapHash": 803745327,
    "typeName2TextMapHash": 2753820019,
    "tabIcon": "UI_HomeWorldTabIcon_2_Animals",
    "sceneType": "Exterior",
    "isShowInBag": true,
    "FBNDAKHJPJL": 11010
  },
  {
    "typeID": 12001,
    "typeCategoryID": 12,
    "typeNameTextMapHash": 4168060031,
    "typeName2TextMapHash": 338522267,
    "tabIcon": "UI_HomeWorldTabIcon_2_Mainbuilding",
    "sceneType": "Exterior",
    "isShowInBag": true,
    "FBNDAKHJPJL": 12010
  },
  {
    "typeID": 7006,
    "typeCategoryID": 13,
    "typeNameTextMapHash": 2473360831,
    "typeName2TextMapHash": 2525377619,
    "tabIcon": "UI_HomeWorldTabIcon_2_Enclosure",
    "sceneType": "Exterior",
    "isShowInBag": true,
    "FBNDAKHJPJL": 13010
  },
  {
    "typeID": 7007,
    "typeCategoryID": 13,
    "typeNameTextMapHash": 1575042207,
    "typeName2TextMapHash": 991602283,
    "tabIcon": "UI_HomeWorldTabIcon_2_Chair",
    "sceneType": "Exterior",
    "isShowInBag": true,
    "FBNDAKHJPJL": 13020
  },
  {
    "typeID": 7002,
    "typeCategoryID": 13,
    "typeNameTextMapHash": 3881654079,
    "typeName2TextMapHash": 1802925171,
    "tabIcon": "UI_HomeWorldTabIcon_2_Table",
    "sceneType": "Exterior",
    "isShowInBag": true,
    "FBNDAKHJPJL": 13030
  },
  {
    "typeID": 7004,
    "typeCategoryID": 13,
    "typeNameTextMapHash": 1812089135,
    "typeName2TextMapHash": 455289371,
    "tabIcon": "UI_HomeWorldTabIcon_2_Cabinet",
    "sceneType": "Exterior",
    "isShowInBag": true,
    "FBNDAKHJPJL": 13040
  },
  {
    "typeID": 7009,
    "typeCategoryID": 13,
    "typeNameTextMapHash": 3563715975,
    "typeName2TextMapHash": 993594131,
    "tabIcon": "UI_HomeWorldTabIcon_2_Teleport",
    "sceneType": "Exterior",
    "isShowInBag": true,
    "FBNDAKHJPJL": 13050
  },
  {
    "typeID": 7010,
    "typeCategoryID": 13,
    "typeNameTextMapHash": 4001216935,
    "typeName2TextMapHash": 4016913099,
    "tabIcon": "UI_HomeWorldTabIcon_2_Fish",
    "sceneType": "Exterior",
    "isShowInBag": true,
    "FBNDAKHJPJL": 13060
  },
  {
    "typeID": 7012,
    "typeCategoryID": 13,
    "typeNameTextMapHash": 3360771911,
    "typeName2TextMapHash": 2135236779,
    "tabIcon": "UI_HomeWorldTabIcon_2_Road",
    "sceneType": "Exterior",
    "isShowInBag": true,
    "FBNDAKHJPJL": 13070
  },
  {
    "typeID": 7013,
    "typeCategoryID": 13,
    "typeNameTextMapHash": 814815255,
    "typeName2TextMapHash": 1999112795,
    "tabIcon": "UI_HomeWorldTabIcon_2_Team",
    "sceneType": "Exterior",
    "isShowInBag": true,
    "FBNDAKHJPJL": 13080
  },
  {
    "typeID": 771,
    "typeCategoryID": 14,
    "typeNameTextMapHash": 722769111,
    "typeName2TextMapHash": 99072355,
    "tabIcon": "UI_HomeWorldTabIcon_2_Suit",
    "sceneType": "Exterior",
    "FBNDAKHJPJL": 14010
  },
  {
    "typeID": 772,
    "typeCategoryID": 14,
    "typeNameTextMapHash": 52358375,
    "typeName2TextMapHash": 1112778275,
    "tabIcon": "UI_HomeWorldTabIcon_2_Suit2",
    "sceneType": "Exterior",
    "FBNDAKHJPJL": 14020
  },
  {
    "typeID": 671,
    "typeCategoryID": 15,
    "typeNameTextMapHash": 971419447,
    "typeName2TextMapHash": 2752582667,
    "tabIcon": "UI_HomeWorldTabIcon_2_Suit",
    "FBNDAKHJPJL": 14010
  },
  {
    "typeID": 672,
    "typeCategoryID": 15,
    "typeNameTextMapHash": 1912847943,
    "typeName2TextMapHash": 205103331,
    "tabIcon": "UI_HomeWorldTabIcon_2_Suit2",
    "FBNDAKHJPJL": 14020
  },
  {
    "typeID": 14008,
    "typeCategoryID": 16,
    "typeNameTextMapHash": 3299135135,
    "typeName2TextMapHash": 537412755,
    "tabIcon": "",
    "bagPageOnly": 1,
    "isShowInBag": true,
    "FBNDAKHJPJL": 11110
  },
  {
    "typeID": 14001,
    "typeCategoryID": 11,
    "typeNameTextMapHash": 1764022727,
    "typeName2TextMapHash": 509503363,
    "tabIcon": "",
    "sceneType": "Exterior",
    "bagPageOnly": 1,
    "isShowInBag": true,
    "FBNDAKHJPJL": 11110
  },
  {
    "typeID": 14002,
    "typeCategoryID": 9,
    "typeNameTextMapHash": 3981921703,
    "typeName2TextMapHash": 4034468171,
    "tabIcon": "",
    "sceneType": "Exterior",
    "bagPageOnly": 1,
    "isShowInBag": true,
    "FBNDAKHJPJL": 9510
  },
  {
    "typeID": 14003,
    "typeCategoryID": 9,
    "typeNameTextMapHash": 584280503,
    "typeName2TextMapHash": 680628003,
    "tabIcon": "",
    "sceneType": "Exterior",
    "bagPageOnly": 1,
    "isShowInBag": true,
    "FBNDAKHJPJL": 9520
  },
  {
    "typeID": 14004,
    "typeCategoryID": 9,
    "typeNameTextMapHash": 3375991871,
    "typeName2TextMapHash": 851669771,
    "tabIcon": "",
    "sceneType": "Exterior",
    "bagPageOnly": 1,
    "isShowInBag": true,
    "FBNDAKHJPJL": 9530
  },
  {
    "typeID": 14005,
    "typeCategoryID": 9,
    "typeNameTextMapHash": 1251543039,
    "typeName2TextMapHash": 294690995,
    "tabIcon": "",
    "sceneType": "Exterior",
    "bagPageOnly": 1,
    "isShowInBag": true,
    "FBNDAKHJPJL": 9540
  },
  {
    "typeID": 14006,
    "typeCategoryID": 9,
    "typeNameTextMapHash": 1969241471,
    "typeName2TextMapHash": 4149557707,
    "tabIcon": "",
    "sceneType": "Exterior",
    "bagPageOnly": 1,
    "isShowInBag": true,
    "FBNDAKHJPJL": 9550
  },
  {
    "typeID": 14007,
    "typeCategoryID": 9,
    "typeNameTextMapHash": 1244284695,
    "typeName2TextMapHash": 2807508243,
    "tabIcon": "",
    "sceneType": "Exterior",
    "bagPageOnly": 1,
    "isShowInBag": true,
    "FBNDAKHJPJL": 9560
  },
  {
    "typeID": 14009,
    "typeCategoryID": 9,
    "typeNameTextMapHash": 1734836279,
    "typeName2TextMapHash": 4198434955,
    "tabIcon": "",
    "sceneType": "Exterior",
    "bagPageOnly": 1,
    "isShowInBag": true,
    "FBNDAKHJPJL": 9570
  },
  {
    "typeID": 14010,
    "typeCategoryID": 9,
    "typeNameTextMapHash": 838766999,
    "typeName2TextMapHash": 280621131,
    "tabIcon": "",
    "sceneType": "Exterior",
    "bagPageOnly": 1,
    "isShowInBag": true,
    "FBNDAKHJPJL": 9580
  }
]