[
  {
    "seedID": 130001,
    "gatherIdVec": [
      2023
    ],
    "homeGatherID": 7001,
    "bundleID": 150001,
    "dropID": 21310001,
    "configHomeGather": [
      {
        "homeGatherID": 7001,
        "bundleID": 150001,
        "dropID": 21310001,
        "weight": 20
      },
      {},
      {}
    ],
    "fieldID": 372502,
    "time": 252000,
    "sproutTime": 86400,
    "collectNum": 1,
    "sproutGadgetID": 77215019,
    "order": 4,
    "inteeIconName": "",
    "inteeNameTextMapHash": 3819056217
  },
  {
    "seedID": 130002,
    "gatherIdVec": [
      2004,
      2058
    ],
    "homeGatherID": 7002,
    "dropID": 21310002,
    "configHomeGather": [
      {
        "homeGatherID": 7002,
        "dropID": 21310002,
        "weight": 20
      },
      {},
      {}
    ],
    "fieldID": 372501,
    "time": 252000,
    "sproutTime": 86400,
    "collectNum": 1,
    "sproutGadgetID": 77215019,
    "order": 5,
    "inteeIconName": "",
    "inteeNameTextMapHash": 145620177
  },
  {
    "seedID": 130003,
    "gatherIdVec": [
      2012
    ],
    "homeGatherID": 7003,
    "dropID": 21310003,
    "configHomeGather": [
      {
        "homeGatherID": 7003,
        "dropID": 21310003,
        "weight": 20
      },
      {},
      {}
    ],
    "fieldID": 372502,
    "time": 252000,
    "sproutTime": 86400,
    "collectNum": 1,
    "sproutGadgetID": 77215019,
    "order": 6,
    "inteeIconName": "",
    "inteeNameTextMapHash": 2352998081
  },
  {
    "seedID": 130004,
    "gatherIdVec": [
      2025
    ],
    "homeGatherID": 7004,
    "dropID": 21310004,
    "configHomeGather": [
      {
        "homeGatherID": 7004,
        "dropID": 21310004,
        "weight": 20
      },
      {},
      {}
    ],
    "fieldID": 372502,
    "time": 252000,
    "sproutTime": 86400,
    "collectNum": 1,
    "sproutGadgetID": 77215019,
    "order": 7,
    "inteeIconName": "",
    "inteeNameTextMapHash": 3836309809
  },
  {
    "seedID": 130005,
    "gatherIdVec": [
      2013
    ],
    "homeGatherID": 7005,
    "dropID": 21310005,
    "configHomeGather": [
      {
        "homeGatherID": 7005,
        "dropID": 21310005,
        "weight": 20
      },
      {},
      {}
    ],
    "fieldID": 372502,
    "time": 252000,
    "sproutTime": 86400,
    "collectNum": 1,
    "sproutGadgetID": 77215019,
    "order": 8,
    "inteeIconName": "",
    "inteeNameTextMapHash": 2660448913
  },
  {
    "seedID": 130006,
    "gatherIdVec": [
      2028
    ],
    "homeGatherID": 7006,
    "dropID": 21310006,
    "configHomeGather": [
      {
        "homeGatherID": 7006,
        "dropID": 21310006,
        "weight": 20
      },
      {},
      {}
    ],
    "fieldID": 372502,
    "time": 252000,
    "sproutTime": 86400,
    "collectNum": 1,
    "sproutGadgetID": 77215019,
    "order": 9,
    "inteeIconName": "",
    "inteeNameTextMapHash": 3308556009
  },
  {
    "seedID": 130007,
    "gatherIdVec": [
      2026
    ],
    "homeGatherID": 7007,
    "dropID": 21310007,
    "configHomeGather": [
      {
        "homeGatherID": 7007,
        "dropID": 21310007,
        "weight": 20
      },
      {},
      {}
    ],
    "fieldID": 372502,
    "time": 252000,
    "sproutTime": 86400,
    "collectNum": 1,
    "sproutGadgetID": 77215019,
    "order": 10,
    "inteeIconName": "",
    "inteeNameTextMapHash": 3645546745
  },
  {
    "seedID": 130008,
    "gatherIdVec": [
      2011
    ],
    "homeGatherID": 7008,
    "bundleID": 150002,
    "dropID": 21310008,
    "configHomeGather": [
      {
        "homeGatherID": 7008,
        "bundleID": 150002,
        "dropID": 21310008,
        "weight": 20
      },
      {},
      {}
    ],
    "fieldID": 372501,
    "time": 252000,
    "sproutTime": 86400,
    "collectNum": 1,
    "sproutGadgetID": 77215019,
    "order": 11,
    "inteeIconName": "",
    "inteeNameTextMapHash": 3091827241
  },
  {
    "seedID": 130009,
    "gatherIdVec": [
      3007
    ],
    "homeGatherID": 7009,
    "dropID": 21310009,
    "configHomeGather": [
      {
        "homeGatherID": 7009,
        "dropID": 21310009,
        "weight": 20
      },
      {},
      {}
    ],
    "fieldID": 372501,
    "time": 252000,
    "sproutTime": 86400,
    "collectNum": 1,
    "sproutGadgetID": 77215019,
    "order": 12,
    "inteeIconName": "",
    "inteeNameTextMapHash": 83651985
  },
  {
    "seedID": 130010,
    "gatherIdVec": [
      2016
    ],
    "homeGatherID": 7010,
    "bundleID": 150003,
    "dropID": 21310010,
    "configHomeGather": [
      {
        "homeGatherID": 7010,
        "bundleID": 150003,
        "dropID": 21310010,
        "weight": 20
      },
      {},
      {}
    ],
    "fieldID": 372501,
    "time": 252000,
    "sproutTime": 86400,
    "collectNum": 1,
    "sproutGadgetID": 77215019,
    "order": 13,
    "inteeIconName": "",
    "inteeNameTextMapHash": 324638073
  },
  {
    "seedID": 130011,
    "gatherIdVec": [
      2003
    ],
    "homeGatherID": 7011,
    "dropID": 21310011,
    "configHomeGather": [
      {
        "homeGatherID": 7011,
        "dropID": 21310011,
        "weight": 20
      },
      {},
      {}
    ],
    "fieldID": 372501,
    "time": 252000,
    "sproutTime": 86400,
    "collectNum": 1,
    "sproutGadgetID": 77215019,
    "order": 14,
    "inteeIconName": "",
    "inteeNameTextMapHash": 2174243937
  },
  {
    "seedID": 130012,
    "gatherIdVec": [
      2019
    ],
    "homeGatherID": 7012,
    "dropID": 21310012,
    "configHomeGather": [
      {
        "homeGatherID": 7012,
        "dropID": 21310012,
        "weight": 20
      },
      {},
      {}
    ],
    "fieldID": 372501,
    "time": 252000,
    "sproutTime": 86400,
    "collectNum": 1,
    "sproutGadgetID": 77215019,
    "order": 15,
    "inteeIconName": "",
    "inteeNameTextMapHash": 4007378729
  },
  {
    "seedID": 130013,
    "gatherIdVec": [
      2001,
      2031
    ],
    "homeGatherID": 7013,
    "dropID": 21310013,
    "configHomeGather": [
      {
        "homeGatherID": 7013,
        "dropID": 21310013,
        "weight": 20
      },
      {},
      {}
    ],
    "fieldID": 372501,
    "time": 252000,
    "sproutTime": 86400,
    "collectNum": 1,
    "sproutGadgetID": 77215019,
    "order": 16,
    "inteeIconName": "",
    "inteeNameTextMapHash": 1067338361
  },
  {
    "seedID": 130014,
    "gatherIdVec": [
      2002
    ],
    "homeGatherID": 7014,
    "dropID": 21310014,
    "configHomeGather": [
      {
        "homeGatherID": 7014,
        "dropID": 21310014,
        "weight": 20
      },
      {},
      {}
    ],
    "fieldID": 372501,
    "time": 252000,
    "sproutTime": 86400,
    "collectNum": 1,
    "sproutGadgetID": 77215021,
    "order": 17,
    "inteeIconName": "",
    "inteeNameTextMapHash": 2337628849
  },
  {
    "seedID": 130015,
    "gatherIdVec": [
      2040
    ],
    "homeGatherID": 7015,
    "dropID": 21310015,
    "configHomeGather": [
      {
        "homeGatherID": 7015,
        "dropID": 21310015,
        "weight": 20
      },
      {},
      {}
    ],
    "fieldID": 372502,
    "time": 252000,
    "sproutTime": 86400,
    "collectNum": 1,
    "sproutGadgetID": 77215019,
    "order": 18,
    "inteeIconName": "",
    "inteeNameTextMapHash": 193002889
  },
  {
    "seedID": 130016,
    "gatherIdVec": [
      2027
    ],
    "homeGatherID": 7016,
    "dropID": 21310016,
    "configHomeGather": [
      {
        "homeGatherID": 7016,
        "dropID": 21310016,
        "weight": 20
      },
      {},
      {}
    ],
    "fieldID": 372503,
    "time": 252000,
    "sproutTime": 86400,
    "collectNum": 1,
    "sproutGadgetID": 77215019,
    "order": 19,
    "inteeIconName": "",
    "inteeNameTextMapHash": 277956897
  },
  {
    "seedID": 130017,
    "gatherIdVec": [
      2005
    ],
    "homeGatherID": 7017,
    "dropID": 21310017,
    "configHomeGather": [
      {
        "homeGatherID": 7017,
        "dropID": 21310017,
        "weight": 20
      },
      {},
      {}
    ],
    "fieldID": 372503,
    "time": 252000,
    "sproutTime": 86400,
    "collectNum": 1,
    "sproutGadgetID": 77215019,
    "order": 20,
    "inteeIconName": "",
    "inteeNameTextMapHash": 311261001
  },
  {
    "seedID": 130018,
    "gatherIdVec": [
      2015
    ],
    "homeGatherID": 7018,
    "bundleID": 150004,
    "dropID": 21310018,
    "configHomeGather": [
      {
        "homeGatherID": 7018,
        "bundleID": 150004,
        "dropID": 21310018,
        "weight": 20
      },
      {},
      {}
    ],
    "fieldID": 372503,
    "time": 252000,
    "sproutTime": 86400,
    "collectNum": 1,
    "sproutGadgetID": 77215020,
    "order": 21,
    "inteeIconName": "",
    "inteeNameTextMapHash": 4226751305
  },
  {
    "seedID": 130019,
    "gatherIdVec": [
      2008
    ],
    "homeGatherID": 7019,
    "dropID": 21310019,
    "configHomeGather": [
      {
        "homeGatherID": 7019,
        "dropID": 21310019,
        "weight": 20
      },
      {},
      {}
    ],
    "fieldID": 372503,
    "time": 252000,
    "sproutTime": 86400,
    "collectNum": 1,
    "sproutGadgetID": 77215019,
    "order": 22,
    "inteeIconName": "",
    "inteeNameTextMapHash": 3729127177
  },
  {
    "seedID": 130020,
    "gatherIdVec": [
      2037
    ],
    "homeGatherID": 7020,
    "dropID": 21310020,
    "configHomeGather": [
      {
        "homeGatherID": 7020,
        "dropID": 21310020,
        "weight": 20
      },
      {},
      {}
    ],
    "fieldID": 372503,
    "time": 252000,
    "sproutTime": 86400,
    "collectNum": 1,
    "sproutGadgetID": 77215020,
    "order": 23,
    "inteeIconName": "",
    "inteeNameTextMapHash": 2809974577
  },
  {
    "seedID": 130021,
    "gatherIdVec": [
      2033
    ],
    "homeGatherID": 7021,
    "dropID": 21310021,
    "configHomeGather": [
      {
        "homeGatherID": 7021,
        "dropID": 21310021,
        "weight": 20
      },
      {},
      {}
    ],
    "fieldID": 372503,
    "time": 252000,
    "sproutTime": 86400,
    "collectNum": 1,
    "sproutGadgetID": 77215020,
    "order": 24,
    "inteeIconName": "",
    "inteeNameTextMapHash": 2555034065
  },
  {
    "seedID": 130022,
    "gatherIdVec": [],
    "configHomeGather": [
      {
        "homeGatherID": 7022,
        "dropID": 21311001,
        "weight": 20
      },
      {
        "homeGatherID": 7023,
        "dropID": 21311002,
        "weight": 20
      },
      {
        "homeGatherID": 7024,
        "dropID": 21311003,
        "weight": 20
      }
    ],
    "fieldID": 372502,
    "time": 600,
    "sproutTime": 180,
    "collectNum": 1,
    "sproutGadgetID": 77215019,
    "order": 1,
    "inteeIconName": "UI_Icon_Item_GrowFlowers",
    "inteeNameTextMapHash": 4171926201
  },
  {
    "seedID": 130023,
    "gatherIdVec": [],
    "configHomeGather": [
      {
        "homeGatherID": 7025,
        "dropID": 21311004,
        "weight": 20
      },
      {
        "homeGatherID": 7026,
        "dropID": 21311005,
        "weight": 20
      },
      {
        "homeGatherID": 7027,
        "dropID": 21311006,
        "weight": 20
      }
    ],
    "fieldID": 372502,
    "time": 600,
    "sproutTime": 180,
    "collectNum": 1,
    "sproutGadgetID": 77215019,
    "order": 2,
    "inteeIconName": "UI_Icon_Item_GrowFlowers",
    "inteeNameTextMapHash": 83368881
  },
  {
    "seedID": 130024,
    "gatherIdVec": [],
    "configHomeGather": [
      {
        "homeGatherID": 7028,
        "dropID": 21311007,
        "weight": 20
      },
      {
        "homeGatherID": 7029,
        "dropID": 21311008,
        "weight": 20
      },
      {
        "homeGatherID": 7030,
        "dropID": 21311009,
        "weight": 20
      }
    ],
    "fieldID": 372502,
    "time": 600,
    "sproutTime": 180,
    "collectNum": 1,
    "sproutGadgetID": 77215019,
    "order": 3,
    "inteeIconName": "UI_Icon_Item_GrowFlowers",
    "inteeNameTextMapHash": 1943744977
  },
  {
    "seedID": 130025,
    "gatherIdVec": [
      2049
    ],
    "homeGatherID": 7031,
    "bundleID": 150005,
    "dropID": 21310022,
    "configHomeGather": [
      {
        "homeGatherID": 7031,
        "bundleID": 150005,
        "dropID": 21310022,
        "weight": 20
      },
      {},
      {}
    ],
    "fieldID": 372501,
    "time": 252000,
    "sproutTime": 86400,
    "collectNum": 1,
    "sproutGadgetID": 77215019,
    "order": 25,
    "inteeIconName": "",
    "inteeNameTextMapHash": 1519074393
  },
  {
    "seedID": 130026,
    "gatherIdVec": [
      2051
    ],
    "homeGatherID": 7032,
    "bundleID": 150006,
    "dropID": 21310023,
    "configHomeGather": [
      {
        "homeGatherID": 7032,
        "bundleID": 150006,
        "dropID": 21310023,
        "weight": 20
      },
      {},
      {}
    ],
    "fieldID": 372501,
    "time": 252000,
    "sproutTime": 86400,
    "collectNum": 1,
    "sproutGadgetID": 77215019,
    "order": 26,
    "inteeIconName": "",
    "inteeNameTextMapHash": 618226481
  },
  {
    "seedID": 130027,
    "gatherIdVec": [
      2052
    ],
    "homeGatherID": 7033,
    "dropID": 21310024,
    "configHomeGather": [
      {
        "homeGatherID": 7033,
        "dropID": 21310024,
        "weight": 20
      },
      {},
      {}
    ],
    "fieldID": 372502,
    "time": 252000,
    "sproutTime": 86400,
    "collectNum": 1,
    "sproutGadgetID": 77215019,
    "order": 27,
    "inteeIconName": "",
    "inteeNameTextMapHash": 1830240089
  },
  {
    "seedID": 130028,
    "gatherIdVec": [
      2059
    ],
    "configHomeGather": [
      {
        "homeGatherID": 7034,
        "dropID": 21310025,
        "weight": 20
      },
      {},
      {}
    ],
    "fieldID": 372503,
    "time": 252000,
    "sproutTime": 86400,
    "collectNum": 1,
    "sproutGadgetID": 77215020,
    "order": 28,
    "inteeIconName": "",
    "inteeNameTextMapHash": 2338313065
  },
  {
    "seedID": 130029,
    "gatherIdVec": [
      2061
    ],
    "configHomeGather": [
      {
        "homeGatherID": 7035,
        "dropID": 21310026,
        "weight": 20
      },
      {},
      {}
    ],
    "fieldID": 372501,
    "time": 252000,
    "sproutTime": 86400,
    "collectNum": 1,
    "sproutGadgetID": 77215019,
    "order": 29,
    "inteeIconName": "",
    "inteeNameTextMapHash": 3777363417
  },
  {
    "seedID": 130030,
    "gatherIdVec": [
      2065
    ],
    "bundleID": 150007,
    "configHomeGather": [
      {
        "homeGatherID": 7036,
        "bundleID": 150007,
        "dropID": 21310027,
        "weight": 20
      },
      {},
      {}
    ],
    "fieldID": 372502,
    "time": 252000,
    "sproutTime": 86400,
    "collectNum": 1,
    "sproutGadgetID": 77215019,
    "order": 30,
    "inteeIconName": "",
    "inteeNameTextMapHash": 2690727945
  },
  {
    "seedID": 130031,
    "gatherIdVec": [
      2066
    ],
    "configHomeGather": [
      {
        "homeGatherID": 7037,
        "dropID": 21310028,
        "weight": 20
      },
      {},
      {}
    ],
    "fieldID": 372502,
    "time": 252000,
    "sproutTime": 86400,
    "collectNum": 1,
    "sproutGadgetID": 77215019,
    "order": 31,
    "inteeIconName": "",
    "inteeNameTextMapHash": 2614861905
  },
  {
    "seedID": 130032,
    "gatherIdVec": [
      2072
    ],
    "configHomeGather": [
      {
        "homeGatherID": 7038,
        "dropID": 21310029,
        "weight": 20
      },
      {},
      {}
    ],
    "fieldID": 372501,
    "time": 252000,
    "sproutTime": 86400,
    "collectNum": 1,
    "sproutGadgetID": 77215019,
    "order": 32,
    "inteeIconName": "",
    "inteeNameTextMapHash": 3476814953
  },
  {
    "seedID": 130033,
    "gatherIdVec": [
      2085
    ],
    "configHomeGather": [
      {
        "homeGatherID": 7040,
        "dropID": 21310030,
        "weight": 20
      },
      {},
      {}
    ],
    "fieldID": 372501,
    "time": 252000,
    "sproutTime": 86400,
    "collectNum": 1,
    "sproutGadgetID": 77215019,
    "order": 33,
    "inteeIconName": "",
    "inteeNameTextMapHash": 754023129
  },
  {
    "seedID": 130034,
    "gatherIdVec": [
      2077
    ],
    "configHomeGather": [
      {
        "homeGatherID": 7041,
        "dropID": 21310031,
        "weight": 20
      },
      {},
      {}
    ],
    "fieldID": 372501,
    "time": 252000,
    "sproutTime": 86400,
    "collectNum": 1,
    "sproutGadgetID": 77215019,
    "order": 34,
    "inteeIconName": "",
    "inteeNameTextMapHash": 790797785
  },
  {
    "seedID": 130035,
    "gatherIdVec": [
      2078
    ],
    "bundleID": 150008,
    "configHomeGather": [
      {
        "homeGatherID": 7042,
        "bundleID": 150008,
        "dropID": 21310032,
        "weight": 20
      },
      {},
      {}
    ],
    "fieldID": 372501,
    "time": 252000,
    "sproutTime": 86400,
    "collectNum": 1,
    "sproutGadgetID": 77215019,
    "order": 35,
    "inteeIconName": "",
    "inteeNameTextMapHash": 1960188489
  },
  {
    "seedID": 130036,
    "gatherIdVec": [
      2079
    ],
    "configHomeGather": [
      {
        "homeGatherID": 7043,
        "dropID": 21310033,
        "weight": 20
      },
      {},
      {}
    ],
    "fieldID": 372502,
    "time": 252000,
    "sproutTime": 86400,
    "collectNum": 1,
    "sproutGadgetID": 77215019,
    "order": 36,
    "inteeIconName": "",
    "inteeNameTextMapHash": 1551868337
  },
  {
    "seedID": 130037,
    "gatherIdVec": [
      2080
    ],
    "configHomeGather": [
      {
        "homeGatherID": 7044,
        "dropID": 21310034,
        "weight": 20
      },
      {},
      {}
    ],
    "fieldID": 372503,
    "time": 252000,
    "sproutTime": 86400,
    "collectNum": 1,
    "sproutGadgetID": 77215020,
    "order": 37,
    "inteeIconName": "",
    "inteeNameTextMapHash": 2966928449
  },
  {
    "seedID": 130038,
    "gatherIdVec": [
      2081
    ],
    "configHomeGather": [
      {
        "homeGatherID": 7045,
        "dropID": 21310035,
        "weight": 20
      },
      {},
      {}
    ],
    "fieldID": 372501,
    "time": 252000,
    "sproutTime": 86400,
    "collectNum": 1,
    "sproutGadgetID": 77215021,
    "order": 38,
    "inteeIconName": "",
    "inteeNameTextMapHash": 623543337
  }
]