[
  {
    "effectId": 101,
    "iconIdList": [
      100083,
      100840,
      100072,
      100828,
      100083,
      100840,
      100072,
      100828
    ]
  },
  {
    "effectId": 102,
    "iconIdList": [
      100083,
      100083
    ]
  },
  {
    "effectId": 103,
    "iconIdList": [
      100840,
      100840
    ]
  },
  {
    "effectId": 104,
    "iconIdList": [
      100072,
      100072
    ]
  },
  {
    "effectId": 105,
    "iconIdList": [
      100828,
      100828
    ]
  },
  {
    "effectId": 106,
    "iconIdList": [
      100074,
      100088,
      100075,
      100088,
      100075
    ]
  },
  {
    "effectId": 107,
    "iconIdList": [
      110002,
      110002,
      110002,
      110006,
      110006,
      100077
    ]
  },
  {
    "effectId": 108,
    "iconIdList": [
      100016,
      110008,
      110008,
      112002,
      112002
    ]
  },
  {
    "effectId": 109,
    "iconIdList": [
      100061
    ]
  },
  {
    "effectId": 110,
    "iconIdList": [
      100075
    ]
  },
  {
    "effectId": 111,
    "iconIdList": [
      100075,
      100075
    ]
  },
  {
    "effectId": 112,
    "iconIdList": [
      100075,
      100075,
      100075
    ]
  },
  {
    "effectId": 113,
    "iconIdList": [
      100075,
      100075,
      100075,
      100075
    ]
  },
  {
    "effectId": 114,
    "iconIdList": [
      100075,
      100075,
      100075,
      100075,
      100075
    ]
  },
  {
    "effectId": 115,
    "iconIdList": [
      100075,
      100075,
      110008,
      100075,
      100075,
      100077,
      100075,
      100075,
      110006,
      100075,
      100075,
      101002,
      100075,
      100075
    ]
  },
  {
    "effectId": 116,
    "iconIdList": [
      120755
    ]
  },
  {
    "effectId": 117,
    "iconIdList": [
      100840,
      100840,
      100840
    ]
  },
  {
    "effectId": 118,
    "iconIdList": [
      112082,
      112082,
      112082
    ]
  },
  {
    "effectId": 119,
    "iconIdList": [
      100081,
      100081,
      100081
    ]
  },
  {
    "effectId": 120,
    "iconIdList": [
      100002,
      100002,
      100002
    ]
  },
  {
    "effectId": 121,
    "iconIdList": [
      100015,
      100015,
      100015
    ]
  },
  {
    "effectId": 122,
    "iconIdList": [
      101215,
      101215,
      101215
    ]
  },
  {
    "effectId": 123,
    "iconIdList": [
      100075
    ]
  },
  {
    "effectId": 124,
    "iconIdList": [
      100075,
      100075
    ]
  },
  {
    "effectId": 125,
    "iconIdList": [
      110002,
      100016
    ]
  },
  {
    "effectId": 126,
    "iconIdList": [
      110002,
      100016,
      100016
    ]
  },
  {
    "effectId": 127,
    "iconIdList": [
      100027
    ]
  },
  {
    "effectId": 128,
    "iconIdList": [
      100027,
      100027
    ]
  },
  {
    "effectId": 129,
    "iconIdList": [
      121083
    ]
  },
  {
    "effectId": 130,
    "iconIdList": [
      121084
    ]
  }
]