[
  {
    "conclusionId": 100101,
    "wordList": [
      100106
    ],
    "submitErrorDialogId": 30099929,
    "submitSuccessTalkId": 300904
  },
  {
    "conclusionId": 100201,
    "wordList": [
      100202
    ],
    "submitErrorDialogId": 30099929,
    "submitSuccessTalkId": 300907
  },
  {
    "conclusionId": 100301,
    "wordList": [
      100303
    ],
    "submitErrorDialogId": 30099929,
    "submitSuccessTalkId": 300912
  },
  {
    "conclusionId": 100401,
    "wordList": [
      100406
    ],
    "submitErrorDialogId": 30119928,
    "submitSuccessTalkId": 301111
  },
  {
    "conclusionId": 100501,
    "wordList": [
      100503
    ],
    "submitErrorDialogId": 30149927,
    "submitSuccessTalkId": 301405
  },
  {
    "conclusionId": 100601,
    "wordList": [
      100607
    ],
    "submitErrorDialogId": 30149927,
    "submitSuccessTalkId": 301408
  },
  {
    "conclusionId": 100701,
    "wordList": [
      100702
    ],
    "submitErrorDialogId": 30149927,
    "submitSuccessTalkId": 301409
  },
  {
    "conclusionId": 100801,
    "wordList": [
      100807
    ],
    "submitErrorDialogId": 30149927,
    "submitSuccessTalkId": 301410
  },
  {
    "conclusionId": 100901,
    "wordList": [
      100901
    ],
    "submitErrorDialogId": 30149927,
    "submitSuccessTalkId": 301411
  },
  {
    "conclusionId": 101001,
    "wordList": [
      101003
    ],
    "submitErrorDialogId": 30149927,
    "submitSuccessTalkId": 301412
  },
  {
    "conclusionId": 101101,
    "wordList": [
      101101
    ],
    "submitErrorDialogId": 130079914,
    "submitSuccessTalkId": 1300719
  },
  {
    "conclusionId": 101201,
    "wordList": [
      101206
    ],
    "submitErrorDialogId": 130079915,
    "submitSuccessTalkId": 1300720
  },
  {
    "conclusionId": 101301,
    "wordList": [
      101304
    ],
    "submitErrorDialogId": 130089905,
    "submitSuccessTalkId": 1300802
  },
  {
    "conclusionId": 101401,
    "wordList": [
      101402
    ],
    "submitErrorDialogId": 130089906,
    "submitSuccessTalkId": 1300807
  },
  {
    "conclusionId": 101501,
    "wordList": [
      101503
    ],
    "submitErrorDialogId": 130089907,
    "submitSuccessTalkId": 1300808
  },
  {
    "conclusionId": 101601,
    "wordList": [
      101606
    ],
    "submitErrorDialogId": 130089908,
    "submitSuccessTalkId": 1300809
  },
  {
    "conclusionId": 101701,
    "wordList": [
      101701
    ],
    "submitErrorDialogId": 130089909,
    "submitSuccessTalkId": 1300810
  },
  {
    "conclusionId": 101801,
    "wordList": [
      101806
    ],
    "submitErrorDialogId": 191539907
  },
  {
    "conclusionId": 101901,
    "wordList": [
      101907
    ],
    "submitErrorDialogId": 401099911,
    "submitSuccessTalkId": 4010913
  },
  {
    "conclusionId": 102101,
    "wordList": [
      102101
    ],
    "submitErrorDialogId": 740729905,
    "submitSuccessTalkId": 7407215
  },
  {
    "conclusionId": 102201,
    "wordList": [
      102204
    ],
    "submitErrorDialogId": 140059908,
    "submitSuccessTalkId": 1400540
  },
  {
    "conclusionId": 102301,
    "wordList": [
      102308
    ],
    "submitErrorDialogId": 741219902,
    "submitSuccessTalkId": 7412106
  },
  {
    "conclusionId": 102401,
    "wordList": [
      102408
    ],
    "submitErrorDialogId": 741219902,
    "submitSuccessTalkId": 7412107
  },
  {
    "conclusionId": 102501,
    "wordList": [
      102509
    ],
    "submitErrorDialogId": 740729905,
    "submitSuccessTalkId": 7407215
  },
  {
    "conclusionId": 102601,
    "wordList": [
      102615
    ],
    "submitErrorDialogId": 740729905,
    "submitSuccessTalkId": 7407216
  },
  {
    "conclusionId": 102701,
    "wordList": [
      102714
    ],
    "submitErrorDialogId": 740729905,
    "submitSuccessTalkId": 7407220
  },
  {
    "conclusionId": 102801,
    "wordList": [
      102807
    ],
    "submitErrorDialogId": 740539810,
    "submitSuccessTalkId": 7405388
  },
  {
    "conclusionId": 102901,
    "wordList": [
      102909
    ],
    "submitErrorDialogId": 741319810,
    "submitSuccessTalkId": 7413142
  },
  {
    "conclusionId": 103001,
    "wordList": [
      103003
    ],
    "submitErrorDialogId": 191855520,
    "submitSuccessTalkId": 1918556
  },
  {
    "conclusionId": 103002,
    "wordList": [
      103004
    ],
    "submitErrorDialogId": 191855520,
    "submitSuccessTalkId": 1918556
  },
  {
    "conclusionId": 103003,
    "wordList": [
      103005
    ],
    "submitErrorDialogId": 191855520,
    "submitSuccessTalkId": 1918547
  },
  {
    "conclusionId": 103101,
    "wordList": [
      103101
    ],
    "submitErrorDialogId": 191855520,
    "submitSuccessTalkId": 1918557
  },
  {
    "conclusionId": 103102,
    "wordList": [
      103102
    ],
    "submitErrorDialogId": 191855520,
    "submitSuccessTalkId": 1918557
  },
  {
    "conclusionId": 103103,
    "wordList": [
      103104
    ],
    "submitErrorDialogId": 191855520,
    "submitSuccessTalkId": 1918549
  },
  {
    "conclusionId": 103201,
    "wordList": [
      103203
    ],
    "submitErrorDialogId": 191855520,
    "submitSuccessTalkId": 1918558
  },
  {
    "conclusionId": 103202,
    "wordList": [
      103204
    ],
    "submitErrorDialogId": 191855520,
    "submitSuccessTalkId": 1918558
  },
  {
    "conclusionId": 103203,
    "wordList": [
      103205
    ],
    "submitErrorDialogId": 191855520,
    "submitSuccessTalkId": 1918551
  },
  {
    "conclusionId": 103301,
    "wordList": [
      103305
    ],
    "submitErrorDialogId": 191855520,
    "submitSuccessTalkId": 1918553
  },
  {
    "conclusionId": 103401,
    "wordList": [
      103403
    ],
    "submitErrorDialogId": 80218003,
    "submitSuccessTalkId": 802117
  },
  {
    "conclusionId": 103501,
    "wordList": [
      103502
    ],
    "submitErrorDialogId": 80218303,
    "submitSuccessTalkId": 802118
  },
  {
    "conclusionId": 103601,
    "wordList": [
      103601
    ],
    "submitErrorDialogId": 80218803,
    "submitSuccessTalkId": 802119
  },
  {
    "conclusionId": 103701,
    "wordList": [
      103702
    ],
    "submitErrorDialogId": 80219103,
    "submitSuccessTalkId": 802121
  },
  {
    "conclusionId": 103801,
    "wordList": [
      103804
    ],
    "submitErrorDialogId": 140389922,
    "submitSuccessTalkId": 1403833
  },
  {
    "conclusionId": 103901,
    "wordList": [
      103904
    ],
    "submitErrorDialogId": 140389922,
    "submitSuccessTalkId": 1403834
  },
  {
    "conclusionId": 104001,
    "wordList": [
      104003
    ],
    "submitErrorDialogId": 140389922,
    "submitSuccessTalkId": 1403835
  },
  {
    "conclusionId": 104101,
    "wordList": [
      104102
    ],
    "submitErrorDialogId": 401912705,
    "submitSuccessTalkId": 4019120
  },
  {
    "conclusionId": 104201,
    "wordList": [
      104202
    ],
    "submitErrorDialogId": 401912805,
    "submitSuccessTalkId": 4019121
  }
]