[
  {
    "id": 32001,
    "name": "BigWorld_AsterArea_001",
    "sceneId": 3,
    "type": "LIMIT_REGION_TYPE_ACTIVITY"
  },
  {
    "id": 32002,
    "name": "BigWorld_CrucibleArea_001",
    "sceneId": 3,
    "type": "LIMIT_REGION_TYPE_ACTIVITY"
  },
  {
    "id": 32003,
    "name": "BigWorld_CryoRegisvineArea_001",
    "sceneId": 3,
    "type": "LIMIT_REGION_TYPE_ACTIVITY"
  },
  {
    "id": 32004,
    "name": "BigWorld_FleurFair_Ballon_001",
    "sceneId": 3,
    "type": "LIMIT_REGION_TYPE_ACTIVITY"
  },
  {
    "id": 32005,
    "name": "BigWorld_FleurFair_Ballon_002",
    "sceneId": 3,
    "type": "LIMIT_REGION_TYPE_ACTIVITY"
  },
  {
    "id": 32006,
    "name": "BigWorld_FleurFair_Ballon_003",
    "sceneId": 3,
    "type": "LIMIT_REGION_TYPE_ACTIVITY"
  },
  {
    "id": 32007,
    "name": "BigWorld_FleurFair_Ballon_004",
    "sceneId": 3,
    "type": "LIMIT_REGION_TYPE_ACTIVITY"
  },
  {
    "id": 32008,
    "name": "BigWorld_FleurFair_Parachute_001",
    "sceneId": 3,
    "type": "LIMIT_REGION_TYPE_ACTIVITY"
  },
  {
    "id": 32009,
    "name": "BigWorld_FleurFair_Parachute_002",
    "sceneId": 3,
    "type": "LIMIT_REGION_TYPE_ACTIVITY"
  },
  {
    "id": 32010,
    "name": "BigWorld_FleurFair_Parachute_003",
    "sceneId": 3,
    "type": "LIMIT_REGION_TYPE_ACTIVITY"
  },
  {
    "id": 32011,
    "name": "BigWorld_FleurFair_Parachute_004",
    "sceneId": 3,
    "type": "LIMIT_REGION_TYPE_ACTIVITY"
  },
  {
    "id": 32012,
    "name": "BigWorld_HideandSeekArea_001",
    "sceneId": 3,
    "type": "LIMIT_REGION_TYPE_ACTIVITY"
  },
  {
    "id": 32013,
    "name": "BigWorld_HideandSeekArea_002",
    "sceneId": 3,
    "type": "LIMIT_REGION_TYPE_ACTIVITY"
  },
  {
    "id": 32014,
    "name": "BigWorld_HideandSeekArea_003",
    "sceneId": 3,
    "type": "LIMIT_REGION_TYPE_ACTIVITY"
  },
  {
    "id": 32015,
    "name": "BigWorld_HideandSeekArea_004",
    "sceneId": 3,
    "type": "LIMIT_REGION_TYPE_ACTIVITY"
  },
  {
    "id": 32016,
    "name": "BigWorld_HideandSeekArea_005",
    "sceneId": 3,
    "type": "LIMIT_REGION_TYPE_ACTIVITY"
  },
  {
    "id": 32017,
    "name": "BigWorld_WaterSpiritArea_001",
    "sceneId": 3,
    "type": "LIMIT_REGION_TYPE_ACTIVITY"
  },
  {
    "id": 31001,
    "name": "FreshmeatRegion",
    "openstate": "OPEN_STATE_LIMIT_REGION_FRESHMEAT",
    "sceneId": 3,
    "type": "LIMIT_REGION_TYPE_BIGWORLD",
    "order": 100
  },
  {
    "id": 31017,
    "name": "GlobalOpenArea4_4_LXS",
    "openstate": "OPEN_STATE_LIMIT_REGION_LXS_BEFORE",
    "sceneId": 3,
    "type": "LIMIT_REGION_TYPE_BIGWORLD",
    "order": 99
  },
  {
    "id": 31019,
    "name": "GlobalOpenArea5_2",
    "openstate": "OPEN_STATE_LIMIT_REGION_GLOBAL",
    "sceneId": 3,
    "type": "LIMIT_REGION_TYPE_BIGWORLD",
    "order": 26
  },
  {
    "id": 41001,
    "name": "Map_GoldenAppleIsles_OpenArea_001",
    "sceneId": 4,
    "type": "LIMIT_REGION_TYPE_BIGWORLD"
  },
  {
    "id": 51001,
    "name": "BigWorld_AbyssalPalace_OpenArea_001",
    "sceneId": 5,
    "type": "LIMIT_REGION_TYPE_BIGWORLD"
  },
  {
    "id": 61001,
    "name": "BigWorld_MichiaeMatsuri_OpenArea_001",
    "sceneId": 7,
    "type": "LIMIT_REGION_TYPE_BIGWORLD"
  },
  {
    "id": 71001,
    "name": "BigWorld_TheChasm_OpenArea_001",
    "sceneId": 6,
    "type": "LIMIT_REGION_TYPE_BIGWORLD"
  },
  {
    "id": 91001,
    "name": "BigWorld_DreamIsland_OpenArea_001",
    "sceneId": 9,
    "type": "LIMIT_REGION_TYPE_BIGWORLD"
  },
  {
    "id": 101001,
    "name": "BigWorld_Penumbra_OpenArea_001",
    "sceneId": 10,
    "type": "LIMIT_REGION_TYPE_BIGWORLD"
  },
  {
    "id": 101002,
    "name": "BigWorld_LIMIT_REGION_Penumbra_01",
    "openstate": "OPEN_STATE_PENUMBRA_STATE_ONE",
    "sceneId": 10,
    "type": "LIMIT_REGION_TYPE_BIGWORLD",
    "order": 99
  },
  {
    "id": 101003,
    "name": "BigWorld_LIMIT_REGION_Penumbra_02",
    "openstate": "OPEN_STATE_PENUMBRA_STATE_TWO",
    "sceneId": 10,
    "type": "LIMIT_REGION_TYPE_BIGWORLD",
    "order": 98
  },
  {
    "id": 101004,
    "name": "BigWorld_LIMIT_REGION_Penumbra_03",
    "openstate": "OPEN_STATE_PENUMBRA_STATE_THREE",
    "sceneId": 10,
    "type": "LIMIT_REGION_TYPE_BIGWORLD",
    "order": 97
  },
  {
    "id": 111001,
    "name": "BigWorld_DeepSea_OpenArea_001",
    "sceneId": 11,
    "type": "LIMIT_REGION_TYPE_BIGWORLD"
  },
  {
    "id": 111002,
    "name": "BigWorld_LIMIT_REGION_Capitoline_01",
    "sceneId": 11,
    "type": "LIMIT_REGION_TYPE_BIGWORLD"
  },
  {
    "id": 111003,
    "name": "BigWorld_LIMIT_REGION_Capitoline_02",
    "sceneId": 11,
    "type": "LIMIT_REGION_TYPE_BIGWORLD"
  },
  {
    "id": 111004,
    "name": "BigWorld_LIMIT_REGION_Capitoline_03",
    "sceneId": 11,
    "type": "LIMIT_REGION_TYPE_BIGWORLD"
  },
  {
    "id": 111005,
    "name": "BigWorld_LIMIT_REGION_Capitoline_04",
    "sceneId": 11,
    "type": "LIMIT_REGION_TYPE_BIGWORLD"
  },
  {
    "id": 111006,
    "name": "BigWorld_LIMIT_REGION_Capitoline_05",
    "sceneId": 11,
    "type": "LIMIT_REGION_TYPE_BIGWORLD"
  },
  {
    "id": 32018,
    "name": "BigWorld_HideandSeekArea_006",
    "sceneId": 3,
    "type": "LIMIT_REGION_TYPE_ACTIVITY"
  },
  {
    "id": 32019,
    "name": "BigWorld_HideandSeekArea_009",
    "sceneId": 3,
    "type": "LIMIT_REGION_TYPE_ACTIVITY"
  },
  {
    "id": 32020,
    "name": "BigWorld_HideandSeekArea_011",
    "sceneId": 3,
    "type": "LIMIT_REGION_TYPE_ACTIVITY"
  },
  {
    "id": 32021,
    "name": "BigWorld_HideandSeekArea_012",
    "sceneId": 3,
    "type": "LIMIT_REGION_TYPE_ACTIVITY"
  },
  {
    "id": 32022,
    "name": "BigWorld_HideandSeekArea_013",
    "sceneId": 3,
    "type": "LIMIT_REGION_TYPE_ACTIVITY"
  },
  {
    "id": 32023,
    "name": "BigWorld_HideandSeekArea_015",
    "sceneId": 3,
    "type": "LIMIT_REGION_TYPE_ACTIVITY"
  },
  {
    "id": 32024,
    "name": "BigWorld_HideandSeekArea_019",
    "sceneId": 3,
    "type": "LIMIT_REGION_TYPE_ACTIVITY"
  },
  {
    "id": 32025,
    "name": "BigWorld_HideAndSeekArea_V3_01",
    "sceneId": 3,
    "type": "LIMIT_REGION_TYPE_ACTIVITY"
  },
  {
    "id": 32026,
    "name": "BigWorld_HideAndSeekArea_V3_02",
    "sceneId": 3,
    "type": "LIMIT_REGION_TYPE_ACTIVITY"
  },
  {
    "id": 32027,
    "name": "BigWorld_HideAndSeekArea_V3_03",
    "sceneId": 3,
    "type": "LIMIT_REGION_TYPE_ACTIVITY"
  },
  {
    "id": 32028,
    "name": "BigWorld_HideAndSeekArea_V3_04",
    "sceneId": 3,
    "type": "LIMIT_REGION_TYPE_ACTIVITY"
  },
  {
    "id": 32029,
    "name": "BigWorld_HideAndSeekArea_V3_05",
    "sceneId": 3,
    "type": "LIMIT_REGION_TYPE_ACTIVITY"
  },
  {
    "id": 32030,
    "name": "BigWorld_HideAndSeekArea_V3_09",
    "sceneId": 3,
    "type": "LIMIT_REGION_TYPE_ACTIVITY"
  },
  {
    "id": 32031,
    "name": "BigWorld_HideAndSeekArea_V3_11",
    "sceneId": 3,
    "type": "LIMIT_REGION_TYPE_ACTIVITY"
  },
  {
    "id": 32032,
    "name": "BigWorld_HideAndSeekArea_V3_12",
    "sceneId": 3,
    "type": "LIMIT_REGION_TYPE_ACTIVITY"
  },
  {
    "id": 32033,
    "name": "BigWorld_HideAndSeekArea_V3_QQZ_01",
    "sceneId": 3,
    "type": "LIMIT_REGION_TYPE_ACTIVITY"
  },
  {
    "id": 32034,
    "name": "BigWorld_HideAndSeekArea_V3_CXJZ_01",
    "sceneId": 3,
    "type": "LIMIT_REGION_TYPE_ACTIVITY"
  },
  {
    "id": 32035,
    "name": "BigWorld_HideAndSeekArea_V3_QCZTT_01",
    "sceneId": 3,
    "type": "LIMIT_REGION_TYPE_ACTIVITY"
  },
  {
    "id": 32036,
    "name": "BigWorld_HideAndSeekArea_V3_LYYJ_01",
    "sceneId": 3,
    "type": "LIMIT_REGION_TYPE_ACTIVITY"
  },
  {
    "id": 32037,
    "name": "BigWorld_SeaLamp_V3_BOAT_01",
    "sceneId": 3,
    "type": "LIMIT_REGION_TYPE_ACTIVITY"
  },
  {
    "id": 32038,
    "name": "BigWorld_SeaLamp_V3_BOAT_02",
    "sceneId": 3,
    "type": "LIMIT_REGION_TYPE_ACTIVITY"
  },
  {
    "id": 32039,
    "name": "BigWorld_SeaLamp_V3_BOAT_03",
    "sceneId": 3,
    "type": "LIMIT_REGION_TYPE_ACTIVITY"
  },
  {
    "id": 92001,
    "name": "BigWorld_SocialActivity_Jump_002A",
    "sceneId": 9,
    "type": "LIMIT_REGION_TYPE_ACTIVITY"
  },
  {
    "id": 92002,
    "name": "BigWorld_SocialActivity_Raft_002A",
    "sceneId": 9,
    "type": "LIMIT_REGION_TYPE_ACTIVITY"
  },
  {
    "id": 92003,
    "name": "BigWorld_SocialActivity_Jump_001A",
    "sceneId": 9,
    "type": "LIMIT_REGION_TYPE_ACTIVITY"
  },
  {
    "id": 92004,
    "name": "BigWorld_SocialActivity_Raft_001A",
    "sceneId": 9,
    "type": "LIMIT_REGION_TYPE_ACTIVITY"
  },
  {
    "id": 92005,
    "name": "BigWorld_SocialActivity_Skiff_001A",
    "sceneId": 9,
    "type": "LIMIT_REGION_TYPE_ACTIVITY"
  },
  {
    "id": 92006,
    "name": "BigWorld_SocialActivity_Skiff_002A",
    "sceneId": 9,
    "type": "LIMIT_REGION_TYPE_ACTIVITY"
  },
  {
    "id": 48010001,
    "name": "MirrorWorld_LimitRegion_EffigyV5_Boss_01",
    "sceneId": 48010,
    "type": "LIMIT_REGION_TYPE_BIGWORLD",
    "order": 99,
    "reminderID": 404431
  },
  {
    "id": 48011001,
    "name": "MirrorWorld_LimitRegion_EffigyV5_Boss_02",
    "sceneId": 48011,
    "type": "LIMIT_REGION_TYPE_BIGWORLD",
    "order": 99,
    "reminderID": 404431
  },
  {
    "id": 48012001,
    "name": "MirrorWorld_LimitRegion_EffigyV5_Boss_03",
    "sceneId": 48012,
    "type": "LIMIT_REGION_TYPE_BIGWORLD",
    "order": 99,
    "reminderID": 404431
  },
  {
    "id": 48013001,
    "name": "MirrorWorld_LimitRegion_EffigyV5_Boss_04",
    "sceneId": 48013,
    "type": "LIMIT_REGION_TYPE_BIGWORLD",
    "order": 99,
    "reminderID": 404431
  },
  {
    "id": 48014001,
    "name": "MirrorWorld_LimitRegion_EffigyV6_Boss_01",
    "sceneId": 48014,
    "type": "LIMIT_REGION_TYPE_BIGWORLD",
    "order": 99,
    "reminderID": 404486
  },
  {
    "id": 48015001,
    "name": "MirrorWorld_LimitRegion_EffigyV6_Boss_02",
    "sceneId": 48015,
    "type": "LIMIT_REGION_TYPE_BIGWORLD",
    "order": 99,
    "reminderID": 404486
  },
  {
    "id": 48016001,
    "name": "MirrorWorld_LimitRegion_EffigyV6_Boss_03",
    "sceneId": 48016,
    "type": "LIMIT_REGION_TYPE_BIGWORLD",
    "order": 99,
    "reminderID": 404486
  },
  {
    "id": 48017001,
    "name": "MirrorWorld_LimitRegion_EffigyV6_Boss_04",
    "sceneId": 48017,
    "type": "LIMIT_REGION_TYPE_BIGWORLD",
    "order": 99,
    "reminderID": 404486
  },
  {
    "id": 33001,
    "name": "BigWorld_LIMIT_REGION_WITHERED_FOREST",
    "openstate": "OPEN_STATE_LIMIT_REGION_WITHERED_FOREST",
    "sceneId": 3,
    "type": "LIMIT_REGION_TYPE_BIGWORLD",
    "order": 99
  },
  {
    "id": 20014001,
    "name": "Map_Homeworld_Exterior_Above_001",
    "sceneId": 2001,
    "type": "LIMIT_REGION_TYPE_HOMEWORLD"
  },
  {
    "id": 20014002,
    "name": "Map_Homeworld_Exterior_Above_002",
    "sceneId": 2001,
    "type": "LIMIT_REGION_TYPE_HOMEWORLD"
  },
  {
    "id": 20014003,
    "name": "Map_Homeworld_Exterior_Above_003",
    "sceneId": 2001,
    "type": "LIMIT_REGION_TYPE_HOMEWORLD"
  },
  {
    "id": 20014004,
    "name": "Map_Homeworld_Exterior_Above_004",
    "sceneId": 2001,
    "type": "LIMIT_REGION_TYPE_HOMEWORLD"
  },
  {
    "id": 20024001,
    "name": "Map_Homeworld_Exterior_Karst_001",
    "sceneId": 2002,
    "type": "LIMIT_REGION_TYPE_HOMEWORLD"
  },
  {
    "id": 20024002,
    "name": "Map_Homeworld_Exterior_Karst_002",
    "sceneId": 2002,
    "type": "LIMIT_REGION_TYPE_HOMEWORLD"
  },
  {
    "id": 20024003,
    "name": "Map_Homeworld_Exterior_Karst_003",
    "sceneId": 2002,
    "type": "LIMIT_REGION_TYPE_HOMEWORLD"
  },
  {
    "id": 20024004,
    "name": "Map_Homeworld_Exterior_Karst_004",
    "sceneId": 2002,
    "type": "LIMIT_REGION_TYPE_HOMEWORLD"
  },
  {
    "id": 20034001,
    "name": "Map_Homeworld_Exterior_Uncharted_001",
    "sceneId": 2003,
    "type": "LIMIT_REGION_TYPE_HOMEWORLD"
  },
  {
    "id": 20034002,
    "name": "Map_Homeworld_Exterior_Uncharted_002",
    "sceneId": 2003,
    "type": "LIMIT_REGION_TYPE_HOMEWORLD"
  },
  {
    "id": 20034003,
    "name": "Map_Homeworld_Exterior_Uncharted_003",
    "sceneId": 2003,
    "type": "LIMIT_REGION_TYPE_HOMEWORLD"
  },
  {
    "id": 20034004,
    "name": "Map_Homeworld_Exterior_Uncharted_004",
    "sceneId": 2003,
    "type": "LIMIT_REGION_TYPE_HOMEWORLD"
  },
  {
    "id": 20044001,
    "name": "Map_Homeworld_Exterior_Ukiyo_001",
    "sceneId": 2004,
    "type": "LIMIT_REGION_TYPE_HOMEWORLD"
  },
  {
    "id": 20044002,
    "name": "Map_Homeworld_Exterior_Ukiyo_002",
    "sceneId": 2004,
    "type": "LIMIT_REGION_TYPE_HOMEWORLD"
  },
  {
    "id": 20044003,
    "name": "Map_Homeworld_Exterior_Ukiyo_003",
    "sceneId": 2004,
    "type": "LIMIT_REGION_TYPE_HOMEWORLD"
  },
  {
    "id": 20044004,
    "name": "Map_Homeworld_Exterior_Ukiyo_004",
    "sceneId": 2004,
    "type": "LIMIT_REGION_TYPE_HOMEWORLD"
  },
  {
    "id": 20054001,
    "name": "Map_Homeworld_Exterior_Sumeru_001",
    "sceneId": 2005,
    "type": "LIMIT_REGION_TYPE_HOMEWORLD"
  },
  {
    "id": 20054002,
    "name": "Map_Homeworld_Exterior_Sumeru_002",
    "sceneId": 2005,
    "type": "LIMIT_REGION_TYPE_HOMEWORLD"
  },
  {
    "id": 20054003,
    "name": "Map_Homeworld_Exterior_Sumeru_003",
    "sceneId": 2005,
    "type": "LIMIT_REGION_TYPE_HOMEWORLD"
  },
  {
    "id": 20054004,
    "name": "Map_Homeworld_Exterior_Sumeru_004",
    "sceneId": 2005,
    "type": "LIMIT_REGION_TYPE_HOMEWORLD"
  },
  {
    "id": 20064001,
    "name": "Map_Homeworld_Exterior_Theater_001",
    "sceneId": 2006,
    "type": "LIMIT_REGION_TYPE_HOMEWORLD"
  },
  {
    "id": 20064002,
    "name": "Map_Homeworld_Exterior_Theater_002",
    "sceneId": 2006,
    "type": "LIMIT_REGION_TYPE_HOMEWORLD"
  },
  {
    "id": 20064003,
    "name": "Map_Homeworld_Exterior_Theater_003",
    "sceneId": 2006,
    "type": "LIMIT_REGION_TYPE_HOMEWORLD"
  },
  {
    "id": 20064004,
    "name": "Map_Homeworld_Exterior_Theater_004",
    "sceneId": 2006,
    "type": "LIMIT_REGION_TYPE_HOMEWORLD"
  },
  {
    "id": 20074001,
    "name": "Map_Homeworld_Exterior_Natlan_001",
    "sceneId": 2007,
    "type": "LIMIT_REGION_TYPE_HOMEWORLD"
  },
  {
    "id": 20074002,
    "name": "Map_Homeworld_Exterior_Natlan_002",
    "sceneId": 2007,
    "type": "LIMIT_REGION_TYPE_HOMEWORLD"
  },
  {
    "id": 20074003,
    "name": "Map_Homeworld_Exterior_Natlan_003",
    "sceneId": 2007,
    "type": "LIMIT_REGION_TYPE_HOMEWORLD"
  },
  {
    "id": 20074004,
    "name": "Map_Homeworld_Exterior_Natlan_004",
    "sceneId": 2007,
    "type": "LIMIT_REGION_TYPE_HOMEWORLD"
  },
  {
    "id": 201803001,
    "name": "MirrorWorld_LimitRegion_AvidyaForest",
    "sceneId": 20180,
    "type": "LIMIT_REGION_TYPE_BIGWORLD",
    "order": 99,
    "reminderID": 1111404,
    "hidePaimon": true
  },
  {
    "id": 202003001,
    "name": "MirrorWorld_LimitRegion_Erinnyes",
    "sceneId": 20200,
    "type": "LIMIT_REGION_TYPE_BIGWORLD",
    "order": 99,
    "reminderID": 1111415,
    "hidePaimon": true
  },
  {
    "id": 5190001,
    "name": "MirrorWorld_LimitRegion_HideAndSeekV4_01",
    "sceneId": 35955,
    "type": "LIMIT_REGION_TYPE_BIGWORLD",
    "order": 99
  },
  {
    "id": 5190002,
    "name": "MirrorWorld_LimitRegion_HideAndSeekV4_02",
    "sceneId": 35956,
    "type": "LIMIT_REGION_TYPE_BIGWORLD",
    "order": 99
  },
  {
    "id": 5190003,
    "name": "MirrorWorld_LimitRegion_HideAndSeekV4_03",
    "sceneId": 35957,
    "type": "LIMIT_REGION_TYPE_BIGWORLD",
    "order": 99
  },
  {
    "id": 5190004,
    "name": "MirrorWorld_LimitRegion_HideAndSeekV4_04",
    "sceneId": 35958,
    "type": "LIMIT_REGION_TYPE_BIGWORLD",
    "order": 99
  },
  {
    "id": 20227001,
    "name": "MirrorWorld_LimitRegion_NatlandArena",
    "openstate": "OPEN_STATE_NATLAND_ARENA",
    "sceneId": 20227,
    "type": "LIMIT_REGION_TYPE_BIGWORLD",
    "order": 99,
    "hidePaimon": true
  },
  {
    "id": 20227002,
    "name": "MirrorWorld_LimitRegion_NatlandFirstCompetition",
    "openstate": "OPEN_STATE_NATLAND_FIRSTCOMPETITION",
    "sceneId": 20227,
    "type": "LIMIT_REGION_TYPE_BIGWORLD",
    "order": 99,
    "reminderID": 1001690029,
    "hidePaimon": true
  },
  {
    "id": 20227003,
    "name": "MirrorWorld_LimitRegion_MosasaurusTribe",
    "openstate": "OPEN_STATE_MOSASAURUS_TRIBE",
    "sceneId": 20227,
    "type": "LIMIT_REGION_TYPE_BIGWORLD",
    "order": 99,
    "reminderID": 1001690090,
    "hidePaimon": true
  },
  {
    "id": 202243304,
    "name": "MirrorWorld_LimitRegion_Vimara",
    "sceneId": 20224,
    "type": "LIMIT_REGION_TYPE_BIGWORLD",
    "order": 99,
    "reminderID": 1108001
  },
  {
    "id": 20217001,
    "name": "MirrorWorld_LimitRegion_TRPGGame1",
    "sceneId": 20217,
    "type": "LIMIT_REGION_TYPE_BIGWORLD",
    "order": 99,
    "reminderID": 1001710004,
    "hidePaimon": true
  },
  {
    "id": 20219001,
    "name": "MirrorWorld_LimitRegion_TRPGGame2",
    "sceneId": 20219,
    "type": "LIMIT_REGION_TYPE_BIGWORLD",
    "order": 99,
    "reminderID": 1001710004,
    "hidePaimon": true
  },
  {
    "id": 20225001,
    "name": "MirrorWorld_LimitRegion_TRPGGame3",
    "sceneId": 20225,
    "type": "LIMIT_REGION_TYPE_BIGWORLD",
    "order": 99,
    "reminderID": 1001710004,
    "hidePaimon": true
  },
  {
    "id": 20230001,
    "name": "MirrorWorld_LimitRegion_JNQTribalQuest",
    "sceneId": 20230,
    "type": "LIMIT_REGION_TYPE_BIGWORLD",
    "order": 99
  },
  {
    "id": 41007001,
    "name": "MirrorWorld_LimitRegion_Trial01",
    "sceneId": 41107,
    "type": "LIMIT_REGION_TYPE_BIGWORLD",
    "order": 99,
    "hidePaimon": true
  },
  {
    "id": 41009001,
    "name": "MirrorWorld_LimitRegion_Trial02",
    "sceneId": 41109,
    "type": "LIMIT_REGION_TYPE_BIGWORLD",
    "order": 99,
    "hidePaimon": true
  },
  {
    "id": 41010001,
    "name": "MirrorWorld_LimitRegion_Trial03",
    "sceneId": 41110,
    "type": "LIMIT_REGION_TYPE_BIGWORLD",
    "order": 99,
    "hidePaimon": true
  },
  {
    "id": 20342002,
    "name": "MirrorWorld_LimitRegion_DreamExplore_2",
    "sceneId": 35992,
    "type": "LIMIT_REGION_TYPE_BIGWORLD",
    "order": 99
  },
  {
    "id": 20342003,
    "name": "MirrorWorld_LimitRegion_DreamExplore_3",
    "sceneId": 35993,
    "type": "LIMIT_REGION_TYPE_BIGWORLD",
    "order": 99
  },
  {
    "id": 20342004,
    "name": "MirrorWorld_LimitRegion_DreamExplore_4",
    "sceneId": 35994,
    "type": "LIMIT_REGION_TYPE_BIGWORLD",
    "order": 99
  },
  {
    "id": 20342005,
    "name": "MirrorWorld_LimitRegion_DreamExplore_5",
    "sceneId": 35995,
    "type": "LIMIT_REGION_TYPE_BIGWORLD",
    "order": 99
  },
  {
    "id": 47750001,
    "name": "ActivityArenaChallenge5_1",
    "sceneId": 47750,
    "type": "LIMIT_REGION_TYPE_BIGWORLD",
    "order": 99,
    "hidePaimon": true
  },
  {
    "id": 41011001,
    "name": "MirrorWorld_LimitRegion_Trial04",
    "sceneId": 41111,
    "type": "LIMIT_REGION_TYPE_BIGWORLD",
    "order": 99,
    "hidePaimon": true
  },
  {
    "id": 20357001,
    "name": "MirrorWorld_5_3NatJJC",
    "sceneId": 20243,
    "type": "LIMIT_REGION_TYPE_BIGWORLD",
    "order": 99,
    "hidePaimon": true
  },
  {
    "id": 41012001,
    "name": "MirrorWorld_LimitRegion_Trial05",
    "sceneId": 41112,
    "type": "LIMIT_REGION_TYPE_BIGWORLD",
    "order": 99,
    "hidePaimon": true
  },
  {
    "id": 41013001,
    "name": "MirrorWorld_LimitRegion_Trial06",
    "sceneId": 41113,
    "type": "LIMIT_REGION_TYPE_BIGWORLD",
    "order": 99,
    "hidePaimon": true
  },
  {
    "id": 20245001,
    "name": "MirrorWorld_LimitRegion_MWKLegendCompetition",
    "openstate": "OPEN_STATE_LEGENDQUEST_MARCH",
    "sceneId": 20245,
    "type": "LIMIT_REGION_TYPE_BIGWORLD",
    "order": 99,
    "hidePaimon": true
  },
  {
    "id": 20245002,
    "name": "MirrorWorld_LimitRegion_MWKLegendArcTour",
    "openstate": "OPEN_STATE_LEGENDQUEST_ARCLIGHT",
    "sceneId": 20245,
    "type": "LIMIT_REGION_TYPE_BIGWORLD",
    "order": 99,
    "hidePaimon": true
  },
  {
    "id": 41014001,
    "name": "MirrorWorld_LimitRegion_Trial07",
    "sceneId": 41114,
    "type": "LIMIT_REGION_TYPE_BIGWORLD",
    "order": 99,
    "hidePaimon": true
  },
  {
    "id": 41015001,
    "name": "MirrorWorld_LimitRegion_Trial08",
    "sceneId": 41115,
    "type": "LIMIT_REGION_TYPE_BIGWORLD",
    "order": 99,
    "hidePaimon": true
  },
  {
    "id": 20255001,
    "name": "MirrorWorld_LimitRegion_CivetEscape",
    "sceneId": 20255,
    "type": "LIMIT_REGION_TYPE_BIGWORLD",
    "order": 99,
    "reminderID": 1002650028,
    "hidePaimon": true
  },
  {
    "id": 1001001001,
    "name": "BigWorld_FairyBook_OpenArea_001",
    "sceneId": 100,
    "type": "LIMIT_REGION_TYPE_BIGWORLD",
    "order": 99,
    "JIMAFDJKLBF": true,
    "NPFMCGCDMGB": "LIMIT_REGION_SHARE_TYPE_CREATOR"
  },
  {
    "id": 1001001002,
    "name": "BigWorld_FairyBook_OpenArea_002",
    "openstate": "OPEN_STATE_FAIRY_TALES_STATE_TWO",
    "sceneId": 100,
    "type": "LIMIT_REGION_TYPE_BIGWORLD",
    "order": 99,
    "JIMAFDJKLBF": true,
    "NPFMCGCDMGB": "LIMIT_REGION_SHARE_TYPE_CREATOR"
  },
  {
    "id": 1001001003,
    "name": "BigWorld_FairyBook_OpenArea_003",
    "openstate": "OPEN_STATE_FAIRY_TALES_STATE_THREE",
    "sceneId": 100,
    "type": "LIMIT_REGION_TYPE_BIGWORLD",
    "order": 99,
    "JIMAFDJKLBF": true,
    "NPFMCGCDMGB": "LIMIT_REGION_SHARE_TYPE_CREATOR"
  },
  {
    "id": 1001001004,
    "name": "BigWorld_FairyBook_OpenArea_004",
    "openstate": "OPEN_STATE_FAIRY_TALES_STATE_FOUR",
    "sceneId": 100,
    "type": "LIMIT_REGION_TYPE_BIGWORLD",
    "order": 99,
    "JIMAFDJKLBF": true,
    "NPFMCGCDMGB": "LIMIT_REGION_SHARE_TYPE_CREATOR"
  },
  {
    "id": 1001001005,
    "name": "BigWorld_FairyBook_OpenArea_005",
    "openstate": "OPEN_STATE_FAIRY_TALES_STATE_FIVE",
    "sceneId": 100,
    "type": "LIMIT_REGION_TYPE_BIGWORLD",
    "order": 99,
    "reminderID": 79044108,
    "JIMAFDJKLBF": true,
    "NPFMCGCDMGB": "LIMIT_REGION_SHARE_TYPE_CREATOR"
  }
]