[
  {
    "id": 1001,
    "matchSubType": "MATCH_SUB_TYPE_HIDE",
    "minPlayerNum": 4,
    "maxPlayerNum": 4,
    "confirmTime": 10
  },
  {
    "id": 1002,
    "matchSubType": "MATCH_SUB_TYPE_BOUNCE_CONJURING",
    "minPlayerNum": 2,
    "maxPlayerNum": 2,
    "confirmTime": 10
  },
  {
    "id": 1003,
    "matchSubType": "MATCH_SUB_TYPE_ISLAND_PARTY",
    "minPlayerNum": 4,
    "maxPlayerNum": 4,
    "confirmTime": 10
  },
  {
    "id": 1004,
    "matchSubType": "MATCH_SUB_TYPE_CHAR_AMUSEMENT",
    "minPlayerNum": 4,
    "maxPlayerNum": 4,
    "confirmTime": 10,
    "LCCDCFKPJFB": true
  },
  {
    "id": 1005,
    "matchSubType": "MATCH_SUB_TYPE_BRICK_BREAKER",
    "minPlayerNum": 2,
    "maxPlayerNum": 2,
    "confirmTime": 10
  },
  {
    "id": 1006,
    "matchSubType": "MATCH_SUB_TYPE_LAN_V3_BOAT_GAME_MULTI",
    "minPlayerNum": 4,
    "maxPlayerNum": 4,
    "confirmTime": 10
  },
  {
    "id": 1007,
    "matchSubType": "MATCH_SUB_TYPE_PACMAN",
    "minPlayerNum": 2,
    "maxPlayerNum": 2,
    "confirmTime": 10
  },
  {
    "id": 1008,
    "matchSubType": "MATCH_SUB_TYPE_TARGET_SHOOTING",
    "minPlayerNum": 2,
    "maxPlayerNum": 2,
    "confirmTime": 10
  },
  {
    "id": 100901,
    "matchSubType": "MATCH_SUB_TYPE_PITCH_POT",
    "minPlayerNum": 2,
    "maxPlayerNum": 2,
    "confirmTime": 10
  },
  {
    "id": 100902,
    "matchSubType": "MATCH_SUB_TYPE_PITCH_POT",
    "minPlayerNum": 2,
    "maxPlayerNum": 2,
    "confirmTime": 10
  },
  {
    "id": 100903,
    "matchSubType": "MATCH_SUB_TYPE_PITCH_POT",
    "minPlayerNum": 2,
    "maxPlayerNum": 2,
    "confirmTime": 10
  },
  {
    "id": 100904,
    "matchSubType": "MATCH_SUB_TYPE_PITCH_POT",
    "minPlayerNum": 2,
    "maxPlayerNum": 2,
    "confirmTime": 10
  },
  {
    "id": 100905,
    "matchSubType": "MATCH_SUB_TYPE_PITCH_POT",
    "minPlayerNum": 2,
    "maxPlayerNum": 2,
    "confirmTime": 10
  },
  {
    "id": 1010,
    "matchSubType": "MATCH_SUB_TYPE_FILM_FES_BALL_GAME",
    "minPlayerNum": 4,
    "maxPlayerNum": 4,
    "confirmTime": 10,
    "LCCDCFKPJFB": true
  },
  {
    "id": 101201,
    "matchSubType": "MATCH_SUB_TYPE_LAN_V4_PARTY_LION",
    "minPlayerNum": 4,
    "maxPlayerNum": 4,
    "confirmTime": 10,
    "LCCDCFKPJFB": true
  },
  {
    "id": 101202,
    "matchSubType": "MATCH_SUB_TYPE_LAN_V4_PARTY_LION",
    "minPlayerNum": 4,
    "maxPlayerNum": 4,
    "confirmTime": 10,
    "LCCDCFKPJFB": true
  },
  {
    "id": 101203,
    "matchSubType": "MATCH_SUB_TYPE_LAN_V4_PARTY_LION",
    "minPlayerNum": 4,
    "maxPlayerNum": 4,
    "confirmTime": 10,
    "LCCDCFKPJFB": true
  },
  {
    "id": 1013,
    "matchSubType": "MATCH_SUB_TYPE_HIDE_AND_SEEK_V4",
    "minPlayerNum": 4,
    "maxPlayerNum": 4,
    "confirmTime": 10,
    "LCCDCFKPJFB": true
  },
  {
    "id": 1014,
    "matchSubType": "MATCH_SUB_TYPE_WATERGUN",
    "minPlayerNum": 2,
    "maxPlayerNum": 2,
    "confirmTime": 10
  },
  {
    "id": 1015,
    "matchSubType": "MATCH_SUB_TYPE_BIRD_BALL",
    "minPlayerNum": 2,
    "maxPlayerNum": 2,
    "confirmTime": 10
  },
  {
    "id": 1016,
    "matchSubType": "MATCH_SUB_TYPE_BIRD_BALL",
    "minPlayerNum": 2,
    "maxPlayerNum": 2,
    "confirmTime": 10
  },
  {
    "id": 1017,
    "matchSubType": "MATCH_SUB_TYPE_BIRD_BALL",
    "minPlayerNum": 2,
    "maxPlayerNum": 2,
    "confirmTime": 10
  },
  {
    "id": 1018,
    "matchSubType": "MATCH_SUB_TYPE_BIRD_BALL",
    "minPlayerNum": 2,
    "maxPlayerNum": 2,
    "confirmTime": 10
  },
  {
    "id": 1019,
    "matchSubType": "MATCH_SUB_TYPE_BIRD_BALL",
    "minPlayerNum": 2,
    "maxPlayerNum": 2,
    "confirmTime": 10
  },
  {
    "id": 1020,
    "matchSubType": "MATCH_SUB_TYPE_BIRD_BALL",
    "minPlayerNum": 2,
    "maxPlayerNum": 2,
    "confirmTime": 10
  },
  {
    "id": 1021,
    "matchSubType": "MATCH_SUB_TYPE_BIRD_BALL",
    "minPlayerNum": 2,
    "maxPlayerNum": 2,
    "confirmTime": 10
  },
  {
    "id": 1022,
    "matchSubType": "MATCH_SUB_TYPE_COOPERATE_CHALLENGE",
    "minPlayerNum": 4,
    "maxPlayerNum": 4,
    "confirmTime": 10,
    "LCCDCFKPJFB": true
  },
  {
    "id": 1023,
    "matchSubType": "MATCH_SUB_TYPE_CEREMONY_GHOST",
    "minPlayerNum": 4,
    "maxPlayerNum": 4,
    "confirmTime": 10,
    "LCCDCFKPJFB": true
  },
  {
    "id": 1024,
    "matchSubType": "MATCH_SUB_TYPE_CEREMONY_GHOST",
    "minPlayerNum": 4,
    "maxPlayerNum": 4,
    "confirmTime": 10,
    "LCCDCFKPJFB": true
  },
  {
    "id": 1025,
    "matchSubType": "MATCH_SUB_TYPE_CEREMONY_GHOST",
    "minPlayerNum": 4,
    "maxPlayerNum": 4,
    "confirmTime": 10,
    "LCCDCFKPJFB": true
  },
  {
    "id": 1026,
    "matchSubType": "MATCH_SUB_TYPE_CEREMONY_GHOST",
    "minPlayerNum": 4,
    "maxPlayerNum": 4,
    "confirmTime": 10,
    "LCCDCFKPJFB": true
  },
  {
    "id": 1027,
    "matchSubType": "MATCH_SUB_TYPE_PUZZLE_FIGHTER",
    "minPlayerNum": 2,
    "maxPlayerNum": 2,
    "confirmTime": 10
  },
  {
    "id": 1028,
    "matchSubType": "MATCH_SUB_TYPE_CEREMONY_GHOST",
    "minPlayerNum": 4,
    "maxPlayerNum": 4,
    "confirmTime": 10,
    "LCCDCFKPJFB": true
  },
  {
    "id": 102901,
    "matchSubType": "MATCH_SUB_TYPE_ELECTROHERCULES_BATTLE_V3",
    "minPlayerNum": 2,
    "maxPlayerNum": 2,
    "confirmTime": 10
  },
  {
    "id": 102902,
    "matchSubType": "MATCH_SUB_TYPE_ELECTROHERCULES_BATTLE_V3",
    "minPlayerNum": 2,
    "maxPlayerNum": 2,
    "confirmTime": 10
  },
  {
    "id": 102903,
    "matchSubType": "MATCH_SUB_TYPE_ELECTROHERCULES_BATTLE_V3",
    "minPlayerNum": 2,
    "maxPlayerNum": 2,
    "confirmTime": 10
  },
  {
    "id": 102904,
    "matchSubType": "MATCH_SUB_TYPE_ELECTROHERCULES_BATTLE_V3",
    "minPlayerNum": 2,
    "maxPlayerNum": 2,
    "confirmTime": 10
  },
  {
    "id": 102905,
    "matchSubType": "MATCH_SUB_TYPE_ELECTROHERCULES_BATTLE_V3",
    "minPlayerNum": 2,
    "maxPlayerNum": 2,
    "confirmTime": 10
  },
  {
    "id": 102906,
    "matchSubType": "MATCH_SUB_TYPE_ELECTROHERCULES_BATTLE_V3",
    "minPlayerNum": 2,
    "maxPlayerNum": 2,
    "confirmTime": 10
  },
  {
    "id": 102907,
    "matchSubType": "MATCH_SUB_TYPE_ELECTROHERCULES_BATTLE_V3",
    "minPlayerNum": 2,
    "maxPlayerNum": 2,
    "confirmTime": 10
  },
  {
    "id": 102908,
    "matchSubType": "MATCH_SUB_TYPE_ELECTROHERCULES_BATTLE_V3",
    "minPlayerNum": 2,
    "maxPlayerNum": 2,
    "confirmTime": 10
  },
  {
    "id": 102909,
    "matchSubType": "MATCH_SUB_TYPE_ELECTROHERCULES_BATTLE_V3",
    "minPlayerNum": 2,
    "maxPlayerNum": 2,
    "confirmTime": 10
  },
  {
    "id": 102910,
    "matchSubType": "MATCH_SUB_TYPE_ELECTROHERCULES_BATTLE_V3",
    "minPlayerNum": 2,
    "maxPlayerNum": 2,
    "confirmTime": 10
  },
  {
    "id": 102911,
    "matchSubType": "MATCH_SUB_TYPE_ELECTROHERCULES_BATTLE_V3",
    "minPlayerNum": 2,
    "maxPlayerNum": 2,
    "confirmTime": 10
  },
  {
    "id": 102912,
    "matchSubType": "MATCH_SUB_TYPE_ELECTROHERCULES_BATTLE_V3",
    "minPlayerNum": 2,
    "maxPlayerNum": 2,
    "confirmTime": 10
  },
  {
    "id": 102913,
    "matchSubType": "MATCH_SUB_TYPE_ELECTROHERCULES_BATTLE_V3",
    "minPlayerNum": 2,
    "maxPlayerNum": 2,
    "confirmTime": 10
  },
  {
    "id": 102914,
    "matchSubType": "MATCH_SUB_TYPE_ELECTROHERCULES_BATTLE_V3",
    "minPlayerNum": 2,
    "maxPlayerNum": 2,
    "confirmTime": 10
  },
  {
    "id": 102915,
    "matchSubType": "MATCH_SUB_TYPE_ELECTROHERCULES_BATTLE_V3",
    "minPlayerNum": 2,
    "maxPlayerNum": 2,
    "confirmTime": 10
  },
  {
    "id": 103001,
    "matchSubType": "MATCH_SUB_TYPE_INAZUMA_BADMINTON",
    "minPlayerNum": 2,
    "maxPlayerNum": 2,
    "confirmTime": 10,
    "levelId": 1
  },
  {
    "id": 103002,
    "matchSubType": "MATCH_SUB_TYPE_INAZUMA_BADMINTON",
    "minPlayerNum": 2,
    "maxPlayerNum": 2,
    "confirmTime": 10,
    "levelId": 2
  },
  {
    "id": 103003,
    "matchSubType": "MATCH_SUB_TYPE_INAZUMA_BADMINTON",
    "minPlayerNum": 2,
    "maxPlayerNum": 2,
    "confirmTime": 10,
    "levelId": 3
  },
  {
    "id": 103004,
    "matchSubType": "MATCH_SUB_TYPE_INAZUMA_BADMINTON",
    "minPlayerNum": 2,
    "maxPlayerNum": 2,
    "confirmTime": 10,
    "levelId": 4
  },
  {
    "id": 103005,
    "matchSubType": "MATCH_SUB_TYPE_INAZUMA_BADMINTON",
    "minPlayerNum": 2,
    "maxPlayerNum": 2,
    "confirmTime": 10,
    "levelId": 5
  },
  {
    "id": 1031,
    "matchSubType": "MATCH_SUB_TYPE_FISHING_JOY",
    "minPlayerNum": 4,
    "maxPlayerNum": 4,
    "confirmTime": 10,
    "LCCDCFKPJFB": true
  },
  {
    "id": 1032,
    "matchSubType": "MATCH_SUB_TYPE_FISHING_JOY",
    "minPlayerNum": 4,
    "maxPlayerNum": 4,
    "confirmTime": 10
  },
  {
    "id": 1033,
    "matchSubType": "MATCH_SUB_TYPE_FISHING_JOY",
    "minPlayerNum": 4,
    "maxPlayerNum": 4,
    "confirmTime": 10
  },
  {
    "id": 1034,
    "matchSubType": "MATCH_SUB_TYPE_FISHING_JOY",
    "minPlayerNum": 4,
    "maxPlayerNum": 4,
    "confirmTime": 10
  }
]