[
  {
    "id": 1,
    "ALFEPDJKHFE": 20,
    "KFACMMOGDBF": 30,
    "CKMFAJPHKEL": 40
  },
  {
    "id": 2,
    "ALFEPDJKHFE": 25,
    "KFACMMOGDBF": 35,
    "CKMFAJPHKEL": 45
  },
  {
    "id": 3,
    "ALFEPDJKHFE": 30,
    "KFACMMOGDBF": 40,
    "CKMFAJPHKEL": 50
  }
]