[
  {
    "AHHHKAENEID": 1,
    "HBDDEDPNEBA": 30011290,
    "EBLJPCCOJCE": 20011290,
    "AADJHBMLAAA": 0.33,
    "score": 330,
    "mapIconPath": "ART/UI/Atlas/MonsterSmallIcon/UI_MonsterSmallIcon_Slime_Fire_02"
  },
  {
    "AHHHKAENEID": 2,
    "HBDDEDPNEBA": 30010590,
    "EBLJPCCOJCE": 20010590,
    "AADJHBMLAAA": 0.33,
    "score": 297,
    "mapIconPath": "ART/UI/Atlas/MonsterSmallIcon/UI_MonsterSmallIcon_Slime_Electric_02"
  },
  {
    "AHHHKAENEID": 3,
    "HBDDEDPNEBA": 31020290,
    "EBLJPCCOJCE": 21020290,
    "AADJHBMLAAA": 1,
    "score": 1200,
    "mapIconPath": "ART/UI/Atlas/MonsterSmallIcon/UI_MonsterSmallIcon_Brute_None_01"
  },
  {
    "AHHHKAENEID": 4,
    "HBDDEDPNEBA": 31010290,
    "EBLJPCCOJCE": 21010290,
    "AADJHBMLAAA": 0.25,
    "score": 225,
    "mapIconPath": "ART/UI/Atlas/MonsterSmallIcon/UI_MonsterSmallIcon_Hili_None_01"
  },
  {
    "AHHHKAENEID": 5,
    "HBDDEDPNEBA": 35100190,
    "EBLJPCCOJCE": 25100190,
    "AADJHBMLAAA": 1,
    "score": 1600,
    "mapIconPath": "ART/UI/Atlas/MonsterSmallIcon/UI_MonsterSmallIcon_Samurai_Kairagi_01"
  },
  {
    "AHHHKAENEID": 6,
    "HBDDEDPNEBA": 35100290,
    "EBLJPCCOJCE": 25100290,
    "AADJHBMLAAA": 1,
    "score": 1600,
    "mapIconPath": "ART/UI/Atlas/MonsterSmallIcon/UI_MonsterSmallIcon_Samurai_Kairagi_02"
  },
  {
    "AHHHKAENEID": 7,
    "HBDDEDPNEBA": 35310290,
    "EBLJPCCOJCE": 25310290,
    "AADJHBMLAAA": 1,
    "score": 1300,
    "mapIconPath": "ART/UI/Atlas/MonsterSmallIcon/UI_MonsterSmallIcon_Eremite_Male_Standard_Glaive"
  },
  {
    "AHHHKAENEID": 8,
    "HBDDEDPNEBA": 35310190,
    "EBLJPCCOJCE": 25310190,
    "AADJHBMLAAA": 1,
    "score": 1300,
    "mapIconPath": "ART/UI/Atlas/MonsterSmallIcon/UI_MonsterSmallIcon_Eremite_Female_Slim_PushDagger"
  },
  {
    "AHHHKAENEID": 9,
    "HBDDEDPNEBA": 36030190,
    "EBLJPCCOJCE": 26030190,
    "AADJHBMLAAA": 1,
    "score": 1200,
    "mapIconPath": "ART/UI/Atlas/MonsterSmallIcon/UI_MonsterSmallIcon_Wyrm_Rock"
  },
  {
    "AHHHKAENEID": 10,
    "HBDDEDPNEBA": 30050590,
    "EBLJPCCOJCE": 20050590,
    "AADJHBMLAAA": 1,
    "score": 1400,
    "mapIconPath": "ART/UI/Atlas/MonsterSmallIcon/UI_MonsterSmallIcon_Oceanid_Underling"
  },
  {
    "AHHHKAENEID": 11,
    "HBDDEDPNEBA": 34065790,
    "EBLJPCCOJCE": 24065790,
    "AADJHBMLAAA": 1,
    "score": 1200,
    "mapIconPath": "ART/UI/Atlas/MonsterSmallIcon/UI_MonsterSmallIcon_MachinaIustitia_Assimilator"
  },
  {
    "AHHHKAENEID": 12,
    "HBDDEDPNEBA": 34010190,
    "EBLJPCCOJCE": 24010190,
    "AADJHBMLAAA": 1,
    "score": 1200,
    "mapIconPath": "ART/UI/Atlas/MonsterSmallIcon/UI_MonsterSmallIcon_Defender_Noner_01"
  },
  {
    "AHHHKAENEID": 13,
    "HBDDEDPNEBA": 30060490,
    "EBLJPCCOJCE": 20060490,
    "AADJHBMLAAA": 1,
    "score": 1300,
    "mapIconPath": "ART/UI/Atlas/MonsterSmallIcon/UI_MonsterSmallIcon_Sylph_Ice_01"
  },
  {
    "AHHHKAENEID": 14,
    "HBDDEDPNEBA": 30060690,
    "EBLJPCCOJCE": 20060690,
    "AADJHBMLAAA": 1,
    "score": 1300,
    "mapIconPath": "ART/UI/Atlas/MonsterSmallIcon/UI_MonsterSmallIcon_Sylph_Fire_01"
  },
  {
    "AHHHKAENEID": 15,
    "HBDDEDPNEBA": 36060190,
    "EBLJPCCOJCE": 26060190,
    "AADJHBMLAAA": 0.33,
    "score": 429,
    "mapIconPath": "ART/UI/Atlas/MonsterSmallIcon/UI_MonsterSmallIcon_Cicin_Thunder_01"
  },
  {
    "AHHHKAENEID": 16,
    "HBDDEDPNEBA": 36060290,
    "EBLJPCCOJCE": 26060290,
    "AADJHBMLAAA": 0.33,
    "score": 429,
    "mapIconPath": "ART/UI/Atlas/MonsterSmallIcon/UI_MonsterSmallIcon_Cicin_Water_01"
  },
  {
    "AHHHKAENEID": 17,
    "HBDDEDPNEBA": 36090393,
    "EBLJPCCOJCE": 26090393,
    "AADJHBMLAAA": 1,
    "score": 1000,
    "mapIconPath": "ART/UI/Atlas/MonsterSmallIcon/UI_MonsterSmallIcon_Fungus_Un_Delta_Wind"
  },
  {
    "AHHHKAENEID": 18,
    "HBDDEDPNEBA": 31011090,
    "EBLJPCCOJCE": 21011090,
    "AADJHBMLAAA": 0.5,
    "score": 500,
    "mapIconPath": "ART/UI/Atlas/MonsterSmallIcon/UI_MonsterSmallIcon_Hili_Electric_Range"
  },
  {
    "AHHHKAENEID": 19,
    "HBDDEDPNEBA": 31010990,
    "EBLJPCCOJCE": 21010990,
    "AADJHBMLAAA": 0.5,
    "score": 500,
    "mapIconPath": "ART/UI/Atlas/MonsterSmallIcon/UI_MonsterSmallIcon_Hili_Ice_Range"
  },
  {
    "AHHHKAENEID": 20,
    "HBDDEDPNEBA": 34060990,
    "EBLJPCCOJCE": 24060990,
    "AADJHBMLAAA": 1,
    "score": 1400,
    "mapIconPath": "ART/UI/Atlas/MonsterSmallIcon/UI_MonsterSmallIcon_MachinaIustitia_Ruggiero_02"
  },
  {
    "AHHHKAENEID": 21,
    "HBDDEDPNEBA": 35080390,
    "EBLJPCCOJCE": 25080390,
    "AADJHBMLAAA": 1,
    "score": 1300,
    "mapIconPath": "ART/UI/Atlas/MonsterSmallIcon/UI_MonsterSmallIcon_Samurai_Ronin_03"
  },
  {
    "AHHHKAENEID": 22,
    "HBDDEDPNEBA": 35010390,
    "EBLJPCCOJCE": 25010390,
    "AADJHBMLAAA": 1,
    "score": 900,
    "mapIconPath": "ART/UI/Atlas/MonsterSmallIcon/UI_MonsterSmallIcon_Thoarder_Male_Chemist_Fire_01"
  },
  {
    "AHHHKAENEID": 23,
    "HBDDEDPNEBA": 31030190,
    "EBLJPCCOJCE": 21030190,
    "AADJHBMLAAA": 1,
    "score": 900,
    "mapIconPath": "ART/UI/Atlas/MonsterSmallIcon/UI_MonsterSmallIcon_Shaman_Water_01"
  },
  {
    "AHHHKAENEID": 24,
    "HBDDEDPNEBA": 36160390,
    "EBLJPCCOJCE": 26160390,
    "AADJHBMLAAA": 1,
    "score": 1400,
    "mapIconPath": "ART/UI/Atlas/MonsterSmallIcon/UI_MonsterSmallIcon_SeaHorse_Primo_Electric"
  },
  {
    "AHHHKAENEID": 25,
    "HBDDEDPNEBA": 34810190,
    "EBLJPCCOJCE": 24810190,
    "mapIconPath": "ART/UI/Atlas/MonsterSmallIcon/UI_ActivitySmallIcon_TowerFire"
  },
  {
    "AHHHKAENEID": 26,
    "HBDDEDPNEBA": 34810790,
    "EBLJPCCOJCE": 24810790,
    "mapIconPath": "ART/UI/Atlas/MonsterSmallIcon/UI_ActivitySmallIcon_TowerIce"
  },
  {
    "AHHHKAENEID": 27,
    "HBDDEDPNEBA": 34810390,
    "EBLJPCCOJCE": 24810390,
    "mapIconPath": "ART/UI/Atlas/MonsterSmallIcon/UI_ActivitySmallIcon_TowerElectric"
  },
  {
    "AHHHKAENEID": 28,
    "HBDDEDPNEBA": 34810590,
    "EBLJPCCOJCE": 24810590,
    "mapIconPath": "ART/UI/Atlas/MonsterSmallIcon/UI_ActivitySmallIcon_TowerWater"
  },
  {
    "AHHHKAENEID": 29,
    "HBDDEDPNEBA": 34810990,
    "EBLJPCCOJCE": 24810990,
    "mapIconPath": "ART/UI/Atlas/MonsterSmallIcon/UI_ActivitySmallIcon_TowerWind"
  },
  {
    "AHHHKAENEID": 30,
    "mapIconPath": "ART/UI/Atlas/MonsterSmallIcon/UI_ActivitySmallIcon_TowerTrap_01"
  },
  {
    "AHHHKAENEID": 32,
    "mapIconPath": "ART/UI/Atlas/MonsterSmallIcon/UI_ActivitySmallIcon_TowerBoom_01"
  },
  {
    "AHHHKAENEID": 50,
    "mapIconPath": "ART/UI/Atlas/MonsterSmallIcon/UI_ActivitySmallIcon_TowerTrap_01",
    "gadgetId": 70320138
  },
  {
    "AHHHKAENEID": 51,
    "mapIconPath": "ART/UI/Atlas/MonsterSmallIcon/UI_ActivitySmallIcon_TowerAbsorber_01",
    "gadgetId": 70320141
  },
  {
    "AHHHKAENEID": 52,
    "mapIconPath": "ART/UI/Atlas/MonsterSmallIcon/UI_ActivitySmallIcon_TowerBoom_01",
    "gadgetId": 70350537
  }
]