[
  {
    "id": 1001,
    "KHLMOHNPECI": [
      10011,
      10012
    ],
    "nameTextMapHash": 2178691894,
    "descTextMapHash": 2468306786,
    "JHPGPDKGCIH": 4217252319,
    "icon": "ART/UI/Atlas/ActivityBuffIcon/UI_Icon_MonsterChess_Artifact_1001",
    "EDLMPKBMNJN": true
  },
  {
    "id": 1002,
    "KHLMOHNPECI": [
      10021,
      10022,
      10023,
      10024,
      10025
    ],
    "nameTextMapHash": 4023868686,
    "descTextMapHash": 3531019706,
    "JHPGPDKGCIH": 2635411735,
    "icon": "ART/UI/Atlas/ActivityBuffIcon/UI_Icon_MonsterChess_Artifact_1002",
    "EDLMPKBMNJN": true
  },
  {
    "id": 1003,
    "KHLMOHNPECI": [
      10031,
      10032
    ],
    "nameTextMapHash": 3138054254,
    "descTextMapHash": 1337272850,
    "JHPGPDKGCIH": 1564749647,
    "icon": "ART/UI/Atlas/ActivityBuffIcon/UI_Icon_MonsterChess_Artifact_1003",
    "EDLMPKBMNJN": true
  },
  {
    "id": 1004,
    "KHLMOHNPECI": [
      10041
    ],
    "nameTextMapHash": 711238470,
    "descTextMapHash": 2720578306,
    "JHPGPDKGCIH": 4266173135,
    "icon": "ART/UI/Atlas/ActivityBuffIcon/UI_Icon_MonsterChess_Artifact_1004",
    "EDLMPKBMNJN": true
  },
  {
    "id": 1005,
    "KHLMOHNPECI": [
      10051
    ],
    "nameTextMapHash": 2971547238,
    "descTextMapHash": 696569986,
    "JHPGPDKGCIH": 2027813927,
    "icon": "ART/UI/Atlas/ActivityBuffIcon/UI_Icon_MonsterChess_Artifact_1005",
    "EDLMPKBMNJN": true
  },
  {
    "id": 1006,
    "KHLMOHNPECI": [
      10061,
      10062,
      10063,
      10064,
      10065
    ],
    "nameTextMapHash": 701253510,
    "descTextMapHash": 4224016970,
    "JHPGPDKGCIH": 3419779567,
    "icon": "ART/UI/Atlas/ActivityBuffIcon/UI_Icon_MonsterChess_Artifact_1006",
    "EDLMPKBMNJN": true
  },
  {
    "id": 2001,
    "KHLMOHNPECI": [
      20011
    ],
    "nameTextMapHash": 3619902126,
    "descTextMapHash": 1492246594,
    "JHPGPDKGCIH": 3697187135,
    "icon": "ART/UI/Atlas/ActivityBuffIcon/UI_Icon_MonsterChess_Artifact_2002"
  },
  {
    "id": 2002,
    "KHLMOHNPECI": [
      20021
    ],
    "nameTextMapHash": 1235132622,
    "descTextMapHash": 1258811922,
    "JHPGPDKGCIH": 3815362463,
    "icon": "ART/UI/Atlas/ActivityBuffIcon/UI_Icon_MonsterChess_Artifact_2004"
  },
  {
    "id": 2003,
    "KHLMOHNPECI": [
      20031
    ],
    "nameTextMapHash": 339475054,
    "descTextMapHash": 1965806058,
    "JHPGPDKGCIH": 2615516695,
    "icon": "ART/UI/Atlas/ActivityBuffIcon/UI_Icon_MonsterChess_Artifact_2001"
  },
  {
    "id": 2004,
    "KHLMOHNPECI": [
      20041
    ],
    "nameTextMapHash": 2476177126,
    "descTextMapHash": 1188626346,
    "JHPGPDKGCIH": 1745806479,
    "icon": "ART/UI/Atlas/ActivityBuffIcon/UI_Icon_MonsterChess_Artifact_2003"
  },
  {
    "id": 2005,
    "KHLMOHNPECI": [
      20051
    ],
    "nameTextMapHash": 2679339798,
    "descTextMapHash": 2474992634,
    "JHPGPDKGCIH": 2974810983,
    "icon": "ART/UI/Atlas/ActivityBuffIcon/UI_Icon_MonsterChess_Artifact_2005"
  },
  {
    "id": 2006,
    "KHLMOHNPECI": [
      20061
    ],
    "nameTextMapHash": 2576488070,
    "descTextMapHash": 825422954,
    "JHPGPDKGCIH": 30163959,
    "icon": "ART/UI/Atlas/ActivityBuffIcon/UI_Icon_MonsterChess_Artifact_2006"
  },
  {
    "id": 2007,
    "KHLMOHNPECI": [
      20071
    ],
    "nameTextMapHash": 1879721342,
    "descTextMapHash": 3253011418,
    "JHPGPDKGCIH": 4243088567,
    "icon": "ART/UI/Atlas/ActivityBuffIcon/UI_Icon_MonsterChess_Artifact_2007"
  },
  {
    "id": 2008,
    "KHLMOHNPECI": [
      20081
    ],
    "nameTextMapHash": 2020153798,
    "descTextMapHash": 2437882882,
    "JHPGPDKGCIH": 197685319,
    "icon": "ART/UI/Atlas/ActivityBuffIcon/UI_Icon_MonsterChess_Artifact_2008"
  },
  {
    "id": 2009,
    "KHLMOHNPECI": [
      20091
    ],
    "nameTextMapHash": 2837270422,
    "descTextMapHash": 1271696082,
    "JHPGPDKGCIH": 3271004551,
    "icon": "ART/UI/Atlas/ActivityBuffIcon/UI_Icon_MonsterChess_Artifact_2009"
  },
  {
    "id": 2010,
    "KHLMOHNPECI": [
      20101
    ],
    "nameTextMapHash": 3884069686,
    "descTextMapHash": 1198539538,
    "JHPGPDKGCIH": 2732810967,
    "icon": "ART/UI/Atlas/ActivityBuffIcon/UI_Icon_MonsterChess_Artifact_2010"
  },
  {
    "id": 2102,
    "KHLMOHNPECI": [
      21021
    ],
    "nameTextMapHash": 287679838,
    "descTextMapHash": 3642618138,
    "JHPGPDKGCIH": 3445461431,
    "icon": "ART/UI/Atlas/ActivityBuffIcon/UI_Icon_MonsterChess_Artifact_2102"
  },
  {
    "id": 2103,
    "KHLMOHNPECI": [
      21031,
      21032
    ],
    "nameTextMapHash": 3875403670,
    "descTextMapHash": 2790065218,
    "JHPGPDKGCIH": 2415231327,
    "icon": "ART/UI/Atlas/ActivityBuffIcon/UI_Icon_MonsterChess_Artifact_2103"
  },
  {
    "id": 2104,
    "KHLMOHNPECI": [
      21041
    ],
    "nameTextMapHash": 3105200822,
    "descTextMapHash": 1890637298,
    "JHPGPDKGCIH": 466024303,
    "icon": "ART/UI/Atlas/ActivityBuffIcon/UI_Icon_MonsterChess_Artifact_2104"
  },
  {
    "id": 2105,
    "KHLMOHNPECI": [
      21051
    ],
    "DEAKFBGJCHC": 1,
    "nameTextMapHash": 169884814,
    "descTextMapHash": 2080933402,
    "JHPGPDKGCIH": 1183213959,
    "icon": "ART/UI/Atlas/ActivityBuffIcon/UI_Icon_MonsterChess_Artifact_2105"
  },
  {
    "id": 2106,
    "KHLMOHNPECI": [
      21061
    ],
    "nameTextMapHash": 4121721118,
    "descTextMapHash": 2071909914,
    "JHPGPDKGCIH": 3687908671,
    "icon": "ART/UI/Atlas/ActivityBuffIcon/UI_Icon_MonsterChess_Artifact_2106"
  },
  {
    "id": 2107,
    "KHLMOHNPECI": [
      21071
    ],
    "nameTextMapHash": 2291151998,
    "descTextMapHash": 3144341722,
    "JHPGPDKGCIH": 3662201407,
    "icon": "ART/UI/Atlas/ActivityBuffIcon/UI_Icon_MonsterChess_Artifact_2107"
  },
  {
    "id": 2108,
    "KHLMOHNPECI": [
      21081
    ],
    "nameTextMapHash": 3139755862,
    "descTextMapHash": 3849184466,
    "JHPGPDKGCIH": 3987516287,
    "icon": "ART/UI/Atlas/ActivityBuffIcon/UI_Icon_MonsterChess_Artifact_2108"
  },
  {
    "id": 2109,
    "KHLMOHNPECI": [
      21091
    ],
    "nameTextMapHash": 3596955358,
    "descTextMapHash": 3708591746,
    "JHPGPDKGCIH": 3226620383,
    "icon": "ART/UI/Atlas/ActivityBuffIcon/UI_Icon_MonsterChess_Artifact_2109"
  },
  {
    "id": 2110,
    "KHLMOHNPECI": [
      21101
    ],
    "nameTextMapHash": 821746542,
    "descTextMapHash": 381504258,
    "JHPGPDKGCIH": 4164664223,
    "icon": "ART/UI/Atlas/ActivityBuffIcon/UI_Icon_MonsterChess_Artifact_2110"
  },
  {
    "id": 2111,
    "KHLMOHNPECI": [
      21111
    ],
    "nameTextMapHash": 1291673934,
    "descTextMapHash": 3099024234,
    "JHPGPDKGCIH": 3712291503,
    "icon": "ART/UI/Atlas/ActivityBuffIcon/UI_Icon_MonsterChess_Artifact_2111"
  },
  {
    "id": 2112,
    "KHLMOHNPECI": [
      21121
    ],
    "nameTextMapHash": 1774713422,
    "descTextMapHash": 3057279746,
    "JHPGPDKGCIH": 1362499599,
    "icon": "ART/UI/Atlas/ActivityBuffIcon/UI_Icon_MonsterChess_Artifact_2112"
  }
]