[
  {
    "AOMPCNBHBBA": 11,
    "BBFHPIFBJOF": [
      1,
      2,
      4,
      18,
      19,
      15,
      26,
      25
    ]
  },
  {
    "AOMPCNBHBBA": 12,
    "BBFHPIFBJOF": [
      5,
      6,
      13,
      14,
      21,
      23,
      28,
      26
    ]
  },
  {
    "AOMPCNBHBBA": 13,
    "BBFHPIFBJOF": [
      9,
      10,
      12,
      3,
      22,
      16,
      25,
      29
    ]
  },
  {
    "AOMPCNBHBBA": 14,
    "BBFHPIFBJOF": [
      20,
      24,
      22,
      23,
      11,
      4,
      26,
      27
    ]
  },
  {
    "AOMPCNBHBBA": 15,
    "BBFHPIFBJOF": [
      7,
      8,
      17,
      13,
      15,
      16,
      28,
      29,
      26
    ]
  },
  {
    "AOMPCNBHBBA": 16,
    "BBFHPIFBJOF": [
      10,
      1,
      2,
      13,
      14,
      24,
      27,
      29,
      25
    ]
  },
  {
    "AOMPCNBHBBA": 17,
    "BBFHPIFBJOF": [
      20,
      7,
      11,
      12,
      17,
      19,
      27,
      26
    ]
  },
  {
    "AOMPCNBHBBA": 21,
    "ECFKCGIBLOP": "MONSTER_VS_MONSTER_FRIEND",
    "BBFHPIFBJOF": [
      1,
      15,
      16,
      19,
      22,
      25,
      51,
      52
    ]
  },
  {
    "AOMPCNBHBBA": 22,
    "ECFKCGIBLOP": "MONSTER_VS_MONSTER_FRIEND",
    "BBFHPIFBJOF": [
      6,
      21,
      13,
      28,
      30,
      32
    ]
  },
  {
    "AOMPCNBHBBA": 23,
    "ECFKCGIBLOP": "MONSTER_VS_MONSTER_FRIEND",
    "BBFHPIFBJOF": [
      3,
      24,
      4,
      16,
      2,
      26
    ]
  },
  {
    "AOMPCNBHBBA": 24,
    "ECFKCGIBLOP": "MONSTER_VS_MONSTER_FRIEND",
    "BBFHPIFBJOF": [
      11,
      20,
      13,
      24,
      14,
      27
    ]
  },
  {
    "AOMPCNBHBBA": 25,
    "ECFKCGIBLOP": "MONSTER_VS_MONSTER_FRIEND",
    "BBFHPIFBJOF": [
      7,
      8,
      17,
      20,
      27,
      30
    ]
  },
  {
    "AOMPCNBHBBA": 26,
    "ECFKCGIBLOP": "MONSTER_VS_MONSTER_FRIEND",
    "BBFHPIFBJOF": [
      3,
      15,
      26,
      14,
      22,
      29
    ]
  },
  {
    "AOMPCNBHBBA": 27,
    "ECFKCGIBLOP": "MONSTER_VS_MONSTER_FRIEND",
    "BBFHPIFBJOF": [
      6,
      7,
      19,
      24,
      25,
      32
    ]
  },
  {
    "AOMPCNBHBBA": 2101,
    "CEGFENKOEPE": 1,
    "KJNGGAJHCEH": 1,
    "BBFHPIFBJOF": [
      15
    ]
  },
  {
    "AOMPCNBHBBA": 2102,
    "CEGFENKOEPE": 1,
    "KJNGGAJHCEH": 2,
    "BBFHPIFBJOF": [
      2,
      3
    ]
  },
  {
    "AOMPCNBHBBA": 2103,
    "CEGFENKOEPE": 2,
    "KJNGGAJHCEH": 1,
    "BBFHPIFBJOF": [
      16
    ]
  },
  {
    "AOMPCNBHBBA": 2104,
    "CEGFENKOEPE": 2,
    "KJNGGAJHCEH": 2,
    "BBFHPIFBJOF": [
      3,
      7
    ]
  },
  {
    "AOMPCNBHBBA": 2105,
    "CEGFENKOEPE": 3,
    "KJNGGAJHCEH": 1,
    "BBFHPIFBJOF": [
      15,
      16
    ]
  },
  {
    "AOMPCNBHBBA": 2106,
    "CEGFENKOEPE": 3,
    "KJNGGAJHCEH": 2,
    "BBFHPIFBJOF": [
      1,
      2,
      3,
      7
    ]
  },
  {
    "AOMPCNBHBBA": 2201,
    "CEGFENKOEPE": 1,
    "KJNGGAJHCEH": 2,
    "BBFHPIFBJOF": [
      3,
      23,
      10
    ]
  },
  {
    "AOMPCNBHBBA": 2202,
    "CEGFENKOEPE": 1,
    "KJNGGAJHCEH": 3,
    "BBFHPIFBJOF": [
      19
    ]
  },
  {
    "AOMPCNBHBBA": 2203,
    "CEGFENKOEPE": 2,
    "KJNGGAJHCEH": 2,
    "BBFHPIFBJOF": [
      3,
      23
    ]
  },
  {
    "AOMPCNBHBBA": 2204,
    "CEGFENKOEPE": 2,
    "KJNGGAJHCEH": 3,
    "BBFHPIFBJOF": [
      3,
      22,
      23,
      19
    ]
  },
  {
    "AOMPCNBHBBA": 2205,
    "CEGFENKOEPE": 3,
    "KJNGGAJHCEH": 2,
    "BBFHPIFBJOF": [
      12,
      10
    ]
  },
  {
    "AOMPCNBHBBA": 2206,
    "CEGFENKOEPE": 3,
    "KJNGGAJHCEH": 3,
    "BBFHPIFBJOF": [
      22,
      19
    ]
  },
  {
    "AOMPCNBHBBA": 2301,
    "CEGFENKOEPE": 1,
    "KJNGGAJHCEH": 1,
    "BBFHPIFBJOF": [
      5,
      2
    ]
  },
  {
    "AOMPCNBHBBA": 2302,
    "CEGFENKOEPE": 1,
    "KJNGGAJHCEH": 3,
    "BBFHPIFBJOF": [
      21,
      13
    ]
  },
  {
    "AOMPCNBHBBA": 2303,
    "CEGFENKOEPE": 2,
    "KJNGGAJHCEH": 1,
    "BBFHPIFBJOF": [
      6,
      1
    ]
  },
  {
    "AOMPCNBHBBA": 2304,
    "CEGFENKOEPE": 2,
    "KJNGGAJHCEH": 3,
    "BBFHPIFBJOF": [
      21,
      14
    ]
  },
  {
    "AOMPCNBHBBA": 2305,
    "CEGFENKOEPE": 3,
    "KJNGGAJHCEH": 1,
    "BBFHPIFBJOF": [
      14,
      6,
      1
    ]
  },
  {
    "AOMPCNBHBBA": 2306,
    "CEGFENKOEPE": 3,
    "KJNGGAJHCEH": 3,
    "BBFHPIFBJOF": [
      13,
      5,
      2
    ]
  },
  {
    "AOMPCNBHBBA": 2401,
    "CEGFENKOEPE": 1,
    "KJNGGAJHCEH": 1,
    "BBFHPIFBJOF": [
      15,
      16
    ]
  },
  {
    "AOMPCNBHBBA": 2402,
    "CEGFENKOEPE": 1,
    "KJNGGAJHCEH": 2,
    "BBFHPIFBJOF": [
      7,
      8
    ]
  },
  {
    "AOMPCNBHBBA": 2403,
    "CEGFENKOEPE": 2,
    "KJNGGAJHCEH": 2,
    "BBFHPIFBJOF": [
      7,
      8
    ]
  },
  {
    "AOMPCNBHBBA": 2404,
    "CEGFENKOEPE": 3,
    "KJNGGAJHCEH": 1,
    "BBFHPIFBJOF": [
      17,
      15,
      16,
      12
    ]
  },
  {
    "AOMPCNBHBBA": 2501,
    "CEGFENKOEPE": 1,
    "KJNGGAJHCEH": 2,
    "BBFHPIFBJOF": [
      11,
      24
    ]
  },
  {
    "AOMPCNBHBBA": 2502,
    "CEGFENKOEPE": 2,
    "KJNGGAJHCEH": 3,
    "BBFHPIFBJOF": [
      12,
      13,
      14
    ]
  },
  {
    "AOMPCNBHBBA": 2503,
    "CEGFENKOEPE": 3,
    "KJNGGAJHCEH": 2,
    "BBFHPIFBJOF": [
      11,
      20,
      24
    ]
  },
  {
    "AOMPCNBHBBA": 2504,
    "CEGFENKOEPE": 3,
    "KJNGGAJHCEH": 3,
    "BBFHPIFBJOF": [
      12,
      13,
      14
    ]
  },
  {
    "AOMPCNBHBBA": 2601,
    "CEGFENKOEPE": 1,
    "KJNGGAJHCEH": 1,
    "BBFHPIFBJOF": [
      12
    ]
  },
  {
    "AOMPCNBHBBA": 2602,
    "CEGFENKOEPE": 1,
    "KJNGGAJHCEH": 3,
    "BBFHPIFBJOF": [
      4,
      19
    ]
  },
  {
    "AOMPCNBHBBA": 2603,
    "CEGFENKOEPE": 2,
    "KJNGGAJHCEH": 1,
    "BBFHPIFBJOF": [
      12
    ]
  },
  {
    "AOMPCNBHBBA": 2604,
    "CEGFENKOEPE": 2,
    "KJNGGAJHCEH": 3,
    "BBFHPIFBJOF": [
      4,
      3
    ]
  },
  {
    "AOMPCNBHBBA": 2605,
    "CEGFENKOEPE": 3,
    "KJNGGAJHCEH": 1,
    "BBFHPIFBJOF": [
      12
    ]
  },
  {
    "AOMPCNBHBBA": 2606,
    "CEGFENKOEPE": 3,
    "KJNGGAJHCEH": 3,
    "BBFHPIFBJOF": [
      4,
      19,
      3
    ]
  },
  {
    "AOMPCNBHBBA": 2701,
    "CEGFENKOEPE": 1,
    "KJNGGAJHCEH": 1,
    "BBFHPIFBJOF": [
      7
    ]
  },
  {
    "AOMPCNBHBBA": 2702,
    "CEGFENKOEPE": 1,
    "KJNGGAJHCEH": 2,
    "BBFHPIFBJOF": [
      15
    ]
  },
  {
    "AOMPCNBHBBA": 2703,
    "CEGFENKOEPE": 1,
    "KJNGGAJHCEH": 3,
    "BBFHPIFBJOF": [
      1
    ]
  },
  {
    "AOMPCNBHBBA": 2704,
    "CEGFENKOEPE": 2,
    "KJNGGAJHCEH": 1,
    "BBFHPIFBJOF": [
      12
    ]
  },
  {
    "AOMPCNBHBBA": 2705,
    "CEGFENKOEPE": 2,
    "KJNGGAJHCEH": 2,
    "BBFHPIFBJOF": [
      15,
      16
    ]
  },
  {
    "AOMPCNBHBBA": 2706,
    "CEGFENKOEPE": 2,
    "KJNGGAJHCEH": 3,
    "BBFHPIFBJOF": [
      24
    ]
  },
  {
    "AOMPCNBHBBA": 2707,
    "CEGFENKOEPE": 3,
    "KJNGGAJHCEH": 1,
    "BBFHPIFBJOF": [
      11,
      20
    ]
  },
  {
    "AOMPCNBHBBA": 2708,
    "CEGFENKOEPE": 3,
    "KJNGGAJHCEH": 2,
    "BBFHPIFBJOF": [
      10
    ]
  },
  {
    "AOMPCNBHBBA": 2709,
    "CEGFENKOEPE": 3,
    "KJNGGAJHCEH": 3,
    "BBFHPIFBJOF": [
      24
    ]
  }
]