[
  {
    "activityID": 2031,
    "HGIMEHKELKI": [
      10004,
      10005
    ],
    "MKHAHJILKBF": 13354,
    "NEAIEEJILBN": 13355,
    "watcherList": [
      1203192,
      1203193,
      1203194,
      1203195,
      1203196
    ],
    "LOOEPOGPJDM": 15426,
    "GOLDBCHFNPC": 1203191,
    "endQuestId": 71145,
    "LNAAFAKJMMO": 2031301,
    "CLPGHJBKOLL": 5,
    "GFPDDNCOCCG": [
      -1,
      0.5
    ],
    "OIDKPHFPKNG": "Eff_Monster_Common_PreviewCylinder",
    "MDKHAICPPHB": "Eff_Monster_Common_UnavailableArea",
    "CJJPGEOPJCK": 5,
    "CMKHALMMGNO": 5,
    "PEMDPHDKICA": 5,
    "OLDHEMLOHDC": [
      1,
      5
    ],
    "HMFCKPNBFNE": 3,
    "JMJPPOLAMHC": 15,
    "CHMNLIDJGFB": 5,
    "NBJNEKFAAJF": "Eff_Monster_Common_Target_Region",
    "ONCODHHLHPM": 2,
    "AGLNCCACIHK": [
      24810191,
      24810391,
      24810591,
      24810791,
      24810991
    ],
    "IBOBFLCOANM": 10
  }
]