[
  {
    "NENDDEHGACB": 293081660,
    "JICAJFOMACF": [
      {}
    ]
  },
  {
    "ILCPLOMALHL": 1,
    "NENDDEHGACB": 1969077996,
    "JICAJFOMACF": [
      {
        "ONLPGLODEEC": "THEME_UNLOCK_ACTIVITY",
        "param": 15
      }
    ]
  },
  {
    "ILCPLOMALHL": 2,
    "NENDDEHGACB": 1919409812,
    "JICAJFOMACF": [
      {
        "ONLPGLODEEC": "THEME_UNLOCK_ACTIVITY",
        "param": 16
      }
    ]
  },
  {
    "ILCPLOMALHL": 3,
    "NENDDEHGACB": 3929576844,
    "JICAJFOMACF": [
      {
        "ONLPGLODEEC": "THEME_UNLOCK_ACTIVITY",
        "param": 17
      }
    ]
  },
  {
    "ILCPLOMALHL": 4,
    "NENDDEHGACB": 2971362444,
    "JICAJFOMACF": [
      {
        "ONLPGLODEEC": "THEME_UNLOCK_ACTIVITY",
        "param": 18
      }
    ]
  },
  {
    "ILCPLOMALHL": 5,
    "NENDDEHGACB": 421214644,
    "JICAJFOMACF": [
      {
        "ONLPGLODEEC": "THEME_UNLOCK_ACTIVITY",
        "param": 19
      }
    ]
  },
  {
    "ILCPLOMALHL": 6,
    "NENDDEHGACB": 2945368276,
    "JICAJFOMACF": [
      {
        "ONLPGLODEEC": "THEME_UNLOCK_ACTIVITY",
        "param": 20
      }
    ]
  },
  {
    "ILCPLOMALHL": 7,
    "NENDDEHGACB": 3603328052,
    "JICAJFOMACF": [
      {
        "ONLPGLODEEC": "THEME_UNLOCK_ACTIVITY",
        "param": 21
      }
    ]
  }
]