[
  {
    "NEEFJDKHNFA": 1,
    "delaySettingRange": [
      -400,
      400,
      10
    ],
    "calibMusicInfo": [
      1800,
      2400
    ],
    "calibViewportRange": [
      900,
      450
    ],
    "dropSpeedSettingRange": [
      0.75,
      3,
      0.25
    ],
    "keySoundSettingRange": [
      0,
      100,
      0
    ],
    "perfectRange": [
      -100,
      100
    ],
    "greatRange": [
      -200,
      200
    ],
    "scaleTime": 1300,
    "lateDropTime": 150,
    "longPressEndCompensation": 150,
    "failTime": 400,
    "longPressHitInterval": 4,
    "ugcPerMusicNum": 50,
    "AJJAIDGLBND": 5,
    "PHHNNDKMEJA": 50,
    "IFDKECHPGPB": 8,
    "ugcMaxHistoryNum": 15,
    "ugcMaxSavedScoreNum": 200,
    "ugcMaxNoteNum": 1200,
    "ugcRegionalNoteLimit": [
      2,
      50
    ],
    "ugcLongPressNoteWeight": 1,
    "ugcRankScoreRatioList": [
      60,
      90,
      100
    ],
    "ugcPublishLimit": 90,
    "ugcEditViewportRange": [
      1500,
      500
    ],
    "ugcTimeLineViewportRange": [
      950,
      250
    ],
    "ugcPrefixPlayTime": 5,
    "ugcUndoBufferSize": 50,
    "ugcAutoAttachBeatCount": 4,
    "ugcTutorialPushTipIds": [
      6115,
      6116,
      6117,
      6118,
      6110,
      6111,
      6112
    ],
    "comboEffectShowCount": [
      30,
      50
    ],
    "ugcEditorPushTipIds": [
      6107,
      6108,
      6109
    ],
    "ugcCursorMoveParams": [
      0.5,
      1,
      15
    ],
    "ugcMusicPlaySpeedList": [
      1,
      0.75,
      0.5,
      0.25
    ],
    "ugcTutorialBlackList": [
      6112
    ]
  }
]