[
  {
    "ILCPLOMALHL": 1,
    "NENDDEHGACB": 3579387311,
    "PNOLEPNMOGG": 1055001,
    "iconPathHash": 15438576348388693409,
    "HJDBMGMACGM": true
  },
  {
    "ILCPLOMALHL": 2,
    "NENDDEHGACB": 760330335,
    "PNOLEPNMOGG": 1055002,
    "iconPathHash": 2268138989982392775,
    "HJDBMGMACGM": true
  },
  {
    "ILCPLOMALHL": 3,
    "NENDDEHGACB": 2237881711,
    "PNOLEPNMOGG": 1055003,
    "iconPathHash": 15106020802550914359,
    "HJDBMGMACGM": true
  },
  {
    "ILCPLOMALHL": 4,
    "NENDDEHGACB": 981243495,
    "PNOLEPNMOGG": 1055004,
    "iconPathHash": 3312112275382131991,
    "HJDBMGMACGM": true
  },
  {
    "ILCPLOMALHL": 5,
    "NENDDEHGACB": 3817471967,
    "PNOLEPNMOGG": 1055005,
    "iconPathHash": 5125104696543881061,
    "HJDBMGMACGM": true
  },
  {
    "ILCPLOMALHL": 6,
    "NENDDEHGACB": 92638263,
    "PNOLEPNMOGG": 1055006,
    "iconPathHash": 7936758229679778945,
    "HJDBMGMACGM": true
  },
  {
    "ILCPLOMALHL": 7,
    "NENDDEHGACB": 2815878015,
    "PNOLEPNMOGG": 1055007,
    "iconPathHash": 9208115245566941918,
    "HJDBMGMACGM": true
  },
  {
    "ILCPLOMALHL": 8,
    "NENDDEHGACB": 936761759,
    "iconPathHash": 15840483573074482278,
    "HJDBMGMACGM": true
  },
  {
    "ILCPLOMALHL": 9,
    "NENDDEHGACB": 2148741847,
    "PNOLEPNMOGG": 1055008,
    "iconPathHash": 18366672254115928487,
    "HJDBMGMACGM": true
  },
  {
    "ILCPLOMALHL": 10,
    "NENDDEHGACB": 3226375919,
    "PNOLEPNMOGG": 1055009,
    "iconPathHash": 1035411277278397180,
    "HJDBMGMACGM": true
  },
  {
    "ILCPLOMALHL": 11,
    "NENDDEHGACB": 1584731551,
    "PNOLEPNMOGG": 1055010,
    "iconPathHash": 17653231307764182137,
    "HJDBMGMACGM": true
  },
  {
    "ILCPLOMALHL": 12,
    "NENDDEHGACB": 1528766591,
    "PNOLEPNMOGG": 1055011,
    "iconPathHash": 2982178336849812721,
    "HJDBMGMACGM": true
  },
  {
    "ILCPLOMALHL": 13,
    "NENDDEHGACB": 3949531991,
    "PNOLEPNMOGG": 1055012,
    "iconPathHash": 10714613048377205487,
    "HJDBMGMACGM": true
  }
]