[
  {
    "name": "MGB_CONST_VALUE_NEW_ALBUM",
    "value": [
      "1,2,3",
      "",
      "",
      "",
      "",
      ""
    ]
  },
  {
    "name": "MGB_CONST_VALUE_STAR_RATIO_NORMAL",
    "value": [
      "100",
      "100",
      "100",
      "",
      "",
      ""
    ]
  },
  {
    "name": "MGB_CONST_VALUE_STAR_RATIO_HARD",
    "value": [
      "100",
      "100",
      "100",
      "",
      "",
      ""
    ]
  },
  {
    "name": "MGB_CONST_VALUE_STAR_RATIO_MASTER",
    "value": [
      "50",
      "50",
      "100",
      "",
      "",
      ""
    ]
  },
  {
    "name": "MGB_CONST_VALUE_STAR_RATIO_DEVIL",
    "value": [
      "50",
      "50",
      "100",
      "",
      "",
      ""
    ]
  },
  {
    "name": "MGB_CONST_VALUE_STAR_RANGE_NORMAL",
    "value": [
      "1",
      "2",
      "",
      "",
      "",
      ""
    ]
  },
  {
    "name": "MGB_CONST_VALUE_STAR_RANGE_HARD",
    "value": [
      "2",
      "4",
      "",
      "",
      "",
      ""
    ]
  },
  {
    "name": "MGB_CONST_VALUE_STAR_RANGE_MASTER",
    "value": [
      "4",
      "6",
      "",
      "",
      "",
      ""
    ]
  },
  {
    "name": "MGB_CONST_VALUE_STAR_RANGE_DEVIL",
    "value": [
      "6",
      "10",
      "",
      "",
      "",
      ""
    ]
  },
  {
    "name": "MGB_CONST_VALUE_THEME_PREVIEW_BEAT_MAP_ID",
    "value": [
      "9999",
      "",
      "",
      "",
      "",
      ""
    ]
  },
  {
    "name": "MGB_CONST_VALUE_PUSHTIPS",
    "value": [
      "13517",
      "",
      "",
      "",
      "",
      ""
    ]
  },
  {
    "name": "MGB_CONST_VALUE_ALBUM_PUSHTIPS_ID",
    "value": [
      "13538",
      "",
      "",
      "",
      "",
      ""
    ]
  },
  {
    "name": "MGB_CONST_VALUE_FIRST_PLAY_PUSHTIPS_ID",
    "value": [
      "13539",
      "",
      "",
      "",
      "",
      ""
    ]
  },
  {
    "name": "MGB_CONST_VALUE_DEFAULT_THEME_ID",
    "value": [
      "8",
      "",
      "",
      "",
      "",
      ""
    ]
  },
  {
    "name": "MGB_CONST_VALUE_ACTIVITY_COND",
    "value": [
      "35",
      "1000000",
      "",
      "",
      "",
      ""
    ]
  },
  {
    "name": "MGB_CONST_VALUE_WIDGET_MATERIAL_ID",
    "value": [
      "220110",
      "",
      "",
      "",
      "",
      ""
    ]
  },
  {
    "name": "MGB_CONST_VALUE_TRIAL_INSTRUMENT_NPC",
    "value": [
      "1465",
      "",
      "",
      "",
      "",
      ""
    ]
  },
  {
    "name": "MGB_CONST_VALUE_FAVOURITE_ALBUM_COVER_ICON",
    "value": [
      "UI_Img_MusicGame_Album_Like",
      "",
      "",
      "",
      "",
      ""
    ]
  },
  {
    "name": "MGB_CONST_VALUE_ALL_ALBUM_ICON",
    "value": [
      "UI_Img_MusicGame_Album_All",
      "",
      "",
      "",
      "",
      ""
    ]
  },
  {
    "name": "MGB_CONST_VALUE_ALBUM_COVER_FORMAT",
    "value": [
      "{0}_02",
      "",
      "",
      "",
      "",
      ""
    ]
  },
  {
    "name": "MGB_CONST_VALUE_SONG_COVER_BIG_FORMAT",
    "value": [
      "{0}_B",
      "",
      "",
      "",
      "",
      ""
    ]
  },
  {
    "name": "MGB_CONST_VALUE_SONG_COVER_FAVOURITE_FORMAT",
    "value": [
      "{0}_F",
      "",
      "",
      "",
      "",
      ""
    ]
  },
  {
    "name": "MGB_CONST_VALUE_SONG_COVER_SMALL_FORMAT",
    "value": [
      "{0}_S",
      "",
      "",
      "",
      "",
      ""
    ]
  },
  {
    "name": "MGB_CONST_VALUE_MUSIC_VOLUME_RANGE",
    "value": [
      "0",
      "100",
      "",
      "",
      "",
      ""
    ]
  },
  {
    "name": "MGB_CONST_VALUE_BPM_FILTER_VALUES",
    "value": [
      "0",
      "100",
      "130",
      "160",
      "",
      ""
    ]
  },
  {
    "name": "MGB_CONST_VALUE_BANNER_ALBUM_LIST",
    "value": [
      "1,2,3,4,5",
      "",
      "",
      "",
      "",
      ""
    ]
  },
  {
    "name": "MGB_CONST_VALUE_STAR_RANGE_TOTAL",
    "value": [
      "1",
      "10",
      "",
      "",
      "",
      ""
    ]
  },
  {
    "name": "BGM_CONST_VALUE_THEME_PREVIEW_BEAT_MAP_PROGRESS",
    "value": [
      "0",
      "",
      "",
      "",
      "",
      ""
    ]
  },
  {
    "name": "MGB_CONST_VALUE_THEME_PREVIEW_JSON_NAME",
    "value": [
      "MusicPreview",
      "",
      "",
      "",
      "",
      ""
    ]
  },
  {
    "name": "MGB_CONST_VALUE_THEME_PREVIEW_SPEED",
    "value": [
      "1",
      "",
      "",
      "",
      "",
      ""
    ]
  },
  {
    "name": "MGB_CONST_VALUE_THEME_PREVIEW_SHOW_LINE",
    "value": [
      "true",
      "true",
      "",
      "",
      "",
      ""
    ]
  },
  {
    "name": "MGB_CONST_VALUE_THEME_PREVIEW_FEVER",
    "value": [
      "true",
      "",
      "",
      "",
      "",
      ""
    ]
  },
  {
    "name": "MGB_CONST_VALUE_THEME_PREVIEW_ALPHA",
    "value": [
      "10",
      "",
      "",
      "",
      "",
      ""
    ]
  },
  {
    "name": "MGB_CONST_VALUE_THEME_PREVIEW_CONNECT",
    "value": [
      "true",
      "",
      "",
      "",
      "",
      ""
    ]
  },
  {
    "name": "MGB_CONST_VALUE_CLICK_EFFECT_PATH",
    "value": [
      "ART/Effect/UI/UI/Eff_UI_Click_MusicGame",
      "",
      "",
      "",
      "",
      ""
    ]
  },
  {
    "name": "MGB_CONST_VALUE_NOTE_SCORE",
    "value": [
      "20",
      "15",
      "5",
      "",
      "",
      ""
    ]
  },
  {
    "name": "MGB_CONST_VALUE_SCORE_RATIO",
    "value": [
      "50",
      "70",
      "90",
      "100",
      "",
      ""
    ]
  },
  {
    "name": "MGB_CONST_VALUE_RANK_SCORE_PER_BEATMAP",
    "value": [
      "0",
      "0",
      "0",
      "10",
      "0",
      ""
    ]
  },
  {
    "name": "MGB_CONST_VALUE_METER_COUNT_RANGE",
    "value": [
      "3",
      "4",
      "3",
      "",
      "",
      ""
    ]
  },
  {
    "name": "MGB_CONST_VALUE_BPM_RANGE",
    "value": [
      "50",
      "100",
      "60",
      "",
      "",
      ""
    ]
  },
  {
    "name": "MGB_CONST_VALUE_START_METER",
    "value": [
      "0",
      "",
      "",
      "",
      "",
      ""
    ]
  },
  {
    "name": "MGB_CONST_VALUE_MEASURE_COUNT_RANGE",
    "value": [
      "8",
      "64",
      "32",
      "",
      "",
      ""
    ]
  },
  {
    "name": "MGB_CONST_VALUE_MATCH_TIMEOUT",
    "value": [
      "10000",
      "",
      "",
      "",
      "",
      ""
    ]
  },
  {
    "name": "MGB_CONST_VALUE_MATCH_MAX_RTT",
    "value": [
      "5000",
      "",
      "",
      "",
      "",
      ""
    ]
  },
  {
    "name": "MGB_CONST_VALUE_SYNC_FREQUENCY",
    "value": [
      "2000",
      "",
      "",
      "",
      "",
      ""
    ]
  },
  {
    "name": "MGB_CONST_VALUE_READY_WAIT_TIME",
    "value": [
      "5000",
      "",
      "",
      "",
      "",
      ""
    ]
  },
  {
    "name": "MGB_CONST_VALUE_METRONOME_PUSH_TIP_ID",
    "value": [
      "13518",
      "",
      "",
      "",
      "",
      ""
    ]
  },
  {
    "name": "MGB_CONST_VALUE_STAR_WEIGHT_TOTAL_NOTE",
    "value": [
      "80",
      "1",
      "",
      "",
      "",
      ""
    ]
  },
  {
    "name": "MGB_CONST_VALUE_STAR_WEIGHT_SINGLE_NOTE",
    "value": [
      "1",
      "1",
      "",
      "",
      "",
      ""
    ]
  },
  {
    "name": "MGB_CONST_VALUE_STAR_WEIGHT_LONG_PRESS_NOTE",
    "value": [
      "50",
      "1",
      "",
      "",
      "",
      ""
    ]
  },
  {
    "name": "MGB_CONST_VALUE_STAR_WEIGHT_BPM",
    "value": [
      "300",
      "1",
      "",
      "",
      "",
      ""
    ]
  },
  {
    "name": "MGB_CONST_VALUE_STAR_WEIGHT_DOUBLE_PRESS_COUNT",
    "value": [
      "10000",
      "1",
      "",
      "",
      "",
      ""
    ]
  },
  {
    "name": "MGB_CONST_VALUE_STAR_WEIGHT_TRIPLE_PRESS_COUNT",
    "value": [
      "10000",
      "1",
      "",
      "",
      "",
      ""
    ]
  },
  {
    "name": "MGB_CONST_VALUE_STAR_WEIGHT_LONG_PRESS_AVG_COUNT",
    "value": [
      "260000",
      "1",
      "",
      "",
      "",
      ""
    ]
  },
  {
    "name": "MGB_CONST_VALUE_STAR_WEIGHT_NOTE_DENSITY",
    "value": [
      "12000",
      "1",
      "",
      "",
      "",
      ""
    ]
  },
  {
    "name": "MGB_CONST_VALUE_STAR_WEIGHT_SONG_TIME",
    "value": [
      "0",
      "1",
      "",
      "",
      "",
      ""
    ]
  },
  {
    "name": "MGB_CONST_VALUE_STAR_WEIGHT_NOTE_AVG_SPAN",
    "value": [
      "180",
      "1",
      "",
      "",
      "",
      ""
    ]
  },
  {
    "name": "MGB_CONST_VALUE_STAR_SCORE_RANGE_1",
    "value": [
      "0",
      "179906",
      "",
      "",
      "",
      ""
    ]
  },
  {
    "name": "MGB_CONST_VALUE_STAR_SCORE_RANGE_2",
    "value": [
      "179906",
      "251040",
      "",
      "",
      "",
      ""
    ]
  },
  {
    "name": "MGB_CONST_VALUE_STAR_SCORE_RANGE_3",
    "value": [
      "251040",
      "314533",
      "",
      "",
      "",
      ""
    ]
  },
  {
    "name": "MGB_CONST_VALUE_STAR_SCORE_RANGE_4",
    "value": [
      "314533",
      "505157",
      "",
      "",
      "",
      ""
    ]
  },
  {
    "name": "MGB_CONST_VALUE_STAR_SCORE_RANGE_5",
    "value": [
      "505157",
      "736026",
      "",
      "",
      "",
      ""
    ]
  },
  {
    "name": "MGB_CONST_VALUE_STAR_SCORE_RANGE_6",
    "value": [
      "736026",
      "1090092",
      "",
      "",
      "",
      ""
    ]
  },
  {
    "name": "MGB_CONST_VALUE_STAR_SCORE_RANGE_7",
    "value": [
      "1090092",
      "1743317",
      "",
      "",
      "",
      ""
    ]
  },
  {
    "name": "MGB_CONST_VALUE_STAR_SCORE_RANGE_8",
    "value": [
      "1743317",
      "3486634",
      "",
      "",
      "",
      ""
    ]
  },
  {
    "name": "MGB_CONST_VALUE_STAR_SCORE_RANGE_9",
    "value": [
      "3486634",
      "6973268",
      "",
      "",
      "",
      ""
    ]
  },
  {
    "name": "MGB_CONST_VALUE_STAR_SCORE_RANGE_10",
    "value": [
      "6973268",
      "12197030",
      "",
      "",
      "",
      ""
    ]
  },
  {
    "name": "MGB_CONST_VALUE_STAR_WEIGHT_DIFFICULTY",
    "value": [
      "1",
      "1",
      "1",
      "1",
      "",
      ""
    ]
  },
  {
    "name": "MGB_CONST_VALUE_TOTAL_STAR",
    "value": [
      "10",
      "",
      "",
      "",
      "",
      ""
    ]
  },
  {
    "name": "MGB_CONST_VALUE_UGC_RECORD_COUNT_LIMIT",
    "value": [
      "100",
      "",
      "",
      "",
      "",
      ""
    ]
  },
  {
    "name": "MGB_CONST_VALUE_UGC_BEATMAP_LABEL_MAX_NUM",
    "value": [
      "3",
      "",
      "",
      "",
      "",
      ""
    ]
  },
  {
    "name": "MGB_CONST_VALUE_UGC_RATING_SHOW_TIME",
    "value": [
      "5",
      "",
      "",
      "",
      "",
      ""
    ]
  },
  {
    "name": "MGB_CONST_VALUE_UGC_RECOMMEND_DEFAULT_SONG_COUNT",
    "value": [
      "8",
      "",
      "",
      "",
      "",
      ""
    ]
  },
  {
    "name": "MGB_CONST_VALUE_UGC_RECOMMEND_PARAM",
    "value": [
      "1400;200",
      "800;2000",
      "1000;500;-1000;1000",
      "800;1000",
      "1200",
      ""
    ]
  },
  {
    "name": "MGB_CONST_VALUE_UGC_RECOMMEND_FILT_BEATMAP_COUNT",
    "value": [
      "8",
      "3",
      "4",
      "100",
      "",
      ""
    ]
  },
  {
    "name": "MGB_CONST_VALUE_UGC_REPORT_CONFIG",
    "value": [
      "250",
      "5",
      "300",
      "5",
      "300",
      ""
    ]
  },
  {
    "name": "MGB_CONST_VALUE_UGC_SAVE_NUM",
    "value": [
      "100",
      "",
      "",
      "",
      "",
      ""
    ]
  },
  {
    "name": "MGB_CONST_VALUE_UGC_AUTO_SAVE_TIME",
    "value": [
      "60",
      "",
      "",
      "",
      "",
      ""
    ]
  },
  {
    "name": "MGB_CONST_VALUE_SBS_URL",
    "value": [
      "https://act.miyoushe.com/ys/event/ugc-music-stable/index.html?game_biz=hk4e_cn&sign_type=2&auth_appid=musicugc&authkey_ver=1&mhy_presentation_style=fullscreen&utm_source=game&utm_medium=ys&utm_campaign=ugclobby",
      "",
      "",
      "",
      "",
      ""
    ]
  },
  {
    "name": "MGB_CONST_VALUE_SBS_URL_OVERSEA",
    "value": [
      "https://act.hoyoverse.com/ys/event/ugc-music-stable/index.html?game_biz=hk4e_global&sign_type=2&auth_appid=musicugc&authkey_ver=1&utm_source=ingame&utm_medium=genshin&utm_campaign=bbs",
      "",
      "",
      "",
      "",
      ""
    ]
  },
  {
    "name": "MGB_CONST_VALUE_SBS_URL_COMMENT",
    "value": [
      "https://act.miyoushe.com/ys/event/ugc-music-stable/index.html?game_biz=hk4e_cn&sign_type=2&auth_appid=musicugc&authkey_ver=1&mhy_presentation_style=fullscreen&utm_source=game&utm_medium=ys&utm_campaign=detail&guid=",
      "",
      "",
      "",
      "",
      ""
    ]
  },
  {
    "name": "MGB_CONST_VALUE_SBS_URL_OVERSEA_COMMENT",
    "value": [
      "https://act.hoyoverse.com/ys/event/ugc-music-stable/index.html?game_biz=hk4e_global&sign_type=2&auth_appid=musicugc&authkey_ver=1&utm_source=ingame&utm_medium=genshin&utm_campaign=detail&guid=",
      "",
      "",
      "",
      "",
      ""
    ]
  }
]