[
  {
    "id": 1,
    "EEIDOMLOJFN": 1,
    "descriptionTextMapHash": 2465783026,
    "HONHEDFHFAO": "Play_ui_activity_MusicGameTrialPage_MusicalRow_Harp",
    "GBBNDGJLNKH": "InstrumentTry_01_ShuQin",
    "EHKBGLPKPEI": 64,
    "FJIHLOHMHHD": 2078410617,
    "HENIFCLAJAJ": true
  },
  {
    "id": 2,
    "EEIDOMLOJFN": 2,
    "descriptionTextMapHash": 3977611818,
    "HONHEDFHFAO": "Play_ui_activity_MusicGameTrialPage_MusicalRow_Shamisen",
    "GBBNDGJLNKH": "InstrumentTry_02_LiyueQin",
    "EHKBGLPKPEI": 434,
    "FJIHLOHMHHD": 2951078577,
    "HENIFCLAJAJ": true
  },
  {
    "id": 3,
    "EEIDOMLOJFN": 4,
    "descriptionTextMapHash": 1115160050,
    "HONHEDFHFAO": "Play_ui_activity_MusicGameTrialPage_MusicalRow_Kanun",
    "GBBNDGJLNKH": "InstrumentTry_04_XumiQin",
    "FJIHLOHMHHD": 4136025113,
    "HENIFCLAJAJ": true
  },
  {
    "id": 4,
    "EEIDOMLOJFN": 5,
    "descriptionTextMapHash": 2668215674,
    "HONHEDFHFAO": "Play_ui_activity_MusicGameTrialPage_MusicalRow_Drum",
    "GBBNDGJLNKH": "InstrumentTry_03_DaoQiGu",
    "EHKBGLPKPEI": 374,
    "FJIHLOHMHHD": 668160089,
    "HENIFCLAJAJ": true
  },
  {
    "id": 5,
    "EEIDOMLOJFN": 6,
    "descriptionTextMapHash": 1202542682,
    "pushTipsId": 7012,
    "HONHEDFHFAO": "Play_ui_activity_MusicGameTrialPage_MusicalRow_Horn",
    "GBBNDGJLNKH": "InstrumentTry_05_FengdanYuanHao",
    "EHKBGLPKPEI": 1039,
    "FJIHLOHMHHD": 281752961,
    "HENIFCLAJAJ": true
  },
  {
    "id": 6,
    "EEIDOMLOJFN": 7,
    "descriptionTextMapHash": 2628674346,
    "HONHEDFHFAO": "Play_ui_activity_MusicGameTrialPage_MusicalRow_Conjo",
    "GBBNDGJLNKH": "InstrumentTry_06_NataDjembe",
    "EHKBGLPKPEI": 1511,
    "FJIHLOHMHHD": 3205225897
  },
  {
    "id": 7,
    "EEIDOMLOJFN": 8,
    "descriptionTextMapHash": 1020761306,
    "pushTipsId": 7014,
    "HONHEDFHFAO": "Play_ui_activity_MusicGameTrialPage_MusicalRow_Strum",
    "GBBNDGJLNKH": "InstrumentTry_07_NataUkelele",
    "EHKBGLPKPEI": 1511,
    "FJIHLOHMHHD": 2422884625
  }
]