[
  {
    "id": 1,
    "PIOMEENCEEF": 3000426721
  },
  {
    "id": 2,
    "PIOMEENCEEF": 2743429409
  },
  {
    "id": 3,
    "PIOMEENCEEF": 3762441817
  },
  {
    "id": 4,
    "PIOMEENCEEF": 2266164889
  },
  {
    "id": 5,
    "PIOMEENCEEF": 3058370529
  }
]