[
  {
    "levelId": 1,
    "groupLinkId": 20250101,
    "JHFHJEAFGPN": 12025201,
    "HDPJMKOOFDL": 962622863886661938,
    "ABIKLBPMBMF": 10729482978251076749,
    "MGHAHLOEGPF": [
      2266,
      266,
      -760,
      10,
      71,
      0
    ],
    "BOEACGFCJDJ": [
      {
        "KHPGAKIJNIC": [
          0,
          85,
          0
        ],
        "pic": "UI_Img_PoetryFestival_Photo_1_02",
        "FDBJAGJMNFA": [
          -0.15,
          0.14
        ]
      },
      {
        "KHPGAKIJNIC": [
          -12,
          33,
          0
        ],
        "pic": "UI_Img_PoetryFestival_Photo_1_03",
        "FDBJAGJMNFA": [
          0.5,
          -0.15
        ]
      },
      {
        "KHPGAKIJNIC": [],
        "pic": "",
        "FDBJAGJMNFA": []
      }
    ],
    "groupId": 133004140,
    "LNKNCKBFEAG": 2,
    "KFLPOFNDFJL": 2,
    "OMCCEMBHPEG": [
      60,
      60
    ],
    "PKKKOBLPGPO": [
      40,
      40
    ],
    "ECGBBPBACGE": 100
  },
  {
    "levelId": 2,
    "groupLinkId": 20250102,
    "JHFHJEAFGPN": 12025202,
    "HDPJMKOOFDL": 16254829937680816049,
    "ABIKLBPMBMF": 2648205401693089193,
    "MGHAHLOEGPF": [
      1840,
      244,
      -469,
      13,
      -13,
      0
    ],
    "BOEACGFCJDJ": [
      {
        "KHPGAKIJNIC": [
          5,
          -38,
          0
        ],
        "pic": "UI_Img_PoetryFestival_Photo_2_02",
        "FDBJAGJMNFA": [
          -0.32,
          -0.1
        ]
      },
      {
        "KHPGAKIJNIC": [
          4,
          -17,
          0
        ],
        "pic": "UI_Img_PoetryFestival_Photo_2_03",
        "FDBJAGJMNFA": [
          0.32,
          0.2
        ]
      },
      {
        "KHPGAKIJNIC": [],
        "pic": "",
        "FDBJAGJMNFA": []
      }
    ],
    "groupId": 133002137,
    "LNKNCKBFEAG": 2,
    "KFLPOFNDFJL": 1,
    "OMCCEMBHPEG": [
      60,
      60
    ],
    "PKKKOBLPGPO": [
      40,
      40
    ],
    "ECGBBPBACGE": 100
  },
  {
    "levelId": 3,
    "groupLinkId": 20250103,
    "JHFHJEAFGPN": 12025203,
    "HDPJMKOOFDL": 14661717178559195428,
    "ABIKLBPMBMF": 11806804449186811185,
    "MGHAHLOEGPF": [
      2969,
      239,
      202,
      0,
      -90,
      0
    ],
    "BOEACGFCJDJ": [
      {
        "KHPGAKIJNIC": [
          -1,
          -125,
          0
        ],
        "pic": "UI_Img_PoetryFestival_Photo_3_02",
        "FDBJAGJMNFA": [
          -0.5,
          -0.3
        ]
      },
      {
        "KHPGAKIJNIC": [
          -3,
          -102,
          0
        ],
        "pic": "UI_Img_PoetryFestival_Photo_3_03",
        "FDBJAGJMNFA": [
          0,
          0.3
        ]
      },
      {
        "KHPGAKIJNIC": [
          -2,
          -75,
          0
        ],
        "pic": "UI_Img_PoetryFestival_Photo_3_04",
        "FDBJAGJMNFA": [
          0.7,
          -0.2
        ]
      }
    ],
    "groupId": 133007081,
    "LNKNCKBFEAG": 2,
    "KFLPOFNDFJL": 3,
    "OMCCEMBHPEG": [
      70,
      70
    ],
    "PKKKOBLPGPO": [
      40,
      40
    ],
    "ECGBBPBACGE": 100
  },
  {
    "levelId": 4,
    "groupLinkId": 20250104,
    "JHFHJEAFGPN": 12025204,
    "HDPJMKOOFDL": 7045880477944239623,
    "ABIKLBPMBMF": 2380753904749288403,
    "MGHAHLOEGPF": [
      99,
      211,
      731,
      -9,
      -67,
      0
    ],
    "BOEACGFCJDJ": [
      {
        "KHPGAKIJNIC": [
          -17,
          -71,
          0
        ],
        "pic": "UI_Img_PoetryFestival_Photo_4_02",
        "FDBJAGJMNFA": [
          -0.45,
          0.1
        ]
      },
      {
        "KHPGAKIJNIC": [
          -12,
          -66,
          0
        ],
        "pic": "UI_Img_PoetryFestival_Photo_4_03",
        "FDBJAGJMNFA": [
          0,
          -0.15
        ]
      },
      {
        "KHPGAKIJNIC": [
          -17,
          -60,
          0
        ],
        "pic": "UI_Img_PoetryFestival_Photo_4_04",
        "FDBJAGJMNFA": [
          0.45,
          0
        ]
      }
    ],
    "groupId": 133104821,
    "LNKNCKBFEAG": 1,
    "KFLPOFNDFJL": 3,
    "OMCCEMBHPEG": [
      50,
      50
    ],
    "PKKKOBLPGPO": [
      40,
      40
    ],
    "ECGBBPBACGE": 100
  },
  {
    "levelId": 5,
    "groupLinkId": 20250105,
    "JHFHJEAFGPN": 12025205,
    "HDPJMKOOFDL": 2474099028704631265,
    "ABIKLBPMBMF": 15080455587629030929,
    "MGHAHLOEGPF": [
      22,
      256,
      443,
      12,
      48,
      0
    ],
    "BOEACGFCJDJ": [
      {
        "KHPGAKIJNIC": [
          14,
          37,
          0
        ],
        "pic": "UI_Img_PoetryFestival_Photo_5_02",
        "FDBJAGJMNFA": [
          -0.5,
          0
        ]
      },
      {
        "KHPGAKIJNIC": [
          17,
          46,
          0
        ],
        "pic": "UI_Img_PoetryFestival_Photo_5_03",
        "FDBJAGJMNFA": [
          -0.05,
          -0.4
        ]
      },
      {
        "KHPGAKIJNIC": [
          16,
          59,
          0
        ],
        "pic": "UI_Img_PoetryFestival_Photo_5_04",
        "FDBJAGJMNFA": [
          0.6,
          0.2
        ]
      }
    ],
    "groupId": 133104699,
    "LNKNCKBFEAG": 1,
    "KFLPOFNDFJL": 1,
    "OMCCEMBHPEG": [
      60,
      60
    ],
    "PKKKOBLPGPO": [
      40,
      40
    ],
    "ECGBBPBACGE": 100
  },
  {
    "levelId": 6,
    "groupLinkId": 20250106,
    "JHFHJEAFGPN": 12025206,
    "HDPJMKOOFDL": 5350546501993788615,
    "ABIKLBPMBMF": 15302995649975660753,
    "MGHAHLOEGPF": [
      8,
      222,
      1246,
      6,
      55,
      0
    ],
    "BOEACGFCJDJ": [
      {
        "KHPGAKIJNIC": [
          2,
          18,
          0
        ],
        "pic": "UI_Img_PoetryFestival_Photo_6_02",
        "FDBJAGJMNFA": [
          -0.5,
          -0.2
        ]
      },
      {
        "KHPGAKIJNIC": [
          7,
          38,
          0
        ],
        "pic": "UI_Img_PoetryFestival_Photo_6_03",
        "FDBJAGJMNFA": [
          0,
          0.2
        ]
      },
      {
        "KHPGAKIJNIC": [
          4,
          47,
          0
        ],
        "pic": "UI_Img_PoetryFestival_Photo_6_04",
        "FDBJAGJMNFA": [
          0.6,
          -0.25
        ]
      }
    ],
    "groupId": 133106296,
    "LNKNCKBFEAG": 1,
    "KFLPOFNDFJL": 2,
    "OMCCEMBHPEG": [
      70,
      50
    ],
    "PKKKOBLPGPO": [
      40,
      40
    ],
    "ECGBBPBACGE": 100
  },
  {
    "levelId": 7,
    "groupLinkId": 20250107,
    "JHFHJEAFGPN": 12025207,
    "HDPJMKOOFDL": 11564159618974028656,
    "ABIKLBPMBMF": 540148245403741673,
    "MGHAHLOEGPF": [
      1658,
      212,
      209,
      0,
      184,
      0
    ],
    "BOEACGFCJDJ": [
      {
        "KHPGAKIJNIC": [
          -7,
          174,
          0
        ],
        "pic": "UI_Img_PoetryFestival_Photo_7_02",
        "FDBJAGJMNFA": [
          -0.6,
          0
        ]
      },
      {
        "KHPGAKIJNIC": [
          -7,
          170,
          0
        ],
        "pic": "UI_Img_PoetryFestival_Photo_7_03",
        "FDBJAGJMNFA": [
          0,
          -0.2
        ]
      },
      {
        "KHPGAKIJNIC": [
          -7,
          195,
          0
        ],
        "pic": "UI_Img_PoetryFestival_Photo_7_04",
        "FDBJAGJMNFA": [
          0.6,
          0.3
        ]
      }
    ],
    "groupId": 133102259,
    "LNKNCKBFEAG": 3,
    "KFLPOFNDFJL": 1,
    "OMCCEMBHPEG": [
      50,
      60
    ],
    "PKKKOBLPGPO": [
      40,
      40
    ],
    "ECGBBPBACGE": 100
  },
  {
    "levelId": 8,
    "groupLinkId": 20250108,
    "JHFHJEAFGPN": 12025208,
    "HDPJMKOOFDL": 15062965528879639818,
    "ABIKLBPMBMF": 12183278212900236458,
    "MGHAHLOEGPF": [
      -605,
      193,
      1167,
      2,
      106,
      0
    ],
    "BOEACGFCJDJ": [
      {
        "KHPGAKIJNIC": [
          -8,
          98,
          0
        ],
        "pic": "UI_Img_PoetryFestival_Photo_8_02",
        "FDBJAGJMNFA": [
          -0.65,
          -0.2
        ]
      },
      {
        "KHPGAKIJNIC": [
          -5,
          107,
          0
        ],
        "pic": "UI_Img_PoetryFestival_Photo_8_03",
        "FDBJAGJMNFA": [
          0,
          0
        ]
      },
      {
        "KHPGAKIJNIC": [
          -4,
          121,
          0
        ],
        "pic": "UI_Img_PoetryFestival_Photo_8_04",
        "FDBJAGJMNFA": [
          0.5,
          -0.1
        ]
      }
    ],
    "groupId": 133106324,
    "LNKNCKBFEAG": 3,
    "KFLPOFNDFJL": 3,
    "OMCCEMBHPEG": [
      50,
      50
    ],
    "PKKKOBLPGPO": [
      40,
      40
    ],
    "ECGBBPBACGE": 100
  },
  {
    "levelId": 9,
    "groupLinkId": 20250109,
    "JHFHJEAFGPN": 12025209,
    "HDPJMKOOFDL": 12906607257498562596,
    "ABIKLBPMBMF": 16257803100722214992,
    "MGHAHLOEGPF": [
      345,
      225,
      284,
      0,
      138,
      0
    ],
    "BOEACGFCJDJ": [
      {
        "KHPGAKIJNIC": [
          -8,
          98,
          0
        ],
        "pic": "UI_Img_PoetryFestival_Photo_9_02",
        "FDBJAGJMNFA": [
          -0.5,
          -0.2
        ]
      },
      {
        "KHPGAKIJNIC": [
          -5,
          149,
          0
        ],
        "pic": "UI_Img_PoetryFestival_Photo_9_03",
        "FDBJAGJMNFA": [
          0,
          0
        ]
      },
      {
        "KHPGAKIJNIC": [
          -9,
          172,
          0
        ],
        "pic": "UI_Img_PoetryFestival_Photo_9_04",
        "FDBJAGJMNFA": [
          0.6,
          0
        ]
      }
    ],
    "groupId": 133104659,
    "LNKNCKBFEAG": 3,
    "KFLPOFNDFJL": 2,
    "OMCCEMBHPEG": [
      70,
      60
    ],
    "PKKKOBLPGPO": [
      40,
      40
    ],
    "ECGBBPBACGE": 100
  },
  {
    "levelId": 10,
    "groupLinkId": 20250110,
    "JHFHJEAFGPN": 12025210,
    "HDPJMKOOFDL": 9170270599627444899,
    "ABIKLBPMBMF": 12675574687425980881,
    "MGHAHLOEGPF": [
      2563,
      264,
      -462,
      11,
      -136,
      0
    ],
    "BOEACGFCJDJ": [
      {
        "KHPGAKIJNIC": [
          1,
          200,
          0
        ],
        "pic": "UI_Img_PoetryFestival_Photo_10_02",
        "FDBJAGJMNFA": [
          -0.5,
          0.1
        ]
      },
      {
        "KHPGAKIJNIC": [
          1,
          -134,
          0
        ],
        "pic": "UI_Img_PoetryFestival_Photo_10_03",
        "FDBJAGJMNFA": [
          0,
          0.1
        ]
      },
      {
        "KHPGAKIJNIC": [
          1,
          -123,
          0
        ],
        "pic": "UI_Img_PoetryFestival_Photo_10_04",
        "FDBJAGJMNFA": [
          0.6,
          0.2
        ]
      }
    ],
    "groupId": 133004145,
    "LNKNCKBFEAG": 2,
    "KFLPOFNDFJL": 3,
    "OMCCEMBHPEG": [
      60,
      50
    ],
    "PKKKOBLPGPO": [
      40,
      40
    ],
    "ECGBBPBACGE": 100
  },
  {
    "levelId": 11,
    "groupLinkId": 20250111,
    "JHFHJEAFGPN": 12025211,
    "HDPJMKOOFDL": 17087941463980517200,
    "ABIKLBPMBMF": 5615462221553163863,
    "MGHAHLOEGPF": [
      -250,
      267,
      292,
      4,
      -79,
      0
    ],
    "BOEACGFCJDJ": [
      {
        "KHPGAKIJNIC": [
          2,
          -98,
          0
        ],
        "pic": "UI_Img_PoetryFestival_Photo_11_02",
        "FDBJAGJMNFA": [
          -0.6,
          -0.4
        ]
      },
      {
        "KHPGAKIJNIC": [
          10,
          -78,
          0
        ],
        "pic": "UI_Img_PoetryFestival_Photo_11_03",
        "FDBJAGJMNFA": [
          0,
          0.1
        ]
      },
      {
        "KHPGAKIJNIC": [
          12,
          -84,
          0
        ],
        "pic": "UI_Img_PoetryFestival_Photo_11_04",
        "FDBJAGJMNFA": [
          0.6,
          -0.3
        ]
      }
    ],
    "groupId": 133107179,
    "LNKNCKBFEAG": 1,
    "KFLPOFNDFJL": 2,
    "OMCCEMBHPEG": [
      50,
      50
    ],
    "PKKKOBLPGPO": [
      40,
      40
    ],
    "ECGBBPBACGE": 100
  },
  {
    "levelId": 12,
    "groupLinkId": 20250112,
    "JHFHJEAFGPN": 12025212,
    "HDPJMKOOFDL": 3767772426856411206,
    "ABIKLBPMBMF": 17515514299223680916,
    "MGHAHLOEGPF": [
      2191,
      275,
      -1677,
      10,
      -80,
      0
    ],
    "BOEACGFCJDJ": [
      {
        "KHPGAKIJNIC": [
          7,
          204,
          0
        ],
        "pic": "UI_Img_PoetryFestival_Photo_12_02",
        "FDBJAGJMNFA": [
          -0.45,
          -0.1
        ]
      },
      {
        "KHPGAKIJNIC": [
          11,
          -36,
          0
        ],
        "pic": "UI_Img_PoetryFestival_Photo_12_03",
        "FDBJAGJMNFA": [
          0,
          0.2
        ]
      },
      {
        "KHPGAKIJNIC": [
          0,
          9,
          0
        ],
        "pic": "UI_Img_PoetryFestival_Photo_12_04",
        "FDBJAGJMNFA": [
          0.5,
          -0.2
        ]
      }
    ],
    "groupId": 133003072,
    "LNKNCKBFEAG": 3,
    "KFLPOFNDFJL": 1,
    "OMCCEMBHPEG": [
      100,
      120
    ],
    "PKKKOBLPGPO": [
      40,
      40
    ],
    "ECGBBPBACGE": 100
  }
]