[
  {
    "id": 2023,
    "CGCECJNKNAC": 220082,
    "KFELLJMNFHC": 220083,
    "CDGDIJNBLKL": 1008,
    "BJCAPBCMHHL": "",
    "MBGBCCMJPGK": 100,
    "ADJLMAJKJLI": 160,
    "PDBOLNFOPBE": 50,
    "JCJCJPLLFOM": [
      1,
      4,
      6,
      8
    ],
    "EMFPCIAAEGH": 73527,
    "costumeId": 201501,
    "GBOHCOIAJBP": 101,
    "HEIDMCDFHJK": 73528,
    "BGICJHAIGFB": 73526,
    "JLIMCBMCLGL": 73529,
    "NCIPLGIBFBL": 2.5,
    "HHGMKMAPBJD": [
      12023001,
      12023002,
      12023003,
      12023004,
      12023005
    ]
  }
]