[
  {
    "stageId": 1,
    "galleryId": 61001,
    "titleTextMapHash": 1354703644,
    "pushTipsID": 13163,
    "imageNameHash": 15401254541601524831,
    "MELLGFJKMBK": [
      1,
      2,
      7
    ],
    "ANDANFIIHCC": [
      12025301,
      12025302,
      12025303
    ],
    "draftId": 12001,
    "matchID": 100901,
    "openDay": 1,
    "AOMMKLADAKE": 14
  },
  {
    "stageId": 2,
    "galleryId": 61002,
    "titleTextMapHash": 1685910852,
    "pushTipsID": 13164,
    "imageNameHash": 14113670859143470689,
    "MELLGFJKMBK": [
      1,
      3,
      4,
      7,
      8
    ],
    "ANDANFIIHCC": [
      12025304,
      12025305,
      12025306
    ],
    "draftId": 12002,
    "matchID": 100902,
    "openDay": 3,
    "AOMMKLADAKE": 14
  },
  {
    "stageId": 3,
    "galleryId": 61003,
    "titleTextMapHash": 427558684,
    "pushTipsID": 13165,
    "imageNameHash": 2624128299173404923,
    "MELLGFJKMBK": [
      1,
      2,
      3,
      6,
      7,
      8
    ],
    "ANDANFIIHCC": [
      12025307,
      12025308,
      12025309
    ],
    "draftId": 12003,
    "matchID": 100903,
    "openDay": 5,
    "AOMMKLADAKE": 14
  },
  {
    "stageId": 4,
    "galleryId": 61004,
    "titleTextMapHash": 2363059700,
    "pushTipsID": 13166,
    "imageNameHash": 323054802914553832,
    "MELLGFJKMBK": [
      1,
      2,
      3,
      4,
      5,
      6,
      7
    ],
    "ANDANFIIHCC": [
      12025310,
      12025311,
      12025312
    ],
    "draftId": 12004,
    "matchID": 100904,
    "openDay": 7,
    "AOMMKLADAKE": 14
  },
  {
    "stageId": 5,
    "galleryId": 61005,
    "titleTextMapHash": 2554423652,
    "pushTipsID": 13167,
    "imageNameHash": 5043652256522962526,
    "MELLGFJKMBK": [
      1,
      2,
      3,
      4,
      5,
      6,
      7,
      8
    ],
    "ANDANFIIHCC": [
      12025313,
      12025314,
      12025315
    ],
    "draftId": 12005,
    "matchID": 100905,
    "openDay": 7,
    "AOMMKLADAKE": 14
  }
]