[
  {
    "productId": "ys_chn_primogem1ststall_tier1",
    "configId": 1,
    "isInternal": true,
    "entitlementId": "",
    "catalogItemId": ""
  },
  {
    "productId": "ys_chn_primogem2ndstall_tier5",
    "configId": 2,
    "isInternal": true,
    "entitlementId": "",
    "catalogItemId": ""
  },
  {
    "productId": "ys_chn_primogem3rdstall_tier15",
    "configId": 3,
    "isInternal": true,
    "entitlementId": "",
    "catalogItemId": ""
  },
  {
    "productId": "ys_chn_primogem4thstall_tier30",
    "configId": 4,
    "isInternal": true,
    "entitlementId": "",
    "catalogItemId": ""
  },
  {
    "productId": "ys_chn_primogem5thstall_tier50",
    "configId": 5,
    "isInternal": true,
    "entitlementId": "",
    "catalogItemId": ""
  },
  {
    "productId": "ys_chn_primogem6thstall_tier60",
    "configId": 6,
    "isInternal": true,
    "entitlementId": "",
    "catalogItemId": ""
  },
  {
    "productId": "ys_chn_blessofmoon_tier5",
    "configId": 101,
    "isInternal": true,
    "entitlementId": "",
    "catalogItemId": ""
  },
  {
    "productId": "ys_chn_bp_normal_tier10",
    "configId": 201,
    "isInternal": true,
    "entitlementId": "",
    "catalogItemId": ""
  },
  {
    "productId": "ys_chn_bp_extra_tier20",
    "configId": 202,
    "isInternal": true,
    "entitlementId": "",
    "catalogItemId": ""
  },
  {
    "productId": "ys_chn_bp_upgrade_tier12",
    "configId": 203,
    "isInternal": true,
    "entitlementId": "",
    "catalogItemId": ""
  },
  {
    "productId": "ys_glb_primogem1ststall_tier1",
    "configId": 1,
    "entitlementId": "",
    "catalogItemId": ""
  },
  {
    "productId": "ys_glb_primogem2ndstall_tier5",
    "configId": 2,
    "entitlementId": "",
    "catalogItemId": ""
  },
  {
    "productId": "ys_glb_primogem3rdstall_tier15",
    "configId": 3,
    "entitlementId": "",
    "catalogItemId": ""
  },
  {
    "productId": "ys_glb_primogem4thstall_tier30",
    "configId": 4,
    "entitlementId": "",
    "catalogItemId": ""
  },
  {
    "productId": "ys_glb_primogem5thstall_tier50",
    "configId": 5,
    "entitlementId": "",
    "catalogItemId": ""
  },
  {
    "productId": "ys_glb_primogem6thstall_tier60",
    "configId": 6,
    "entitlementId": "",
    "catalogItemId": ""
  },
  {
    "productId": "ys_glb_blessofmoon_tier5",
    "configId": 101,
    "entitlementId": "",
    "catalogItemId": ""
  },
  {
    "productId": "ys_glb_bp_normal_tier10",
    "configId": 201,
    "entitlementId": "",
    "catalogItemId": ""
  },
  {
    "productId": "ys_glb_bp_extra_tier20",
    "configId": 202,
    "entitlementId": "",
    "catalogItemId": ""
  },
  {
    "productId": "ys_glb_bp_upgrade_tier12",
    "configId": 203,
    "entitlementId": "",
    "catalogItemId": ""
  },
  {
    "productId": "YSPS4VC1STTIER01",
    "configId": 1,
    "entitlementId": "VCX1ST",
    "catalogItemId": ""
  },
  {
    "productId": "YSPS4VC2NDTIER05",
    "configId": 2,
    "entitlementId": "VCX2ND",
    "catalogItemId": ""
  },
  {
    "productId": "YSPS4VC3RDTIER15",
    "configId": 3,
    "entitlementId": "VCX3RD",
    "catalogItemId": ""
  },
  {
    "productId": "YSPS4VC4THTIER30",
    "configId": 4,
    "entitlementId": "VCX4TH",
    "catalogItemId": ""
  },
  {
    "productId": "YSPS4VC5THTIER50",
    "configId": 5,
    "entitlementId": "VCX5TH",
    "catalogItemId": ""
  },
  {
    "productId": "YSPS4VC6THTIER60",
    "configId": 6,
    "entitlementId": "VCX6TH",
    "catalogItemId": ""
  },
  {
    "productId": "YSPS4BLESSTIER05",
    "configId": 101,
    "entitlementId": "BLESS1",
    "catalogItemId": ""
  },
  {
    "productId": "YSPS4BP003TIER10",
    "configId": 201,
    "entitlementId": "BP0003",
    "catalogItemId": ""
  },
  {
    "productId": "YSPS4BP004TIER20",
    "configId": 202,
    "entitlementId": "BP0004",
    "catalogItemId": ""
  },
  {
    "productId": "YSPS4UP003TIER12",
    "configId": 203,
    "entitlementId": "UP0003",
    "catalogItemId": ""
  },
  {
    "productId": "YSPS4PREORDER001",
    "configId": 301,
    "entitlementId": "PRE001",
    "catalogItemId": ""
  },
  {
    "productId": "YSPS4ADVENTURER0",
    "configId": 302,
    "entitlementId": "ADVENT",
    "catalogItemId": ""
  },
  {
    "productId": "YSPS4FURNITURE01",
    "configId": 303,
    "entitlementId": "FURN01",
    "catalogItemId": ""
  },
  {
    "productId": "YSPS4FURNITURE02",
    "configId": 304,
    "entitlementId": "FURN02",
    "catalogItemId": ""
  },
  {
    "productId": "YSPS4FURNITURE03",
    "configId": 305,
    "entitlementId": "FURN03",
    "catalogItemId": ""
  },
  {
    "productId": "YSPS4GIFTBUNDLE1",
    "configId": 306,
    "entitlementId": "GIFT01",
    "catalogItemId": ""
  },
  {
    "productId": "ys_glb_surprisebundle1_googlegiftcard",
    "configId": 401,
    "entitlementId": "",
    "catalogItemId": ""
  },
  {
    "productId": "ys_glb_surprisebundle2_googlegiftcard",
    "configId": 402,
    "entitlementId": "",
    "catalogItemId": ""
  },
  {
    "productId": "ys_glb_surprisebundle3_googlegiftcard",
    "configId": 403,
    "entitlementId": "",
    "catalogItemId": ""
  },
  {
    "productId": "ys_glb_surprisebundle4_googlegiftcard",
    "configId": 404,
    "entitlementId": "",
    "catalogItemId": ""
  },
  {
    "productId": "ys_glb_surprisebundle5_googlegiftcard",
    "configId": 405,
    "entitlementId": "",
    "catalogItemId": ""
  },
  {
    "productId": "ys_glb_surprisebundle6_googlegiftcard",
    "configId": 406,
    "entitlementId": "",
    "catalogItemId": ""
  },
  {
    "productId": "ys_glb_surprisebundle7_googlegiftcard",
    "configId": 407,
    "entitlementId": "",
    "catalogItemId": ""
  },
  {
    "productId": "ys_glb_surprisebundle_2.8_nonjp1_googlegiftcard",
    "configId": 408,
    "entitlementId": "",
    "catalogItemId": ""
  },
  {
    "productId": "ys_glb_surprisebundle_2.8_nonjp2_googlegiftcard",
    "configId": 409,
    "entitlementId": "",
    "catalogItemId": ""
  },
  {
    "productId": "ys_glb_surprisebundle_2.8_nonjp3_googlegiftcard",
    "configId": 410,
    "entitlementId": "",
    "catalogItemId": ""
  },
  {
    "productId": "ys_glb_surprisebundle_2.8_jp1_googlegiftcard",
    "configId": 411,
    "entitlementId": "",
    "catalogItemId": ""
  },
  {
    "productId": "ys_glb_surprisebundle_2.8_jp2_googlegiftcard",
    "configId": 412,
    "entitlementId": "",
    "catalogItemId": ""
  },
  {
    "productId": "ys_glb_surprisebundle_2.8_jp3_googlegiftcard",
    "configId": 413,
    "entitlementId": "",
    "catalogItemId": ""
  },
  {
    "productId": "ysglbsuppliesbundle1googleplaypoints500",
    "configId": 451,
    "entitlementId": "",
    "catalogItemId": ""
  },
  {
    "productId": "ysglbsuppliesbundle2googleplaypoints500",
    "configId": 452,
    "entitlementId": "",
    "catalogItemId": ""
  },
  {
    "productId": "cloudys_chn_primogem1ststall_tier1",
    "configId": 1,
    "isInternal": true,
    "entitlementId": "",
    "catalogItemId": ""
  },
  {
    "productId": "cloudys_chn_primogem2ndstall_tier5",
    "configId": 2,
    "isInternal": true,
    "entitlementId": "",
    "catalogItemId": ""
  },
  {
    "productId": "cloudys_chn_primogem3rdstall_tier15",
    "configId": 3,
    "isInternal": true,
    "entitlementId": "",
    "catalogItemId": ""
  },
  {
    "productId": "cloudys_chn_primogem4thstall_tier30",
    "configId": 4,
    "isInternal": true,
    "entitlementId": "",
    "catalogItemId": ""
  },
  {
    "productId": "cloudys_chn_primogem5thstall_tier50",
    "configId": 5,
    "isInternal": true,
    "entitlementId": "",
    "catalogItemId": ""
  },
  {
    "productId": "cloudys_chn_primogem6thstall_tier60",
    "configId": 6,
    "isInternal": true,
    "entitlementId": "",
    "catalogItemId": ""
  },
  {
    "productId": "cloudys_chn_blessofmoon_tier5",
    "configId": 101,
    "isInternal": true,
    "entitlementId": "",
    "catalogItemId": ""
  },
  {
    "productId": "cloudys_chn_bp_normal_tier10",
    "configId": 201,
    "isInternal": true,
    "entitlementId": "",
    "catalogItemId": ""
  },
  {
    "productId": "cloudys_chn_bp_extra_tier20",
    "configId": 202,
    "isInternal": true,
    "entitlementId": "",
    "catalogItemId": ""
  },
  {
    "productId": "cloudys_chn_bp_upgrade_tier12",
    "configId": 203,
    "isInternal": true,
    "entitlementId": "",
    "catalogItemId": ""
  },
  {
    "productId": "cloudysglbprimogem1ststalltier1",
    "configId": 1,
    "entitlementId": "",
    "catalogItemId": ""
  },
  {
    "productId": "cloudysglbprimogem2ndstalltier5",
    "configId": 2,
    "entitlementId": "",
    "catalogItemId": ""
  },
  {
    "productId": "cloudysglbprimogem3rdstalltier15",
    "configId": 3,
    "entitlementId": "",
    "catalogItemId": ""
  },
  {
    "productId": "cloudysglbprimogem4thstalltier30",
    "configId": 4,
    "entitlementId": "",
    "catalogItemId": ""
  },
  {
    "productId": "cloudysglbprimogem5thstalltier50",
    "configId": 5,
    "entitlementId": "",
    "catalogItemId": ""
  },
  {
    "productId": "cloudysglbprimogem6thstalltier60",
    "configId": 6,
    "entitlementId": "",
    "catalogItemId": ""
  },
  {
    "productId": "cloudysglbblessofmoontier5",
    "configId": 101,
    "entitlementId": "",
    "catalogItemId": ""
  },
  {
    "productId": "cloudysglbbpnormaltier10",
    "configId": 201,
    "entitlementId": "",
    "catalogItemId": ""
  },
  {
    "productId": "cloudysglbbpextratier20",
    "configId": 202,
    "entitlementId": "",
    "catalogItemId": ""
  },
  {
    "productId": "cloudysglbbpupgradetier12",
    "configId": 203,
    "entitlementId": "",
    "catalogItemId": ""
  },
  {
    "productId": "ec7ebdede72341aa8fb822a9e97fc4bf",
    "configId": 1,
    "entitlementId": "",
    "catalogItemId": "fcfeabf9b66b490caaeb758d10722257"
  },
  {
    "productId": "6727bb5a90484542a6f388b092a27033",
    "configId": 2,
    "entitlementId": "",
    "catalogItemId": "e2930b29d0344bb3ad2bf0a37d4d8edd"
  },
  {
    "productId": "c08908aec82b45acba4e0de6687b37b2",
    "configId": 3,
    "entitlementId": "",
    "catalogItemId": "83e36e913ce1426d974d9dd741622f9e"
  },
  {
    "productId": "8d4c99afd9b04eb08e7a29cd285ef6ed",
    "configId": 4,
    "entitlementId": "",
    "catalogItemId": "fc43e917913742559e4e3f94d24a22a2"
  },
  {
    "productId": "4388ab4c203e4021b25ed39ad2e64a30",
    "configId": 5,
    "entitlementId": "",
    "catalogItemId": "c35cde4e44bd4a8a9f8ef35ad17dc93a"
  },
  {
    "productId": "49604ce871b345bdb2d55ac838603757",
    "configId": 6,
    "entitlementId": "",
    "catalogItemId": "9aeb3f2b9c2d4b93953b15995d369bf4"
  },
  {
    "productId": "b0396e65aaca4474a4d378a3b06c79fe",
    "configId": 202,
    "entitlementId": "",
    "catalogItemId": "8baa8c10f4524c30afd290eb65226e35"
  },
  {
    "productId": "3d16c426b6fc4bc1894ffdb7814af421",
    "configId": 201,
    "entitlementId": "",
    "catalogItemId": "036f9732b9f545fb9fe18da345574a0c"
  },
  {
    "productId": "9e764a3406984b9db3c5100a4d5ff683",
    "configId": 101,
    "entitlementId": "",
    "catalogItemId": "2e6996fff8b54fa38d361013d96dfbd7"
  },
  {
    "productId": "60adee55b47f48d29abb8b2f959eb9f9",
    "configId": 203,
    "entitlementId": "",
    "catalogItemId": "2e3e390e85964901b0b244532591db8a"
  },
  {
    "productId": "ys_chn_delightbundle_applegiftcard",
    "configId": 602,
    "isInternal": true,
    "entitlementId": "",
    "catalogItemId": ""
  },
  {
    "productId": "ys_glb_delightbundle_applegiftcard",
    "configId": 602,
    "entitlementId": "",
    "catalogItemId": ""
  },
  {
    "productId": "ys_chn_amazingbundle_applegiftcard",
    "configId": 603,
    "isInternal": true,
    "entitlementId": "",
    "catalogItemId": ""
  },
  {
    "productId": "ys_glb_amazingbundle_applegiftcard",
    "configId": 603,
    "entitlementId": "",
    "catalogItemId": ""
  },
  {
    "productId": "ysglbamazingbundleapplegiftcard480tier10",
    "configId": 604,
    "entitlementId": "",
    "catalogItemId": ""
  },
  {
    "productId": "ysglbamazingbundleapplegiftcard480tier1",
    "configId": 605,
    "entitlementId": "",
    "catalogItemId": ""
  },
  {
    "productId": "YSPS4PSNPLUSTEST",
    "configId": 311,
    "entitlementId": "PSTEST",
    "catalogItemId": ""
  },
  {
    "productId": "YSPS4PSNPLUSPACK",
    "configId": 312,
    "entitlementId": "PSPLUS",
    "catalogItemId": ""
  },
  {
    "productId": "YSPS4PSPLUSPACK1",
    "configId": 313,
    "entitlementId": "PLUS02",
    "catalogItemId": ""
  },
  {
    "productId": "9PP75K93DLPD",
    "configId": 1,
    "entitlementId": "",
    "catalogItemId": ""
  },
  {
    "productId": "9PKT7K5LZBLG",
    "configId": 2,
    "entitlementId": "",
    "catalogItemId": ""
  },
  {
    "productId": "9PH5M5R3GWRB",
    "configId": 3,
    "entitlementId": "",
    "catalogItemId": ""
  },
  {
    "productId": "9NKVFQGS91PT",
    "configId": 4,
    "entitlementId": "",
    "catalogItemId": ""
  },
  {
    "productId": "9MZ5N6PNTKX1",
    "configId": 5,
    "entitlementId": "",
    "catalogItemId": ""
  },
  {
    "productId": "9N58GRSNJJJB",
    "configId": 6,
    "entitlementId": "",
    "catalogItemId": ""
  },
  {
    "productId": "9NXJN7JXV445",
    "configId": 101,
    "entitlementId": "",
    "catalogItemId": ""
  },
  {
    "productId": "9PC95K0N3762",
    "configId": 201,
    "entitlementId": "",
    "catalogItemId": ""
  },
  {
    "productId": "9P1260HTV868",
    "configId": 202,
    "entitlementId": "",
    "catalogItemId": ""
  },
  {
    "productId": "9PJHD0FMPPBW",
    "configId": 203,
    "entitlementId": "",
    "catalogItemId": ""
  },
  {
    "productId": "9PDH4LD00ZLZ",
    "configId": 701,
    "entitlementId": "",
    "catalogItemId": ""
  },
  {
    "productId": "9NQ718Q6ZQ5G",
    "configId": 702,
    "entitlementId": "",
    "catalogItemId": ""
  },
  {
    "productId": "9P2GLCGPQOVZ",
    "configId": 801,
    "entitlementId": "",
    "catalogItemId": ""
  },
  {
    "productId": "9L3YQC0XQ59O",
    "configId": 802,
    "entitlementId": "",
    "catalogItemId": ""
  },
  {
    "productId": "9AE6V910RU3W",
    "configId": 803,
    "entitlementId": "",
    "catalogItemId": ""
  }
]