[
  {
    "id": 400101,
    "ICPPEAGIDBC": 4001,
    "NMPAOINHJHA": [
      10108,
      10109,
      10110
    ],
    "PMMEJGMBOOI": [
      10110
    ],
    "CIOCLANDPIO": "Clues",
    "BCLOPJCFOHK": 400111,
    "GOODHPJHOHM": 400125,
    "ILJLEBDOBPJ": 757928706
  },
  {
    "id": 400201,
    "ICPPEAGIDBC": 4001,
    "NMPAOINHJHA": [
      10111,
      10108,
      10109,
      10110,
      10106,
      10107
    ],
    "PMMEJGMBOOI": [
      10110,
      10111
    ],
    "CIOCLANDPIO": "Clues",
    "BCLOPJCFOHK": 400225,
    "GOODHPJHOHM": 400201,
    "ILJLEBDOBPJ": 2324831842
  },
  {
    "id": 400202,
    "ICPPEAGIDBC": 4001,
    "NMPAOINHJHA": [
      10101,
      10102,
      10103,
      10104,
      10105,
      10112
    ],
    "PMMEJGMBOOI": [
      10105
    ],
    "CIOCLANDPIO": "Evidence",
    "BCLOPJCFOHK": 400226,
    "GOODHPJHOHM": 400202,
    "ILJLEBDOBPJ": 1594143986
  },
  {
    "id": 400601,
    "ICPPEAGIDBC": 4004,
    "NMPAOINHJHA": [
      10108,
      10109,
      10110
    ],
    "PMMEJGMBOOI": [
      10108
    ],
    "CIOCLANDPIO": "Clues",
    "BCLOPJCFOHK": 400658,
    "GOODHPJHOHM": 400657,
    "ILJLEBDOBPJ": 252455418
  },
  {
    "id": 402201,
    "ICPPEAGIDBC": 4021,
    "NMPAOINHJHA": [
      402103,
      402104,
      402108
    ],
    "PMMEJGMBOOI": [
      402104
    ],
    "CIOCLANDPIO": "Evidence",
    "BCLOPJCFOHK": 402211,
    "GOODHPJHOHM": 402212,
    "ILJLEBDOBPJ": 3163521154
  },
  {
    "id": 402202,
    "ICPPEAGIDBC": 4021,
    "NMPAOINHJHA": [
      402102,
      402103,
      402108
    ],
    "PMMEJGMBOOI": [
      402103
    ],
    "CIOCLANDPIO": "Evidence",
    "BCLOPJCFOHK": 402213,
    "GOODHPJHOHM": 402214,
    "ILJLEBDOBPJ": 3743144930
  },
  {
    "id": 402203,
    "ICPPEAGIDBC": 4021,
    "NMPAOINHJHA": [
      402101,
      402102,
      402105,
      402107
    ],
    "PMMEJGMBOOI": [
      402102
    ],
    "CIOCLANDPIO": "Evidence",
    "BCLOPJCFOHK": 402215,
    "GOODHPJHOHM": 402216,
    "ILJLEBDOBPJ": 4106862250
  },
  {
    "id": 7411301,
    "ICPPEAGIDBC": 74113,
    "NMPAOINHJHA": [
      11302,
      11303,
      11304,
      11305,
      11301
    ],
    "PMMEJGMBOOI": [
      11305
    ],
    "CIOCLANDPIO": "Evidence",
    "BCLOPJCFOHK": 7411311,
    "GOODHPJHOHM": 7411326,
    "ILJLEBDOBPJ": 3781045610
  },
  {
    "id": 7411302,
    "ICPPEAGIDBC": 74113,
    "NMPAOINHJHA": [
      11301,
      11302,
      11303,
      11304,
      11305
    ],
    "PMMEJGMBOOI": [
      11301
    ],
    "CIOCLANDPIO": "Evidence",
    "BCLOPJCFOHK": 7411334,
    "GOODHPJHOHM": 7411335,
    "ILJLEBDOBPJ": 1860336514
  },
  {
    "id": 7411501,
    "ICPPEAGIDBC": 74113,
    "NMPAOINHJHA": [
      11321,
      11320,
      11306,
      11303,
      11304,
      11323,
      11325,
      11328
    ],
    "PMMEJGMBOOI": [
      11321
    ],
    "CIOCLANDPIO": "Evidence",
    "BCLOPJCFOHK": 7411510,
    "GOODHPJHOHM": 7411524,
    "ILJLEBDOBPJ": 4089763514
  },
  {
    "id": 7411601,
    "ICPPEAGIDBC": 74113,
    "NMPAOINHJHA": [
      11301,
      11302,
      11305,
      11307,
      11320,
      11322,
      11327,
      11329,
      11324,
      11323
    ],
    "PMMEJGMBOOI": [
      11307,
      11302,
      11322,
      11327
    ],
    "CIOCLANDPIO": "Evidence",
    "BCLOPJCFOHK": 7411605,
    "GOODHPJHOHM": 7411639,
    "ILJLEBDOBPJ": 1094114138
  },
  {
    "id": 7411602,
    "ICPPEAGIDBC": 74113,
    "NMPAOINHJHA": [
      11306,
      11301,
      11302,
      11303,
      11304,
      11305,
      11320,
      11325,
      11324,
      11327,
      11328,
      11329,
      11323,
      11326
    ],
    "PMMEJGMBOOI": [
      11306,
      11325
    ],
    "CIOCLANDPIO": "Evidence",
    "BCLOPJCFOHK": 7411616,
    "GOODHPJHOHM": 7411649,
    "ILJLEBDOBPJ": 3461093178
  }
]