[
  {
    "materialID": 108010,
    "HKLPEFMCPNO": "RARE_TYPE_SPECIAL"
  },
  {
    "materialID": 108014,
    "HKLPEFMCPNO": "RARE_TYPE_SPECIAL"
  },
  {
    "materialID": 108018,
    "HKLPEFMCPNO": "RARE_TYPE_SPECIAL"
  },
  {
    "materialID": 108040,
    "HKLPEFMCPNO": "RARE_TYPE_SPECIAL"
  },
  {
    "materialID": 108044,
    "HKLPEFMCPNO": "RARE_TYPE_SPECIAL"
  },
  {
    "materialID": 108048,
    "HKLPEFMCPNO": "RARE_TYPE_SPECIAL"
  },
  {
    "materialID": 108058,
    "HKLPEFMCPNO": "RARE_TYPE_SPECIAL"
  },
  {
    "materialID": 108114,
    "HKLPEFMCPNO": "RARE_TYPE_SPECIAL"
  },
  {
    "materialID": 108115,
    "HKLPEFMCPNO": "RARE_TYPE_SPECIAL"
  },
  {
    "materialID": 108116,
    "HKLPEFMCPNO": "RARE_TYPE_SPECIAL"
  },
  {
    "materialID": 108117,
    "HKLPEFMCPNO": "RARE_TYPE_SPECIAL"
  },
  {
    "materialID": 108118,
    "HKLPEFMCPNO": "RARE_TYPE_SPECIAL"
  },
  {
    "materialID": 108113,
    "HKLPEFMCPNO": "RARE_TYPE_SPECIAL"
  },
  {
    "materialID": 108134,
    "HKLPEFMCPNO": "RARE_TYPE_SPECIAL"
  },
  {
    "materialID": 108135,
    "HKLPEFMCPNO": "RARE_TYPE_SPECIAL"
  },
  {
    "materialID": 108136,
    "HKLPEFMCPNO": "RARE_TYPE_SPECIAL"
  },
  {
    "materialID": 108137,
    "HKLPEFMCPNO": "RARE_TYPE_SPECIAL"
  },
  {
    "materialID": 108138,
    "HKLPEFMCPNO": "RARE_TYPE_SPECIAL"
  },
  {
    "materialID": 108139,
    "HKLPEFMCPNO": "RARE_TYPE_SPECIAL"
  },
  {
    "materialID": 108140,
    "HKLPEFMCPNO": "RARE_TYPE_SPECIAL"
  },
  {
    "materialID": 108144,
    "HKLPEFMCPNO": "RARE_TYPE_SPECIAL"
  },
  {
    "materialID": 108146,
    "HKLPEFMCPNO": "RARE_TYPE_SPECIAL"
  },
  {
    "materialID": 108145,
    "HKLPEFMCPNO": "RARE_TYPE_SPECIAL"
  },
  {
    "materialID": 108173,
    "HKLPEFMCPNO": "RARE_TYPE_SPECIAL"
  },
  {
    "materialID": 108174,
    "HKLPEFMCPNO": "RARE_TYPE_SPECIAL"
  },
  {
    "materialID": 108175,
    "HKLPEFMCPNO": "RARE_TYPE_SPECIAL"
  },
  {
    "materialID": 108213,
    "HKLPEFMCPNO": "RARE_TYPE_SPECIAL"
  },
  {
    "materialID": 108214,
    "HKLPEFMCPNO": "RARE_TYPE_SPECIAL"
  },
  {
    "materialID": 108200,
    "HKLPEFMCPNO": "RARE_TYPE_SPECIAL"
  },
  {
    "materialID": 108234,
    "HKLPEFMCPNO": "RARE_TYPE_SPECIAL"
  },
  {
    "materialID": 108244,
    "HKLPEFMCPNO": "RARE_TYPE_SPECIAL"
  },
  {
    "materialID": 108245,
    "HKLPEFMCPNO": "RARE_TYPE_SPECIAL"
  },
  {
    "materialID": 108300,
    "HKLPEFMCPNO": "RARE_TYPE_SPECIAL"
  },
  {
    "materialID": 108301,
    "HKLPEFMCPNO": "RARE_TYPE_SPECIAL"
  },
  {
    "materialID": 108302,
    "HKLPEFMCPNO": "RARE_TYPE_SPECIAL"
  },
  {
    "materialID": 108303,
    "HKLPEFMCPNO": "RARE_TYPE_SPECIAL"
  },
  {
    "materialID": 108339,
    "HKLPEFMCPNO": "RARE_TYPE_SPECIAL"
  },
  {
    "materialID": 108340,
    "HKLPEFMCPNO": "RARE_TYPE_SPECIAL"
  },
  {
    "materialID": 108341,
    "HKLPEFMCPNO": "RARE_TYPE_SPECIAL"
  },
  {
    "materialID": 108354,
    "HKLPEFMCPNO": "RARE_TYPE_SPECIAL"
  },
  {
    "materialID": 108364,
    "HKLPEFMCPNO": "RARE_TYPE_SPECIAL"
  },
  {
    "materialID": 108365,
    "HKLPEFMCPNO": "RARE_TYPE_SPECIAL"
  },
  {
    "materialID": 108372,
    "HKLPEFMCPNO": "RARE_TYPE_SPECIAL"
  },
  {
    "materialID": 108373,
    "HKLPEFMCPNO": "RARE_TYPE_SPECIAL"
  },
  {
    "materialID": 108380,
    "HKLPEFMCPNO": "RARE_TYPE_SPECIAL"
  },
  {
    "materialID": 108387,
    "HKLPEFMCPNO": "RARE_TYPE_SPECIAL"
  },
  {
    "materialID": 108388,
    "HKLPEFMCPNO": "RARE_TYPE_SPECIAL"
  },
  {
    "materialID": 108389,
    "HKLPEFMCPNO": "RARE_TYPE_SPECIAL"
  },
  {
    "materialID": 108390,
    "HKLPEFMCPNO": "RARE_TYPE_SPECIAL"
  },
  {
    "materialID": 108437,
    "HKLPEFMCPNO": "RARE_TYPE_SPECIAL"
  },
  {
    "materialID": 108438,
    "HKLPEFMCPNO": "RARE_TYPE_SPECIAL"
  },
  {
    "materialID": 108436,
    "HKLPEFMCPNO": "RARE_TYPE_SPECIAL"
  },
  {
    "materialID": 108466,
    "HKLPEFMCPNO": "RARE_TYPE_SPECIAL"
  },
  {
    "materialID": 108467,
    "HKLPEFMCPNO": "RARE_TYPE_SPECIAL"
  },
  {
    "materialID": 108468,
    "HKLPEFMCPNO": "RARE_TYPE_SPECIAL"
  },
  {
    "materialID": 108474,
    "HKLPEFMCPNO": "RARE_TYPE_SPECIAL"
  },
  {
    "materialID": 108473,
    "HKLPEFMCPNO": "RARE_TYPE_SPECIAL"
  },
  {
    "materialID": 108479,
    "HKLPEFMCPNO": "RARE_TYPE_SPECIAL"
  },
  {
    "materialID": 108478,
    "HKLPEFMCPNO": "RARE_TYPE_SPECIAL"
  },
  {
    "materialID": 108487,
    "HKLPEFMCPNO": "RARE_TYPE_SPECIAL"
  },
  {
    "materialID": 108486,
    "HKLPEFMCPNO": "RARE_TYPE_SPECIAL"
  },
  {
    "materialID": 108501,
    "HKLPEFMCPNO": "RARE_TYPE_SPECIAL"
  },
  {
    "materialID": 108502,
    "HKLPEFMCPNO": "RARE_TYPE_SPECIAL"
  },
  {
    "materialID": 108509,
    "HKLPEFMCPNO": "RARE_TYPE_SPECIAL"
  },
  {
    "materialID": 108510,
    "HKLPEFMCPNO": "RARE_TYPE_SPECIAL"
  },
  {
    "materialID": 108511,
    "HKLPEFMCPNO": "RARE_TYPE_SPECIAL"
  },
  {
    "materialID": 108563,
    "HKLPEFMCPNO": "RARE_TYPE_SPECIAL"
  },
  {
    "materialID": 108564,
    "HKLPEFMCPNO": "RARE_TYPE_SPECIAL"
  },
  {
    "materialID": 108565,
    "HKLPEFMCPNO": "RARE_TYPE_SPECIAL"
  },
  {
    "materialID": 108604,
    "HKLPEFMCPNO": "RARE_TYPE_SPECIAL"
  },
  {
    "materialID": 108603,
    "HKLPEFMCPNO": "RARE_TYPE_SPECIAL"
  },
  {
    "materialID": 108612,
    "HKLPEFMCPNO": "RARE_TYPE_SPECIAL"
  },
  {
    "materialID": 108611,
    "HKLPEFMCPNO": "RARE_TYPE_SPECIAL"
  },
  {
    "materialID": 108619,
    "HKLPEFMCPNO": "RARE_TYPE_SPECIAL"
  },
  {
    "materialID": 108620,
    "HKLPEFMCPNO": "RARE_TYPE_SPECIAL"
  },
  {
    "materialID": 108664,
    "HKLPEFMCPNO": "RARE_TYPE_SPECIAL"
  },
  {
    "materialID": 108663,
    "HKLPEFMCPNO": "RARE_TYPE_SPECIAL"
  },
  {
    "materialID": 108668,
    "HKLPEFMCPNO": "RARE_TYPE_SPECIAL"
  },
  {
    "materialID": 108673,
    "HKLPEFMCPNO": "RARE_TYPE_SPECIAL"
  },
  {
    "materialID": 108674,
    "HKLPEFMCPNO": "RARE_TYPE_SPECIAL"
  },
  {
    "materialID": 108679,
    "HKLPEFMCPNO": "RARE_TYPE_SPECIAL"
  },
  {
    "materialID": 108678,
    "HKLPEFMCPNO": "RARE_TYPE_SPECIAL"
  },
  {
    "materialID": 108683,
    "HKLPEFMCPNO": "RARE_TYPE_SPECIAL"
  },
  {
    "materialID": 108215,
    "HKLPEFMCPNO": "RARE_TYPE_LIMITED"
  },
  {
    "materialID": 108216,
    "HKLPEFMCPNO": "RARE_TYPE_LIMITED"
  },
  {
    "materialID": 108217,
    "HKLPEFMCPNO": "RARE_TYPE_LIMITED"
  },
  {
    "materialID": 108218,
    "HKLPEFMCPNO": "RARE_TYPE_LIMITED"
  },
  {
    "materialID": 108219,
    "HKLPEFMCPNO": "RARE_TYPE_LIMITED"
  },
  {
    "materialID": 108220,
    "HKLPEFMCPNO": "RARE_TYPE_LIMITED"
  },
  {
    "materialID": 108221,
    "HKLPEFMCPNO": "RARE_TYPE_LIMITED"
  },
  {
    "materialID": 108488,
    "HKLPEFMCPNO": "RARE_TYPE_LIMITED"
  },
  {
    "materialID": 108669,
    "HKLPEFMCPNO": "RARE_TYPE_LIMITED"
  },
  {
    "materialID": 108690,
    "HKLPEFMCPNO": "RARE_TYPE_LIMITED"
  },
  {
    "materialID": 108747,
    "HKLPEFMCPNO": "RARE_TYPE_SPECIAL"
  },
  {
    "materialID": 108745,
    "HKLPEFMCPNO": "RARE_TYPE_SPECIAL"
  },
  {
    "materialID": 108746,
    "HKLPEFMCPNO": "RARE_TYPE_SPECIAL"
  },
  {
    "materialID": 108760,
    "HKLPEFMCPNO": "RARE_TYPE_SPECIAL"
  },
  {
    "materialID": 108776,
    "HKLPEFMCPNO": "RARE_TYPE_SPECIAL"
  },
  {
    "materialID": 108777,
    "HKLPEFMCPNO": "RARE_TYPE_SPECIAL"
  },
  {
    "materialID": 108787,
    "HKLPEFMCPNO": "RARE_TYPE_SPECIAL"
  },
  {
    "materialID": 108789,
    "HKLPEFMCPNO": "RARE_TYPE_SPECIAL"
  },
  {
    "materialID": 108788,
    "HKLPEFMCPNO": "RARE_TYPE_SPECIAL"
  },
  {
    "materialID": 108793,
    "HKLPEFMCPNO": "RARE_TYPE_SPECIAL"
  }
]