[
  {
    "worldLevel": 2,
    "BPGOICFNAPH": [
      0,
      299,
      598,
      838
    ],
    "EINEIDHKHBN": 4
  },
  {
    "worldLevel": 3,
    "BPGOICFNAPH": [
      0,
      323,
      646,
      850
    ],
    "EINEIDHKHBN": 4
  },
  {
    "worldLevel": 4,
    "BPGOICFNAPH": [
      0,
      300,
      600,
      762
    ],
    "EINEIDHKHBN": 4
  },
  {
    "worldLevel": 5,
    "BPGOICFNAPH": [
      0,
      299,
      598,
      784
    ],
    "EINEIDHKHBN": 4
  },
  {
    "worldLevel": 6,
    "BPGOICFNAPH": [
      0,
      316,
      632,
      748
    ],
    "EINEIDHKHBN": 4
  },
  {
    "worldLevel": 7,
    "BPGOICFNAPH": [
      0,
      359,
      718,
      824
    ],
    "EINEIDHKHBN": 3
  },
  {
    "worldLevel": 8,
    "BPGOICFNAPH": [
      0,
      383,
      766,
      872
    ],
    "EINEIDHKHBN": 3
  }
]