[
  {
    "id": 1,
    "priority": 1,
    "MEADBDAPGCE": "ART/UI/Atlas/ReunionBannerPic/UI_ReunionImg_Area_01",
    "NBIMBAEFBJP": "ART/Effect/UI/UI/Eff_UI_ReunionImg_Area_01",
    "JIGINCBMGKN": "Play_ui_activity_ReunionV2_Img_Area_01",
    "FPOEKMBDCNN": "ART/UI/Atlas/ReunionBannerImg/UI_ReunionImg_Area_01",
    "watcherList": [
      53001,
      53002,
      53003
    ],
    "markID": 770,
    "areaNameTextMapHash": 3599729474,
    "EHPJPENKABI": true,
    "BBAHBMPOKHJ": 1
  },
  {
    "id": 2,
    "priority": 2,
    "MEADBDAPGCE": "ART/UI/Atlas/ReunionBannerPic/UI_ReunionImg_Area_02",
    "NBIMBAEFBJP": "ART/Effect/UI/UI/Eff_UI_ReunionImg_Area_01",
    "JIGINCBMGKN": "Play_ui_activity_ReunionV2_Img_Area_02",
    "FPOEKMBDCNN": "ART/UI/Atlas/ReunionBannerImg/UI_ReunionImg_Area_02",
    "watcherList": [
      53004,
      53005,
      53006
    ],
    "markID": 814,
    "areaNameTextMapHash": 1279839394,
    "EHPJPENKABI": true,
    "BBAHBMPOKHJ": 2
  },
  {
    "id": 3,
    "priority": 3,
    "MEADBDAPGCE": "ART/UI/Atlas/ReunionBannerPic/UI_ReunionImg_Area_03",
    "NBIMBAEFBJP": "ART/Effect/UI/UI/Eff_UI_ReunionImg_Area_01",
    "JIGINCBMGKN": "Play_ui_activity_ReunionV2_Img_Area_03",
    "FPOEKMBDCNN": "ART/UI/Atlas/ReunionBannerImg/UI_ReunionImg_Area_03",
    "watcherList": [
      53030,
      53031,
      53032
    ],
    "markID": 922,
    "areaNameTextMapHash": 2095725610,
    "EHPJPENKABI": true,
    "BBAHBMPOKHJ": 3
  },
  {
    "id": 4,
    "priority": 4,
    "MEADBDAPGCE": "ART/UI/Atlas/ReunionBannerPic/UI_ReunionImg_Area_04",
    "NBIMBAEFBJP": "ART/Effect/UI/UI/Eff_UI_ReunionImg_Area_01",
    "JIGINCBMGKN": "Play_ui_activity_ReunionV2_Img_Area_04",
    "FPOEKMBDCNN": "ART/UI/Atlas/ReunionBannerImg/UI_ReunionImg_Area_04",
    "watcherList": [
      53033,
      53034,
      53035
    ],
    "markID": 947,
    "areaNameTextMapHash": 122568410,
    "EHPJPENKABI": true,
    "BBAHBMPOKHJ": 4
  },
  {
    "id": 5,
    "priority": 5,
    "MEADBDAPGCE": "ART/UI/Atlas/ReunionBannerPic/UI_ReunionImg_Area_05",
    "NBIMBAEFBJP": "ART/Effect/UI/UI/Eff_UI_ReunionImg_Area_01",
    "JIGINCBMGKN": "Play_ui_activity_ReunionV2_Img_Area_05",
    "FPOEKMBDCNN": "ART/UI/Atlas/ReunionBannerImg/UI_ReunionImg_Area_05",
    "watcherList": [
      53036,
      53037,
      53038
    ],
    "markID": 1121,
    "areaNameTextMapHash": 1021641378,
    "EHPJPENKABI": true,
    "BBAHBMPOKHJ": 5
  },
  {
    "id": 6,
    "priority": 6,
    "MEADBDAPGCE": "ART/UI/Atlas/ReunionBannerPic/UI_ReunionImg_Area_04",
    "NBIMBAEFBJP": "ART/Effect/UI/UI/Eff_UI_ReunionImg_Area_01",
    "JIGINCBMGKN": "Play_ui_activity_ReunionV2_Img_Area_04",
    "FPOEKMBDCNN": "ART/UI/Atlas/ReunionBannerImg/UI_ReunionImg_Area_04",
    "watcherList": [
      53046,
      53047,
      53048,
      53049,
      53050,
      53051
    ],
    "markID": 947,
    "areaNameTextMapHash": 1220088298
  },
  {
    "id": 7,
    "priority": 7,
    "MEADBDAPGCE": "ART/UI/Atlas/ReunionBannerPic/UI_ReunionImg_Area_05",
    "NBIMBAEFBJP": "ART/Effect/UI/UI/Eff_UI_ReunionImg_Area_01",
    "JIGINCBMGKN": "Play_ui_activity_ReunionV2_Img_Area_05",
    "FPOEKMBDCNN": "ART/UI/Atlas/ReunionBannerImg/UI_ReunionImg_Area_05",
    "watcherList": [
      53052,
      53053,
      53054,
      53055,
      53056,
      53057
    ],
    "markID": 1121,
    "areaNameTextMapHash": 2354030458,
    "EHPJPENKABI": true,
    "BBAHBMPOKHJ": 6
  },
  {
    "id": 8,
    "priority": 8,
    "MEADBDAPGCE": "ART/UI/Atlas/ReunionBannerPic/UI_ReunionImg_Area_06",
    "NBIMBAEFBJP": "ART/Effect/UI/UI/Eff_UI_ReunionImg_Area_01",
    "JIGINCBMGKN": "Play_ui_activity_ReunionV2_Img_Area_06",
    "FPOEKMBDCNN": "ART/UI/Atlas/ReunionBannerImg/UI_ReunionImg_Area_06",
    "watcherList": [
      53058,
      53059,
      53060,
      53061,
      53062,
      53063
    ],
    "markID": 1166,
    "areaNameTextMapHash": 745452202,
    "EHPJPENKABI": true,
    "BBAHBMPOKHJ": 6
  },
  {
    "id": 9,
    "priority": 9,
    "MEADBDAPGCE": "ART/UI/Atlas/ReunionBannerPic/UI_ReunionImg_Area_07",
    "NBIMBAEFBJP": "ART/Effect/UI/UI/Eff_UI_ReunionImg_Area_01",
    "JIGINCBMGKN": "Play_ui_activity_ReunionV2_Img_Area_07",
    "FPOEKMBDCNN": "ART/UI/Atlas/ReunionBannerImg/UI_ReunionImg_Area_07",
    "watcherList": [
      53066,
      53067,
      53068,
      53069,
      53070,
      53071
    ],
    "markID": 1232,
    "areaNameTextMapHash": 979046770,
    "EHPJPENKABI": true,
    "BBAHBMPOKHJ": 6
  }
]