[
  {
    "avatarID": 10000002,
    "npcId": 9334,
    "abilityGroup": "ActivityAbility_RoleCombat_OutsiderBuff_01",
    "JACEBPDEEHC": 1273694010,
    "DLOFFPBEBHN": [
      "",
      ""
    ]
  },
  {
    "avatarID": 10000003,
    "npcId": 9315,
    "abilityGroup": "ActivityAbility_RoleCombat_OutsiderBuff_01",
    "JACEBPDEEHC": 2294658258,
    "DLOFFPBEBHN": [
      "",
      ""
    ]
  },
  {
    "avatarID": 10000006,
    "npcId": 9303,
    "abilityGroup": "ActivityAbility_RoleCombat_OutsiderBuff_01",
    "JACEBPDEEHC": 1403343274,
    "DLOFFPBEBHN": [
      "",
      ""
    ]
  },
  {
    "avatarID": 10000014,
    "npcId": 9304,
    "abilityGroup": "ActivityAbility_RoleCombat_OutsiderBuff_01",
    "JACEBPDEEHC": 3900831330,
    "DLOFFPBEBHN": [
      "",
      ""
    ]
  },
  {
    "avatarID": 10000015,
    "npcId": 9302,
    "abilityGroup": "ActivityAbility_RoleCombat_OutsiderBuff_01",
    "JACEBPDEEHC": 1496141946,
    "DLOFFPBEBHN": [
      "",
      ""
    ]
  },
  {
    "avatarID": 10000016,
    "npcId": 9316,
    "abilityGroup": "ActivityAbility_RoleCombat_OutsiderBuff_01",
    "JACEBPDEEHC": 3370669138,
    "DLOFFPBEBHN": [
      "",
      ""
    ]
  },
  {
    "avatarID": 10000020,
    "npcId": 9305,
    "abilityGroup": "ActivityAbility_RoleCombat_OutsiderBuff_01",
    "JACEBPDEEHC": 1780130946,
    "DLOFFPBEBHN": [
      "",
      ""
    ]
  },
  {
    "avatarID": 10000021,
    "npcId": 9301,
    "abilityGroup": "ActivityAbility_RoleCombat_OutsiderBuff_01",
    "JACEBPDEEHC": 620069098,
    "DLOFFPBEBHN": [
      "",
      ""
    ]
  },
  {
    "avatarID": 10000022,
    "npcId": 9320,
    "abilityGroup": "ActivityAbility_RoleCombat_OutsiderBuff_01",
    "JACEBPDEEHC": 2883821210,
    "DLOFFPBEBHN": [
      "",
      ""
    ]
  },
  {
    "avatarID": 10000023,
    "npcId": 9306,
    "abilityGroup": "ActivityAbility_RoleCombat_OutsiderBuff_01",
    "JACEBPDEEHC": 3971529938,
    "DLOFFPBEBHN": [
      "",
      ""
    ]
  },
  {
    "avatarID": 10000024,
    "npcId": 9307,
    "abilityGroup": "ActivityAbility_RoleCombat_OutsiderBuff_01",
    "JACEBPDEEHC": 3744224010,
    "DLOFFPBEBHN": [
      "",
      ""
    ]
  },
  {
    "avatarID": 10000025,
    "npcId": 9308,
    "abilityGroup": "ActivityAbility_RoleCombat_OutsiderBuff_01",
    "JACEBPDEEHC": 1256753178,
    "DLOFFPBEBHN": [
      "",
      ""
    ]
  },
  {
    "avatarID": 10000026,
    "npcId": 9328,
    "abilityGroup": "ActivityAbility_RoleCombat_OutsiderBuff_01",
    "JACEBPDEEHC": 405429106,
    "DLOFFPBEBHN": [
      "",
      ""
    ]
  },
  {
    "avatarID": 10000027,
    "npcId": 9309,
    "abilityGroup": "ActivityAbility_RoleCombat_OutsiderBuff_01",
    "JACEBPDEEHC": 3479271138,
    "DLOFFPBEBHN": [
      "",
      ""
    ]
  },
  {
    "avatarID": 10000029,
    "npcId": 9321,
    "abilityGroup": "ActivityAbility_RoleCombat_OutsiderBuff_01",
    "JACEBPDEEHC": 1458787050,
    "DLOFFPBEBHN": [
      "",
      ""
    ]
  },
  {
    "avatarID": 10000030,
    "npcId": 9325,
    "abilityGroup": "ActivityAbility_RoleCombat_OutsiderBuff_01",
    "JACEBPDEEHC": 1824644426,
    "DLOFFPBEBHN": [
      "",
      ""
    ]
  },
  {
    "avatarID": 10000031,
    "npcId": 9310,
    "abilityGroup": "ActivityAbility_RoleCombat_OutsiderBuff_01",
    "JACEBPDEEHC": 3062093218,
    "DLOFFPBEBHN": [
      "",
      ""
    ]
  },
  {
    "avatarID": 10000032,
    "npcId": 9311,
    "abilityGroup": "ActivityAbility_RoleCombat_OutsiderBuff_01",
    "JACEBPDEEHC": 3341428506,
    "DLOFFPBEBHN": [
      "",
      ""
    ]
  },
  {
    "avatarID": 10000033,
    "npcId": 9323,
    "abilityGroup": "ActivityAbility_RoleCombat_OutsiderBuff_01",
    "JACEBPDEEHC": 2710245250,
    "DLOFFPBEBHN": [
      "",
      ""
    ]
  },
  {
    "avatarID": 10000034,
    "npcId": 9312,
    "abilityGroup": "ActivityAbility_RoleCombat_OutsiderBuff_01",
    "JACEBPDEEHC": 825679818,
    "DLOFFPBEBHN": [
      "",
      ""
    ]
  },
  {
    "avatarID": 10000035,
    "npcId": 9317,
    "abilityGroup": "ActivityAbility_RoleCombat_OutsiderBuff_01",
    "JACEBPDEEHC": 1799911922,
    "DLOFFPBEBHN": [
      "",
      ""
    ]
  },
  {
    "avatarID": 10000036,
    "npcId": 9313,
    "abilityGroup": "ActivityAbility_RoleCombat_OutsiderBuff_01",
    "JACEBPDEEHC": 1276822634,
    "DLOFFPBEBHN": [
      "",
      ""
    ]
  },
  {
    "avatarID": 10000037,
    "npcId": 9327,
    "abilityGroup": "ActivityAbility_RoleCombat_OutsiderBuff_01",
    "JACEBPDEEHC": 32558082,
    "DLOFFPBEBHN": [
      "",
      ""
    ]
  },
  {
    "avatarID": 10000038,
    "npcId": 9326,
    "abilityGroup": "ActivityAbility_RoleCombat_OutsiderBuff_01",
    "JACEBPDEEHC": 2780581898,
    "DLOFFPBEBHN": [
      "",
      ""
    ]
  },
  {
    "avatarID": 10000039,
    "npcId": 9322,
    "abilityGroup": "ActivityAbility_RoleCombat_OutsiderBuff_01",
    "JACEBPDEEHC": 262121202,
    "DLOFFPBEBHN": [
      "",
      ""
    ]
  },
  {
    "avatarID": 10000041,
    "npcId": 9318,
    "abilityGroup": "ActivityAbility_RoleCombat_OutsiderBuff_01",
    "JACEBPDEEHC": 3741853314,
    "DLOFFPBEBHN": [
      "",
      ""
    ]
  },
  {
    "avatarID": 10000042,
    "npcId": 9319,
    "abilityGroup": "ActivityAbility_RoleCombat_OutsiderBuff_01",
    "JACEBPDEEHC": 210367674,
    "DLOFFPBEBHN": [
      "",
      ""
    ]
  },
  {
    "avatarID": 10000043,
    "npcId": 9314,
    "abilityGroup": "ActivityAbility_RoleCombat_OutsiderBuff_01",
    "JACEBPDEEHC": 1242507378,
    "DLOFFPBEBHN": [
      "",
      ""
    ]
  },
  {
    "avatarID": 10000044,
    "npcId": 9324,
    "abilityGroup": "ActivityAbility_RoleCombat_OutsiderBuff_01",
    "JACEBPDEEHC": 3563603666,
    "DLOFFPBEBHN": [
      "",
      ""
    ]
  },
  {
    "avatarID": 10000045,
    "npcId": 9330,
    "abilityGroup": "ActivityAbility_RoleCombat_OutsiderBuff_01",
    "JACEBPDEEHC": 2223380450,
    "DLOFFPBEBHN": [
      "",
      ""
    ]
  },
  {
    "avatarID": 10000046,
    "npcId": 9329,
    "abilityGroup": "ActivityAbility_RoleCombat_OutsiderBuff_01",
    "JACEBPDEEHC": 1093760802,
    "DLOFFPBEBHN": [
      "",
      ""
    ]
  },
  {
    "avatarID": 10000047,
    "npcId": 9333,
    "abilityGroup": "ActivityAbility_RoleCombat_OutsiderBuff_01",
    "JACEBPDEEHC": 2204134410,
    "DLOFFPBEBHN": [
      "",
      ""
    ]
  },
  {
    "avatarID": 10000048,
    "npcId": 9331,
    "abilityGroup": "ActivityAbility_RoleCombat_OutsiderBuff_01",
    "JACEBPDEEHC": 3926229650,
    "DLOFFPBEBHN": [
      "",
      ""
    ]
  },
  {
    "avatarID": 10000049,
    "npcId": 9336,
    "abilityGroup": "ActivityAbility_RoleCombat_OutsiderBuff_01",
    "JACEBPDEEHC": 811647202,
    "DLOFFPBEBHN": [
      "",
      ""
    ]
  },
  {
    "avatarID": 10000050,
    "npcId": 9340,
    "abilityGroup": "ActivityAbility_RoleCombat_OutsiderBuff_01",
    "JACEBPDEEHC": 1850144538,
    "DLOFFPBEBHN": [
      "",
      ""
    ]
  },
  {
    "avatarID": 10000051,
    "npcId": 9332,
    "abilityGroup": "ActivityAbility_RoleCombat_OutsiderBuff_01",
    "JACEBPDEEHC": 1114958690,
    "DLOFFPBEBHN": [
      "",
      ""
    ]
  },
  {
    "avatarID": 10000052,
    "npcId": 9338,
    "abilityGroup": "ActivityAbility_RoleCombat_OutsiderBuff_01",
    "JACEBPDEEHC": 3479396490,
    "DLOFFPBEBHN": [
      "",
      ""
    ]
  },
  {
    "avatarID": 10000053,
    "npcId": 9335,
    "abilityGroup": "ActivityAbility_RoleCombat_OutsiderBuff_01",
    "JACEBPDEEHC": 3947205386,
    "DLOFFPBEBHN": [
      "",
      ""
    ]
  },
  {
    "avatarID": 10000054,
    "npcId": 9339,
    "abilityGroup": "ActivityAbility_RoleCombat_OutsiderBuff_01",
    "JACEBPDEEHC": 3486556850,
    "DLOFFPBEBHN": [
      "",
      ""
    ]
  },
  {
    "avatarID": 10000055,
    "npcId": 9341,
    "abilityGroup": "ActivityAbility_RoleCombat_OutsiderBuff_01",
    "JACEBPDEEHC": 1470181018,
    "DLOFFPBEBHN": [
      "",
      ""
    ]
  },
  {
    "avatarID": 10000056,
    "npcId": 9337,
    "abilityGroup": "ActivityAbility_RoleCombat_OutsiderBuff_01",
    "JACEBPDEEHC": 2009430930,
    "DLOFFPBEBHN": [
      "",
      ""
    ]
  },
  {
    "avatarID": 10000057,
    "npcId": 9342,
    "abilityGroup": "ActivityAbility_RoleCombat_OutsiderBuff_01",
    "JACEBPDEEHC": 1180040210,
    "DLOFFPBEBHN": [
      "",
      ""
    ]
  },
  {
    "avatarID": 10000058,
    "npcId": 9345,
    "abilityGroup": "ActivityAbility_RoleCombat_OutsiderBuff_01",
    "JACEBPDEEHC": 2141536362,
    "DLOFFPBEBHN": [
      "",
      ""
    ]
  },
  {
    "avatarID": 10000059,
    "npcId": 9349,
    "abilityGroup": "ActivityAbility_RoleCombat_OutsiderBuff_01",
    "JACEBPDEEHC": 1677635610,
    "DLOFFPBEBHN": [
      "",
      ""
    ]
  },
  {
    "avatarID": 10000060,
    "npcId": 9347,
    "abilityGroup": "ActivityAbility_RoleCombat_OutsiderBuff_01",
    "JACEBPDEEHC": 192486154,
    "DLOFFPBEBHN": [
      "",
      ""
    ]
  },
  {
    "avatarID": 10000061,
    "npcId": 9366,
    "abilityGroup": "ActivityAbility_RoleCombat_OutsiderBuff_01",
    "JACEBPDEEHC": 2488970074,
    "DLOFFPBEBHN": [
      "",
      ""
    ]
  },
  {
    "avatarID": 10000062,
    "abilityGroup": "",
    "JACEBPDEEHC": 1818574386,
    "DLOFFPBEBHN": [
      "",
      ""
    ]
  },
  {
    "avatarID": 10000063,
    "npcId": 9344,
    "abilityGroup": "ActivityAbility_RoleCombat_OutsiderBuff_01",
    "JACEBPDEEHC": 235646650,
    "DLOFFPBEBHN": [
      "",
      ""
    ]
  },
  {
    "avatarID": 10000064,
    "npcId": 9343,
    "abilityGroup": "ActivityAbility_RoleCombat_OutsiderBuff_01",
    "JACEBPDEEHC": 218400930,
    "DLOFFPBEBHN": [
      "",
      ""
    ]
  },
  {
    "avatarID": 10000065,
    "npcId": 9348,
    "abilityGroup": "ActivityAbility_RoleCombat_OutsiderBuff_01",
    "JACEBPDEEHC": 3861024986,
    "DLOFFPBEBHN": [
      "",
      ""
    ]
  },
  {
    "avatarID": 10000066,
    "npcId": 9346,
    "abilityGroup": "ActivityAbility_RoleCombat_OutsiderBuff_01",
    "JACEBPDEEHC": 2482013194,
    "DLOFFPBEBHN": [
      "",
      ""
    ]
  },
  {
    "avatarID": 10000067,
    "npcId": 9350,
    "abilityGroup": "ActivityAbility_RoleCombat_OutsiderBuff_01",
    "JACEBPDEEHC": 2583049922,
    "DLOFFPBEBHN": [
      "",
      ""
    ]
  },
  {
    "avatarID": 10000068,
    "npcId": 9352,
    "abilityGroup": "ActivityAbility_RoleCombat_OutsiderBuff_01",
    "JACEBPDEEHC": 2626388074,
    "DLOFFPBEBHN": [
      "",
      ""
    ]
  },
  {
    "avatarID": 10000069,
    "npcId": 9351,
    "abilityGroup": "ActivityAbility_RoleCombat_OutsiderBuff_01",
    "JACEBPDEEHC": 3917376642,
    "DLOFFPBEBHN": [
      "",
      ""
    ]
  },
  {
    "avatarID": 10000070,
    "npcId": 9355,
    "abilityGroup": "ActivityAbility_RoleCombat_OutsiderBuff_01",
    "JACEBPDEEHC": 1723260850,
    "DLOFFPBEBHN": [
      "",
      ""
    ]
  },
  {
    "avatarID": 10000071,
    "npcId": 9354,
    "abilityGroup": "ActivityAbility_RoleCombat_OutsiderBuff_01",
    "JACEBPDEEHC": 1656072666,
    "DLOFFPBEBHN": [
      "",
      ""
    ]
  },
  {
    "avatarID": 10000072,
    "npcId": 9353,
    "abilityGroup": "ActivityAbility_RoleCombat_OutsiderBuff_01",
    "JACEBPDEEHC": 2462245994,
    "DLOFFPBEBHN": [
      "",
      ""
    ]
  },
  {
    "avatarID": 10000073,
    "npcId": 9356,
    "abilityGroup": "ActivityAbility_RoleCombat_OutsiderBuff_01",
    "JACEBPDEEHC": 2834712562,
    "DLOFFPBEBHN": [
      "",
      ""
    ]
  },
  {
    "avatarID": 10000074,
    "npcId": 9357,
    "abilityGroup": "ActivityAbility_RoleCombat_OutsiderBuff_01",
    "JACEBPDEEHC": 1724809602,
    "DLOFFPBEBHN": [
      "",
      ""
    ]
  },
  {
    "avatarID": 10000075,
    "npcId": 9359,
    "abilityGroup": "ActivityAbility_RoleCombat_OutsiderBuff_01",
    "JACEBPDEEHC": 3020715818,
    "DLOFFPBEBHN": [
      "",
      ""
    ]
  },
  {
    "avatarID": 10000076,
    "npcId": 9358,
    "abilityGroup": "ActivityAbility_RoleCombat_OutsiderBuff_01",
    "JACEBPDEEHC": 628714482,
    "DLOFFPBEBHN": [
      "",
      ""
    ]
  },
  {
    "avatarID": 10000077,
    "npcId": 9360,
    "abilityGroup": "ActivityAbility_RoleCombat_OutsiderBuff_01",
    "JACEBPDEEHC": 3793692170,
    "DLOFFPBEBHN": [
      "",
      ""
    ]
  },
  {
    "avatarID": 10000078,
    "npcId": 9361,
    "abilityGroup": "ActivityAbility_RoleCombat_OutsiderBuff_01",
    "JACEBPDEEHC": 3514509522,
    "DLOFFPBEBHN": [
      "",
      ""
    ]
  },
  {
    "avatarID": 10000079,
    "npcId": 9362,
    "abilityGroup": "ActivityAbility_RoleCombat_OutsiderBuff_01",
    "JACEBPDEEHC": 3201284778,
    "DLOFFPBEBHN": [
      "",
      ""
    ]
  },
  {
    "avatarID": 10000080,
    "npcId": 9363,
    "abilityGroup": "ActivityAbility_RoleCombat_OutsiderBuff_01",
    "JACEBPDEEHC": 3852509818,
    "DLOFFPBEBHN": [
      "",
      ""
    ]
  },
  {
    "avatarID": 10000081,
    "npcId": 9364,
    "abilityGroup": "ActivityAbility_RoleCombat_OutsiderBuff_01",
    "JACEBPDEEHC": 588838826,
    "DLOFFPBEBHN": [
      "",
      ""
    ]
  },
  {
    "avatarID": 10000082,
    "npcId": 9365,
    "abilityGroup": "ActivityAbility_RoleCombat_OutsiderBuff_01",
    "JACEBPDEEHC": 1209659066,
    "DLOFFPBEBHN": [
      "",
      ""
    ]
  },
  {
    "avatarID": 10000083,
    "npcId": 9367,
    "abilityGroup": "ActivityAbility_RoleCombat_OutsiderBuff_01",
    "JACEBPDEEHC": 2967535522,
    "DLOFFPBEBHN": [
      "",
      ""
    ]
  },
  {
    "avatarID": 10000084,
    "npcId": 9368,
    "abilityGroup": "ActivityAbility_RoleCombat_OutsiderBuff_01",
    "JACEBPDEEHC": 2470558386,
    "DLOFFPBEBHN": [
      "",
      ""
    ]
  },
  {
    "avatarID": 10000085,
    "npcId": 9369,
    "abilityGroup": "ActivityAbility_RoleCombat_OutsiderBuff_01",
    "JACEBPDEEHC": 44300514,
    "DLOFFPBEBHN": [
      "",
      ""
    ]
  },
  {
    "avatarID": 10000086,
    "npcId": 9371,
    "abilityGroup": "ActivityAbility_RoleCombat_OutsiderBuff_01",
    "JACEBPDEEHC": 4112692938,
    "DLOFFPBEBHN": [
      "",
      ""
    ]
  },
  {
    "avatarID": 10000087,
    "npcId": 9370,
    "abilityGroup": "ActivityAbility_RoleCombat_OutsiderBuff_01",
    "JACEBPDEEHC": 1713609314,
    "DLOFFPBEBHN": [
      "",
      ""
    ]
  },
  {
    "avatarID": 10000088,
    "npcId": 9372,
    "abilityGroup": "ActivityAbility_RoleCombat_OutsiderBuff_01",
    "JACEBPDEEHC": 3052993706,
    "DLOFFPBEBHN": [
      "",
      ""
    ]
  },
  {
    "avatarID": 10000089,
    "npcId": 9373,
    "abilityGroup": "ActivityAbility_RoleCombat_OutsiderBuff_01",
    "JACEBPDEEHC": 2012918514,
    "DLOFFPBEBHN": [
      "",
      ""
    ]
  },
  {
    "avatarID": 10000090,
    "npcId": 9374,
    "abilityGroup": "ActivityAbility_RoleCombat_OutsiderBuff_01",
    "JACEBPDEEHC": 1684352906,
    "DLOFFPBEBHN": [
      "",
      ""
    ]
  },
  {
    "avatarID": 10000091,
    "npcId": 9375,
    "abilityGroup": "ActivityAbility_RoleCombat_OutsiderBuff_01",
    "JACEBPDEEHC": 4080910098,
    "DLOFFPBEBHN": [
      "",
      ""
    ]
  },
  {
    "avatarID": 10000092,
    "npcId": 9376,
    "abilityGroup": "ActivityAbility_RoleCombat_OutsiderBuff_01",
    "JACEBPDEEHC": 3881494090,
    "DLOFFPBEBHN": [
      "",
      ""
    ]
  },
  {
    "avatarID": 10000093,
    "npcId": 9377,
    "abilityGroup": "ActivityAbility_RoleCombat_OutsiderBuff_01",
    "JACEBPDEEHC": 2539976618,
    "DLOFFPBEBHN": [
      "",
      ""
    ]
  },
  {
    "avatarID": 10000094,
    "npcId": 9378,
    "abilityGroup": "ActivityAbility_RoleCombat_OutsiderBuff_01",
    "JACEBPDEEHC": 3658846570,
    "DLOFFPBEBHN": [
      "",
      ""
    ]
  },
  {
    "avatarID": 10000095,
    "npcId": 9379,
    "abilityGroup": "ActivityAbility_RoleCombat_OutsiderBuff_01",
    "JACEBPDEEHC": 3846019714,
    "DLOFFPBEBHN": [
      "",
      ""
    ]
  },
  {
    "avatarID": 10000096,
    "npcId": 9381,
    "abilityGroup": "ActivityAbility_RoleCombat_OutsiderBuff_01",
    "JACEBPDEEHC": 2564503026,
    "DLOFFPBEBHN": [
      "",
      ""
    ]
  },
  {
    "avatarID": 10000098,
    "npcId": 9380,
    "abilityGroup": "ActivityAbility_RoleCombat_OutsiderBuff_01",
    "JACEBPDEEHC": 3760582202,
    "DLOFFPBEBHN": [
      "",
      ""
    ]
  },
  {
    "avatarID": 10000097,
    "npcId": 9382,
    "abilityGroup": "ActivityAbility_RoleCombat_OutsiderBuff_01",
    "JACEBPDEEHC": 2062743602,
    "DLOFFPBEBHN": [
      "",
      ""
    ]
  },
  {
    "avatarID": 10000099,
    "npcId": 9383,
    "abilityGroup": "ActivityAbility_RoleCombat_OutsiderBuff_01",
    "JACEBPDEEHC": 1520487746,
    "DLOFFPBEBHN": [
      "",
      ""
    ]
  },
  {
    "avatarID": 10000101,
    "npcId": 9384,
    "abilityGroup": "ActivityAbility_RoleCombat_OutsiderBuff_01",
    "JACEBPDEEHC": 691848066,
    "DLOFFPBEBHN": [
      "",
      ""
    ]
  },
  {
    "avatarID": 10000102,
    "npcId": 9385,
    "abilityGroup": "ActivityAbility_RoleCombat_OutsiderBuff_01",
    "JACEBPDEEHC": 3986061010,
    "DLOFFPBEBHN": [
      "",
      ""
    ]
  },
  {
    "avatarID": 10000100,
    "npcId": 9386,
    "abilityGroup": "ActivityAbility_RoleCombat_OutsiderBuff_01",
    "JACEBPDEEHC": 526159306,
    "DLOFFPBEBHN": [
      "",
      ""
    ]
  },
  {
    "avatarID": 10000103,
    "npcId": 9387,
    "abilityGroup": "ActivityAbility_RoleCombat_OutsiderBuff_01",
    "JACEBPDEEHC": 565545538,
    "DLOFFPBEBHN": [
      "",
      ""
    ]
  },
  {
    "avatarID": 10000104,
    "npcId": 9388,
    "abilityGroup": "ActivityAbility_RoleCombat_OutsiderBuff_01",
    "JACEBPDEEHC": 81483274,
    "DLOFFPBEBHN": [
      "",
      ""
    ]
  },
  {
    "avatarID": 10000105,
    "npcId": 9389,
    "abilityGroup": "ActivityAbility_RoleCombat_OutsiderBuff_01",
    "JACEBPDEEHC": 3761246042,
    "DLOFFPBEBHN": [
      "",
      ""
    ]
  },
  {
    "avatarID": 10000106,
    "npcId": 9391,
    "abilityGroup": "ActivityAbility_RoleCombat_OutsiderBuff_01",
    "JACEBPDEEHC": 2034387466,
    "DLOFFPBEBHN": [
      "",
      ""
    ]
  },
  {
    "avatarID": 10000107,
    "npcId": 9392,
    "abilityGroup": "ActivityAbility_RoleCombat_OutsiderBuff_01",
    "JACEBPDEEHC": 433932154,
    "DLOFFPBEBHN": [
      "",
      ""
    ]
  },
  {
    "avatarID": 10000108,
    "npcId": 9390,
    "abilityGroup": "ActivityAbility_RoleCombat_OutsiderBuff_01",
    "JACEBPDEEHC": 1745784098,
    "DLOFFPBEBHN": [
      "",
      ""
    ]
  },
  {
    "avatarID": 10000109,
    "npcId": 9393,
    "abilityGroup": "ActivityAbility_RoleCombat_OutsiderBuff_01",
    "JACEBPDEEHC": 3071713218,
    "DLOFFPBEBHN": [
      "",
      ""
    ]
  }
]