[
  {
    "levelId": 1,
    "unlockDate": 1,
    "detailLevels": [
      1,
      2,
      3,
      4
    ],
    "levelTitleTextMapHash": 1386471552
  },
  {
    "levelId": 2,
    "preLevelId": 1,
    "unlockDate": 2,
    "detailLevels": [
      5,
      6,
      7,
      8
    ],
    "levelTitleTextMapHash": 1112008520
  },
  {
    "levelId": 3,
    "preLevelId": 2,
    "unlockDate": 3,
    "detailLevels": [
      9,
      10,
      11,
      12
    ],
    "levelTitleTextMapHash": 3621590904
  },
  {
    "levelId": 4,
    "preLevelId": 3,
    "unlockDate": 4,
    "detailLevels": [
      13,
      14,
      15,
      16
    ],
    "levelTitleTextMapHash": 3308424096
  },
  {
    "levelId": 5,
    "preLevelId": 4,
    "unlockDate": 5,
    "detailLevels": [
      17,
      18,
      19,
      20
    ],
    "levelTitleTextMapHash": 2186995456
  },
  {
    "levelId": 6,
    "preLevelId": 5,
    "unlockDate": 6,
    "detailLevels": [
      21,
      22,
      23,
      24
    ],
    "levelTitleTextMapHash": 3257727872
  }
]