[
  {
    "target1TextMapHash": 3249455190,
    "target2TextMapHash": 685004169,
    "target3TextMapHash": 2994141152,
    "targetWatcher1": 15132101,
    "targetWatcher2": 15132101,
    "targetWatcher3": 15132102,
    "previewList": [
      1,
      2,
      3,
      101,
      104,
      107,
      109,
      103,
      102
    ],
    "watcher3DropCount": 20,
    "id": 1,
    "galleryId": 44401,
    "startTransConfigId": 76001,
    "endTransConfigId": 76082,
    "levelTitleTextMapHash": 3761427615,
    "levelDescTextMapHash": 322226105,
    "groupLinkID": 51320101,
    "groupID": 133316076,
    "watcherList": [
      15132101,
      15132102
    ]
  },
  {
    "target1TextMapHash": 890971526,
    "target2TextMapHash": 2668645905,
    "target3TextMapHash": 3901175952,
    "targetWatcher1": 15132103,
    "targetWatcher2": 15132103,
    "targetWatcher3": 15132104,
    "previewList": [
      1,
      2,
      3,
      101,
      106,
      111,
      107,
      109,
      103,
      102
    ],
    "watcher3DropCount": 20,
    "id": 2,
    "galleryId": 44402,
    "startTransConfigId": 29001,
    "endTransConfigId": 29072,
    "levelTitleTextMapHash": 3072325423,
    "levelDescTextMapHash": 2684207817,
    "groupLinkID": 51320102,
    "groupID": 133316029,
    "watcherList": [
      15132103,
      15132104
    ]
  },
  {
    "target1TextMapHash": 3404721742,
    "target2TextMapHash": 3900641521,
    "target3TextMapHash": 3179351008,
    "targetWatcher1": 15132105,
    "targetWatcher2": 15132105,
    "targetWatcher3": 15132106,
    "previewList": [
      1,
      2,
      3,
      101,
      105,
      106,
      111,
      107,
      109,
      103,
      102
    ],
    "watcher3DropCount": 25,
    "id": 3,
    "galleryId": 44403,
    "startTransConfigId": 133002,
    "endTransConfigId": 133108,
    "levelTitleTextMapHash": 2567967615,
    "levelDescTextMapHash": 955680969,
    "groupLinkID": 51320103,
    "groupID": 133316133,
    "watcherList": [
      15132105,
      15132106
    ]
  }
]