[
  {
    "id": 1,
    "scheduleId": 5176001,
    "HADPBBACKAB": "ROUND_ONE",
    "trialAvatarIdList": [
      6071,
      6039,
      6028,
      6066,
      6046,
      6009
    ],
    "JLAGPPBEIFG": 4,
    "keyMonsterPreviewIdList": [
      21103
    ],
    "monsterPreviewIdList": [
      60906,
      60904,
      61202,
      61204
    ]
  },
  {
    "id": 2,
    "scheduleId": 5176001,
    "HADPBBACKAB": "ROUND_TWO",
    "trialAvatarIdList": [
      6070,
      6062,
      6010,
      6008
    ],
    "JLAGPPBEIFG": 2,
    "keyMonsterPreviewIdList": [
      511,
      10204
    ],
    "monsterPreviewIdList": [
      30101
    ]
  },
  {
    "id": 3,
    "scheduleId": 5176001,
    "HADPBBACKAB": "ROUND_THREE",
    "trialAvatarIdList": [
      6072,
      6041
    ],
    "JLAGPPBEIFG": 2,
    "keyMonsterPreviewIdList": [
      60506,
      40103
    ],
    "monsterPreviewIdList": [
      50801
    ]
  },
  {
    "id": 4,
    "scheduleId": 5176001,
    "HADPBBACKAB": "ROUND_FOUR",
    "trialAvatarIdList": [
      6075,
      6074
    ],
    "JLAGPPBEIFG": 2,
    "keyMonsterPreviewIdList": [
      40658,
      40101
    ],
    "monsterPreviewIdList": [
      40654,
      40651
    ]
  },
  {
    "id": 5,
    "scheduleId": 5176001,
    "HADPBBACKAB": "ROUND_ONE",
    "trialAvatarIdList": [
      6078,
      6017,
      6060,
      6046,
      6010,
      6005
    ],
    "JLAGPPBEIFG": 4,
    "keyMonsterPreviewIdList": [
      54104,
      54103
    ],
    "monsterPreviewIdList": [
      53103,
      53101,
      10202,
      10207
    ]
  },
  {
    "id": 6,
    "scheduleId": 5176001,
    "HADPBBACKAB": "ROUND_TWO",
    "trialAvatarIdList": [
      6006,
      6072,
      6009,
      6008
    ],
    "JLAGPPBEIFG": 2,
    "keyMonsterPreviewIdList": [
      510
    ],
    "monsterPreviewIdList": [
      502,
      507,
      30103,
      30105
    ]
  },
  {
    "id": 7,
    "scheduleId": 5176001,
    "HADPBBACKAB": "ROUND_THREE",
    "trialAvatarIdList": [
      6028,
      6077
    ],
    "JLAGPPBEIFG": 2,
    "keyMonsterPreviewIdList": [
      60510,
      10208
    ],
    "monsterPreviewIdList": [
      61602,
      61603
    ]
  },
  {
    "id": 8,
    "scheduleId": 5176001,
    "HADPBBACKAB": "ROUND_FOUR",
    "trialAvatarIdList": [
      6000,
      6059
    ],
    "JLAGPPBEIFG": 2,
    "keyMonsterPreviewIdList": [
      20101,
      20102,
      20103
    ],
    "monsterPreviewIdList": [
      105,
      108,
      110,
      112
    ]
  },
  {
    "id": 9,
    "scheduleId": 5176001,
    "HADPBBACKAB": "ROUND_ONE",
    "trialAvatarIdList": [
      6041,
      6074,
      6078,
      6010,
      6073,
      6046
    ],
    "JLAGPPBEIFG": 4,
    "keyMonsterPreviewIdList": [
      20101,
      20302
    ],
    "monsterPreviewIdList": [
      61601
    ]
  },
  {
    "id": 10,
    "scheduleId": 5176001,
    "HADPBBACKAB": "ROUND_TWO",
    "trialAvatarIdList": [
      6037,
      6006,
      6018,
      6057
    ],
    "JLAGPPBEIFG": 2,
    "keyMonsterPreviewIdList": [
      30301,
      30201
    ],
    "monsterPreviewIdList": [
      50103,
      50105,
      50701
    ]
  },
  {
    "id": 11,
    "scheduleId": 5176001,
    "HADPBBACKAB": "ROUND_THREE",
    "trialAvatarIdList": [
      6022,
      6033
    ],
    "JLAGPPBEIFG": 2,
    "keyMonsterPreviewIdList": [
      40302,
      10401
    ],
    "monsterPreviewIdList": [
      604
    ]
  },
  {
    "id": 12,
    "scheduleId": 5176001,
    "HADPBBACKAB": "ROUND_FOUR",
    "trialAvatarIdList": [
      6002,
      6062
    ],
    "JLAGPPBEIFG": 2,
    "keyMonsterPreviewIdList": [
      10208,
      60401,
      40301
    ],
    "monsterPreviewIdList": []
  },
  {
    "id": 13,
    "scheduleId": 5176001,
    "HADPBBACKAB": "ROUND_ONE",
    "trialAvatarIdList": [
      6012,
      6039,
      6033,
      6005,
      6051,
      6010
    ],
    "JLAGPPBEIFG": 4,
    "keyMonsterPreviewIdList": [
      40302,
      30602
    ],
    "monsterPreviewIdList": [
      53103,
      30102
    ]
  },
  {
    "id": 14,
    "scheduleId": 5176001,
    "HADPBBACKAB": "ROUND_TWO",
    "trialAvatarIdList": [
      6026,
      6056,
      6046,
      6020
    ],
    "JLAGPPBEIFG": 2,
    "keyMonsterPreviewIdList": [
      511,
      30501,
      60506
    ],
    "monsterPreviewIdList": [
      51001,
      51002
    ]
  },
  {
    "id": 15,
    "scheduleId": 5176001,
    "HADPBBACKAB": "ROUND_THREE",
    "trialAvatarIdList": [
      6029,
      6078
    ],
    "JLAGPPBEIFG": 2,
    "keyMonsterPreviewIdList": [
      30601,
      10401,
      10402,
      40101,
      40203
    ],
    "monsterPreviewIdList": []
  },
  {
    "id": 16,
    "scheduleId": 5176001,
    "HADPBBACKAB": "ROUND_FOUR",
    "trialAvatarIdList": [
      6037,
      6028
    ],
    "JLAGPPBEIFG": 2,
    "keyMonsterPreviewIdList": [
      20302,
      20101
    ],
    "monsterPreviewIdList": [
      606,
      607,
      30106,
      53101
    ]
  },
  {
    "id": 17,
    "scheduleId": 5176001,
    "HADPBBACKAB": "ROUND_ONE",
    "trialAvatarIdList": [
      6074,
      6056,
      6052,
      6009,
      6048,
      6051
    ],
    "JLAGPPBEIFG": 4,
    "keyMonsterPreviewIdList": [
      60509,
      40658,
      40302
    ],
    "monsterPreviewIdList": []
  },
  {
    "id": 18,
    "scheduleId": 5176001,
    "HADPBBACKAB": "ROUND_TWO",
    "trialAvatarIdList": [
      6053,
      6041,
      6061,
      6005
    ],
    "JLAGPPBEIFG": 2,
    "keyMonsterPreviewIdList": [
      40401,
      40402,
      40403,
      40103
    ],
    "monsterPreviewIdList": [
      10202
    ]
  },
  {
    "id": 19,
    "scheduleId": 5176001,
    "HADPBBACKAB": "ROUND_THREE",
    "trialAvatarIdList": [
      6060,
      6065
    ],
    "JLAGPPBEIFG": 2,
    "keyMonsterPreviewIdList": [
      20502,
      54101
    ],
    "monsterPreviewIdList": [
      40612
    ]
  },
  {
    "id": 20,
    "scheduleId": 5176001,
    "HADPBBACKAB": "ROUND_FOUR",
    "trialAvatarIdList": [
      6029,
      6078
    ],
    "JLAGPPBEIFG": 2,
    "keyMonsterPreviewIdList": [
      10401,
      54104
    ],
    "monsterPreviewIdList": [
      40201,
      40204
    ]
  }
]