[
  {
    "dungeonId": 10601,
    "galleryId": 81701,
    "draftID": 24001,
    "KBEHDECCDCA": [
      2,
      9,
      15,
      20
    ],
    "monsterPreviewIdList": [
      1,
      2,
      3,
      4,
      5
    ],
    "descTextMapHash": 2777968950,
    "POBJCKJKHFK": 856023673,
    "levelID": 1,
    "activityID": 5252,
    "nameTextMapHash": 1546079615,
    "questList": [
      396
    ],
    "POGAPJOAPNE": [],
    "watcherList": [
      15252001,
      15252002,
      15252003,
      15252004
    ],
    "openDay": 1,
    "LCDPEEFMCBP": [
      "ACTIVITY_LEVEL_COND_TYPE_MAIN_QUEST"
    ],
    "LBPIFEDIDKK": [
      "ACTIVITY_LEVEL_COND_TYPE_OPEN_DAY"
    ],
    "GNACDEMMLCE": [
      "ACTIVITY_LEVEL_COND_TYPE_WATCHER_REWARD_TAKEN"
    ]
  },
  {
    "dungeonId": 10604,
    "galleryId": 81704,
    "draftID": 24002,
    "KBEHDECCDCA": [
      2,
      9,
      15,
      20
    ],
    "monsterPreviewIdList": [
      16,
      17,
      18,
      19,
      20
    ],
    "descTextMapHash": 1458656558,
    "POBJCKJKHFK": 2721552657,
    "levelID": 2,
    "activityID": 5252,
    "nameTextMapHash": 1182602303,
    "questList": [
      396
    ],
    "POGAPJOAPNE": [],
    "watcherList": [
      15252005,
      15252006,
      15252007,
      15252008
    ],
    "openDay": 2,
    "LCDPEEFMCBP": [
      "ACTIVITY_LEVEL_COND_TYPE_MAIN_QUEST"
    ],
    "LBPIFEDIDKK": [
      "ACTIVITY_LEVEL_COND_TYPE_OPEN_DAY"
    ],
    "GNACDEMMLCE": [
      "ACTIVITY_LEVEL_COND_TYPE_WATCHER_REWARD_TAKEN"
    ]
  },
  {
    "dungeonId": 10603,
    "galleryId": 81703,
    "draftID": 24003,
    "KBEHDECCDCA": [
      2,
      9,
      15,
      20
    ],
    "monsterPreviewIdList": [
      11,
      12,
      13,
      14,
      15
    ],
    "descTextMapHash": 1802827838,
    "POBJCKJKHFK": 2930355089,
    "levelID": 3,
    "activityID": 5252,
    "nameTextMapHash": 1592963031,
    "questList": [
      396
    ],
    "POGAPJOAPNE": [],
    "watcherList": [
      15252009,
      15252010,
      15252011,
      15252012
    ],
    "openDay": 3,
    "LCDPEEFMCBP": [
      "ACTIVITY_LEVEL_COND_TYPE_MAIN_QUEST"
    ],
    "LBPIFEDIDKK": [
      "ACTIVITY_LEVEL_COND_TYPE_OPEN_DAY"
    ],
    "GNACDEMMLCE": [
      "ACTIVITY_LEVEL_COND_TYPE_WATCHER_REWARD_TAKEN"
    ]
  },
  {
    "dungeonId": 10602,
    "galleryId": 81702,
    "draftID": 24004,
    "KBEHDECCDCA": [
      2,
      9,
      15,
      20
    ],
    "monsterPreviewIdList": [
      6,
      7,
      8,
      9,
      10
    ],
    "descTextMapHash": 3836521070,
    "POBJCKJKHFK": 61972897,
    "levelID": 4,
    "activityID": 5252,
    "nameTextMapHash": 3616409567,
    "questList": [
      396
    ],
    "POGAPJOAPNE": [],
    "watcherList": [
      15252013,
      15252014,
      15252015,
      15252016
    ],
    "openDay": 4,
    "LCDPEEFMCBP": [
      "ACTIVITY_LEVEL_COND_TYPE_MAIN_QUEST"
    ],
    "LBPIFEDIDKK": [
      "ACTIVITY_LEVEL_COND_TYPE_OPEN_DAY"
    ],
    "GNACDEMMLCE": [
      "ACTIVITY_LEVEL_COND_TYPE_WATCHER_REWARD_TAKEN"
    ]
  },
  {
    "dungeonId": 10605,
    "galleryId": 81705,
    "draftID": 24005,
    "KBEHDECCDCA": [
      2,
      9,
      15,
      20
    ],
    "monsterPreviewIdList": [
      21,
      22,
      23,
      24,
      25
    ],
    "descTextMapHash": 3284066198,
    "POBJCKJKHFK": 841500417,
    "levelID": 5,
    "activityID": 5252,
    "nameTextMapHash": 1561041599,
    "questList": [
      396
    ],
    "POGAPJOAPNE": [],
    "watcherList": [
      15252017,
      15252018,
      15252019,
      15252020
    ],
    "openDay": 5,
    "LCDPEEFMCBP": [
      "ACTIVITY_LEVEL_COND_TYPE_MAIN_QUEST"
    ],
    "LBPIFEDIDKK": [
      "ACTIVITY_LEVEL_COND_TYPE_OPEN_DAY"
    ],
    "GNACDEMMLCE": [
      "ACTIVITY_LEVEL_COND_TYPE_WATCHER_REWARD_TAKEN"
    ]
  }
]