[
  {
    "JMJLKCOCCBK": 4,
    "rank": 2
  },
  {
    "worldLevel": 1,
    "JMJLKCOCCBK": 6,
    "rank": 3
  },
  {
    "worldLevel": 2,
    "JMJLKCOCCBK": 8,
    "LFINMFDHNNL": 2,
    "IKDPCCNMAOI": 4,
    "rank": 3
  },
  {
    "worldLevel": 3,
    "JMJLKCOCCBK": 10,
    "LFINMFDHNNL": 4,
    "IKDPCCNMAOI": 8,
    "rank": 3
  },
  {
    "worldLevel": 4,
    "JMJLKCOCCBK": 12,
    "LFINMFDHNNL": 4,
    "IKDPCCNMAOI": 8,
    "rank": 4
  },
  {
    "worldLevel": 5,
    "JMJLKCOCCBK": 16,
    "LFINMFDHNNL": 4,
    "IKDPCCNMAOI": 12,
    "rank": 4
  },
  {
    "worldLevel": 6,
    "JMJLKCOCCBK": 20,
    "LFINMFDHNNL": 8,
    "IKDPCCNMAOI": 12,
    "rank": 5
  },
  {
    "worldLevel": 7,
    "JMJLKCOCCBK": 20,
    "LFINMFDHNNL": 12,
    "IKDPCCNMAOI": 16,
    "rank": 5
  },
  {
    "worldLevel": 8,
    "JMJLKCOCCBK": 20,
    "LFINMFDHNNL": 16,
    "IKDPCCNMAOI": 20,
    "rank": 5
  },
  {
    "worldLevel": 9,
    "JMJLKCOCCBK": 20,
    "LFINMFDHNNL": 16,
    "IKDPCCNMAOI": 20,
    "rank": 5
  }
]