[
  {
    "id": 1,
    "FGMAKIELNBC": 4294967296,
    "unlockDay": 1,
    "levelNameTextMapHash": 3237205492,
    "levelDescTextMapHash": 619918749,
    "previewPath": "ART/UI/Atlas/TutorialPic/UI_OfficialLevel_Cover_TD",
    "PMMLPEFGHGF": [
      15133101,
      15133102,
      15133103
    ],
    "AKENPOJIGOG": 1402,
    "PLFMMMICHKO": 1105987775510289041
  },
  {
    "id": 2,
    "FGMAKIELNBC": 8589934592,
    "unlockDay": 2,
    "levelNameTextMapHash": 2591162212,
    "levelDescTextMapHash": 1215307981,
    "previewPath": "ART/UI/Atlas/TutorialPic/UI_OfficialLevel_Cover_Parkour",
    "PMMLPEFGHGF": [
      15133104,
      15133105,
      15133106
    ],
    "AKENPOJIGOG": 1403,
    "PLFMMMICHKO": 15914629940208480841
  },
  {
    "id": 3,
    "FGMAKIELNBC": 12884901888,
    "unlockDay": 3,
    "levelNameTextMapHash": 2336624788,
    "levelDescTextMapHash": 3960674933,
    "previewPath": "ART/UI/Atlas/TutorialPic/UI_OfficialLevel_Cover_Rouge",
    "PMMLPEFGHGF": [
      15133107,
      15133108,
      15133109
    ],
    "AKENPOJIGOG": 1404,
    "PLFMMMICHKO": 9366419715066128203
  },
  {
    "id": 4,
    "FGMAKIELNBC": 17179869184,
    "unlockDay": 4,
    "levelNameTextMapHash": 2674358020,
    "levelDescTextMapHash": 2769456933,
    "previewPath": "ART/UI/Atlas/TutorialPic/UI_OfficialLevel_Cover_Survival",
    "PMMLPEFGHGF": [
      15133110,
      15133111,
      15133112
    ],
    "AKENPOJIGOG": 1405,
    "PLFMMMICHKO": 11788520407366505714
  },
  {
    "id": 5,
    "FGMAKIELNBC": 21474836480,
    "unlockDay": 5,
    "levelNameTextMapHash": 1538537772,
    "levelDescTextMapHash": 3078069301,
    "previewPath": "ART/UI/Atlas/TutorialPic/UI_OfficialLevel_Cover_Combat",
    "PMMLPEFGHGF": [
      15133113,
      15133114,
      15133115
    ],
    "AKENPOJIGOG": 1406,
    "PLFMMMICHKO": 12042608647758739289
  }
]