[
  {
    "id": 100001,
    "gadgetId": 70291399,
    "LBOAOEFLKPK": "CATECAFE",
    "KGBGPHBDMPD": "select:1001,SmallCat:1002,BigCat:1003,SmallCatFamiliar:1009,BigCatFamiliar:1010"
  },
  {
    "id": 100002,
    "gadgetId": 70291394,
    "LBOAOEFLKPK": "CATECAFE",
    "KGBGPHBDMPD": "Decoration:1004"
  },
  {
    "id": 100003,
    "gadgetId": 70291395,
    "LBOAOEFLKPK": "CATECAFE",
    "KGBGPHBDMPD": "Decoration:1005"
  },
  {
    "id": 100004,
    "gadgetId": 70291396,
    "LBOAOEFLKPK": "CATECAFE",
    "KGBGPHBDMPD": "Decoration:1006"
  },
  {
    "id": 100005,
    "gadgetId": 70291397,
    "LBOAOEFLKPK": "CATECAFE",
    "KGBGPHBDMPD": "Decoration:1007"
  },
  {
    "id": 100006,
    "gadgetId": 70291398,
    "LBOAOEFLKPK": "CATECAFE",
    "KGBGPHBDMPD": "Decoration:1008"
  },
  {
    "id": 100007,
    "gadgetId": 77104103,
    "LBOAOEFLKPK": "CATECAFE",
    "KGBGPHBDMPD": "select:1001,SmallCat:1002,BigCat:1003,SmallCatFamiliar:1009,BigCatFamiliar:1010"
  },
  {
    "id": 100008,
    "gadgetId": 70330975,
    "LBOAOEFLKPK": "REMUS",
    "KGBGPHBDMPD": "RemusCat_Camera01:1011,RemusCat_Camera02:1012,RemusCat_Camera03:1013,RemusCat_Camera04:1014,RemusCat_Camera05:1015"
  },
  {
    "id": 100009,
    "gadgetId": 70330991,
    "LBOAOEFLKPK": "REMUS",
    "KGBGPHBDMPD": "RemusCat_Camera01:1011,RemusCat_Camera02:1012,RemusCat_Camera03:1013,RemusCat_Camera04:1014,RemusCat_Camera05:1015,RemusCat_Camera06:1016,RemusCat_Camera07:1017"
  },
  {
    "id": 100010,
    "gadgetId": 70330998,
    "LBOAOEFLKPK": "REMUS",
    "KGBGPHBDMPD": "RemusCat_Camera08:1018"
  },
  {
    "id": 100011,
    "gadgetId": 70291201,
    "LBOAOEFLKPK": "CATECAFE",
    "KGBGPHBDMPD": "DecorationOne:1019,DecorationTwo:1020"
  },
  {
    "id": 100012,
    "gadgetId": 77104108,
    "LBOAOEFLKPK": "CATECAFE",
    "KGBGPHBDMPD": "select:1001,SmallCat:1002,BigCat:1003,SmallCatFamiliar:1009,BigCatFamiliar:1010"
  }
]