[
  {
    "id": 11428,
    "JILBAGJGMEP": true,
    "JNEDPHMCCGL": "UI_EquipIcon_Sword_Purewill_Awaken",
    "JGLEFMNOAMO": "ART/Equip/AvatarEquip/Equip_Sword_Purewill/Equip_Sword_Purewill_OverrideTexture/Equip_Sword_Purewill_02_Tex_Diffuse",
    "FBFCGFNCKKN": "ART/Equip/AvatarEquip/Equip_Sword_Purewill/Equip_Sword_Purewill_OverrideTexture/Equip_Sword_Purewill_01_Tex_Lightmap",
    "IOEIFLIFOIA": "UI_EquipIcon_Sword_Purewill_Awaken",
    "HICABNIIBFK": "ART/Equip/AvatarEquip/Equip_Sword_Purewill/Equip_Sword_Purewill_OverrideTexture/Equip_Sword_Purewill_02_Tex_Diffuse",
    "HPOKIHOMKEF": "ART/Equip/AvatarEquip/Equip_Sword_Purewill/Equip_Sword_Purewill_OverrideTexture/Equip_Sword_Purewill_01_Tex_Lightmap"
  }
]