[
  {
    "id": 1,
    "CAFIKKLJONJ": true,
    "OJNKLADKLHM": true,
    "KMOOACOKHGI": []
  },
  {
    "id": 2,
    "CAFIKKLJONJ": true,
    "OJNKLADKLHM": true,
    "DKPHFFNHCHP": true,
    "IHMPOPPNICJ": true,
    "EDAKMKOLOGF": true,
    "FADOBKEFGJC": true,
    "OFNEOCCGGNA": true,
    "FAAIAMCNBAK": true,
    "KMOOACOKHGI": []
  },
  {
    "id": 3,
    "CAFIKKLJONJ": true,
    "KMOOACOKHGI": []
  },
  {
    "id": 4,
    "CAFIKKLJONJ": true,
    "HDBKECGEFKF": true,
    "KMOOACOKHGI": []
  },
  {
    "id": 5,
    "CAFIKKLJONJ": true,
    "OJNKLADKLHM": true,
    "DKPHFFNHCHP": true,
    "IHMPOPPNICJ": true,
    "EDAKMKOLOGF": true,
    "FADOBKEFGJC": true,
    "HDBKECGEFKF": true,
    "FAAIAMCNBAK": true,
    "KMOOACOKHGI": []
  },
  {
    "id": 6,
    "CAFIKKLJONJ": true,
    "LLLAGMICFAF": true,
    "LBIOEEHNJKM": true,
    "KMOOACOKHGI": []
  },
  {
    "id": 7,
    "EDAKMKOLOGF": true,
    "KMOOACOKHGI": []
  },
  {
    "id": 8,
    "CAFIKKLJONJ": true,
    "KMOOACOKHGI": [
      1,
      2,
      3
    ]
  },
  {
    "id": 9,
    "CAFIKKLJONJ": true,
    "KMOOACOKHGI": [
      1,
      2
    ]
  },
  {
    "id": 10,
    "CAFIKKLJONJ": true,
    "HDBKECGEFKF": true,
    "KMOOACOKHGI": [
      0,
      3
    ]
  },
  {
    "id": 11,
    "CAFIKKLJONJ": true,
    "OJNKLADKLHM": true,
    "DKPHFFNHCHP": true,
    "IHMPOPPNICJ": true,
    "EDAKMKOLOGF": true,
    "FADOBKEFGJC": true,
    "HDBKECGEFKF": true,
    "LLLAGMICFAF": true,
    "LBIOEEHNJKM": true,
    "OFNEOCCGGNA": true,
    "IPNFAAGILMN": true,
    "FAAIAMCNBAK": true,
    "KMOOACOKHGI": [
      0,
      1,
      2,
      3,
      4
    ]
  },
  {
    "id": 12,
    "CAFIKKLJONJ": true,
    "OJNKLADKLHM": true,
    "DKPHFFNHCHP": true,
    "IHMPOPPNICJ": true,
    "EDAKMKOLOGF": true,
    "FADOBKEFGJC": true,
    "HDBKECGEFKF": true,
    "LLLAGMICFAF": true,
    "LBIOEEHNJKM": true,
    "OFNEOCCGGNA": true,
    "IPNFAAGILMN": true,
    "FAAIAMCNBAK": true,
    "KMOOACOKHGI": []
  },
  {
    "id": 13,
    "CAFIKKLJONJ": true,
    "OJNKLADKLHM": true,
    "DKPHFFNHCHP": true,
    "IHMPOPPNICJ": true,
    "EDAKMKOLOGF": true,
    "FADOBKEFGJC": true,
    "HDBKECGEFKF": true,
    "KMOOACOKHGI": [
      0,
      1,
      2,
      3
    ]
  },
  {
    "id": 14,
    "CAFIKKLJONJ": true,
    "OJNKLADKLHM": true,
    "DKPHFFNHCHP": true,
    "IHMPOPPNICJ": true,
    "EDAKMKOLOGF": true,
    "FADOBKEFGJC": true,
    "LLLAGMICFAF": true,
    "LBIOEEHNJKM": true,
    "OFNEOCCGGNA": true,
    "IPNFAAGILMN": true,
    "FAAIAMCNBAK": true,
    "KMOOACOKHGI": [
      0,
      1,
      2
    ]
  },
  {
    "id": 15,
    "CAFIKKLJONJ": true,
    "OJNKLADKLHM": true,
    "FAAIAMCNBAK": true,
    "KMOOACOKHGI": []
  },
  {
    "id": 16,
    "CAFIKKLJONJ": true,
    "OJNKLADKLHM": true,
    "DKPHFFNHCHP": true,
    "IHMPOPPNICJ": true,
    "EDAKMKOLOGF": true,
    "FADOBKEFGJC": true,
    "HDBKECGEFKF": true,
    "LLLAGMICFAF": true,
    "LBIOEEHNJKM": true,
    "OFNEOCCGGNA": true,
    "IPNFAAGILMN": true,
    "FAAIAMCNBAK": true,
    "KMOOACOKHGI": [
      4
    ]
  }
]