[
  {
    "id": 1,
    "hintDistance": 10,
    "uiPath": "ART/UI/Menus/Page/GhostMirrorPage",
    "tipsTextMapHash": 1411380626,
    "scanTipsTextMapHash": 353941200,
    "scanSuccessDescTextMapHash": 3917120780
  }
]