[
  {
    "stageId": 1,
    "dayIndex": 1,
    "dungeonId": 8200,
    "galleryId": 27004,
    "watcherList": [
      1509531,
      1509517,
      1509518
    ],
    "descTextMapHash": 3268815191,
    "picPathHash": 3893511833429218927,
    "titleTextMapHash": 3878583324
  },
  {
    "stageId": 2,
    "dayIndex": 2,
    "dungeonId": 8201,
    "galleryId": 27005,
    "watcherList": [
      1509532,
      1509520,
      1509521
    ],
    "descTextMapHash": 3662633487,
    "picPathHash": 4334090279966127377,
    "titleTextMapHash": 1161390836
  },
  {
    "stageId": 3,
    "dayIndex": 3,
    "dungeonId": 8202,
    "galleryId": 27006,
    "watcherList": [
      1509533,
      1509523,
      1509524
    ],
    "descTextMapHash": 3927342631,
    "picPathHash": 9626879460373103978,
    "titleTextMapHash": 3322792596
  },
  {
    "stageId": 4,
    "dayIndex": 4,
    "dungeonId": 8203,
    "galleryId": 27007,
    "watcherList": [
      1509534,
      1509526,
      1509527
    ],
    "descTextMapHash": 3900623527,
    "picPathHash": 3410906135759301452,
    "titleTextMapHash": 653244476
  },
  {
    "stageId": 5,
    "dayIndex": 5,
    "dungeonId": 8204,
    "galleryId": 27008,
    "watcherList": [
      1509535,
      1509529,
      1509530
    ],
    "descTextMapHash": 482266471,
    "picPathHash": 6200616544844991047,
    "titleTextMapHash": 1319433604
  }
]